M48
; DRILL file {KiCad 6.0.0} date Thu Jan 13 13:36:40 2022
; FORMAT={-:-/ absolute / inch / decimal}
; #@! TF.CreationDate,2022-01-13T13:36:40+01:00
; #@! TF.GenerationSoftware,Kicad,Pcbnew,6.0.0
; #@! TF.FileFunction,Plated,1,4,PTH
FMAT,2
INCH
; #@! TA.AperFunction,Plated,PTH,ViaDrill
T1C0.0118
; #@! TA.AperFunction,Plated,PTH,ViaDrill
T2C0.1378
%
G90
G05
T1
X3.5335Y-2.4705
X3.5335Y-2.5098
X3.5335Y-2.5492
X3.5335Y-2.5886
X3.5335Y-2.628
X3.5335Y-2.6673
X3.5335Y-2.9429
X3.5335Y-2.9823
X3.5335Y-3.0217
X3.5335Y-3.061
X3.5335Y-3.1004
X3.5335Y-3.1398
X3.5728Y-2.4705
X3.5728Y-2.5098
X3.5728Y-2.5492
X3.5728Y-2.5886
X3.5728Y-2.628
X3.5728Y-2.9823
X3.5728Y-3.0217
X3.5728Y-3.061
X3.5728Y-3.1004
X3.5728Y-3.1398
X3.6122Y-2.4705
X3.6122Y-2.5098
X3.6122Y-2.5492
X3.6122Y-2.5886
X3.6122Y-2.628
X3.6122Y-2.9823
X3.6122Y-3.0217
X3.6122Y-3.061
X3.6122Y-3.1004
X3.6122Y-3.1398
X3.6516Y-2.4705
X3.6516Y-2.5098
X3.6516Y-2.5492
X3.6516Y-2.5886
X3.6516Y-2.628
X3.6516Y-2.9823
X3.6516Y-3.0217
X3.6516Y-3.061
X3.6516Y-3.1004
X3.6516Y-3.1398
X3.6909Y-2.4705
X3.6909Y-2.5098
X3.6909Y-2.5492
X3.6909Y-2.5886
X3.6909Y-2.628
X3.6909Y-2.6673
X3.6909Y-2.9429
X3.6909Y-2.9823
X3.6909Y-3.0217
X3.6909Y-3.061
X3.6909Y-3.1004
X3.6909Y-3.1398
X3.7303Y-2.4705
X3.7303Y-2.5098
X3.7303Y-2.5492
X3.7303Y-2.5886
X3.7303Y-2.628
X3.7303Y-2.6673
X3.7303Y-2.7067
X3.7303Y-2.9035
X3.7303Y-2.9429
X3.7303Y-2.9823
X3.7303Y-3.0217
X3.7303Y-3.061
X3.7303Y-3.1004
X3.7303Y-3.1398
X3.7697Y-2.4705
X3.7697Y-2.5098
X3.7697Y-2.5492
X3.7697Y-2.5886
X3.7697Y-2.628
X3.7697Y-2.6673
X3.7697Y-2.7067
X3.7697Y-2.7461
X3.7697Y-2.7854
X3.7697Y-2.8248
X3.7697Y-2.8642
X3.7697Y-2.9035
X3.7697Y-2.9429
X3.7697Y-2.9823
X3.7697Y-3.0217
X3.7697Y-3.061
X3.7697Y-3.1004
X3.7697Y-3.1398
X3.8091Y-2.4705
X3.8091Y-2.5098
X3.8091Y-2.5492
X3.8091Y-2.5886
X3.8091Y-2.628
X3.8091Y-2.6673
X3.8091Y-2.7067
X3.8091Y-2.7461
X3.8091Y-2.7854
X3.8091Y-2.8248
X3.8091Y-2.8642
X3.8091Y-2.9035
X3.8091Y-2.9429
X3.8091Y-2.9823
X3.8091Y-3.0217
X3.8091Y-3.061
X3.8091Y-3.1004
X3.8091Y-3.1398
X3.8484Y-2.4705
X3.8484Y-2.5098
X3.8484Y-2.5492
X3.8484Y-2.5886
X3.8484Y-2.9823
X3.8484Y-3.0217
X3.8484Y-3.061
X3.8484Y-3.1004
X3.8484Y-3.1398
X3.8626Y-2.6358
X3.874Y-2.9016
X3.8878Y-2.4705
X3.8878Y-2.5098
X3.8878Y-2.5492
X3.8878Y-2.5886
X3.8878Y-3.0217
X3.8878Y-3.061
X3.8878Y-3.1004
X3.8878Y-3.1398
X3.9142Y-2.8799
X3.9272Y-2.4705
X3.9272Y-2.5098
X3.9272Y-2.5492
X3.9272Y-2.5886
X3.9272Y-3.0217
X3.9272Y-3.061
X3.9272Y-3.1004
X3.9272Y-3.1398
X3.9665Y-2.4705
X3.9665Y-2.5098
X3.9665Y-2.5492
X3.9665Y-2.5886
X3.9665Y-3.0217
X3.9665Y-3.061
X3.9665Y-3.1004
X3.9665Y-3.1398
X3.9941Y-2.7539
X3.9941Y-2.7776
X3.9941Y-2.8012
X3.9941Y-2.8248
X3.9941Y-2.8484
X3.9941Y-2.872
X4.0059Y-2.4705
X4.0059Y-2.5098
X4.0059Y-2.5492
X4.0059Y-2.5886
X4.0059Y-3.0217
X4.0059Y-3.061
X4.0059Y-3.1004
X4.0059Y-3.1398
X4.0174Y-2.7776
X4.0174Y-2.8248
X4.0177Y-2.7539
X4.0177Y-2.8012
X4.0177Y-2.8484
X4.0327Y-2.6394
X4.0413Y-2.7539
X4.0413Y-2.7776
X4.0413Y-2.8012
X4.0413Y-2.8248
X4.0413Y-2.8484
X4.0453Y-2.4705
X4.0453Y-2.5098
X4.0453Y-2.5492
X4.0453Y-2.5886
X4.0453Y-2.9843
X4.0453Y-3.0217
X4.0453Y-3.061
X4.0453Y-3.1004
X4.0453Y-3.1398
X4.0551Y-2.6646
X4.065Y-2.7539
X4.065Y-2.7776
X4.065Y-2.8012
X4.065Y-2.8248
X4.065Y-2.8484
X4.0846Y-2.4705
X4.0846Y-2.5098
X4.0846Y-2.5492
X4.0846Y-2.5886
X4.0846Y-3.0217
X4.0846Y-3.061
X4.0846Y-3.1004
X4.0846Y-3.1398
X4.0886Y-2.7539
X4.0886Y-2.7776
X4.0886Y-2.8012
X4.0886Y-2.8248
X4.0886Y-2.8484
X4.0886Y-2.9539
X4.0961Y-2.6767
X4.124Y-2.4705
X4.124Y-2.5098
X4.124Y-2.5492
X4.124Y-2.5886
X4.124Y-3.0217
X4.124Y-3.061
X4.124Y-3.1004
X4.124Y-3.1398
X4.1378Y-2.9291
X4.1614Y-2.708
X4.1634Y-2.4705
X4.1634Y-2.5098
X4.1634Y-2.5492
X4.1634Y-2.5886
X4.1634Y-3.0217
X4.1634Y-3.061
X4.1634Y-3.1004
X4.1634Y-3.1398
X4.181Y-2.6614
X4.2028Y-2.4705
X4.2028Y-2.5098
X4.2028Y-2.5492
X4.2028Y-2.5886
X4.2028Y-3.0217
X4.2028Y-3.061
X4.2028Y-3.1004
X4.2028Y-3.1398
X4.2087Y-2.9229
X4.215Y-2.8842
X4.2421Y-2.4705
X4.2421Y-2.5098
X4.2421Y-2.5492
X4.2421Y-2.5886
X4.2421Y-3.0217
X4.2421Y-3.061
X4.2421Y-3.1004
X4.2421Y-3.1398
X4.2461Y-2.9331
X4.2505Y-2.8842
X4.2717Y-2.9359
X4.2815Y-2.4705
X4.2815Y-2.5098
X4.2815Y-2.5492
X4.2815Y-2.5886
X4.2815Y-3.0217
X4.2815Y-3.061
X4.2815Y-3.1004
X4.2815Y-3.1398
X4.3189Y-2.7756
X4.3209Y-2.4705
X4.3209Y-2.5098
X4.3209Y-2.5492
X4.3209Y-2.5886
X4.3209Y-3.0217
X4.3209Y-3.061
X4.3209Y-3.1004
X4.3209Y-3.1398
X4.3445Y-2.7747
X4.3583Y-2.9216
X4.3602Y-2.4705
X4.3602Y-2.5098
X4.3602Y-2.5492
X4.3602Y-2.5886
X4.3602Y-3.0217
X4.3602Y-3.061
X4.3602Y-3.1004
X4.3602Y-3.1398
X4.3996Y-2.4705
X4.3996Y-2.5098
X4.3996Y-2.5492
X4.3996Y-2.5886
X4.3996Y-2.8366
X4.3996Y-3.0217
X4.3996Y-3.061
X4.3996Y-3.1004
X4.3996Y-3.1398
X4.4232Y-2.8366
X4.439Y-2.4705
X4.439Y-2.5098
X4.439Y-2.5492
X4.439Y-2.5886
X4.439Y-3.0217
X4.439Y-3.061
X4.439Y-3.1004
X4.439Y-3.1398
X4.4587Y-2.9216
X4.4744Y-2.748
X4.4744Y-2.7795
X4.4744Y-2.811
X4.4744Y-2.8406
X4.4744Y-2.872
X4.4783Y-2.4705
X4.4783Y-2.5098
X4.4783Y-2.5492
X4.4783Y-2.5886
X4.4783Y-3.0217
X4.4783Y-3.061
X4.4783Y-3.1004
X4.4783Y-3.1398
X4.5122Y-2.786
X4.5295Y-2.8524
X4.5502Y-2.5748
X4.5531Y-2.8524
X4.5906Y-2.8642
X4.6004Y-2.7402
X4.6122Y-2.874
X4.6191Y-2.5748
X4.624Y-2.7402
X4.6339Y-2.8642
X4.6677Y-2.659
X4.6693Y-2.5413
X4.6729Y-2.813
X4.6772Y-2.9252
X4.6772Y-2.9488
X4.6772Y-2.9724
X4.6772Y-2.9961
X4.6772Y-3.0197
X4.6772Y-3.0433
X4.6772Y-3.0669
X4.6772Y-3.0906
X4.7008Y-2.9724
X4.7008Y-2.9961
X4.7008Y-3.0197
X4.7008Y-3.0433
X4.7008Y-3.0669
X4.7008Y-3.0906
X4.7087Y-2.7165
X4.7087Y-2.75
X4.7127Y-2.7814
X4.7205Y-2.5374
X4.7264Y-2.9311
X4.7382Y-2.9469
X4.7442Y-2.7302
X4.752Y-2.9311
X4.7579Y-2.8839
X4.7591Y-2.6211
X4.7638Y-2.6614
X4.7657Y-2.8425
X4.7657Y-2.9469
X4.7697Y-2.7008
X4.7776Y-2.9311
X4.8051Y-2.8996
X4.8064Y-2.9852
X4.8209Y-3.0974
X4.8308Y-2.6492
X4.8563Y-2.9311
X4.863Y-2.7933
X4.863Y-2.8415
X4.8671Y-3.0984
X4.8878Y-2.5896
X4.8901Y-2.8704
X4.8957Y-2.7264
X4.9006Y-3.0354
X4.9014Y-2.6146
X4.9035Y-2.7667
X4.9094Y-2.8199
X4.9173Y-2.5778
X4.9179Y-2.5388
X4.9213Y-2.9094
X4.9277Y-3.0615
X4.9297Y-2.6163
X4.9321Y-3.0335
X4.9411Y-2.8732
X4.9456Y-2.5448
X4.9488Y-2.7264
X4.9557Y-2.7648
X4.9557Y-2.81
X4.9567Y-2.5709
X4.9661Y-3.0544
X4.9671Y-2.9027
X4.9768Y-2.5209
X4.9938Y-3.0459
X4.9961Y-2.8533
X4.998Y-2.7244
X5.0008Y-2.7597
X5.0039Y-2.5291
X5.0049Y-2.9
X5.0108Y-2.81
X5.014Y-3.0662
X5.0256Y-2.5098
X5.033Y-3.0391
X5.0371Y-2.7234
X5.0434Y-3.0657
X5.044Y-2.897
X5.0446Y-2.5342
X5.055Y-2.5078
X5.061Y-2.8543
X5.063Y-2.7559
X5.064Y-2.8061
X5.0745Y-3.0425
X5.0779Y-3.0136
X5.0787Y-2.5846
X5.0833Y-2.5088
X5.0866Y-2.8999
X5.094Y-2.7804
X5.0945Y-3.0787
X5.0965Y-2.8318
X5.1066Y-2.5251
X5.1189Y-2.6253
X5.1339Y-3.0689
X5.1467Y-2.6341
X5.1988Y-2.8976
X5.2018Y-2.6996
X5.2047Y-2.6417
X5.2255Y-2.775
X5.2343Y-2.4882
X5.2372Y-2.6978
X5.2411Y-2.5384
X5.2531Y-2.7688
X5.2617Y-2.8127
X5.2795Y-2.6358
X5.2815Y-2.4528
X5.2891Y-2.8211
X5.3037Y-3.1136
X5.3105Y-2.6405
X5.3131Y-2.5029
X5.3148Y-2.9323
X5.3174Y-2.8198
X5.3196Y-2.6862
X5.3274Y-3.0822
X5.3296Y-2.5262
X5.344Y-2.81
X5.3494Y-3.1171
X5.3533Y-3.0709
X5.3723Y-2.9478
X5.3775Y-2.5164
X5.3788Y-2.569
X5.3807Y-2.4452
X5.3826Y-2.8582
X5.3891Y-2.5426
X5.3924Y-3.042
X5.3963Y-2.4692
X5.4073Y-2.7691
X5.4085Y-2.6786
X5.4114Y-2.8711
X5.4114Y-3.0234
X5.4156Y-2.6211
X5.4173Y-2.8376
X5.4176Y-2.5155
X5.4187Y-2.5635
X5.4291Y-3.1682
X5.4301Y-2.4341
X5.4301Y-2.7756
X5.4301Y-3.1191
X5.4301Y-3.1427
X5.4317Y-2.9986
X5.4331Y-3.06
X5.4338Y-3.03
X5.4368Y-2.6792
X5.44Y-2.8474
X5.4403Y-2.8715
X5.4449Y-2.7572
X5.4457Y-2.507
X5.4477Y-2.6169
X5.4487Y-2.5551
X5.4569Y-3.0072
X5.4574Y-3.1413
X5.4596Y-3.1682
X5.4616Y-2.8376
X5.4619Y-2.68
X5.4665Y-2.4339
T2
X3.6132Y-2.8031
T0
M30
