G04 #@! TF.GenerationSoftware,KiCad,Pcbnew,6.0.0*
G04 #@! TF.CreationDate,2022-01-13T13:36:16+01:00*
G04 #@! TF.ProjectId,pbv3,70627633-2e6b-4696-9361-645f70636258,A*
G04 #@! TF.SameCoordinates,Original*
G04 #@! TF.FileFunction,Soldermask,Top*
G04 #@! TF.FilePolarity,Negative*
%FSLAX46Y46*%
G04 Gerber Fmt 4.6, Leading zero omitted, Abs format (unit mm)*
G04 Created by KiCad (PCBNEW 6.0.0) date 2022-01-13 13:36:16*
%MOMM*%
%LPD*%
G01*
G04 APERTURE LIST*
%ADD10R,2.200000X0.350000*%
%ADD11R,0.400000X0.600000*%
%ADD12R,1.600000X0.900000*%
%ADD13R,0.250000X0.450000*%
%ADD14R,0.127000X0.254000*%
%ADD15R,0.254000X0.127000*%
%ADD16R,5.200000X3.500000*%
%ADD17R,0.254000X0.120000*%
%ADD18R,1.600000X0.500000*%
%ADD19R,0.510000X2.600000*%
%ADD20R,2.600000X0.510000*%
%ADD21R,0.600000X0.500000*%
%ADD22R,1.250000X1.000000*%
%ADD23R,0.250000X0.700000*%
%ADD24R,0.700000X0.250000*%
%ADD25R,1.725000X1.725000*%
%ADD26R,0.500000X0.600000*%
%ADD27R,1.500000X3.500000*%
%ADD28R,1.498000X3.498000*%
%ADD29R,0.600000X0.400000*%
%ADD30R,0.500000X0.375000*%
%ADD31R,0.650000X0.300000*%
G04 APERTURE END LIST*
D10*
X140350000Y-80500000D03*
X140350000Y-80000000D03*
X140350000Y-79000000D03*
X140350000Y-79500000D03*
X140350000Y-78500000D03*
X140350000Y-66000000D03*
X140350000Y-65500000D03*
X140350000Y-62000000D03*
X140350000Y-62500000D03*
X140350000Y-63000000D03*
X140350000Y-63500000D03*
X140350000Y-64000000D03*
X140350000Y-64500000D03*
X140350000Y-65000000D03*
X140350000Y-67000000D03*
X140350000Y-66500000D03*
X140350000Y-67500000D03*
X140350000Y-68000000D03*
X140350000Y-68500000D03*
X140350000Y-69000000D03*
X140350000Y-69500000D03*
X140350000Y-70000000D03*
X140350000Y-70500000D03*
X140350000Y-71000000D03*
X140350000Y-71500000D03*
X140350000Y-72000000D03*
X140350000Y-72500000D03*
X140350000Y-73000000D03*
X140350000Y-73500000D03*
X140350000Y-74000000D03*
X140350000Y-74500000D03*
X140350000Y-75000000D03*
X140350000Y-75500000D03*
X140350000Y-76000000D03*
D11*
X103325000Y-75025000D03*
X102425000Y-75025000D03*
D12*
X120781800Y-74625200D03*
D13*
X121531800Y-75575200D03*
X121031800Y-75575200D03*
X120531800Y-75575200D03*
X120031800Y-75575200D03*
X120031800Y-73675200D03*
X120531800Y-73675200D03*
X121031800Y-73675200D03*
X121531800Y-73675200D03*
D14*
X124091078Y-74329454D03*
X124218078Y-74837454D03*
X124345078Y-75345454D03*
X124472078Y-74837454D03*
X124599078Y-75345454D03*
X124726078Y-76107454D03*
X124853078Y-75599454D03*
X124980078Y-76107454D03*
X125107078Y-75599454D03*
X125234078Y-76107454D03*
X125361078Y-74329454D03*
X125488078Y-75345454D03*
X125615078Y-74329454D03*
X125742078Y-75345454D03*
X125869078Y-74329454D03*
X125996078Y-75345454D03*
X126123078Y-74329454D03*
X126250078Y-75345454D03*
X126377078Y-74329454D03*
X126504078Y-75345454D03*
X126631078Y-74329454D03*
X126758078Y-75345454D03*
X126885078Y-74329454D03*
X127012078Y-75345454D03*
X127139078Y-74329454D03*
X127266078Y-75345454D03*
X127393078Y-74329454D03*
X127520078Y-75345454D03*
X127647078Y-74329454D03*
X127774078Y-75345454D03*
X127901078Y-74329454D03*
X128028078Y-75345454D03*
X128155078Y-74329454D03*
X128282078Y-75345454D03*
X128409078Y-74329454D03*
X128536078Y-75345454D03*
X128663078Y-74329454D03*
X128790078Y-75345454D03*
D15*
X130695078Y-72614954D03*
X130949078Y-72360954D03*
X131457078Y-72233954D03*
X131457078Y-71979954D03*
X130441078Y-71852954D03*
X131457078Y-71725954D03*
X131457078Y-71471954D03*
X130441078Y-71344954D03*
X130949078Y-71217954D03*
X130441078Y-71090954D03*
X130949078Y-70963954D03*
X130441078Y-70836954D03*
X130949078Y-70709954D03*
X130441078Y-70582954D03*
X130949078Y-70455954D03*
X130441078Y-70328954D03*
X130949078Y-70074954D03*
X130441078Y-69947954D03*
X131457078Y-69740000D03*
X130949078Y-69693954D03*
D14*
X128790078Y-67471454D03*
X128663078Y-67979454D03*
X128536078Y-66963454D03*
X128409078Y-67979454D03*
X128282078Y-66963454D03*
X128155078Y-67979454D03*
X128028078Y-66963454D03*
X127901078Y-67979454D03*
X127774078Y-66963454D03*
X127647078Y-67979454D03*
X127520078Y-66963454D03*
X127393078Y-67979454D03*
X127266078Y-66963454D03*
X127139078Y-67979454D03*
X127012078Y-66963454D03*
X126885078Y-67979454D03*
X126758078Y-66963454D03*
X126631078Y-67979454D03*
X126504078Y-66963454D03*
X126377078Y-67979454D03*
X126250078Y-66963454D03*
X126123078Y-67979454D03*
X125996078Y-66963454D03*
X125869078Y-67979454D03*
X125742078Y-67471454D03*
X125615078Y-67979454D03*
X125488078Y-67471454D03*
X125361078Y-67979454D03*
X125234078Y-67471454D03*
X125107078Y-67979454D03*
X124980078Y-66963454D03*
X124853078Y-67471454D03*
X124726078Y-67979454D03*
X124599078Y-67471454D03*
X124472078Y-66963454D03*
X124345078Y-67979454D03*
X124218078Y-67471454D03*
X124091078Y-67979454D03*
D15*
X122694078Y-69757454D03*
X122186078Y-69884454D03*
X122694078Y-70011454D03*
X122186078Y-70138454D03*
X122694078Y-70265454D03*
X122186078Y-70392454D03*
X122694078Y-70519454D03*
X122186078Y-70646454D03*
X122694078Y-70773454D03*
X122186078Y-70900454D03*
X122694078Y-71027454D03*
X122186078Y-71154454D03*
X122694078Y-71281454D03*
X122186078Y-71408454D03*
X122694078Y-71535454D03*
X122186078Y-71662454D03*
X122694078Y-71789454D03*
X122186078Y-71916454D03*
X122694078Y-72043454D03*
X122186078Y-72170454D03*
X122694078Y-72297454D03*
X122186078Y-72424454D03*
X122694078Y-72551454D03*
D16*
X126504078Y-71154454D03*
D17*
X131457078Y-70220000D03*
D18*
X107488000Y-72783954D03*
X107488000Y-71683954D03*
D19*
X115504300Y-75742800D03*
X117134300Y-75742800D03*
D20*
X116522500Y-66037800D03*
X116522500Y-67667800D03*
D21*
X99178200Y-68694300D03*
X98078200Y-68694300D03*
D22*
X117157500Y-70913500D03*
X117157500Y-68913500D03*
D21*
X100750000Y-67140000D03*
X99650000Y-67140000D03*
D22*
X110006778Y-67550954D03*
X110006778Y-69550954D03*
X107212778Y-69423954D03*
X107212778Y-67423954D03*
X109371778Y-72757954D03*
X109371778Y-74757954D03*
X112038778Y-74757954D03*
X112038778Y-72757954D03*
X115404900Y-73656700D03*
X115404900Y-71656700D03*
D21*
X134400000Y-72325000D03*
X135500000Y-72325000D03*
X131000000Y-67900000D03*
X132100000Y-67900000D03*
X106103978Y-75150000D03*
X107203978Y-75150000D03*
D11*
X99800000Y-74725000D03*
X98900000Y-74725000D03*
D23*
X104404778Y-68722954D03*
X103904778Y-68722954D03*
X103404778Y-68722954D03*
X102904778Y-68722954D03*
X102404778Y-68722954D03*
X101904778Y-68722954D03*
X101404778Y-68722954D03*
X100904778Y-68722954D03*
D24*
X100254778Y-69372954D03*
X100254778Y-69872954D03*
X100254778Y-70372954D03*
X100254778Y-70872954D03*
X100254778Y-71372954D03*
X100254778Y-71872954D03*
X100254778Y-72372954D03*
X100254778Y-72872954D03*
D23*
X100904778Y-73522954D03*
X101404778Y-73522954D03*
X101904778Y-73522954D03*
X102404778Y-73522954D03*
X102904778Y-73522954D03*
X103404778Y-73522954D03*
X103904778Y-73522954D03*
X104404778Y-73522954D03*
D24*
X105054778Y-72872954D03*
X105054778Y-72372954D03*
X105054778Y-71872954D03*
X105054778Y-71372954D03*
X105054778Y-70872954D03*
X105054778Y-70372954D03*
X105054778Y-69872954D03*
X105054778Y-69372954D03*
D25*
X101792278Y-71985454D03*
X103517278Y-71985454D03*
X101792278Y-70260454D03*
X103517278Y-70260454D03*
D26*
X130441078Y-74075454D03*
X130441078Y-75175454D03*
X123621800Y-76843800D03*
X123621800Y-77943800D03*
X122453400Y-76843800D03*
X122453400Y-77943800D03*
D21*
X115789800Y-70243700D03*
X114689800Y-70243700D03*
D27*
X111950000Y-69480000D03*
D28*
X98250000Y-71480000D03*
D11*
X104325000Y-75025000D03*
X105225000Y-75025000D03*
X104337700Y-67271900D03*
X105237700Y-67271900D03*
X130853600Y-76987400D03*
X129953600Y-76987400D03*
D29*
X121050000Y-65950000D03*
X121050000Y-65050000D03*
X119900000Y-66950000D03*
X119900000Y-67850000D03*
X119900000Y-65050000D03*
X119900000Y-65950000D03*
X118600000Y-65000000D03*
X118600000Y-65900000D03*
X118650000Y-67750000D03*
X118650000Y-66850000D03*
X118600000Y-69550000D03*
X118600000Y-68650000D03*
X106175000Y-74340954D03*
X106175000Y-73440954D03*
X123012200Y-75907400D03*
X123012200Y-75007400D03*
X121073900Y-77625000D03*
X121073900Y-76725000D03*
X134225000Y-76350000D03*
X134225000Y-77250000D03*
X137400000Y-68800000D03*
X137400000Y-69700000D03*
X134150000Y-66100000D03*
X134150000Y-65200000D03*
X136000000Y-77250000D03*
X136000000Y-76350000D03*
X134100000Y-63950000D03*
X134100000Y-63050000D03*
X136100000Y-65250000D03*
X136100000Y-66150000D03*
D11*
X97760000Y-67660000D03*
X98660000Y-67660000D03*
X131270000Y-66400000D03*
X132170000Y-66400000D03*
X130550000Y-65550000D03*
X129650000Y-65550000D03*
D29*
X135950000Y-62300000D03*
X135950000Y-63200000D03*
D21*
X135500000Y-73225000D03*
X134400000Y-73225000D03*
D30*
X134275000Y-75412500D03*
X134275000Y-74337500D03*
D31*
X136050000Y-74875000D03*
X134200000Y-74875000D03*
D30*
X135975000Y-74337500D03*
X135975000Y-75412500D03*
X134250000Y-69887500D03*
X134250000Y-70962500D03*
D31*
X136025000Y-70425000D03*
X134175000Y-70425000D03*
D30*
X135950000Y-70962500D03*
X135950000Y-69887500D03*
X134300000Y-68687500D03*
X134300000Y-67612500D03*
D31*
X136075000Y-68150000D03*
X134225000Y-68150000D03*
D30*
X136000000Y-67612500D03*
X136000000Y-68687500D03*
D29*
X136700000Y-73225000D03*
X136700000Y-72325000D03*
X133375000Y-72325000D03*
X133375000Y-73225000D03*
G36*
X114394849Y-68570956D02*
G01*
X114441342Y-68624612D01*
X114452724Y-68676001D01*
X114460040Y-69643047D01*
X114440554Y-69711317D01*
X114387252Y-69758214D01*
X114334044Y-69770000D01*
X114098115Y-69770000D01*
X114082876Y-69774475D01*
X114081653Y-69775886D01*
X114079989Y-69783521D01*
X114079014Y-71031883D01*
X114083477Y-71047128D01*
X114084847Y-71048317D01*
X114092570Y-71050000D01*
X114333598Y-71050000D01*
X114401719Y-71070002D01*
X114448212Y-71123658D01*
X114459597Y-71176401D01*
X114452178Y-73505355D01*
X114431959Y-73573412D01*
X114378156Y-73619734D01*
X114326179Y-73630954D01*
X113307778Y-73630954D01*
X113239657Y-73610952D01*
X113193164Y-73557296D01*
X113181778Y-73504954D01*
X113181778Y-68676954D01*
X113201780Y-68608833D01*
X113255436Y-68562340D01*
X113307778Y-68550954D01*
X114326728Y-68550954D01*
X114394849Y-68570956D01*
G37*
G36*
X129240199Y-73841456D02*
G01*
X129286692Y-73895112D01*
X129298078Y-73947454D01*
X129298078Y-76298954D01*
X129278076Y-76367075D01*
X129224420Y-76413568D01*
X129172078Y-76424954D01*
X123836078Y-76424954D01*
X123767957Y-76404952D01*
X123721464Y-76351296D01*
X123710078Y-76298954D01*
X123710078Y-73947454D01*
X123730080Y-73879333D01*
X123783736Y-73832840D01*
X123836078Y-73821454D01*
X129172078Y-73821454D01*
X129240199Y-73841456D01*
G37*
G36*
X131716699Y-69205956D02*
G01*
X131763192Y-69259612D01*
X131774578Y-69311954D01*
X131774578Y-72996954D01*
X131754576Y-73065075D01*
X131700920Y-73111568D01*
X131648578Y-73122954D01*
X129805078Y-73122954D01*
X129736957Y-73102952D01*
X129690464Y-73049296D01*
X129679078Y-72996954D01*
X129679078Y-69311954D01*
X129699080Y-69243833D01*
X129752736Y-69197340D01*
X129805078Y-69185954D01*
X131648578Y-69185954D01*
X131716699Y-69205956D01*
G37*
G36*
X123284521Y-69260402D02*
G01*
X123331014Y-69314058D01*
X123342400Y-69366400D01*
X123342400Y-72937100D01*
X123322398Y-73005221D01*
X123268742Y-73051714D01*
X123216400Y-73063100D01*
X122554000Y-73063100D01*
X122485879Y-73043098D01*
X122439386Y-72989442D01*
X122428000Y-72937100D01*
X122428000Y-69366400D01*
X122448002Y-69298279D01*
X122501658Y-69251786D01*
X122554000Y-69240400D01*
X123216400Y-69240400D01*
X123284521Y-69260402D01*
G37*
G36*
X129228783Y-66466402D02*
G01*
X129275276Y-66520058D01*
X129286660Y-66571737D01*
X129297411Y-68614791D01*
X129277768Y-68683016D01*
X129224358Y-68729791D01*
X129171413Y-68741454D01*
X123835416Y-68741454D01*
X123767295Y-68721452D01*
X123720802Y-68667796D01*
X123709418Y-68616117D01*
X123698667Y-66573063D01*
X123718310Y-66504838D01*
X123771720Y-66458063D01*
X123824665Y-66446400D01*
X129160662Y-66446400D01*
X129228783Y-66466402D01*
G37*
G36*
X114169035Y-65836685D02*
G01*
X114237137Y-65856749D01*
X114283581Y-65910447D01*
X114294920Y-65962685D01*
X114294920Y-66472679D01*
X114274918Y-66540800D01*
X114221262Y-66587293D01*
X114168799Y-66598679D01*
X97324894Y-66582471D01*
X97309649Y-66586932D01*
X97308465Y-66588296D01*
X97306778Y-66596034D01*
X97306778Y-75644839D01*
X97311253Y-75660078D01*
X97312643Y-75661283D01*
X97320326Y-75662954D01*
X114579778Y-75662954D01*
X114647899Y-75682956D01*
X114694392Y-75736612D01*
X114705778Y-75788954D01*
X114705778Y-76298954D01*
X114685776Y-76367075D01*
X114632120Y-76413568D01*
X114579778Y-76424954D01*
X96480278Y-76424954D01*
X96412157Y-76404952D01*
X96365664Y-76351296D01*
X96354278Y-76298954D01*
X96354278Y-72379069D01*
X96349803Y-72363830D01*
X96348413Y-72362625D01*
X96340730Y-72360954D01*
X95908778Y-72360954D01*
X95840657Y-72340952D01*
X95794164Y-72287296D01*
X95782778Y-72234954D01*
X95782778Y-70010454D01*
X95802780Y-69942333D01*
X95856436Y-69895840D01*
X95908778Y-69884454D01*
X96336163Y-69884454D01*
X96351402Y-69879979D01*
X96352607Y-69878589D01*
X96354278Y-69870906D01*
X96354278Y-65946569D01*
X96374280Y-65878448D01*
X96427936Y-65831955D01*
X96480393Y-65820569D01*
X114169035Y-65836685D01*
G37*
G36*
X123392121Y-68220002D02*
G01*
X123438614Y-68273658D01*
X123450000Y-68326000D01*
X123450000Y-68874000D01*
X123429998Y-68942121D01*
X123376342Y-68988614D01*
X123324000Y-69000000D01*
X122776000Y-69000000D01*
X122707879Y-68979998D01*
X122661386Y-68926342D01*
X122650000Y-68874000D01*
X122650000Y-68326000D01*
X122670002Y-68257879D01*
X122723658Y-68211386D01*
X122776000Y-68200000D01*
X123324000Y-68200000D01*
X123392121Y-68220002D01*
G37*
G36*
X132092121Y-74470002D02*
G01*
X132138614Y-74523658D01*
X132150000Y-74576000D01*
X132150000Y-75124000D01*
X132129998Y-75192121D01*
X132076342Y-75238614D01*
X132024000Y-75250000D01*
X131476000Y-75250000D01*
X131407879Y-75229998D01*
X131361386Y-75176342D01*
X131350000Y-75124000D01*
X131350000Y-74576000D01*
X131370002Y-74507879D01*
X131423658Y-74461386D01*
X131476000Y-74450000D01*
X132024000Y-74450000D01*
X132092121Y-74470002D01*
G37*
M02*
