G04 #@! TF.GenerationSoftware,KiCad,Pcbnew,6.0.0*
G04 #@! TF.CreationDate,2022-01-13T13:36:13+01:00*
G04 #@! TF.ProjectId,pbv3,70627633-2e6b-4696-9361-645f70636258,A*
G04 #@! TF.SameCoordinates,Original*
G04 #@! TF.FileFunction,Copper,L1,Top*
G04 #@! TF.FilePolarity,Positive*
%FSLAX46Y46*%
G04 Gerber Fmt 4.6, Leading zero omitted, Abs format (unit mm)*
G04 Created by KiCad (PCBNEW 6.0.0) date 2022-01-13 13:36:13*
%MOMM*%
%LPD*%
G01*
G04 APERTURE LIST*
G04 #@! TA.AperFunction,NonConductor*
%ADD10C,0.001000*%
G04 #@! TD*
G04 #@! TA.AperFunction,SMDPad,CuDef*
%ADD11R,2.200000X0.350000*%
G04 #@! TD*
G04 #@! TA.AperFunction,SMDPad,CuDef*
%ADD12R,0.400000X0.600000*%
G04 #@! TD*
G04 #@! TA.AperFunction,SMDPad,CuDef*
%ADD13R,1.600000X0.900000*%
G04 #@! TD*
G04 #@! TA.AperFunction,SMDPad,CuDef*
%ADD14R,0.250000X0.450000*%
G04 #@! TD*
G04 #@! TA.AperFunction,SMDPad,CuDef*
%ADD15R,0.127000X0.254000*%
G04 #@! TD*
G04 #@! TA.AperFunction,SMDPad,CuDef*
%ADD16R,0.254000X0.127000*%
G04 #@! TD*
G04 #@! TA.AperFunction,SMDPad,CuDef*
%ADD17R,5.200000X3.500000*%
G04 #@! TD*
G04 #@! TA.AperFunction,SMDPad,CuDef*
%ADD18R,0.254000X0.120000*%
G04 #@! TD*
G04 #@! TA.AperFunction,SMDPad,CuDef*
%ADD19R,1.600000X0.500000*%
G04 #@! TD*
G04 #@! TA.AperFunction,SMDPad,CuDef*
%ADD20R,0.510000X2.600000*%
G04 #@! TD*
G04 #@! TA.AperFunction,SMDPad,CuDef*
%ADD21R,2.600000X0.510000*%
G04 #@! TD*
G04 #@! TA.AperFunction,SMDPad,CuDef*
%ADD22R,0.600000X0.500000*%
G04 #@! TD*
G04 #@! TA.AperFunction,SMDPad,CuDef*
%ADD23R,1.250000X1.000000*%
G04 #@! TD*
G04 #@! TA.AperFunction,SMDPad,CuDef*
%ADD24R,0.250000X0.700000*%
G04 #@! TD*
G04 #@! TA.AperFunction,SMDPad,CuDef*
%ADD25R,0.700000X0.250000*%
G04 #@! TD*
G04 #@! TA.AperFunction,SMDPad,CuDef*
%ADD26R,1.725000X1.725000*%
G04 #@! TD*
G04 #@! TA.AperFunction,SMDPad,CuDef*
%ADD27R,0.500000X0.600000*%
G04 #@! TD*
G04 #@! TA.AperFunction,SMDPad,CuDef*
%ADD28R,1.500000X3.500000*%
G04 #@! TD*
G04 #@! TA.AperFunction,SMDPad,CuDef*
%ADD29R,0.600000X0.400000*%
G04 #@! TD*
G04 #@! TA.AperFunction,SMDPad,CuDef*
%ADD30R,0.500000X0.375000*%
G04 #@! TD*
G04 #@! TA.AperFunction,SMDPad,CuDef*
%ADD31R,0.650000X0.300000*%
G04 #@! TD*
G04 #@! TA.AperFunction,ViaPad*
%ADD32C,0.600000*%
G04 #@! TD*
G04 #@! TA.AperFunction,ViaPad*
%ADD33C,5.000000*%
G04 #@! TD*
G04 #@! TA.AperFunction,Conductor*
%ADD34C,0.508000*%
G04 #@! TD*
G04 #@! TA.AperFunction,Conductor*
%ADD35C,0.127000*%
G04 #@! TD*
G04 #@! TA.AperFunction,Conductor*
%ADD36C,0.254000*%
G04 #@! TD*
G04 #@! TA.AperFunction,Conductor*
%ADD37C,0.120000*%
G04 #@! TD*
G04 APERTURE END LIST*
D10*
X131950000Y-75050000D02*
X131750000Y-75050000D01*
X131750000Y-75050000D02*
X131750000Y-74850000D01*
X131750000Y-74850000D02*
X131950000Y-74850000D01*
X131950000Y-74850000D02*
X131950000Y-75050000D01*
G36*
X131950000Y-75050000D02*
G01*
X131750000Y-75050000D01*
X131750000Y-74850000D01*
X131950000Y-74850000D01*
X131950000Y-75050000D01*
G37*
X131950000Y-75050000D02*
X131750000Y-75050000D01*
X131750000Y-74850000D01*
X131950000Y-74850000D01*
X131950000Y-75050000D01*
X131750000Y-74850000D02*
X131550000Y-74850000D01*
X131550000Y-74850000D02*
X131550000Y-74650000D01*
X131550000Y-74650000D02*
X131750000Y-74650000D01*
X131750000Y-74650000D02*
X131750000Y-74850000D01*
G36*
X131750000Y-74850000D02*
G01*
X131550000Y-74850000D01*
X131550000Y-74650000D01*
X131750000Y-74650000D01*
X131750000Y-74850000D01*
G37*
X131750000Y-74850000D02*
X131550000Y-74850000D01*
X131550000Y-74650000D01*
X131750000Y-74650000D01*
X131750000Y-74850000D01*
X123225000Y-68800000D02*
X123025000Y-68800000D01*
X123025000Y-68800000D02*
X123025000Y-68600000D01*
X123025000Y-68600000D02*
X123225000Y-68600000D01*
X123225000Y-68600000D02*
X123225000Y-68800000D01*
G36*
X123225000Y-68800000D02*
G01*
X123025000Y-68800000D01*
X123025000Y-68600000D01*
X123225000Y-68600000D01*
X123225000Y-68800000D01*
G37*
X123225000Y-68800000D02*
X123025000Y-68800000D01*
X123025000Y-68600000D01*
X123225000Y-68600000D01*
X123225000Y-68800000D01*
X123025000Y-68600000D02*
X122825000Y-68600000D01*
X122825000Y-68600000D02*
X122825000Y-68400000D01*
X122825000Y-68400000D02*
X123025000Y-68400000D01*
X123025000Y-68400000D02*
X123025000Y-68600000D01*
G36*
X123025000Y-68600000D02*
G01*
X122825000Y-68600000D01*
X122825000Y-68400000D01*
X123025000Y-68400000D01*
X123025000Y-68600000D01*
G37*
X123025000Y-68600000D02*
X122825000Y-68600000D01*
X122825000Y-68400000D01*
X123025000Y-68400000D01*
X123025000Y-68600000D01*
D11*
X140350000Y-80500000D03*
X140350000Y-80000000D03*
X140350000Y-79000000D03*
X140350000Y-79500000D03*
X140350000Y-78500000D03*
X140350000Y-66000000D03*
X140350000Y-65500000D03*
X140350000Y-62000000D03*
X140350000Y-62500000D03*
X140350000Y-63000000D03*
X140350000Y-63500000D03*
X140350000Y-64000000D03*
X140350000Y-64500000D03*
X140350000Y-65000000D03*
X140350000Y-67000000D03*
X140350000Y-66500000D03*
X140350000Y-67500000D03*
X140350000Y-68000000D03*
X140350000Y-68500000D03*
X140350000Y-69000000D03*
X140350000Y-69500000D03*
X140350000Y-70000000D03*
X140350000Y-70500000D03*
X140350000Y-71000000D03*
X140350000Y-71500000D03*
X140350000Y-72000000D03*
X140350000Y-72500000D03*
X140350000Y-73000000D03*
X140350000Y-73500000D03*
X140350000Y-74000000D03*
X140350000Y-74500000D03*
X140350000Y-75000000D03*
X140350000Y-75500000D03*
X140350000Y-76000000D03*
D12*
X103325000Y-75025000D03*
X102425000Y-75025000D03*
D13*
X120781800Y-74625200D03*
D14*
X121531800Y-75575200D03*
X121031800Y-75575200D03*
X120531800Y-75575200D03*
X120031800Y-75575200D03*
X120031800Y-73675200D03*
X120531800Y-73675200D03*
X121031800Y-73675200D03*
X121531800Y-73675200D03*
D15*
X124091078Y-74329454D03*
X124218078Y-74837454D03*
X124345078Y-75345454D03*
X124472078Y-74837454D03*
X124599078Y-75345454D03*
X124726078Y-76107454D03*
X124853078Y-75599454D03*
X124980078Y-76107454D03*
X125107078Y-75599454D03*
X125234078Y-76107454D03*
X125361078Y-74329454D03*
X125488078Y-75345454D03*
X125615078Y-74329454D03*
X125742078Y-75345454D03*
X125869078Y-74329454D03*
X125996078Y-75345454D03*
X126123078Y-74329454D03*
X126250078Y-75345454D03*
X126377078Y-74329454D03*
X126504078Y-75345454D03*
X126631078Y-74329454D03*
X126758078Y-75345454D03*
X126885078Y-74329454D03*
X127012078Y-75345454D03*
X127139078Y-74329454D03*
X127266078Y-75345454D03*
X127393078Y-74329454D03*
X127520078Y-75345454D03*
X127647078Y-74329454D03*
X127774078Y-75345454D03*
X127901078Y-74329454D03*
X128028078Y-75345454D03*
X128155078Y-74329454D03*
X128282078Y-75345454D03*
X128409078Y-74329454D03*
X128536078Y-75345454D03*
X128663078Y-74329454D03*
X128790078Y-75345454D03*
D16*
X130695078Y-72614954D03*
X130949078Y-72360954D03*
X131457078Y-72233954D03*
X131457078Y-71979954D03*
X130441078Y-71852954D03*
X131457078Y-71725954D03*
X131457078Y-71471954D03*
X130441078Y-71344954D03*
X130949078Y-71217954D03*
X130441078Y-71090954D03*
X130949078Y-70963954D03*
X130441078Y-70836954D03*
X130949078Y-70709954D03*
X130441078Y-70582954D03*
X130949078Y-70455954D03*
X130441078Y-70328954D03*
X130949078Y-70074954D03*
X130441078Y-69947954D03*
X131457078Y-69740000D03*
X130949078Y-69693954D03*
D15*
X128790078Y-67471454D03*
X128663078Y-67979454D03*
X128536078Y-66963454D03*
X128409078Y-67979454D03*
X128282078Y-66963454D03*
X128155078Y-67979454D03*
X128028078Y-66963454D03*
X127901078Y-67979454D03*
X127774078Y-66963454D03*
X127647078Y-67979454D03*
X127520078Y-66963454D03*
X127393078Y-67979454D03*
X127266078Y-66963454D03*
X127139078Y-67979454D03*
X127012078Y-66963454D03*
X126885078Y-67979454D03*
X126758078Y-66963454D03*
X126631078Y-67979454D03*
X126504078Y-66963454D03*
X126377078Y-67979454D03*
X126250078Y-66963454D03*
X126123078Y-67979454D03*
X125996078Y-66963454D03*
X125869078Y-67979454D03*
X125742078Y-67471454D03*
X125615078Y-67979454D03*
X125488078Y-67471454D03*
X125361078Y-67979454D03*
X125234078Y-67471454D03*
X125107078Y-67979454D03*
X124980078Y-66963454D03*
X124853078Y-67471454D03*
X124726078Y-67979454D03*
X124599078Y-67471454D03*
X124472078Y-66963454D03*
X124345078Y-67979454D03*
X124218078Y-67471454D03*
X124091078Y-67979454D03*
D16*
X122694078Y-69757454D03*
X122186078Y-69884454D03*
X122694078Y-70011454D03*
X122186078Y-70138454D03*
X122694078Y-70265454D03*
X122186078Y-70392454D03*
X122694078Y-70519454D03*
X122186078Y-70646454D03*
X122694078Y-70773454D03*
X122186078Y-70900454D03*
X122694078Y-71027454D03*
X122186078Y-71154454D03*
X122694078Y-71281454D03*
X122186078Y-71408454D03*
X122694078Y-71535454D03*
X122186078Y-71662454D03*
X122694078Y-71789454D03*
X122186078Y-71916454D03*
X122694078Y-72043454D03*
X122186078Y-72170454D03*
X122694078Y-72297454D03*
X122186078Y-72424454D03*
X122694078Y-72551454D03*
D17*
X126504078Y-71154454D03*
D18*
X131457078Y-70220000D03*
D19*
X107488000Y-72783954D03*
X107488000Y-71683954D03*
D20*
X115504300Y-75742800D03*
X117134300Y-75742800D03*
D21*
X116522500Y-66037800D03*
X116522500Y-67667800D03*
D22*
X99178200Y-68694300D03*
X98078200Y-68694300D03*
D23*
X117157500Y-70913500D03*
X117157500Y-68913500D03*
D22*
X100750000Y-67140000D03*
X99650000Y-67140000D03*
D23*
X110006778Y-67550954D03*
X110006778Y-69550954D03*
X107212778Y-69423954D03*
X107212778Y-67423954D03*
X109371778Y-72757954D03*
X109371778Y-74757954D03*
X112038778Y-74757954D03*
X112038778Y-72757954D03*
X115404900Y-73656700D03*
X115404900Y-71656700D03*
D22*
X134400000Y-72325000D03*
X135500000Y-72325000D03*
X131000000Y-67900000D03*
X132100000Y-67900000D03*
X106103978Y-75150000D03*
X107203978Y-75150000D03*
D12*
X99800000Y-74725000D03*
X98900000Y-74725000D03*
D24*
X104404778Y-68722954D03*
X103904778Y-68722954D03*
X103404778Y-68722954D03*
X102904778Y-68722954D03*
X102404778Y-68722954D03*
X101904778Y-68722954D03*
X101404778Y-68722954D03*
X100904778Y-68722954D03*
D25*
X100254778Y-69372954D03*
X100254778Y-69872954D03*
X100254778Y-70372954D03*
X100254778Y-70872954D03*
X100254778Y-71372954D03*
X100254778Y-71872954D03*
X100254778Y-72372954D03*
X100254778Y-72872954D03*
D24*
X100904778Y-73522954D03*
X101404778Y-73522954D03*
X101904778Y-73522954D03*
X102404778Y-73522954D03*
X102904778Y-73522954D03*
X103404778Y-73522954D03*
X103904778Y-73522954D03*
X104404778Y-73522954D03*
D25*
X105054778Y-72872954D03*
X105054778Y-72372954D03*
X105054778Y-71872954D03*
X105054778Y-71372954D03*
X105054778Y-70872954D03*
X105054778Y-70372954D03*
X105054778Y-69872954D03*
X105054778Y-69372954D03*
D26*
X101792278Y-71985454D03*
X103517278Y-71985454D03*
X101792278Y-70260454D03*
X103517278Y-70260454D03*
D27*
X130441078Y-74075454D03*
X130441078Y-75175454D03*
X123621800Y-76843800D03*
X123621800Y-77943800D03*
X122453400Y-76843800D03*
X122453400Y-77943800D03*
D22*
X115789800Y-70243700D03*
X114689800Y-70243700D03*
D28*
X111950000Y-69480000D03*
X98250000Y-71480000D03*
D12*
X104325000Y-75025000D03*
X105225000Y-75025000D03*
X104337700Y-67271900D03*
X105237700Y-67271900D03*
X130853600Y-76987400D03*
X129953600Y-76987400D03*
D29*
X121050000Y-65950000D03*
X121050000Y-65050000D03*
X119900000Y-66950000D03*
X119900000Y-67850000D03*
X119900000Y-65050000D03*
X119900000Y-65950000D03*
X118600000Y-65000000D03*
X118600000Y-65900000D03*
X118650000Y-67750000D03*
X118650000Y-66850000D03*
X118600000Y-69550000D03*
X118600000Y-68650000D03*
X106175000Y-74340954D03*
X106175000Y-73440954D03*
X123012200Y-75907400D03*
X123012200Y-75007400D03*
X121073900Y-77625000D03*
X121073900Y-76725000D03*
X134225000Y-76350000D03*
X134225000Y-77250000D03*
X137400000Y-68800000D03*
X137400000Y-69700000D03*
X134150000Y-66100000D03*
X134150000Y-65200000D03*
X136000000Y-77250000D03*
X136000000Y-76350000D03*
X134100000Y-63950000D03*
X134100000Y-63050000D03*
X136100000Y-65250000D03*
X136100000Y-66150000D03*
D12*
X97760000Y-67660000D03*
X98660000Y-67660000D03*
X131270000Y-66400000D03*
X132170000Y-66400000D03*
X130550000Y-65550000D03*
X129650000Y-65550000D03*
D29*
X135950000Y-62300000D03*
X135950000Y-63200000D03*
D22*
X135500000Y-73225000D03*
X134400000Y-73225000D03*
D30*
X134275000Y-75412500D03*
X134275000Y-74337500D03*
D31*
X136050000Y-74875000D03*
X134200000Y-74875000D03*
D30*
X135975000Y-74337500D03*
X135975000Y-75412500D03*
X134250000Y-69887500D03*
X134250000Y-70962500D03*
D31*
X136025000Y-70425000D03*
X134175000Y-70425000D03*
D30*
X135950000Y-70962500D03*
X135950000Y-69887500D03*
X134300000Y-68687500D03*
X134300000Y-67612500D03*
D31*
X136075000Y-68150000D03*
X134225000Y-68150000D03*
D30*
X136000000Y-67612500D03*
X136000000Y-68687500D03*
D29*
X136700000Y-73225000D03*
X136700000Y-72325000D03*
X133375000Y-72325000D03*
X133375000Y-73225000D03*
D32*
X116600000Y-72750000D03*
X117150000Y-73000000D03*
X117700000Y-72750000D03*
X121000000Y-67600000D03*
X137900000Y-80472990D03*
X138675000Y-80472990D03*
X137925004Y-79825000D03*
X137925000Y-79225000D03*
X138000000Y-77725000D03*
X138616986Y-79789026D03*
X96750000Y-64750000D03*
X96750000Y-63750000D03*
X96750000Y-62750000D03*
X95750000Y-62750000D03*
X95750000Y-63750000D03*
X95750000Y-64750000D03*
X95750000Y-65750000D03*
X95750000Y-66750000D03*
X95750000Y-67750000D03*
X95750000Y-68750000D03*
X95750000Y-69750000D03*
X95750000Y-70750000D03*
X95750000Y-71750000D03*
X95750000Y-72750000D03*
X95750000Y-73750000D03*
X95750000Y-74750000D03*
X95750000Y-75750000D03*
X95750000Y-76750000D03*
X96750000Y-76750000D03*
X96750000Y-77750000D03*
X95750000Y-77750000D03*
X95750000Y-78750000D03*
X96750000Y-78750000D03*
X96750000Y-79750000D03*
X95750000Y-79750000D03*
X94750000Y-79750000D03*
X93750000Y-79750000D03*
X92750000Y-79750000D03*
X91750000Y-79750000D03*
X90750000Y-79750000D03*
X89750000Y-79750000D03*
X89750000Y-78750000D03*
X90750000Y-78750000D03*
X91750000Y-78750000D03*
X92750000Y-78750000D03*
X93750000Y-78750000D03*
X94750000Y-78750000D03*
X94750000Y-77750000D03*
X93750000Y-77750000D03*
X92750000Y-77750000D03*
X91750000Y-77750000D03*
X90750000Y-77750000D03*
X89750000Y-77750000D03*
X89750000Y-76750000D03*
X90750000Y-76750000D03*
X91750000Y-76750000D03*
X92750000Y-76750000D03*
X93750000Y-76750000D03*
X94750000Y-76750000D03*
X94750000Y-75750000D03*
X93750000Y-75750000D03*
X92750000Y-75750000D03*
X91750000Y-75750000D03*
X90750000Y-75750000D03*
X89750000Y-75750000D03*
X89750000Y-74750000D03*
X93750000Y-74750000D03*
X94750000Y-74750000D03*
X94750000Y-73750000D03*
X94750000Y-68750000D03*
X94750000Y-67750000D03*
X93750000Y-67750000D03*
X89750000Y-67750000D03*
X89750000Y-66750000D03*
X90750000Y-66750000D03*
X91750000Y-66750000D03*
X92750000Y-66750000D03*
X93750000Y-66750000D03*
X94750000Y-66750000D03*
X94750000Y-65750000D03*
X93750000Y-65750000D03*
X92750000Y-65750000D03*
X91750000Y-65750000D03*
X90750000Y-65750000D03*
X89750000Y-65750000D03*
X89750000Y-64750000D03*
X90750000Y-64750000D03*
X91750000Y-64750000D03*
X92750000Y-64750000D03*
X93750000Y-64750000D03*
X94750000Y-64750000D03*
X94750000Y-63750000D03*
X93750000Y-63750000D03*
X92750000Y-63750000D03*
X91750000Y-63750000D03*
X90750000Y-63750000D03*
X89750000Y-63750000D03*
X89750000Y-62750000D03*
X90750000Y-62750000D03*
X91750000Y-62750000D03*
X92750000Y-62750000D03*
X93750000Y-62750000D03*
D33*
X91775000Y-71200000D03*
D32*
X110750000Y-63750000D03*
X111750000Y-63750000D03*
X112750000Y-63750000D03*
X113750000Y-63750000D03*
X113750000Y-62750000D03*
X112750000Y-62750000D03*
X111750000Y-62750000D03*
X110750000Y-62750000D03*
X109750000Y-62750000D03*
X108750000Y-62750000D03*
X97750000Y-76750000D03*
X97750000Y-77750000D03*
X97750000Y-78750000D03*
X97750000Y-79750000D03*
X98750000Y-79750000D03*
X98750000Y-78750000D03*
X99750000Y-78750000D03*
X99750000Y-79750000D03*
X100750000Y-79750000D03*
X100750000Y-78750000D03*
X101750000Y-78750000D03*
X101750000Y-79750000D03*
X102750000Y-79750000D03*
X102750000Y-78750000D03*
X103750000Y-78750000D03*
X103750000Y-79750000D03*
X104750000Y-79750000D03*
X104750000Y-78750000D03*
X105750000Y-78750000D03*
X105750000Y-79750000D03*
X106750000Y-79750000D03*
X106750000Y-78750000D03*
X107750000Y-78750000D03*
X107750000Y-79750000D03*
X108750000Y-79750000D03*
X108750000Y-78750000D03*
X109750000Y-78750000D03*
X109750000Y-79750000D03*
X110750000Y-79750000D03*
X110750000Y-78750000D03*
X111750000Y-78750000D03*
X111750000Y-79750000D03*
X112750000Y-79750000D03*
X112750000Y-78750000D03*
X113750000Y-78750000D03*
X113750000Y-79750000D03*
X97750000Y-75750000D03*
X96750000Y-75750000D03*
X96750000Y-74750000D03*
X96750000Y-73750000D03*
X96750000Y-72750000D03*
X96750000Y-71750000D03*
X96750000Y-70750000D03*
X96750000Y-69750000D03*
X96750000Y-68750000D03*
X96750000Y-67750000D03*
X96750000Y-66750000D03*
X96750000Y-65750000D03*
X97750000Y-65750000D03*
X98750000Y-65750000D03*
X99750000Y-65750000D03*
X100750000Y-65750000D03*
X101750000Y-65750000D03*
X102750000Y-65750000D03*
X103750000Y-65750000D03*
X104750000Y-65750000D03*
X105750000Y-65750000D03*
X106750000Y-65750000D03*
X107750000Y-65750000D03*
X108750000Y-65750000D03*
X109750000Y-65750000D03*
X110750000Y-65750000D03*
X111750000Y-65750000D03*
X112750000Y-65750000D03*
X113750000Y-65750000D03*
X113750000Y-64750000D03*
X112750000Y-64750000D03*
X111750000Y-64750000D03*
X110750000Y-64750000D03*
X109750000Y-64750000D03*
X108750000Y-64750000D03*
X107750000Y-64750000D03*
X106750000Y-64750000D03*
X105750000Y-64750000D03*
X104750000Y-64750000D03*
X103750000Y-64750000D03*
X102750000Y-64750000D03*
X101750000Y-64750000D03*
X100750000Y-64750000D03*
X99750000Y-64750000D03*
X98750000Y-64750000D03*
X97750000Y-64750000D03*
X97750000Y-63750000D03*
X98750000Y-63750000D03*
X99750000Y-63750000D03*
X100750000Y-63750000D03*
X101750000Y-63750000D03*
X102750000Y-63750000D03*
X103750000Y-63750000D03*
X104750000Y-63750000D03*
X105750000Y-63750000D03*
X106750000Y-63750000D03*
X107750000Y-63750000D03*
X107750000Y-62750000D03*
X106750000Y-62750000D03*
X105750000Y-62750000D03*
X104750000Y-62750000D03*
X103750000Y-62750000D03*
X102750000Y-62750000D03*
X101750000Y-62750000D03*
X100750000Y-62750000D03*
X99750000Y-62750000D03*
X98750000Y-62750000D03*
X97750000Y-62750000D03*
X128118678Y-73584954D03*
X110350000Y-70477956D03*
X109700000Y-70500000D03*
X101450000Y-72350000D03*
X103250000Y-72350000D03*
X103850000Y-72350000D03*
X101450000Y-72950000D03*
X102050000Y-72350000D03*
X102650000Y-72350000D03*
X101450000Y-71150000D03*
X102042278Y-71750000D03*
X103250000Y-71150000D03*
X103850000Y-71150000D03*
X103250000Y-71750000D03*
X102650000Y-71750000D03*
X103850000Y-71750000D03*
X101450000Y-71750000D03*
X102050000Y-71150000D03*
X102650000Y-71150000D03*
X121050000Y-74850000D03*
X120350000Y-74850000D03*
X120050000Y-74450000D03*
X120700000Y-74450000D03*
X106196778Y-67598454D03*
X102430000Y-67040000D03*
X98110000Y-66950000D03*
X101450000Y-69950000D03*
X102050000Y-69950000D03*
X102650000Y-69950000D03*
X103250000Y-69950000D03*
X103850000Y-69950000D03*
X101450000Y-70550000D03*
X102042278Y-70550000D03*
X102650000Y-70550000D03*
X103250000Y-70550000D03*
X103850000Y-70550000D03*
X107850000Y-74500000D03*
X108500000Y-74570955D03*
X107961722Y-73259500D03*
X107061722Y-73259500D03*
X111750000Y-72050000D03*
X112350000Y-72050000D03*
X115050000Y-72450000D03*
X115650000Y-72450000D03*
X116850000Y-69600000D03*
X117450000Y-69600000D03*
X114611087Y-70764485D03*
X118600000Y-64550000D03*
X125000000Y-73900000D03*
X126164309Y-73727622D03*
X127125000Y-73660424D03*
X134100000Y-66950000D03*
X129200000Y-73658402D03*
X138321903Y-63678518D03*
X138397562Y-64899540D03*
X138850000Y-61820012D03*
X138372133Y-66469697D03*
X137634134Y-65114012D03*
X137606868Y-63892990D03*
X137557121Y-66575044D03*
X138094849Y-68050925D03*
X138732961Y-68071458D03*
X123625000Y-78700000D03*
X122450000Y-78675000D03*
X135737360Y-71372757D03*
X124208113Y-72908113D03*
X125504387Y-72979387D03*
X123519578Y-72175000D03*
X123519578Y-70950000D03*
X124350000Y-69250000D03*
X125700000Y-69250000D03*
X126950000Y-69200000D03*
X127941226Y-69175000D03*
X128600000Y-70000000D03*
X124550000Y-70275000D03*
X125875000Y-70225000D03*
X127275000Y-71375000D03*
X128625000Y-71275000D03*
X127020606Y-70095606D03*
X124700000Y-71625000D03*
X125875000Y-71375000D03*
X129388727Y-70622501D03*
X129451888Y-71926888D03*
X128550000Y-72500000D03*
X126900000Y-72475000D03*
X102750000Y-76750000D03*
X103750000Y-76750000D03*
X104750000Y-76750000D03*
X105750000Y-76750000D03*
X106750000Y-76750000D03*
X107750000Y-76750000D03*
X108750000Y-76750000D03*
X109750000Y-76750000D03*
X110750000Y-76750000D03*
X111750000Y-76750000D03*
X112750000Y-76750000D03*
X113750000Y-76750000D03*
X113750000Y-77750000D03*
X112750000Y-77750000D03*
X111750000Y-77750000D03*
X110750000Y-77750000D03*
X109750000Y-77750000D03*
X108750000Y-77750000D03*
X107750000Y-77750000D03*
X106750000Y-77750000D03*
X105750000Y-77750000D03*
X104750000Y-77750000D03*
X103750000Y-77750000D03*
X102750000Y-77750000D03*
X101750000Y-77750000D03*
X101750000Y-76750000D03*
X100750000Y-76750000D03*
X100750000Y-77750000D03*
X99750000Y-77750000D03*
X99750000Y-76750000D03*
X98750000Y-76750000D03*
X98750000Y-77750000D03*
X108750000Y-63750000D03*
X109750000Y-63750000D03*
X128999992Y-65650000D03*
X121350000Y-74450000D03*
X132200000Y-67100000D03*
X94750000Y-62750000D03*
X102750000Y-75800000D03*
X132050000Y-73600000D03*
X113650000Y-69800000D03*
X113650000Y-70600000D03*
X113650000Y-71400000D03*
X113650000Y-72150000D03*
X113650000Y-72950000D03*
X119900000Y-64450000D03*
X117325736Y-65399996D03*
X115575736Y-65400000D03*
X122050000Y-73650000D03*
X105100000Y-74400000D03*
X110700000Y-74209490D03*
X113250000Y-74209500D03*
X119703164Y-70646836D03*
X121050000Y-72200000D03*
X118690510Y-71450000D03*
X118800000Y-74300000D03*
X118800000Y-74900000D03*
X118800000Y-75500000D03*
X118800000Y-76100000D03*
X118800000Y-76700000D03*
X118800000Y-77300000D03*
X118800000Y-77900000D03*
X118800000Y-78500000D03*
X119400000Y-78500000D03*
X119400000Y-77900000D03*
X119400000Y-77300000D03*
X119400000Y-76700000D03*
X119400000Y-76100000D03*
X119400000Y-75500000D03*
X137449920Y-76795092D03*
X138300000Y-70033500D03*
X137344773Y-70334237D03*
X136967255Y-77267255D03*
X138019387Y-76961031D03*
X138605791Y-76381845D03*
X137964429Y-76164430D03*
X137925000Y-70500000D03*
X138725000Y-72075000D03*
X138175000Y-72325000D03*
X138182787Y-72937340D03*
X137600000Y-72075000D03*
X106900000Y-74240510D03*
X125214423Y-66452759D03*
X120850000Y-73250000D03*
X129400000Y-78200000D03*
X136670012Y-62108510D03*
X119600000Y-68999992D03*
X99420032Y-73150000D03*
X120503152Y-69346838D03*
X98399996Y-73700000D03*
X103850000Y-75030000D03*
X103000000Y-67680000D03*
X122702164Y-67288850D03*
X121150000Y-68600000D03*
X104041216Y-67987870D03*
X118560522Y-67539478D03*
X120881159Y-66577002D03*
X124495163Y-66410096D03*
X105700000Y-68783464D03*
X119600000Y-69850000D03*
X122083186Y-75823127D03*
X133025000Y-68525000D03*
X130018944Y-66683510D03*
X124900000Y-65475000D03*
X136457179Y-74875004D03*
X124150000Y-65775000D03*
X134997028Y-74480055D03*
X123350000Y-74450000D03*
X132125000Y-68570002D03*
X130725000Y-66905521D03*
X136882203Y-64582730D03*
X137448927Y-72925770D03*
X136588482Y-63917693D03*
X136718547Y-72597988D03*
X128979394Y-76545606D03*
X128892944Y-77280645D03*
X128102445Y-77869597D03*
X127839164Y-77193433D03*
X127355654Y-77880653D03*
X126841578Y-77366579D03*
X126138396Y-77581185D03*
X125163574Y-77761338D03*
X125275000Y-77050000D03*
X124914855Y-64484330D03*
X125900000Y-65300000D03*
X125618424Y-64637329D03*
X126410272Y-64029806D03*
X127099467Y-64238198D03*
X127650000Y-63750000D03*
X129116884Y-63724195D03*
X129706971Y-64137617D03*
X136621056Y-65253714D03*
X130400000Y-77950000D03*
X137065298Y-62717238D03*
X134150000Y-62300000D03*
X132950000Y-63200000D03*
X135314980Y-78287734D03*
X137925000Y-61825000D03*
X135975000Y-78000000D03*
X137375000Y-68036076D03*
X134713071Y-79085197D03*
X135875000Y-79175000D03*
X133125000Y-64475000D03*
X135062115Y-71622681D03*
X124475000Y-77100000D03*
X135371572Y-64166582D03*
X134342829Y-71654988D03*
X134952177Y-63572736D03*
X133647591Y-71442409D03*
X133429988Y-70327532D03*
X135116640Y-68228466D03*
X132727173Y-70483954D03*
X134886878Y-67068643D03*
X128397327Y-63698620D03*
X128133105Y-64368399D03*
D34*
X137925000Y-70500000D02*
X138425000Y-70500000D01*
X138425000Y-70500000D02*
X139425000Y-71500000D01*
X139425000Y-71500000D02*
X140350000Y-71500000D01*
X137344773Y-70334237D02*
X137759237Y-70334237D01*
X137759237Y-70334237D02*
X139425000Y-72000000D01*
X139425000Y-72000000D02*
X140350000Y-72000000D01*
D35*
X99420032Y-73150000D02*
X99788778Y-73518746D01*
X99788778Y-73518746D02*
X99788778Y-73784954D01*
X99800000Y-73796176D02*
X99800000Y-74725000D01*
X99788778Y-73784954D02*
X99800000Y-73796176D01*
X98900000Y-74725000D02*
X98900000Y-74200004D01*
X98900000Y-74200004D02*
X98399996Y-73700000D01*
D36*
X121031800Y-76631800D02*
X121075000Y-76675000D01*
X121031800Y-75575200D02*
X121031800Y-76631800D01*
D35*
X121075000Y-76675000D02*
X121600000Y-76150000D01*
X121600000Y-76150000D02*
X121756313Y-76150000D01*
X121756313Y-76150000D02*
X122083186Y-75823127D01*
D36*
X121073900Y-77625000D02*
X121425000Y-77625000D01*
X121425000Y-77625000D02*
X122206200Y-76843800D01*
X122206200Y-76843800D02*
X122453400Y-76843800D01*
X122453400Y-77943800D02*
X121997200Y-78400000D01*
X121997200Y-78400000D02*
X120675000Y-78400000D01*
X120675000Y-78400000D02*
X120450000Y-78175000D01*
X120450000Y-78175000D02*
X120450000Y-75657000D01*
X120450000Y-75657000D02*
X120531800Y-75575200D01*
D37*
X131044033Y-69979999D02*
X131754999Y-69979999D01*
D35*
X116350000Y-73027700D02*
X117273745Y-73027700D01*
X116550000Y-72650000D02*
X117000000Y-72650000D01*
X117000000Y-72650000D02*
X117150000Y-72800000D01*
X117132100Y-72865400D02*
X117634600Y-72865400D01*
X117634600Y-72865400D02*
X117800000Y-72700000D01*
X120350000Y-66950000D02*
X119900000Y-66950000D01*
X121000000Y-67600000D02*
X120350000Y-66950000D01*
D36*
X140350000Y-80500000D02*
X138702010Y-80500000D01*
X138702010Y-80500000D02*
X138675000Y-80472990D01*
X138250004Y-79500000D02*
X138225003Y-79525001D01*
X138225003Y-79525001D02*
X137925004Y-79825000D01*
X138150000Y-79000000D02*
X137925000Y-79225000D01*
X140350000Y-79000000D02*
X138150000Y-79000000D01*
X138775000Y-78500000D02*
X138299999Y-78024999D01*
X140350000Y-78500000D02*
X138775000Y-78500000D01*
X138299999Y-78024999D02*
X138000000Y-77725000D01*
X138478635Y-79746365D02*
X138250004Y-79500000D01*
X140350000Y-80000000D02*
X138675000Y-80000000D01*
D35*
X138521296Y-79789026D02*
X138616986Y-79789026D01*
D36*
X138583964Y-79789026D02*
X138616986Y-79789026D01*
D35*
X138478635Y-79746365D02*
X138521296Y-79789026D01*
D36*
X137900000Y-80472990D02*
X138583964Y-79789026D01*
D35*
X138675000Y-80472990D02*
X138675000Y-80000000D01*
X138616986Y-79941986D02*
X138616986Y-79789026D01*
X138675000Y-80000000D02*
X138616986Y-79941986D01*
D36*
X138725000Y-79500000D02*
X138478635Y-79746365D01*
X140350000Y-79500000D02*
X138725000Y-79500000D01*
D35*
X94750000Y-78750000D02*
X94750000Y-77750000D01*
X89750000Y-76750000D02*
X90750000Y-76750000D01*
X93750000Y-65750000D02*
X92750000Y-65750000D01*
X111750000Y-63750000D02*
X112750000Y-63750000D01*
X113750000Y-63750000D02*
X113750000Y-62750000D01*
X112750000Y-62750000D02*
X111750000Y-62750000D01*
X110750000Y-62750000D02*
X109750000Y-62750000D01*
X97750000Y-76750000D02*
X97750000Y-77750000D01*
X97750000Y-78750000D02*
X97750000Y-79750000D01*
X98750000Y-79750000D02*
X98750000Y-78750000D01*
X99750000Y-78750000D02*
X99750000Y-79750000D01*
X100750000Y-79750000D02*
X100750000Y-78750000D01*
X101750000Y-78750000D02*
X101750000Y-79750000D01*
X102750000Y-79750000D02*
X102750000Y-78750000D01*
X103750000Y-78750000D02*
X103750000Y-79750000D01*
X104750000Y-79750000D02*
X104750000Y-78750000D01*
X105750000Y-78750000D02*
X105750000Y-79750000D01*
X106750000Y-79750000D02*
X106750000Y-78750000D01*
X107750000Y-78750000D02*
X107750000Y-79750000D01*
X108750000Y-79750000D02*
X108750000Y-78750000D01*
X109750000Y-78750000D02*
X109750000Y-79750000D01*
X110750000Y-79750000D02*
X110750000Y-78750000D01*
X111750000Y-78750000D02*
X111750000Y-79750000D01*
X112750000Y-79750000D02*
X112750000Y-78750000D01*
X113750000Y-78750000D02*
X113750000Y-79750000D01*
X97750000Y-75750000D02*
X96750000Y-75750000D01*
X96750000Y-74750000D02*
X96750000Y-73750000D01*
X96750000Y-72750000D02*
X96750000Y-71750000D01*
X96750000Y-70750000D02*
X96750000Y-69750000D01*
X96750000Y-68750000D02*
X96750000Y-67750000D01*
X96750000Y-66750000D02*
X96750000Y-65750000D01*
X97750000Y-65750000D02*
X98750000Y-65750000D01*
X99750000Y-65750000D02*
X100750000Y-65750000D01*
X101750000Y-65750000D02*
X102750000Y-65750000D01*
X103750000Y-65750000D02*
X104750000Y-65750000D01*
X105750000Y-65750000D02*
X106750000Y-65750000D01*
X107750000Y-65750000D02*
X108750000Y-65750000D01*
X109750000Y-65750000D02*
X110750000Y-65750000D01*
X111750000Y-65750000D02*
X112750000Y-65750000D01*
X113750000Y-65750000D02*
X113750000Y-64750000D01*
X112750000Y-64750000D02*
X111750000Y-64750000D01*
X110750000Y-64750000D02*
X109750000Y-64750000D01*
X108750000Y-64750000D02*
X107750000Y-64750000D01*
X106750000Y-64750000D02*
X105750000Y-64750000D01*
X104750000Y-64750000D02*
X103750000Y-64750000D01*
X102750000Y-64750000D02*
X101750000Y-64750000D01*
X100750000Y-64750000D02*
X99750000Y-64750000D01*
X98750000Y-64750000D02*
X97750000Y-64750000D01*
X97750000Y-63750000D02*
X98750000Y-63750000D01*
X99750000Y-63750000D02*
X100750000Y-63750000D01*
X101750000Y-63750000D02*
X102750000Y-63750000D01*
X103750000Y-63750000D02*
X104750000Y-63750000D01*
X105750000Y-63750000D02*
X106750000Y-63750000D01*
X107750000Y-63750000D02*
X107750000Y-62750000D01*
X106750000Y-62750000D02*
X105750000Y-62750000D01*
X104750000Y-62750000D02*
X103750000Y-62750000D01*
X102750000Y-62750000D02*
X101750000Y-62750000D01*
X100750000Y-62750000D02*
X99750000Y-62750000D01*
X98750000Y-62750000D02*
X97750000Y-62750000D01*
X110500000Y-70400000D02*
X110427956Y-70400000D01*
X110427956Y-70400000D02*
X110350000Y-70477956D01*
X102410000Y-73528176D02*
X102404778Y-73522954D01*
X102410000Y-74050000D02*
X102410000Y-73528176D01*
X123913900Y-75590400D02*
X123913900Y-74760632D01*
X123913900Y-74760632D02*
X124091078Y-74583454D01*
X124176954Y-75853454D02*
X123913900Y-75590400D01*
X124726078Y-75853454D02*
X124176954Y-75853454D01*
X124091078Y-67979454D02*
X124091078Y-68360454D01*
X124091078Y-68360454D02*
X123837078Y-68614454D01*
X122694078Y-70011454D02*
X122694078Y-69757454D01*
X122694078Y-70265454D02*
X122694078Y-70011454D01*
X122694078Y-70773454D02*
X122694078Y-70519454D01*
X122694078Y-71027454D02*
X122694078Y-70773454D01*
X122694078Y-71281454D02*
X122694078Y-71027454D01*
X122694078Y-71535454D02*
X122694078Y-71281454D01*
X122694078Y-71789454D02*
X122694078Y-71535454D01*
X122694078Y-72043454D02*
X122694078Y-71789454D01*
X122694078Y-72297454D02*
X122694078Y-72043454D01*
X122694078Y-72551454D02*
X122694078Y-72297454D01*
X123202078Y-70773454D02*
X122694078Y-70773454D01*
X122694078Y-69757454D02*
X122694078Y-72551454D01*
D36*
X117195600Y-69748400D02*
X117195600Y-68951600D01*
X117195600Y-68951600D02*
X117157500Y-68913500D01*
D35*
X114642278Y-70291222D02*
X114689800Y-70243700D01*
X130060078Y-70138454D02*
X130060078Y-70392454D01*
X130060078Y-70392454D02*
X130060078Y-70646454D01*
X130441078Y-70328954D02*
X130123578Y-70328954D01*
X130123578Y-70328954D02*
X130060078Y-70392454D01*
X129806078Y-70900454D02*
X130123578Y-70582954D01*
X109371778Y-74757954D02*
X108117778Y-74757954D01*
X107212778Y-67423954D02*
X106371278Y-67423954D01*
X106371278Y-67423954D02*
X106196778Y-67598454D01*
X112213278Y-72424454D02*
X111768778Y-72868954D01*
X100904778Y-73522954D02*
X100904778Y-72864954D01*
X100904778Y-72864954D02*
X101154778Y-72614954D01*
X101404778Y-73522954D02*
X101404778Y-72834954D01*
X101404778Y-72834954D02*
X101624778Y-72614954D01*
X101904778Y-73522954D02*
X101904778Y-72894954D01*
X101904778Y-72894954D02*
X101624778Y-72614954D01*
X100904778Y-68722954D02*
X100254778Y-69372954D01*
X101404778Y-68722954D02*
X100904778Y-68722954D01*
X103402778Y-68169954D02*
X103402778Y-68720954D01*
X103402778Y-68720954D02*
X103404778Y-68722954D01*
X130441078Y-69947954D02*
X130250578Y-69947954D01*
X130250578Y-69947954D02*
X130060078Y-70138454D01*
X130060078Y-70646454D02*
X130060078Y-70900454D01*
X130441078Y-70582954D02*
X130123578Y-70582954D01*
X130123578Y-70582954D02*
X130060078Y-70646454D01*
X130060078Y-70900454D02*
X130060078Y-71027454D01*
X130441078Y-70836954D02*
X130123578Y-70836954D01*
X130123578Y-70836954D02*
X130060078Y-70900454D01*
X130060078Y-71027454D02*
X130060078Y-71281454D01*
X130441078Y-71090954D02*
X130123578Y-71090954D01*
X130123578Y-71090954D02*
X130060078Y-71027454D01*
X130060078Y-71281454D02*
X130060078Y-71789454D01*
X130441078Y-71344954D02*
X130123578Y-71344954D01*
X130123578Y-71344954D02*
X130060078Y-71281454D01*
X130060078Y-71789454D02*
X130060078Y-72551454D01*
X130441078Y-71852954D02*
X130123578Y-71852954D01*
X130123578Y-71852954D02*
X130060078Y-71789454D01*
X130060078Y-72551454D02*
X130060078Y-72678454D01*
X130060078Y-72678454D02*
X129806078Y-72932454D01*
X124218078Y-74837454D02*
X124218078Y-74710454D01*
X124218078Y-74710454D02*
X124091078Y-74583454D01*
X124472078Y-74837454D02*
X124472078Y-74773954D01*
X124472078Y-74773954D02*
X124662577Y-74583455D01*
X124853079Y-74583455D02*
X124980078Y-74710454D01*
X124091078Y-74329454D02*
X124091078Y-74583454D01*
X125615078Y-74075454D02*
X125361078Y-74075454D01*
X125361078Y-74075454D02*
X124980078Y-74075454D01*
X125361078Y-74329454D02*
X125361078Y-74075454D01*
X125869078Y-74075454D02*
X125615078Y-74075454D01*
X125615078Y-74329454D02*
X125615078Y-74075454D01*
X126123078Y-74075454D02*
X125869078Y-74075454D01*
X125869078Y-74329454D02*
X125869078Y-74075454D01*
X126377078Y-74075454D02*
X126123078Y-74075454D01*
X126123078Y-74329454D02*
X126123078Y-74075454D01*
X126631078Y-74075454D02*
X126377078Y-74075454D01*
X126377078Y-74329454D02*
X126377078Y-74075454D01*
X126885078Y-74075454D02*
X126631078Y-74075454D01*
X126631078Y-74329454D02*
X126631078Y-74075454D01*
X127139078Y-74075454D02*
X126885078Y-74075454D01*
X126885078Y-74329454D02*
X126885078Y-74075454D01*
X127393078Y-74075454D02*
X127139078Y-74075454D01*
X127139078Y-74329454D02*
X127139078Y-74075454D01*
X127647078Y-74075454D02*
X127393078Y-74075454D01*
X127393078Y-74329454D02*
X127393078Y-74075454D01*
X127647078Y-74329454D02*
X127647078Y-74075454D01*
X128155078Y-74075454D02*
X127901078Y-74075454D01*
X127901078Y-74329454D02*
X127901078Y-74075454D01*
X128409078Y-74075454D02*
X128155078Y-74075454D01*
X128155078Y-74329454D02*
X128155078Y-74075454D01*
X128663078Y-74075454D02*
X128409078Y-74075454D01*
X128409078Y-74329454D02*
X128409078Y-74075454D01*
X124980078Y-74075454D02*
X124980078Y-74710454D01*
X128663078Y-74329454D02*
X128663078Y-74075454D01*
X124853078Y-75853454D02*
X124726078Y-75853454D01*
X124726078Y-76107454D02*
X124726078Y-75853454D01*
X124980078Y-75853454D02*
X124853078Y-75853454D01*
X124853078Y-75599454D02*
X124853078Y-75853454D01*
X125107078Y-75853454D02*
X124980078Y-75853454D01*
X124980078Y-76107454D02*
X124980078Y-75853454D01*
X125107078Y-75599454D02*
X125107078Y-75853454D01*
X125234078Y-75980454D02*
X125107078Y-75853454D01*
X125234078Y-76107454D02*
X125234078Y-75980454D01*
X124345078Y-68360454D02*
X124091078Y-68360454D01*
X125361078Y-67979454D02*
X125361078Y-68360454D01*
X125615078Y-68360454D02*
X125361078Y-68360454D01*
X125361078Y-68360454D02*
X125107078Y-68360454D01*
X125107078Y-68360454D02*
X124726078Y-68360454D01*
X125869078Y-67979454D02*
X125869078Y-68360454D01*
X126123078Y-68360454D02*
X125869078Y-68360454D01*
X125869078Y-68360454D02*
X125615078Y-68360454D01*
X126123078Y-67979454D02*
X126123078Y-68360454D01*
X126377078Y-68360454D02*
X126123078Y-68360454D01*
X126377078Y-67979454D02*
X126377078Y-68360454D01*
X126631078Y-68360454D02*
X126377078Y-68360454D01*
X126631078Y-67979454D02*
X126631078Y-68360454D01*
X126885078Y-68360454D02*
X126631078Y-68360454D01*
X126885078Y-67979454D02*
X126885078Y-68360454D01*
X127139078Y-68360454D02*
X126885078Y-68360454D01*
X127139078Y-67979454D02*
X127139078Y-68360454D01*
X127393078Y-68360454D02*
X127139078Y-68360454D01*
X127393078Y-67979454D02*
X127393078Y-68360454D01*
X127647078Y-68360454D02*
X127393078Y-68360454D01*
X127647078Y-67979454D02*
X127647078Y-68360454D01*
X127901078Y-68360454D02*
X127647078Y-68360454D01*
X127901078Y-67979454D02*
X127901078Y-68360454D01*
X128155078Y-68360454D02*
X127901078Y-68360454D01*
X128155078Y-67979454D02*
X128155078Y-68360454D01*
X128409078Y-68360454D02*
X128155078Y-68360454D01*
X128409078Y-67979454D02*
X128409078Y-68360454D01*
X128663078Y-68360454D02*
X128409078Y-68360454D01*
X123265578Y-70773454D02*
X123519578Y-70773454D01*
X124345078Y-67979454D02*
X124345078Y-68360454D01*
X124726078Y-68360454D02*
X124345078Y-68360454D01*
X125615078Y-67979454D02*
X125615078Y-68233454D01*
X125615078Y-68233454D02*
X125615078Y-68360454D01*
X128663078Y-67979454D02*
X128663078Y-68360454D01*
X125107078Y-67979454D02*
X125107078Y-68360454D01*
X124726078Y-67979454D02*
X124726078Y-68360454D01*
X101254778Y-71872954D02*
X101254778Y-72372954D01*
X101254778Y-71372954D02*
X101254778Y-71872954D01*
X101254778Y-70872954D02*
X101254778Y-71372954D01*
X101254778Y-70372954D02*
X101254778Y-70872954D01*
X124726078Y-74456454D02*
X124853079Y-74583455D01*
X124662577Y-74583455D02*
X124853079Y-74583455D01*
X124091078Y-74583454D02*
X124853079Y-74583455D01*
X124345078Y-74456454D02*
X124726078Y-74456454D01*
X124345078Y-74329454D02*
X124345078Y-74456454D01*
D36*
X120531800Y-74875200D02*
X120781800Y-74625200D01*
X120531800Y-75575200D02*
X120531800Y-74875200D01*
X120781800Y-74625200D02*
X120405200Y-74625200D01*
X120405200Y-74625200D02*
X120400000Y-74620000D01*
X120781800Y-74625200D02*
X120015200Y-74625200D01*
X120015200Y-74625200D02*
X120010000Y-74620000D01*
X120781800Y-74625200D02*
X120355200Y-74625200D01*
X120355200Y-74625200D02*
X120000000Y-74270000D01*
X120781800Y-74625200D02*
X121489300Y-74625200D01*
X121489300Y-74625200D02*
X121494500Y-74620000D01*
X120781800Y-74625200D02*
X121164800Y-74625200D01*
X120781800Y-74625200D02*
X120781800Y-74598200D01*
X120781800Y-74598200D02*
X121120000Y-74260000D01*
X120781800Y-74625200D02*
X120781800Y-74291800D01*
X120781800Y-74625200D02*
X120695200Y-74625200D01*
X120695200Y-74625200D02*
X120370000Y-74300000D01*
X120781800Y-74625200D02*
X120334800Y-74625200D01*
X120350000Y-74930000D02*
X120380000Y-74960000D01*
X120781800Y-74625200D02*
X120781800Y-74988200D01*
X120781800Y-74988200D02*
X120780000Y-74990000D01*
X120781800Y-74625200D02*
X120865200Y-74625200D01*
X120865200Y-74625200D02*
X121190000Y-74950000D01*
D35*
X102386778Y-67567280D02*
X102800104Y-67153954D01*
X102386778Y-68704954D02*
X102386778Y-67567280D01*
X102404778Y-68722954D02*
X102386778Y-68704954D01*
X103892754Y-67153954D02*
X102800104Y-67153954D01*
X104010700Y-67271900D02*
X103892754Y-67153954D01*
X104337700Y-67271900D02*
X104010700Y-67271900D01*
X102800104Y-67153954D02*
X102543954Y-67153954D01*
X102543954Y-67153954D02*
X102430000Y-67040000D01*
X99650000Y-67140000D02*
X98300000Y-67140000D01*
X98300000Y-67140000D02*
X98110000Y-66950000D01*
X97760000Y-67300000D02*
X98110000Y-66950000D01*
X97760000Y-67660000D02*
X97760000Y-67300000D01*
X103490501Y-67792099D02*
X104010700Y-67271900D01*
X103490501Y-68082231D02*
X103490501Y-67792099D01*
X103402778Y-68169954D02*
X103490501Y-68082231D01*
X103404778Y-71872954D02*
X103517278Y-71985454D01*
X103404778Y-68722954D02*
X103404778Y-71872954D01*
X102404778Y-71372954D02*
X101792278Y-71985454D01*
X102404778Y-68722954D02*
X102404778Y-71372954D01*
X101792278Y-70260454D02*
X103517278Y-70260454D01*
X103377732Y-70400000D02*
X103517278Y-70260454D01*
X101792278Y-70400000D02*
X103377732Y-70400000D01*
X101792278Y-71985454D02*
X103517278Y-71985454D01*
X102404778Y-73999954D02*
X102404778Y-73522954D01*
X102600000Y-74603000D02*
X102404778Y-74407778D01*
X102404778Y-74407778D02*
X102404778Y-73999954D01*
X102600000Y-75030000D02*
X102600000Y-74603000D01*
X107203978Y-75002554D02*
X107203978Y-74625554D01*
X107203978Y-74625554D02*
X107724446Y-74625554D01*
X107724446Y-74625554D02*
X107850000Y-74500000D01*
X107850000Y-74500000D02*
X108429045Y-74500000D01*
X108429045Y-74500000D02*
X108500000Y-74570955D01*
X107488000Y-72932454D02*
X107061722Y-73259500D01*
X112038778Y-72757954D02*
X112038778Y-72338778D01*
X112038778Y-72338778D02*
X111750000Y-72050000D01*
X112350000Y-72446732D02*
X112038778Y-72757954D01*
X112350000Y-72050000D02*
X112350000Y-72446732D01*
X115404900Y-71656700D02*
X115404900Y-72095100D01*
X115404900Y-72095100D02*
X115050000Y-72450000D01*
X117157500Y-68913500D02*
X117157500Y-69292500D01*
X117157500Y-69292500D02*
X116850000Y-69600000D01*
X114611087Y-70764485D02*
X114642278Y-70291222D01*
X118600000Y-65000000D02*
X118600000Y-64550000D01*
X127901078Y-74075454D02*
X128118678Y-73584954D01*
X128118678Y-73584954D02*
X127647078Y-74075454D01*
X127200470Y-73584954D02*
X127125000Y-73660424D01*
X125000000Y-73900000D02*
X125991931Y-73900000D01*
X128118678Y-73584954D02*
X127200470Y-73584954D01*
X125991931Y-73900000D02*
X126164309Y-73727622D01*
X130853600Y-76075476D02*
X130853600Y-76987400D01*
X130441078Y-75175454D02*
X130441078Y-75662954D01*
X130441078Y-75662954D02*
X130853600Y-76075476D01*
D37*
X134300000Y-67612500D02*
X134300000Y-67150000D01*
X134300000Y-67150000D02*
X134100000Y-66950000D01*
D35*
X135480530Y-75295030D02*
X135480530Y-74206158D01*
X135229110Y-73954738D02*
X134720262Y-73954738D01*
X134337500Y-74337500D02*
X134275000Y-74337500D01*
X135480530Y-74206158D02*
X135229110Y-73954738D01*
X135975000Y-75412500D02*
X135598000Y-75412500D01*
X135598000Y-75412500D02*
X135480530Y-75295030D01*
X134720262Y-73954738D02*
X134337500Y-74337500D01*
X128663078Y-67979454D02*
X128663078Y-68995454D01*
X135773126Y-70962500D02*
X135950000Y-70962500D01*
X134698126Y-69887500D02*
X135773126Y-70962500D01*
X134250000Y-69887500D02*
X134698126Y-69887500D01*
X138621902Y-63978517D02*
X138321903Y-63678518D01*
X138998022Y-65500000D02*
X138697561Y-65199539D01*
X140350000Y-64000000D02*
X138643385Y-64000000D01*
X138697561Y-65199539D02*
X138397562Y-64899540D01*
X138643385Y-64000000D02*
X138621902Y-63978517D01*
X140350000Y-65500000D02*
X138998022Y-65500000D01*
X139029988Y-62000000D02*
X138850000Y-61820012D01*
X140350000Y-62000000D02*
X139029988Y-62000000D01*
X140350000Y-66000000D02*
X138132165Y-66000000D01*
X137906867Y-63592991D02*
X137606868Y-63892990D01*
X140350000Y-66500000D02*
X138402436Y-66500000D01*
X138132165Y-66000000D02*
X137857120Y-66275045D01*
X138402436Y-66500000D02*
X138372133Y-66469697D01*
X140350000Y-65000000D02*
X137748146Y-65000000D01*
X137857120Y-66275045D02*
X137557121Y-66575044D01*
X137999858Y-63500000D02*
X137906867Y-63592991D01*
X140350000Y-63500000D02*
X137999858Y-63500000D01*
X137748146Y-65000000D02*
X137634134Y-65114012D01*
X140350000Y-68000000D02*
X138145774Y-68000000D01*
X138145774Y-68000000D02*
X138094849Y-68050925D01*
X140350000Y-68000000D02*
X138804419Y-68000000D01*
X138804419Y-68000000D02*
X138732961Y-68071458D01*
X129300000Y-73758402D02*
X129200000Y-73658402D01*
X129300000Y-74950000D02*
X129300000Y-73758402D01*
X130441078Y-75175454D02*
X129525454Y-75175454D01*
X129525454Y-75175454D02*
X129300000Y-74950000D01*
D36*
X122453400Y-78671600D02*
X122450000Y-78675000D01*
X122453400Y-77943800D02*
X122453400Y-78671600D01*
X123621800Y-78696800D02*
X123625000Y-78700000D01*
X123621800Y-77943800D02*
X123621800Y-78696800D01*
D35*
X137257122Y-66875043D02*
X137557121Y-66575044D01*
X136342802Y-68687500D02*
X136891499Y-68138803D01*
X136891499Y-67240666D02*
X137257122Y-66875043D01*
X136891499Y-68138803D02*
X136891499Y-67240666D01*
X136000000Y-68687500D02*
X136342802Y-68687500D01*
X135854243Y-71372757D02*
X135737360Y-71372757D01*
X135950000Y-71277000D02*
X135854243Y-71372757D01*
X135950000Y-70962500D02*
X135950000Y-71277000D01*
X125000000Y-73900000D02*
X124208113Y-73108113D01*
X124208113Y-73108113D02*
X124208113Y-72908113D01*
X125504387Y-72979387D02*
X124323965Y-72979387D01*
X124323965Y-72979387D02*
X123519578Y-72175000D01*
X123519578Y-72175000D02*
X123519578Y-72297454D01*
X123519578Y-70773454D02*
X123519578Y-70950000D01*
X125700000Y-69250000D02*
X126900000Y-69250000D01*
X126900000Y-69250000D02*
X126950000Y-69200000D01*
X128663078Y-68995454D02*
X127941226Y-69175000D01*
X124469578Y-70000000D02*
X125125736Y-70000000D01*
X125100000Y-70000000D02*
X125125736Y-70000000D01*
X123519578Y-70950000D02*
X124469578Y-70000000D01*
X124350000Y-69250000D02*
X125100000Y-70000000D01*
X125450736Y-70225000D02*
X125875000Y-70225000D01*
X125125736Y-70000000D02*
X125350736Y-70225000D01*
X125350736Y-70225000D02*
X125450736Y-70225000D01*
X125875000Y-70225000D02*
X126450000Y-70800000D01*
X128202499Y-70622501D02*
X127449999Y-71375001D01*
X126450000Y-70825000D02*
X127650001Y-72025001D01*
X129451888Y-71926888D02*
X128878776Y-72500000D01*
X128878776Y-72500000D02*
X128550000Y-72500000D01*
X127650001Y-72025001D02*
X128075001Y-72025001D01*
X127449999Y-71375001D02*
X127449999Y-71824999D01*
X128625000Y-71275000D02*
X127550000Y-71275000D01*
X128075001Y-72025001D02*
X128250001Y-72200001D01*
X126450000Y-70666226D02*
X126450000Y-70800736D01*
X126450000Y-70800000D02*
X126450000Y-70800736D01*
X126450000Y-70800736D02*
X126450000Y-70825000D01*
X128250001Y-72200001D02*
X128550000Y-72500000D01*
X127941226Y-69175000D02*
X126450000Y-70666226D01*
X129388727Y-70622501D02*
X128202499Y-70622501D01*
X127550000Y-71275000D02*
X127449999Y-71375001D01*
X127449999Y-71824999D02*
X127650001Y-72025001D01*
X102750000Y-76750000D02*
X103750000Y-76750000D01*
X104750000Y-76750000D02*
X105750000Y-76750000D01*
X106750000Y-76750000D02*
X107750000Y-76750000D01*
X108750000Y-76750000D02*
X109750000Y-76750000D01*
X110750000Y-76750000D02*
X111750000Y-76750000D01*
X112750000Y-76750000D02*
X113750000Y-76750000D01*
X113750000Y-77750000D02*
X112750000Y-77750000D01*
X111750000Y-77750000D02*
X110750000Y-77750000D01*
X109750000Y-77750000D02*
X108750000Y-77750000D01*
X107750000Y-77750000D02*
X106750000Y-77750000D01*
X105750000Y-77750000D02*
X104750000Y-77750000D01*
X103750000Y-77750000D02*
X102750000Y-77750000D01*
X101750000Y-77750000D02*
X101750000Y-76750000D01*
X100750000Y-76750000D02*
X100750000Y-77750000D01*
X99750000Y-77750000D02*
X99750000Y-76750000D01*
X98750000Y-76750000D02*
X98750000Y-77750000D01*
X108750000Y-64750000D02*
X108750000Y-63750000D01*
X129530000Y-65650000D02*
X128999992Y-65650000D01*
X132200000Y-66675736D02*
X132200000Y-67100000D01*
X132200000Y-66620000D02*
X132200000Y-66675736D01*
X102600000Y-75030000D02*
X102600000Y-75650000D01*
X102600000Y-75650000D02*
X102750000Y-75800000D01*
X132787500Y-74337500D02*
X132349999Y-73899999D01*
X134275000Y-74337500D02*
X132787500Y-74337500D01*
X132349999Y-73899999D02*
X132050000Y-73600000D01*
X98560000Y-67830000D02*
X100432200Y-67830000D01*
X100432200Y-67830000D02*
X100511700Y-67750500D01*
X100511700Y-67750500D02*
X100511700Y-67373500D01*
X101180278Y-67280954D02*
X101904778Y-68005454D01*
X101904778Y-68005454D02*
X101904778Y-68722954D01*
X100523778Y-67280954D02*
X101180278Y-67280954D01*
X105688778Y-72233954D02*
X105415778Y-72233954D01*
X105415778Y-72233954D02*
X105054778Y-71872954D01*
X105549778Y-72372954D02*
X105688778Y-72233954D01*
X105054778Y-72372954D02*
X105549778Y-72372954D01*
X105054778Y-70872954D02*
X105054778Y-70372954D01*
X105054778Y-71372954D02*
X105054778Y-70872954D01*
X105054778Y-71872954D02*
X105054778Y-71372954D01*
X107276278Y-71683954D02*
X105243778Y-71683954D01*
X105243778Y-71683954D02*
X105054778Y-71872954D01*
X110006778Y-67550954D02*
X109881778Y-67550954D01*
X109881778Y-67550954D02*
X109389778Y-68042954D01*
X109389778Y-68042954D02*
X109143178Y-68042954D01*
X109143178Y-68042954D02*
X108143178Y-69042954D01*
X108143178Y-69042954D02*
X107720778Y-69042954D01*
X121050000Y-65050000D02*
X119900000Y-65050000D01*
X119900000Y-65050000D02*
X119900000Y-64450000D01*
X121531800Y-73650000D02*
X122050000Y-73650000D01*
X121531800Y-73675200D02*
X121531800Y-73650000D01*
X100254778Y-69872954D02*
X99777778Y-69872954D01*
X99084778Y-69179954D02*
X99084778Y-69118454D01*
X99777778Y-69872954D02*
X99084778Y-69179954D01*
X99084778Y-69118454D02*
X99084778Y-68741454D01*
X100254778Y-71872954D02*
X100254778Y-72372954D01*
X100254778Y-71372954D02*
X100254778Y-71872954D01*
X100254778Y-70872954D02*
X100254778Y-71372954D01*
X100254778Y-70372954D02*
X100254778Y-70872954D01*
X99338778Y-70965954D02*
X99436778Y-70965954D01*
X99436778Y-70965954D02*
X100029778Y-70372954D01*
X100029778Y-70372954D02*
X100254778Y-70372954D01*
X98304778Y-71122954D02*
X99181778Y-71122954D01*
X99181778Y-71122954D02*
X99338778Y-70965954D01*
X97984778Y-68741454D02*
X97984778Y-70802954D01*
X97984778Y-70802954D02*
X98304778Y-71122954D01*
X98604778Y-70822954D02*
X98304778Y-71122954D01*
X98554778Y-70872954D02*
X98304778Y-71122954D01*
X112004778Y-70235954D02*
X111149778Y-71090954D01*
X112004778Y-70122954D02*
X112004778Y-70235954D01*
X109879778Y-71090954D02*
X109371778Y-71598954D01*
X109371778Y-71598954D02*
X109371778Y-72757954D01*
X111149778Y-71090954D02*
X109879778Y-71090954D01*
X114807378Y-74837454D02*
X114944878Y-74837454D01*
X114944878Y-74837454D02*
X115452878Y-75345454D01*
X122186078Y-71154454D02*
X120920529Y-71154454D01*
X105040000Y-75030000D02*
X105040000Y-74460000D01*
X105040000Y-74460000D02*
X105100000Y-74400000D01*
X104404778Y-73999954D02*
X104404778Y-73522954D01*
X104404778Y-74129042D02*
X104404778Y-73999954D01*
X104675736Y-74400000D02*
X104404778Y-74129042D01*
X105100000Y-74400000D02*
X104675736Y-74400000D01*
X120920529Y-71154454D02*
X120210782Y-71154454D01*
X120210782Y-71154454D02*
X119703164Y-70646836D01*
X122186078Y-72170454D02*
X122186078Y-72351900D01*
X122186078Y-72351900D02*
X122186078Y-72424454D01*
X122173378Y-72364600D02*
X122186078Y-72351900D01*
D34*
X117134300Y-74697800D02*
X117134300Y-75742800D01*
X116106401Y-73669901D02*
X117134300Y-74697800D01*
X115418101Y-73669901D02*
X116106401Y-73669901D01*
X115404900Y-73656700D02*
X115418101Y-73669901D01*
D35*
X122186078Y-72170454D02*
X121079546Y-72170454D01*
X121079546Y-72170454D02*
X121050000Y-72200000D01*
X118732056Y-71408454D02*
X118690510Y-71450000D01*
X118690510Y-71874264D02*
X118690510Y-71450000D01*
X118600000Y-71359490D02*
X118690510Y-71450000D01*
X117134300Y-75742800D02*
X117134300Y-74315800D01*
X122186078Y-71408454D02*
X118732056Y-71408454D01*
X118600000Y-69550000D02*
X118600000Y-71359490D01*
X117134300Y-74315800D02*
X118690510Y-72759590D01*
X118690510Y-72759590D02*
X118690510Y-71874264D01*
X118800000Y-74459100D02*
X118800000Y-74300000D01*
X117134300Y-75742800D02*
X117516300Y-75742800D01*
X117516300Y-75742800D02*
X118800000Y-74459100D01*
X118800000Y-74900000D02*
X118800000Y-75500000D01*
X118800000Y-76100000D02*
X118800000Y-76700000D01*
X118800000Y-77300000D02*
X118800000Y-77900000D01*
X118800000Y-78500000D02*
X119400000Y-78500000D01*
X119400000Y-77900000D02*
X119400000Y-77300000D01*
X119400000Y-76700000D02*
X119400000Y-76100000D01*
D34*
X137874184Y-76795092D02*
X137449920Y-76795092D01*
X139425000Y-75500000D02*
X138129908Y-76795092D01*
X138129908Y-76795092D02*
X137874184Y-76795092D01*
X140350000Y-75500000D02*
X139425000Y-75500000D01*
X140350000Y-71000000D02*
X139266500Y-71000000D01*
X139266500Y-71000000D02*
X138300000Y-70033500D01*
X138742000Y-76000000D02*
X138019387Y-76722613D01*
X138019387Y-76722613D02*
X138019387Y-76961031D01*
X140350000Y-76000000D02*
X138742000Y-76000000D01*
X139425000Y-75000000D02*
X138605791Y-75819209D01*
X138605791Y-75819209D02*
X138605791Y-75957581D01*
X140350000Y-75000000D02*
X139425000Y-75000000D01*
X138605791Y-75957581D02*
X138605791Y-76381845D01*
X140350000Y-74500000D02*
X139425000Y-74500000D01*
X139425000Y-74500000D02*
X137964429Y-75960571D01*
X137964429Y-75960571D02*
X137964429Y-76164430D01*
X138725000Y-72300000D02*
X138725000Y-72075000D01*
X139425000Y-73000000D02*
X138725000Y-72300000D01*
X140350000Y-73000000D02*
X139425000Y-73000000D01*
X140350000Y-73500000D02*
X139425000Y-73500000D01*
X138250000Y-72325000D02*
X138175000Y-72325000D01*
X139425000Y-73500000D02*
X138250000Y-72325000D01*
X140350000Y-74000000D02*
X139425000Y-74000000D01*
X138362340Y-72937340D02*
X138182787Y-72937340D01*
X139425000Y-74000000D02*
X138362340Y-72937340D01*
X138025000Y-72500000D02*
X137899999Y-72374999D01*
X137899999Y-72374999D02*
X137600000Y-72075000D01*
X140350000Y-72500000D02*
X138025000Y-72500000D01*
D35*
X131000000Y-67900000D02*
X131000000Y-68277000D01*
X131000000Y-68277000D02*
X130949078Y-68327922D01*
X130949078Y-68327922D02*
X130949078Y-69249454D01*
X130949078Y-69693954D02*
X130949078Y-69249454D01*
X106069778Y-74340954D02*
X106799556Y-74340954D01*
X106799556Y-74340954D02*
X106900000Y-74240510D01*
D37*
X106103978Y-74375154D02*
X106069778Y-74340954D01*
X106103978Y-75002554D02*
X106103978Y-74375154D01*
D35*
X125488078Y-66726414D02*
X125214423Y-66452759D01*
X125488078Y-67471454D02*
X125488078Y-66726414D01*
X121031800Y-73675200D02*
X120531800Y-73675200D01*
X120531800Y-73675200D02*
X120531800Y-73323200D01*
X120531800Y-73323200D02*
X120776800Y-73323200D01*
X120776800Y-73323200D02*
X120850000Y-73250000D01*
X129953600Y-76560400D02*
X129953600Y-76987400D01*
X129452699Y-76059499D02*
X129953600Y-76560400D01*
X128996123Y-76059499D02*
X129452699Y-76059499D01*
X128536078Y-75599454D02*
X128996123Y-76059499D01*
X128536078Y-75345454D02*
X128536078Y-75599454D01*
X129953600Y-77646400D02*
X129953600Y-76987400D01*
X129400000Y-78200000D02*
X129953600Y-77646400D01*
X131457078Y-68492922D02*
X132050000Y-67900000D01*
X132050000Y-67900000D02*
X132100000Y-67900000D01*
D37*
X131457078Y-68492922D02*
X131457078Y-69667922D01*
X131457078Y-69667922D02*
X131457078Y-69739989D01*
D35*
X122186078Y-70646454D02*
X121076826Y-70646454D01*
X120012651Y-69582279D02*
X120012651Y-69412643D01*
X119899999Y-69299991D02*
X119600000Y-68999992D01*
X120012651Y-69412643D02*
X119899999Y-69299991D01*
X121076826Y-70646454D02*
X120012651Y-69582279D01*
X121548768Y-70392454D02*
X120803151Y-69646837D01*
X120803151Y-69646837D02*
X120503152Y-69346838D01*
X122186078Y-70392454D02*
X121548768Y-70392454D01*
X103850000Y-75030000D02*
X103500000Y-75030000D01*
X104140000Y-75030000D02*
X103850000Y-75030000D01*
X102904778Y-68722954D02*
X102904778Y-67775222D01*
X102904778Y-67775222D02*
X103000000Y-67680000D01*
X104404778Y-68497954D02*
X104404778Y-68722954D01*
X105059778Y-67153954D02*
X105059778Y-67842954D01*
X105059778Y-67842954D02*
X104404778Y-68497954D01*
X121050000Y-65950000D02*
X121150000Y-65950000D01*
X121150000Y-65950000D02*
X122488850Y-67288850D01*
X122488850Y-67288850D02*
X122702164Y-67288850D01*
X121150000Y-69356376D02*
X121150000Y-69024264D01*
X122186078Y-70138454D02*
X121932078Y-70138454D01*
X121150000Y-69024264D02*
X121150000Y-68600000D01*
X121932078Y-70138454D02*
X121150000Y-69356376D01*
X120150000Y-68100000D02*
X119900000Y-67850000D01*
X121500000Y-68100000D02*
X120150000Y-68100000D01*
X122186078Y-69884454D02*
X122186078Y-68786078D01*
X122186078Y-68786078D02*
X121500000Y-68100000D01*
X119850000Y-65900000D02*
X119900000Y-65950000D01*
X118600000Y-65900000D02*
X119850000Y-65900000D01*
X120000000Y-65950000D02*
X119900000Y-65950000D01*
X120450000Y-65500000D02*
X120000000Y-65950000D01*
X121738624Y-65500000D02*
X120450000Y-65500000D01*
X124218078Y-67471454D02*
X123710078Y-67471454D01*
X123710078Y-67471454D02*
X121738624Y-65500000D01*
X103904778Y-68722954D02*
X103904778Y-67995222D01*
X103904778Y-67995222D02*
X103930000Y-67970000D01*
X103904778Y-68722954D02*
X103904778Y-68124308D01*
X103904778Y-68124308D02*
X104041216Y-67987870D01*
X118600000Y-67800000D02*
X118650000Y-67750000D01*
X118600000Y-68650000D02*
X118600000Y-67800000D01*
X118650000Y-67750000D02*
X118650000Y-67628956D01*
X118650000Y-67628956D02*
X118560522Y-67539478D01*
X120863656Y-66559499D02*
X120881159Y-66577002D01*
X120827157Y-66523000D02*
X120863656Y-66559499D01*
X119077000Y-66523000D02*
X120827157Y-66523000D01*
X118650000Y-66850000D02*
X118750000Y-66850000D01*
X118750000Y-66850000D02*
X119077000Y-66523000D01*
X124980078Y-66963454D02*
X124795162Y-66778538D01*
X124795162Y-66710095D02*
X124495163Y-66410096D01*
X124795162Y-66778538D02*
X124795162Y-66710095D01*
X106069778Y-73249954D02*
X105692778Y-72872954D01*
X105692778Y-72872954D02*
X105054778Y-72872954D01*
X105054778Y-69372954D02*
X105207046Y-69372954D01*
X105207046Y-69372954D02*
X105550000Y-69030000D01*
X105279778Y-69372954D02*
X105054778Y-69372954D01*
X105550000Y-69030000D02*
X105550000Y-68933464D01*
X105550000Y-68933464D02*
X105700000Y-68783464D01*
X119899999Y-70149999D02*
X119600000Y-69850000D01*
X122186078Y-70900454D02*
X120650454Y-70900454D01*
X120650454Y-70900454D02*
X119899999Y-70149999D01*
D37*
X131930000Y-70220000D02*
X133025000Y-69125000D01*
X133025000Y-69125000D02*
X133025000Y-68525000D01*
X131457078Y-70220000D02*
X131865576Y-70220000D01*
X131865576Y-70220000D02*
X131930000Y-70220000D01*
D35*
X130318943Y-66383511D02*
X130018944Y-66683510D01*
X130550000Y-66152454D02*
X130318943Y-66383511D01*
X130550000Y-65550000D02*
X130550000Y-66152454D01*
X125742078Y-65892814D02*
X125324264Y-65475000D01*
X125324264Y-65475000D02*
X124900000Y-65475000D01*
X125742078Y-67471454D02*
X125742078Y-65892814D01*
X136457175Y-74875000D02*
X136457179Y-74875004D01*
X136050000Y-74875000D02*
X136457175Y-74875000D01*
X124281578Y-66963454D02*
X123850000Y-66531876D01*
X124472078Y-66963454D02*
X124281578Y-66963454D01*
X124150000Y-66054674D02*
X124150000Y-65775000D01*
X123850000Y-66531876D02*
X123850000Y-66354674D01*
X123850000Y-66354674D02*
X124150000Y-66054674D01*
X134200000Y-74875000D02*
X134652000Y-74875000D01*
X134652000Y-74875000D02*
X134997028Y-74529972D01*
X134997028Y-74529972D02*
X134997028Y-74480055D01*
X130695078Y-73249954D02*
X130441078Y-73503954D01*
X130441078Y-73503954D02*
X130441078Y-74075454D01*
X130695078Y-72614954D02*
X130695078Y-73249954D01*
X133475000Y-73225000D02*
X133798000Y-72902000D01*
X133375000Y-73225000D02*
X133475000Y-73225000D01*
X133798000Y-72902000D02*
X134027000Y-72902000D01*
X134350000Y-73225000D02*
X134400000Y-73225000D01*
X134027000Y-72902000D02*
X134350000Y-73225000D01*
X131520578Y-72233954D02*
X131457078Y-72233954D01*
X131711078Y-72424454D02*
X131520578Y-72233954D01*
X133375000Y-73225000D02*
X132590584Y-73225000D01*
X131790038Y-72424454D02*
X131711078Y-72424454D01*
X132590584Y-73225000D02*
X131790038Y-72424454D01*
X134350000Y-72325000D02*
X134400000Y-72325000D01*
X134027000Y-72648000D02*
X134350000Y-72325000D01*
X133475000Y-72325000D02*
X133798000Y-72648000D01*
X133798000Y-72648000D02*
X134027000Y-72648000D01*
X133375000Y-72325000D02*
X133475000Y-72325000D01*
X132056124Y-72325000D02*
X133375000Y-72325000D01*
X131457078Y-71979954D02*
X131711078Y-71979954D01*
X131711078Y-71979954D02*
X132056124Y-72325000D01*
D36*
X123621800Y-76521800D02*
X123621800Y-76843800D01*
X123012200Y-75912200D02*
X123621800Y-76521800D01*
D35*
X123266200Y-74510900D02*
X123047895Y-74510900D01*
X123047895Y-74510900D02*
X123012200Y-74546595D01*
X122186078Y-71662454D02*
X122186078Y-71793100D01*
X122186078Y-71793100D02*
X122186078Y-71916454D01*
D36*
X123012200Y-75197400D02*
X123012200Y-74546595D01*
X122985798Y-75170998D02*
X123012200Y-75197400D01*
X121930757Y-72741955D02*
X122936632Y-73747830D01*
X122936632Y-73747830D02*
X122936632Y-74471027D01*
X122936632Y-74471027D02*
X123012200Y-74546595D01*
X122127676Y-75197400D02*
X123012200Y-75197400D01*
X121531800Y-75493276D02*
X121827676Y-75197400D01*
X121531800Y-75575200D02*
X121531800Y-75493276D01*
X121930757Y-72741955D02*
X121327967Y-72741955D01*
X122186078Y-71793100D02*
X121463022Y-71793100D01*
D35*
X121332386Y-71662464D02*
X120787536Y-71662464D01*
X121463022Y-71793100D02*
X121332386Y-71662464D01*
X120787536Y-71662464D02*
X120737536Y-71662464D01*
X120787536Y-71662464D02*
X120637536Y-71662464D01*
D36*
X120495999Y-72545999D02*
X120645999Y-72695999D01*
X120495999Y-71804001D02*
X120495999Y-72545999D01*
X120550000Y-71750000D02*
X120495999Y-71804001D01*
D35*
X120637536Y-71662464D02*
X120550000Y-71750000D01*
X120550000Y-71750000D02*
X120450000Y-71850000D01*
X120645999Y-72695999D02*
X120691955Y-72741955D01*
X120691955Y-72741955D02*
X120550000Y-72600000D01*
X121327967Y-72741955D02*
X120691955Y-72741955D01*
D36*
X121827676Y-75197400D02*
X122127676Y-75197400D01*
X123266200Y-74510900D02*
X123289100Y-74510900D01*
X123289100Y-74510900D02*
X123350000Y-74450000D01*
D37*
X130949078Y-70074954D02*
X131044033Y-69979999D01*
X131754999Y-69979999D02*
X132034998Y-69700000D01*
X132034998Y-69700000D02*
X132034998Y-68660004D01*
X132034998Y-68660004D02*
X132125000Y-68570002D01*
D35*
X131270000Y-66400000D02*
X131270000Y-66500000D01*
X131270000Y-66500000D02*
X130864479Y-66905521D01*
X130864479Y-66905521D02*
X130725000Y-66905521D01*
X116362700Y-70243700D02*
X116216800Y-70243700D01*
X116216800Y-70243700D02*
X115789800Y-70243700D01*
X115789800Y-68046600D02*
X115789800Y-70243700D01*
X116168600Y-67667800D02*
X115789800Y-68046600D01*
X116522500Y-67667800D02*
X116168600Y-67667800D01*
X135550000Y-73225000D02*
X135873000Y-72902000D01*
X135500000Y-73225000D02*
X135550000Y-73225000D01*
X135873000Y-72902000D02*
X135926999Y-72902000D01*
X135926999Y-72902000D02*
X136249999Y-73225000D01*
X136249999Y-73225000D02*
X136700000Y-73225000D01*
X137149697Y-73225000D02*
X137448927Y-72925770D01*
X136700000Y-73225000D02*
X137149697Y-73225000D01*
X135873000Y-72648000D02*
X135926999Y-72648000D01*
X135550000Y-72325000D02*
X135873000Y-72648000D01*
X136249999Y-72325000D02*
X136700000Y-72325000D01*
X135926999Y-72648000D02*
X136249999Y-72325000D01*
X135500000Y-72325000D02*
X135550000Y-72325000D01*
X136718547Y-72343547D02*
X136718547Y-72597988D01*
X136700000Y-72325000D02*
X136718547Y-72343547D01*
X128282078Y-75848290D02*
X128679395Y-76245607D01*
X128282078Y-75345454D02*
X128282078Y-75848290D01*
X128679395Y-76245607D02*
X128979394Y-76545606D01*
X128892944Y-77165320D02*
X128892944Y-77280645D01*
X128028078Y-75345454D02*
X128028078Y-76300454D01*
X128028078Y-76300454D02*
X128892944Y-77165320D01*
X128326242Y-77645800D02*
X128102445Y-77869597D01*
X128326242Y-76957842D02*
X128326242Y-77645800D01*
X127774078Y-75345454D02*
X127774078Y-76405678D01*
X127774078Y-76405678D02*
X128326242Y-76957842D01*
X127520078Y-76874347D02*
X127539165Y-76893434D01*
X127539165Y-76893434D02*
X127839164Y-77193433D01*
X127520078Y-75345454D02*
X127520078Y-76874347D01*
X127266078Y-77065137D02*
X127355654Y-77154713D01*
X127355654Y-77456389D02*
X127355654Y-77880653D01*
X127266078Y-75345454D02*
X127266078Y-77065137D01*
X127355654Y-77154713D02*
X127355654Y-77456389D01*
X127012078Y-77196079D02*
X126841578Y-77366579D01*
X127012078Y-75345454D02*
X127012078Y-77196079D01*
X126138396Y-77385974D02*
X126138396Y-77581185D01*
X126758078Y-76766292D02*
X126138396Y-77385974D01*
X126758078Y-75345454D02*
X126758078Y-76766292D01*
X125279246Y-77761338D02*
X125163574Y-77761338D01*
X126504078Y-76436506D02*
X125758502Y-77182082D01*
X125758502Y-77182082D02*
X125758502Y-77282082D01*
X125758502Y-77282082D02*
X125279246Y-77761338D01*
X126504078Y-75345454D02*
X126504078Y-76436506D01*
X125574999Y-76750001D02*
X125275000Y-77050000D01*
X126250078Y-75345454D02*
X126250078Y-76074922D01*
X126250078Y-76074922D02*
X125574999Y-76750001D01*
X126655978Y-64966068D02*
X125843738Y-64153828D01*
X125843738Y-64153828D02*
X125245357Y-64153828D01*
X126504078Y-65745922D02*
X126655978Y-65594022D01*
X126504078Y-66963454D02*
X126504078Y-65745922D01*
X126655978Y-65594022D02*
X126655978Y-64966068D01*
X125214854Y-64184331D02*
X124914855Y-64484330D01*
X125245357Y-64153828D02*
X125214854Y-64184331D01*
X125996078Y-66963454D02*
X125996078Y-65396078D01*
X125996078Y-65396078D02*
X125900000Y-65300000D01*
X126250078Y-66963454D02*
X126250078Y-65649922D01*
X126250078Y-65649922D02*
X126408967Y-65491033D01*
X126408967Y-65068383D02*
X125977913Y-64637329D01*
X125977913Y-64637329D02*
X125618424Y-64637329D01*
X126408967Y-65491033D02*
X126408967Y-65068383D01*
X126410272Y-64371036D02*
X126410272Y-64029806D01*
X126902989Y-64863753D02*
X126410272Y-64371036D01*
X126902989Y-65697011D02*
X126902989Y-64863753D01*
X126758078Y-65841922D02*
X126902989Y-65697011D01*
X126758078Y-66963454D02*
X126758078Y-65841922D01*
X127138198Y-64238198D02*
X127099467Y-64238198D01*
X127150000Y-64250000D02*
X127138198Y-64238198D01*
X127150000Y-65800000D02*
X127150000Y-64250000D01*
X127012078Y-66963454D02*
X127012078Y-65937922D01*
X127012078Y-65937922D02*
X127150000Y-65800000D01*
X127266078Y-66963454D02*
X127266078Y-66059596D01*
X127427990Y-64723580D02*
X127649604Y-64501966D01*
X127649604Y-64501966D02*
X127649604Y-64174660D01*
X127649604Y-64174660D02*
X127650000Y-64174264D01*
X127266078Y-66059596D02*
X127427989Y-65897685D01*
X127650000Y-64174264D02*
X127650000Y-63750000D01*
X127427989Y-65897685D02*
X127427990Y-64723580D01*
X129116884Y-64148459D02*
X129116884Y-63724195D01*
X128028078Y-66963454D02*
X128028078Y-66345564D01*
X128169018Y-65430980D02*
X129116884Y-64483114D01*
X128169017Y-66204625D02*
X128169018Y-65430980D01*
X129116884Y-64483114D02*
X129116884Y-64148459D01*
X128028078Y-66345564D02*
X128169017Y-66204625D01*
X128282078Y-66709454D02*
X128416028Y-66575504D01*
X129406972Y-64437616D02*
X129706971Y-64137617D01*
X128416028Y-66575504D02*
X128416028Y-65533296D01*
X128282078Y-66963454D02*
X128282078Y-66709454D01*
X129406972Y-64542352D02*
X129406972Y-64437616D01*
X128416028Y-65533296D02*
X129406972Y-64542352D01*
X136617342Y-65250000D02*
X136621056Y-65253714D01*
X136100000Y-65250000D02*
X136617342Y-65250000D01*
X128790078Y-75345454D02*
X128790078Y-75408954D01*
X129186613Y-75805489D02*
X129755489Y-75805489D01*
X128790078Y-75408954D02*
X129186613Y-75805489D01*
X129755489Y-75805489D02*
X130400000Y-76450000D01*
X130400000Y-76450000D02*
X130400000Y-77950000D01*
X134150000Y-63000000D02*
X134100000Y-63050000D01*
X134150000Y-62300000D02*
X134150000Y-63000000D01*
X135314980Y-77863470D02*
X135314980Y-78287734D01*
X135314980Y-77835020D02*
X135314980Y-77863470D01*
X135900000Y-77250000D02*
X135314980Y-77835020D01*
X136000000Y-77250000D02*
X135900000Y-77250000D01*
X133723000Y-65200000D02*
X134150000Y-65200000D01*
X133134418Y-65200000D02*
X133723000Y-65200000D01*
X132466499Y-64532081D02*
X133134418Y-65200000D01*
X132466499Y-62967919D02*
X132466499Y-64532081D01*
X133809409Y-61625009D02*
X132466499Y-62967919D01*
X137300745Y-61625009D02*
X133809409Y-61625009D01*
X137500736Y-61825000D02*
X137300745Y-61625009D01*
X137925000Y-61825000D02*
X137500736Y-61825000D01*
X137400000Y-68800000D02*
X137400000Y-68061076D01*
X137400000Y-68061076D02*
X137375000Y-68036076D01*
X134225000Y-77250000D02*
X134225000Y-77913338D01*
X134225000Y-77913338D02*
X135186663Y-78875001D01*
X135575001Y-78875001D02*
X135875000Y-79175000D01*
X135186663Y-78875001D02*
X135575001Y-78875001D01*
X136352000Y-74337500D02*
X135975000Y-74337500D01*
X136635958Y-74337500D02*
X136352000Y-74337500D01*
X136942764Y-74644306D02*
X136635958Y-74337500D01*
X136942764Y-75834236D02*
X136942764Y-74644306D01*
X136427000Y-76350000D02*
X136942764Y-75834236D01*
X136000000Y-76350000D02*
X136427000Y-76350000D01*
X134100000Y-63950000D02*
X133650000Y-63950000D01*
X133650000Y-63950000D02*
X133125000Y-64475000D01*
X134627000Y-70962500D02*
X135062115Y-71397615D01*
X134250000Y-70962500D02*
X134627000Y-70962500D01*
X135062115Y-71397615D02*
X135062115Y-71622681D01*
X136100000Y-67512500D02*
X136000000Y-67612500D01*
X136100000Y-66150000D02*
X136100000Y-67512500D01*
X124475000Y-76642002D02*
X124699047Y-76417955D01*
X124475000Y-77100000D02*
X124475000Y-76642002D01*
X125996078Y-75599454D02*
X125996078Y-75345454D01*
X125996078Y-75866256D02*
X125996078Y-75599454D01*
X125444379Y-76417955D02*
X125996078Y-75866256D01*
X124699047Y-76417955D02*
X125444379Y-76417955D01*
X135950000Y-63588154D02*
X135371572Y-64166582D01*
X135950000Y-63200000D02*
X135950000Y-63588154D01*
X133916499Y-71941499D02*
X134203010Y-71654988D01*
X131457078Y-71725954D02*
X132714434Y-71725954D01*
X132929979Y-71941499D02*
X133916499Y-71941499D01*
X134203010Y-71654988D02*
X134342829Y-71654988D01*
X132714434Y-71725954D02*
X132929979Y-71941499D01*
X135252176Y-63272737D02*
X134952177Y-63572736D01*
X135252176Y-62897824D02*
X135252176Y-63272737D01*
X135850000Y-62300000D02*
X135252176Y-62897824D01*
X135950000Y-62300000D02*
X135850000Y-62300000D01*
X133618046Y-71471954D02*
X133647591Y-71442409D01*
X131457078Y-71471954D02*
X133618046Y-71471954D01*
X133156464Y-71217954D02*
X133415510Y-70958908D01*
X134019376Y-70425000D02*
X134175000Y-70425000D01*
X133415510Y-70958908D02*
X133485468Y-70958908D01*
X130949078Y-71217954D02*
X133156464Y-71217954D01*
X133485468Y-70958908D02*
X134019376Y-70425000D01*
D37*
X136075000Y-68150000D02*
X135195106Y-68150000D01*
X135195106Y-68150000D02*
X135116640Y-68228466D01*
X130949078Y-70963954D02*
X133066088Y-70963954D01*
X133066088Y-70963954D02*
X133429988Y-70600054D01*
X133429988Y-70600054D02*
X133429988Y-70327532D01*
X132501173Y-70709954D02*
X132727173Y-70483954D01*
X130949078Y-70709954D02*
X132501173Y-70709954D01*
X134886878Y-67720159D02*
X134886878Y-67492907D01*
X134457037Y-68150000D02*
X134886878Y-67720159D01*
X134886878Y-67492907D02*
X134886878Y-67068643D01*
X134225000Y-68150000D02*
X134457037Y-68150000D01*
X132980726Y-69519999D02*
X134674999Y-69519999D01*
X134674999Y-69519999D02*
X135580000Y-70425000D01*
X130949078Y-70455954D02*
X131196078Y-70455954D01*
X132040724Y-70460001D02*
X132980726Y-69519999D01*
X131196078Y-70455954D02*
X131200125Y-70460001D01*
X131200125Y-70460001D02*
X132040724Y-70460001D01*
X135580000Y-70425000D02*
X136025000Y-70425000D01*
D35*
X127922009Y-65328665D02*
X128697326Y-64553348D01*
X128697326Y-64553348D02*
X128697326Y-63998619D01*
X127774078Y-66250238D02*
X127922007Y-66102309D01*
X127922007Y-66102309D02*
X127922009Y-65328665D01*
X128697326Y-63998619D02*
X128397327Y-63698620D01*
X127774078Y-66963454D02*
X127774078Y-66250238D01*
X127520078Y-66154922D02*
X127674998Y-65999998D01*
X127833106Y-64668398D02*
X128133105Y-64368399D01*
X127520078Y-66963454D02*
X127520078Y-66154922D01*
X127674998Y-64826506D02*
X127833106Y-64668398D01*
X127674998Y-65999998D02*
X127674998Y-64826506D01*
X134275000Y-76300000D02*
X134225000Y-76350000D01*
X134275000Y-75412500D02*
X134275000Y-76300000D01*
X136237500Y-69600000D02*
X135950000Y-69887500D01*
X137550000Y-69600000D02*
X136237500Y-69600000D01*
X133616499Y-68380999D02*
X133923000Y-68687500D01*
X133616499Y-66533501D02*
X133616499Y-68380999D01*
X134050000Y-66100000D02*
X133616499Y-66533501D01*
X133923000Y-68687500D02*
X134300000Y-68687500D01*
X134150000Y-66100000D02*
X134050000Y-66100000D01*
G04 #@! TA.AperFunction,Conductor*
G36*
X117674398Y-65099935D02*
G01*
X117742509Y-65119972D01*
X117788974Y-65173652D01*
X117800333Y-65225964D01*
X117800030Y-66524029D01*
X117780012Y-66592145D01*
X117726346Y-66638626D01*
X117674030Y-66650000D01*
X115600000Y-66650000D01*
X115011200Y-67246500D01*
X115011200Y-67839450D01*
X114991198Y-67907571D01*
X114971178Y-67931558D01*
X114615943Y-68263152D01*
X114552497Y-68295013D01*
X114530195Y-68297044D01*
X113026359Y-68299771D01*
X112958203Y-68279892D01*
X112911612Y-68226321D01*
X112900131Y-68173640D01*
X112900781Y-67547515D01*
X112900800Y-67529400D01*
X112887210Y-67529404D01*
X112887209Y-67529404D01*
X111018117Y-67529994D01*
X111018116Y-67529994D01*
X111000000Y-67530000D01*
X110999986Y-67543504D01*
X110999331Y-68174487D01*
X110979258Y-68242587D01*
X110925554Y-68289024D01*
X110873089Y-68300356D01*
X109506798Y-68297708D01*
X109135894Y-68296989D01*
X109117778Y-68296954D01*
X109117778Y-70202954D01*
X109097776Y-70271075D01*
X109044120Y-70317568D01*
X108991778Y-70328954D01*
X108038278Y-70328954D01*
X108038278Y-71663454D01*
X108018276Y-71731575D01*
X107964620Y-71778068D01*
X107912278Y-71789454D01*
X106260278Y-71789454D01*
X106260278Y-72361954D01*
X106240276Y-72430075D01*
X106186620Y-72476568D01*
X106134278Y-72487954D01*
X105179778Y-72487954D01*
X105111657Y-72467952D01*
X105065164Y-72414296D01*
X105053778Y-72361954D01*
X105053778Y-70327954D01*
X105073780Y-70259833D01*
X105127436Y-70213340D01*
X105179778Y-70201954D01*
X106323778Y-70201954D01*
X106323778Y-68803954D01*
X106343780Y-68735833D01*
X106397436Y-68689340D01*
X106449778Y-68677954D01*
X108228778Y-68677954D01*
X108228778Y-66899557D01*
X108248780Y-66831436D01*
X108302436Y-66784943D01*
X108355378Y-66773558D01*
X111133112Y-66786820D01*
X114294585Y-66801914D01*
X114294587Y-66801914D01*
X114312700Y-66802000D01*
X114322497Y-66784943D01*
X115217871Y-65225964D01*
X115254617Y-65161984D01*
X115305888Y-65112876D01*
X115363943Y-65098738D01*
X117674398Y-65099935D01*
G37*
G04 #@! TD.AperFunction*
G04 #@! TA.AperFunction,Conductor*
G36*
X99407899Y-69967956D02*
G01*
X99454392Y-70021612D01*
X99465778Y-70073954D01*
X99465778Y-70201954D01*
X100228778Y-70201954D01*
X100296899Y-70221956D01*
X100343392Y-70275612D01*
X100354778Y-70327954D01*
X100354778Y-72361954D01*
X100334776Y-72430075D01*
X100281120Y-72476568D01*
X100228778Y-72487954D01*
X97940778Y-72487954D01*
X97872657Y-72467952D01*
X97826164Y-72414296D01*
X97814778Y-72361954D01*
X97814778Y-70073954D01*
X97834780Y-70005833D01*
X97888436Y-69959340D01*
X97940778Y-69947954D01*
X99339778Y-69947954D01*
X99407899Y-69967956D01*
G37*
G04 #@! TD.AperFunction*
G04 #@! TA.AperFunction,Conductor*
G36*
X114394746Y-68570956D02*
G01*
X114441239Y-68624612D01*
X114452622Y-68676104D01*
X114459144Y-69643150D01*
X114439602Y-69711404D01*
X114386261Y-69758258D01*
X114333147Y-69770000D01*
X114140000Y-69770000D01*
X114142500Y-71050000D01*
X114333598Y-71050000D01*
X114401719Y-71070002D01*
X114448212Y-71123658D01*
X114459597Y-71176401D01*
X114452178Y-73505355D01*
X114431959Y-73573412D01*
X114378156Y-73619734D01*
X114326179Y-73630954D01*
X113307778Y-73630954D01*
X113239657Y-73610952D01*
X113193164Y-73557296D01*
X113181778Y-73504954D01*
X113181778Y-68676954D01*
X113201780Y-68608833D01*
X113255436Y-68562340D01*
X113307778Y-68550954D01*
X114326625Y-68550954D01*
X114394746Y-68570956D01*
G37*
G04 #@! TD.AperFunction*
G04 #@! TA.AperFunction,Conductor*
G36*
X129228121Y-68126456D02*
G01*
X129274614Y-68180112D01*
X129286000Y-68232454D01*
X129286000Y-69249454D01*
X130303000Y-69249454D01*
X130371121Y-69269456D01*
X130417614Y-69323112D01*
X130429000Y-69375454D01*
X130429000Y-72933454D01*
X130408998Y-73001575D01*
X130355342Y-73048068D01*
X130303000Y-73059454D01*
X129667000Y-73059454D01*
X129667000Y-74838454D01*
X129646998Y-74906575D01*
X129593342Y-74953068D01*
X129541000Y-74964454D01*
X128967500Y-74964454D01*
X128899379Y-74944452D01*
X128852886Y-74890796D01*
X128841500Y-74838454D01*
X128841500Y-74329454D01*
X125095000Y-74329454D01*
X125095000Y-74711454D01*
X125074998Y-74779575D01*
X125021342Y-74826068D01*
X124969000Y-74837454D01*
X123951000Y-74837454D01*
X123882879Y-74817452D01*
X123836386Y-74763796D01*
X123825000Y-74711454D01*
X123825000Y-73059454D01*
X122808000Y-73059454D01*
X122739879Y-73039452D01*
X122693386Y-72985796D01*
X122682000Y-72933454D01*
X122682000Y-69375454D01*
X122702002Y-69307333D01*
X122755658Y-69260840D01*
X122808000Y-69249454D01*
X123698000Y-69249454D01*
X123698000Y-68232454D01*
X123718002Y-68164333D01*
X123771658Y-68117840D01*
X123824000Y-68106454D01*
X129160000Y-68106454D01*
X129228121Y-68126456D01*
G37*
G04 #@! TD.AperFunction*
G04 #@! TA.AperFunction,Conductor*
G36*
X117721921Y-68892102D02*
G01*
X117768414Y-68945758D01*
X117779800Y-68998100D01*
X117779800Y-69762100D01*
X117759798Y-69830221D01*
X117706142Y-69876714D01*
X117653800Y-69888100D01*
X116661200Y-69888100D01*
X116593079Y-69868098D01*
X116546586Y-69814442D01*
X116535200Y-69762100D01*
X116535200Y-68998100D01*
X116555202Y-68929979D01*
X116608858Y-68883486D01*
X116661200Y-68872100D01*
X117653800Y-68872100D01*
X117721921Y-68892102D01*
G37*
G04 #@! TD.AperFunction*
G04 #@! TA.AperFunction,Conductor*
G36*
X115982029Y-71106263D02*
G01*
X116028522Y-71159919D01*
X116039908Y-71212253D01*
X116039992Y-72533992D01*
X116019994Y-72602114D01*
X115966342Y-72648610D01*
X115913992Y-72660000D01*
X114895992Y-72660000D01*
X114827871Y-72639998D01*
X114781378Y-72586342D01*
X114769992Y-72534008D01*
X114769908Y-71212269D01*
X114789906Y-71144147D01*
X114843558Y-71097651D01*
X114895908Y-71086261D01*
X115913908Y-71086261D01*
X115982029Y-71106263D01*
G37*
G04 #@! TD.AperFunction*
G04 #@! TA.AperFunction,Conductor*
G36*
X110558499Y-69078956D02*
G01*
X110604992Y-69132612D01*
X110616378Y-69184954D01*
X110616378Y-70406154D01*
X110596376Y-70474275D01*
X110542720Y-70520768D01*
X110490378Y-70532154D01*
X109523178Y-70532154D01*
X109455057Y-70512152D01*
X109408564Y-70458496D01*
X109397178Y-70406154D01*
X109397178Y-69184954D01*
X109417180Y-69116833D01*
X109470836Y-69070340D01*
X109523178Y-69058954D01*
X110490378Y-69058954D01*
X110558499Y-69078956D01*
G37*
G04 #@! TD.AperFunction*
G04 #@! TA.AperFunction,Conductor*
G36*
X101947899Y-72380956D02*
G01*
X101994392Y-72434612D01*
X102005778Y-72486954D01*
X102005778Y-73377954D01*
X101985776Y-73446075D01*
X101932120Y-73492568D01*
X101879778Y-73503954D01*
X100861778Y-73503954D01*
X100793657Y-73483952D01*
X100747164Y-73430296D01*
X100735778Y-73377954D01*
X100735778Y-73248954D01*
X100755780Y-73180833D01*
X100809436Y-73134340D01*
X100861778Y-73122954D01*
X100926278Y-73122954D01*
X100926278Y-72486954D01*
X100946280Y-72418833D01*
X100999936Y-72372340D01*
X101052278Y-72360954D01*
X101879778Y-72360954D01*
X101947899Y-72380956D01*
G37*
G04 #@! TD.AperFunction*
G04 #@! TA.AperFunction,Conductor*
G36*
X101439899Y-68570956D02*
G01*
X101486392Y-68624612D01*
X101497778Y-68676954D01*
X101497778Y-69821954D01*
X101477776Y-69890075D01*
X101424120Y-69936568D01*
X101371778Y-69947954D01*
X101115778Y-69947954D01*
X101047657Y-69927952D01*
X101001164Y-69874296D01*
X100989778Y-69821954D01*
X100989778Y-69566954D01*
X100226778Y-69566954D01*
X100158657Y-69546952D01*
X100112164Y-69493296D01*
X100100778Y-69440954D01*
X100100778Y-69165181D01*
X100120780Y-69097060D01*
X100141637Y-69072300D01*
X100674248Y-68584073D01*
X100737979Y-68552786D01*
X100759389Y-68550954D01*
X101371778Y-68550954D01*
X101439899Y-68570956D01*
G37*
G04 #@! TD.AperFunction*
G04 #@! TA.AperFunction,Conductor*
G36*
X108195740Y-72952456D02*
G01*
X108242233Y-73006112D01*
X108253617Y-73059171D01*
X108250713Y-73569171D01*
X108230323Y-73637177D01*
X108176404Y-73683364D01*
X108124715Y-73694454D01*
X106852720Y-73694454D01*
X106784599Y-73674452D01*
X106738106Y-73620796D01*
X106726722Y-73567737D01*
X106729626Y-73057737D01*
X106750016Y-72989731D01*
X106803935Y-72943544D01*
X106855624Y-72932454D01*
X108127619Y-72932454D01*
X108195740Y-72952456D01*
G37*
G04 #@! TD.AperFunction*
G04 #@! TA.AperFunction,Conductor*
G36*
X108932899Y-74285956D02*
G01*
X108979392Y-74339612D01*
X108990778Y-74391954D01*
X108990778Y-75155954D01*
X108970776Y-75224075D01*
X108917120Y-75270568D01*
X108864778Y-75281954D01*
X107973778Y-75281954D01*
X107905657Y-75261952D01*
X107859164Y-75208296D01*
X107847778Y-75155954D01*
X107847778Y-74391954D01*
X107867780Y-74323833D01*
X107921436Y-74277340D01*
X107973778Y-74265954D01*
X108864778Y-74265954D01*
X108932899Y-74285956D01*
G37*
G04 #@! TD.AperFunction*
G04 #@! TA.AperFunction,Conductor*
G36*
X112615899Y-71745956D02*
G01*
X112662392Y-71799612D01*
X112673778Y-71851954D01*
X112673778Y-72488954D01*
X112653776Y-72557075D01*
X112600120Y-72603568D01*
X112547778Y-72614954D01*
X111529778Y-72614954D01*
X111461657Y-72594952D01*
X111415164Y-72541296D01*
X111403778Y-72488954D01*
X111403778Y-71851954D01*
X111423780Y-71783833D01*
X111477436Y-71737340D01*
X111529778Y-71725954D01*
X112547778Y-71725954D01*
X112615899Y-71745956D01*
G37*
G04 #@! TD.AperFunction*
G04 #@! TA.AperFunction,Conductor*
G36*
X106710399Y-66919956D02*
G01*
X106756892Y-66973612D01*
X106768278Y-67025954D01*
X106768278Y-67789954D01*
X106748276Y-67858075D01*
X106694620Y-67904568D01*
X106642278Y-67915954D01*
X106068778Y-67915954D01*
X106000657Y-67895952D01*
X105954164Y-67842296D01*
X105942778Y-67789954D01*
X105942778Y-67025954D01*
X105962780Y-66957833D01*
X106016436Y-66911340D01*
X106068778Y-66899954D01*
X106642278Y-66899954D01*
X106710399Y-66919956D01*
G37*
G04 #@! TD.AperFunction*
G04 #@! TA.AperFunction,Conductor*
G36*
X111345899Y-70602956D02*
G01*
X111392392Y-70656612D01*
X111403778Y-70708954D01*
X111403778Y-71218954D01*
X111383776Y-71287075D01*
X111330120Y-71333568D01*
X111311614Y-71337594D01*
X111312276Y-71339850D01*
X111294893Y-71344954D01*
X111276778Y-71344954D01*
X111022778Y-71598954D01*
X111022778Y-73884954D01*
X114209632Y-73888790D01*
X114277727Y-73908874D01*
X114297462Y-73924596D01*
X114833400Y-74447400D01*
X115583700Y-74447400D01*
X115651821Y-74467402D01*
X115698314Y-74521058D01*
X115709700Y-74573400D01*
X115709700Y-75286800D01*
X115689698Y-75354921D01*
X115636042Y-75401414D01*
X115583695Y-75412800D01*
X112994183Y-75412703D01*
X110387358Y-75412605D01*
X110319239Y-75392600D01*
X110272748Y-75338943D01*
X110261364Y-75286641D01*
X110260972Y-73924596D01*
X110260778Y-73249954D01*
X108862778Y-73249954D01*
X108794657Y-73229952D01*
X108748164Y-73176296D01*
X108736778Y-73123954D01*
X108736778Y-70962954D01*
X108756780Y-70894833D01*
X108810436Y-70848340D01*
X108862778Y-70836954D01*
X109396539Y-70836954D01*
X109466357Y-70858067D01*
X109514064Y-70889823D01*
X109630948Y-70926340D01*
X109753383Y-70928584D01*
X109771434Y-70923663D01*
X109862863Y-70898737D01*
X109871527Y-70896375D01*
X109937970Y-70855579D01*
X110003898Y-70836954D01*
X110079655Y-70836954D01*
X110149474Y-70858067D01*
X110164064Y-70867779D01*
X110205198Y-70880630D01*
X110263155Y-70898737D01*
X110280948Y-70904296D01*
X110403383Y-70906540D01*
X110421434Y-70901619D01*
X110512863Y-70876693D01*
X110521527Y-70874331D01*
X110552069Y-70855578D01*
X110617996Y-70836954D01*
X110641778Y-70836954D01*
X110858873Y-70619859D01*
X110921185Y-70585833D01*
X110947968Y-70582954D01*
X111277778Y-70582954D01*
X111345899Y-70602956D01*
G37*
G04 #@! TD.AperFunction*
G04 #@! TA.AperFunction,Conductor*
G36*
X117942121Y-72470002D02*
G01*
X117988614Y-72523658D01*
X118000000Y-72576000D01*
X118000000Y-73124000D01*
X117979998Y-73192121D01*
X117926342Y-73238614D01*
X117874000Y-73250000D01*
X116426000Y-73250000D01*
X116357879Y-73229998D01*
X116311386Y-73176342D01*
X116300000Y-73124000D01*
X116300000Y-72576000D01*
X116320002Y-72507879D01*
X116373658Y-72461386D01*
X116426000Y-72450000D01*
X117874000Y-72450000D01*
X117942121Y-72470002D01*
G37*
G04 #@! TD.AperFunction*
G04 #@! TA.AperFunction,Conductor*
G36*
X116042121Y-67720002D02*
G01*
X116088614Y-67773658D01*
X116100000Y-67826000D01*
X116100000Y-69650000D01*
X117250000Y-70800000D01*
X117670795Y-70968318D01*
X117726615Y-71012189D01*
X117750000Y-71085306D01*
X117750000Y-72650000D01*
X116550000Y-72650000D01*
X116550000Y-71300000D01*
X116050000Y-70500000D01*
X115536905Y-69986905D01*
X115502879Y-69924593D01*
X115500000Y-69897810D01*
X115500000Y-67826000D01*
X115520002Y-67757879D01*
X115573658Y-67711386D01*
X115626000Y-67700000D01*
X115974000Y-67700000D01*
X116042121Y-67720002D01*
G37*
G04 #@! TD.AperFunction*
G04 #@! TA.AperFunction,Conductor*
G36*
X118969120Y-73920002D02*
G01*
X119011043Y-73964629D01*
X119684044Y-75171389D01*
X119700000Y-75232760D01*
X119700000Y-78674000D01*
X119679998Y-78742121D01*
X119626342Y-78788614D01*
X119574000Y-78800000D01*
X118493673Y-78800000D01*
X118425552Y-78779998D01*
X118415695Y-78772972D01*
X118290077Y-78674000D01*
X116848021Y-77537835D01*
X116806893Y-77479966D01*
X116800000Y-77438864D01*
X116800000Y-74026000D01*
X116820002Y-73957879D01*
X116873658Y-73911386D01*
X116926000Y-73900000D01*
X118900999Y-73900000D01*
X118969120Y-73920002D01*
G37*
G04 #@! TD.AperFunction*
G04 #@! TA.AperFunction,Conductor*
G36*
X140842121Y-69345002D02*
G01*
X140888614Y-69398658D01*
X140900000Y-69451000D01*
X140900000Y-76149000D01*
X140879998Y-76217121D01*
X140826342Y-76263614D01*
X140774000Y-76275000D01*
X139125000Y-76275000D01*
X138609329Y-76790671D01*
X138599465Y-76799487D01*
X138593855Y-76803012D01*
X138478012Y-76918855D01*
X138474487Y-76924465D01*
X138465671Y-76934329D01*
X138361905Y-77038095D01*
X138299593Y-77072121D01*
X138272810Y-77075000D01*
X137126000Y-77075000D01*
X137057879Y-77054998D01*
X137011386Y-77001342D01*
X137000000Y-76949000D01*
X137000000Y-76099305D01*
X137020002Y-76031184D01*
X137036905Y-76010210D01*
X137054122Y-75992993D01*
X137054959Y-75992246D01*
X137064722Y-75987558D01*
X137080986Y-75967221D01*
X137086104Y-75961502D01*
X137088038Y-75959077D01*
X137093047Y-75954068D01*
X137096816Y-75948071D01*
X137099105Y-75945201D01*
X137103177Y-75939472D01*
X137110284Y-75930585D01*
X137119147Y-75919503D01*
X137121671Y-75908526D01*
X137127666Y-75898988D01*
X137130537Y-75873589D01*
X137131773Y-75866359D01*
X137132168Y-75862880D01*
X137133764Y-75855939D01*
X137133764Y-75848813D01*
X137134136Y-75845535D01*
X137134561Y-75837991D01*
X137135860Y-75826497D01*
X137137454Y-75812398D01*
X137133835Y-75802036D01*
X137133764Y-75800762D01*
X137133764Y-74677815D01*
X137133827Y-74676703D01*
X137137416Y-74666484D01*
X137134537Y-74640613D01*
X137134111Y-74632925D01*
X137133764Y-74629844D01*
X137133764Y-74622773D01*
X137132191Y-74615876D01*
X137131780Y-74612227D01*
X137130606Y-74605289D01*
X137129347Y-74593974D01*
X137127778Y-74579877D01*
X137121802Y-74570331D01*
X137119296Y-74559347D01*
X137103363Y-74539353D01*
X137099135Y-74533380D01*
X137096950Y-74530635D01*
X137093168Y-74524595D01*
X137088125Y-74519552D01*
X137086066Y-74516966D01*
X137081049Y-74511351D01*
X137064989Y-74491197D01*
X137055102Y-74486428D01*
X137054148Y-74485575D01*
X137036905Y-74468332D01*
X137002879Y-74406020D01*
X137000000Y-74379237D01*
X137000000Y-73645691D01*
X137020002Y-73577570D01*
X137055996Y-73540928D01*
X137091922Y-73516922D01*
X137120102Y-73474748D01*
X137121446Y-73475646D01*
X137157072Y-73431439D01*
X137187496Y-73415947D01*
X137200028Y-73411583D01*
X137214126Y-73410014D01*
X137223672Y-73404038D01*
X137234656Y-73401532D01*
X137254650Y-73385599D01*
X137260625Y-73381370D01*
X137263370Y-73379184D01*
X137269408Y-73375404D01*
X137270912Y-73373900D01*
X137334808Y-73347871D01*
X137367688Y-73348847D01*
X137371307Y-73349433D01*
X137379875Y-73352110D01*
X137502310Y-73354354D01*
X137528460Y-73347225D01*
X137611790Y-73324507D01*
X137620454Y-73322145D01*
X137724808Y-73258071D01*
X137806985Y-73167283D01*
X137860378Y-73057081D01*
X137880694Y-72936322D01*
X137880823Y-72925770D01*
X137863463Y-72804551D01*
X137812779Y-72693077D01*
X137789448Y-72665999D01*
X137738703Y-72607107D01*
X137738701Y-72607105D01*
X137732845Y-72600309D01*
X137630087Y-72533705D01*
X137512765Y-72498618D01*
X137503789Y-72498563D01*
X137503788Y-72498563D01*
X137453410Y-72498255D01*
X137390312Y-72497870D01*
X137288124Y-72527076D01*
X137217131Y-72526564D01*
X137157683Y-72487751D01*
X137128656Y-72422959D01*
X137127500Y-72405927D01*
X137127500Y-72112442D01*
X137120102Y-72075252D01*
X137091922Y-72033078D01*
X137055996Y-72009073D01*
X137010470Y-71954596D01*
X137000000Y-71904309D01*
X137000000Y-70402190D01*
X137020002Y-70334069D01*
X137036905Y-70313095D01*
X137285595Y-70064405D01*
X137347907Y-70030379D01*
X137374690Y-70027500D01*
X137712558Y-70027500D01*
X137718618Y-70026294D01*
X137718623Y-70026294D01*
X137737578Y-70022523D01*
X137749748Y-70020102D01*
X137791922Y-69991922D01*
X137820102Y-69949748D01*
X137827500Y-69912558D01*
X137827500Y-69574690D01*
X137847502Y-69506569D01*
X137864405Y-69485595D01*
X137988095Y-69361905D01*
X138050407Y-69327879D01*
X138077190Y-69325000D01*
X140774000Y-69325000D01*
X140842121Y-69345002D01*
G37*
G04 #@! TD.AperFunction*
G04 #@! TA.AperFunction,Conductor*
G36*
X140842121Y-61545002D02*
G01*
X140888614Y-61598658D01*
X140900000Y-61651000D01*
X140900000Y-69049000D01*
X140879998Y-69117121D01*
X140826342Y-69163614D01*
X140774000Y-69175000D01*
X137948720Y-69175000D01*
X137880599Y-69154998D01*
X137834106Y-69101342D01*
X137825141Y-69024418D01*
X137826293Y-69018625D01*
X137827500Y-69012558D01*
X137827500Y-68587442D01*
X137820102Y-68550252D01*
X137791922Y-68508078D01*
X137749748Y-68479898D01*
X137751692Y-68476989D01*
X137712581Y-68445463D01*
X137690169Y-68378097D01*
X137707736Y-68309308D01*
X137722670Y-68289066D01*
X137733058Y-68277589D01*
X137786451Y-68167387D01*
X137789003Y-68152221D01*
X137805960Y-68051424D01*
X137806767Y-68046628D01*
X137806896Y-68036076D01*
X137789536Y-67914857D01*
X137738852Y-67803383D01*
X137715521Y-67776305D01*
X137664776Y-67717413D01*
X137664774Y-67717411D01*
X137658918Y-67710615D01*
X137556160Y-67644011D01*
X137438838Y-67608924D01*
X137429862Y-67608869D01*
X137429861Y-67608869D01*
X137379483Y-67608561D01*
X137316385Y-67608176D01*
X137198644Y-67641827D01*
X137095080Y-67707171D01*
X137089137Y-67713900D01*
X137082302Y-67719717D01*
X137081114Y-67718321D01*
X137030297Y-67750302D01*
X136959304Y-67749628D01*
X136899945Y-67710679D01*
X136871066Y-67645821D01*
X136869949Y-67629486D01*
X136869891Y-67611497D01*
X136863551Y-65671647D01*
X136883330Y-65603461D01*
X136897934Y-65586918D01*
X136896937Y-65586015D01*
X136973091Y-65501881D01*
X136979114Y-65495227D01*
X137032507Y-65385025D01*
X137034706Y-65371958D01*
X137052016Y-65269062D01*
X137052823Y-65264266D01*
X137052952Y-65253714D01*
X137035592Y-65132495D01*
X137031878Y-65124327D01*
X137031877Y-65124323D01*
X137031088Y-65122588D01*
X137030822Y-65120715D01*
X137029357Y-65115705D01*
X137030080Y-65115494D01*
X137021100Y-65052298D01*
X137050700Y-64987766D01*
X137079860Y-64963061D01*
X137150433Y-64919729D01*
X137150434Y-64919728D01*
X137158084Y-64915031D01*
X137240261Y-64824243D01*
X137293654Y-64714041D01*
X137296206Y-64698875D01*
X137313163Y-64598078D01*
X137313970Y-64593282D01*
X137314099Y-64582730D01*
X137296739Y-64461511D01*
X137246055Y-64350037D01*
X137166121Y-64257269D01*
X137063363Y-64190665D01*
X137063600Y-64190300D01*
X137014703Y-64147552D01*
X136995000Y-64079345D01*
X136999724Y-64049435D01*
X136999933Y-64049004D01*
X137002485Y-64033838D01*
X137019442Y-63933041D01*
X137020249Y-63928245D01*
X137020378Y-63917693D01*
X137003018Y-63796474D01*
X136952334Y-63685000D01*
X136946475Y-63678201D01*
X136946473Y-63678197D01*
X136887089Y-63609280D01*
X136857775Y-63544618D01*
X136856544Y-63527457D01*
X136855696Y-63267985D01*
X136875475Y-63199800D01*
X136928979Y-63153132D01*
X136996239Y-63143959D01*
X136996246Y-63143578D01*
X137005219Y-63143742D01*
X137005222Y-63143743D01*
X137058465Y-63144718D01*
X137118681Y-63145822D01*
X137236825Y-63113613D01*
X137341179Y-63049539D01*
X137423356Y-62958751D01*
X137476749Y-62848549D01*
X137479301Y-62833383D01*
X137496258Y-62732586D01*
X137497065Y-62727790D01*
X137497194Y-62717238D01*
X137479834Y-62596019D01*
X137429150Y-62484545D01*
X137349216Y-62391777D01*
X137246458Y-62325173D01*
X137182308Y-62305988D01*
X137122775Y-62267306D01*
X137093605Y-62202578D01*
X137094157Y-62164367D01*
X137100972Y-62123858D01*
X137101779Y-62119062D01*
X137101908Y-62108510D01*
X137086623Y-62001781D01*
X137096765Y-61931513D01*
X137143288Y-61877883D01*
X137211420Y-61857919D01*
X137279529Y-61877959D01*
X137300445Y-61894824D01*
X137341979Y-61936358D01*
X137342726Y-61937195D01*
X137347414Y-61946958D01*
X137358494Y-61955819D01*
X137358495Y-61955820D01*
X137367751Y-61963222D01*
X137373475Y-61968345D01*
X137375901Y-61970280D01*
X137380905Y-61975284D01*
X137386894Y-61979048D01*
X137389766Y-61981339D01*
X137395497Y-61985412D01*
X137404384Y-61992519D01*
X137404387Y-61992520D01*
X137415469Y-62001383D01*
X137426446Y-62003907D01*
X137435984Y-62009902D01*
X137461403Y-62012776D01*
X137468615Y-62014009D01*
X137472090Y-62014403D01*
X137479033Y-62016000D01*
X137482708Y-62016000D01*
X137546865Y-62043022D01*
X137563674Y-62059584D01*
X137637127Y-62146968D01*
X137644604Y-62151945D01*
X137720669Y-62202578D01*
X137739064Y-62214823D01*
X137855948Y-62251340D01*
X137978383Y-62253584D01*
X137996434Y-62248663D01*
X138087863Y-62223737D01*
X138096527Y-62221375D01*
X138200881Y-62157301D01*
X138283058Y-62066513D01*
X138336451Y-61956311D01*
X138338015Y-61947018D01*
X138355960Y-61840348D01*
X138356767Y-61835552D01*
X138356896Y-61825000D01*
X138339536Y-61703781D01*
X138335822Y-61695613D01*
X138333301Y-61686991D01*
X138336798Y-61685968D01*
X138329274Y-61632788D01*
X138358912Y-61568274D01*
X138418725Y-61530024D01*
X138453951Y-61525000D01*
X140774000Y-61525000D01*
X140842121Y-61545002D01*
G37*
G04 #@! TD.AperFunction*
G04 #@! TA.AperFunction,Conductor*
G36*
X137929088Y-77380733D02*
G01*
X137950335Y-77387371D01*
X138011552Y-77388493D01*
X138063796Y-77389451D01*
X138063799Y-77389451D01*
X138072770Y-77389615D01*
X138078182Y-77388140D01*
X138146581Y-77399296D01*
X138174266Y-77417392D01*
X138320862Y-77543533D01*
X138357608Y-77597426D01*
X138390851Y-77692429D01*
X138478012Y-77831145D01*
X138593855Y-77946988D01*
X138599849Y-77950755D01*
X138599850Y-77950755D01*
X138726127Y-78030100D01*
X138732571Y-78034149D01*
X138887204Y-78088257D01*
X138894233Y-78089049D01*
X138925357Y-78092556D01*
X138993431Y-78122255D01*
X139186265Y-78288182D01*
X139186266Y-78288183D01*
X139200000Y-78300000D01*
X140626291Y-78300000D01*
X140694412Y-78320002D01*
X140740905Y-78373658D01*
X140752270Y-78423688D01*
X140797646Y-80896688D01*
X140778897Y-80965165D01*
X140726103Y-81012634D01*
X140671667Y-81025000D01*
X137676000Y-81025000D01*
X137607879Y-81004998D01*
X137561386Y-80951342D01*
X137550000Y-80899000D01*
X137550000Y-77501000D01*
X137570002Y-77432879D01*
X137623658Y-77386386D01*
X137676000Y-77375000D01*
X137891514Y-77375000D01*
X137929088Y-77380733D01*
G37*
G04 #@! TD.AperFunction*
G04 #@! TA.AperFunction,Conductor*
G36*
X114067976Y-61472002D02*
G01*
X114114469Y-61525658D01*
X114125853Y-61577391D01*
X114140340Y-64590642D01*
X114149394Y-66473922D01*
X114129719Y-66542138D01*
X114076288Y-66588889D01*
X114023202Y-66600528D01*
X108643694Y-66592304D01*
X97325000Y-66575000D01*
X97325000Y-75675000D01*
X105942239Y-75662601D01*
X114573819Y-75650182D01*
X114641968Y-75670086D01*
X114688538Y-75723675D01*
X114700000Y-75776182D01*
X114700000Y-80922000D01*
X114679998Y-80990121D01*
X114626342Y-81036614D01*
X114574000Y-81048000D01*
X88503000Y-81048000D01*
X88434879Y-81027998D01*
X88388386Y-80974342D01*
X88377000Y-80922000D01*
X88377000Y-61578000D01*
X88397002Y-61509879D01*
X88450658Y-61463386D01*
X88503000Y-61452000D01*
X113999855Y-61452000D01*
X114067976Y-61472002D01*
G37*
G04 #@! TD.AperFunction*
M02*
