(kicad_sch (version 20230121) (generator eeschema)

  (uuid 8cd050d6-228c-4da0-9533-b4f8d14cfb34)

  (paper "A4")

  (title_block
    (title "Powerboard v3")
    (date "2020-06-07")
    (rev "A")
    (company "Albert-Ludwigs-Universität Freiburg")
    (comment 1 "Dennis Sperlich")
  )

  (lib_symbols
    (symbol "Device:C" (pin_numbers hide) (pin_names (offset 0.254)) (in_bom yes) (on_board yes)
      (property "Reference" "C" (at 0.635 2.54 0)
        (effects (font (size 1.27 1.27)) (justify left))
      )
      (property "Value" "C" (at 0.635 -2.54 0)
        (effects (font (size 1.27 1.27)) (justify left))
      )
      (property "Footprint" "" (at 0.9652 -3.81 0)
        (effects (font (size 1.27 1.27)) hide)
      )
      (property "Datasheet" "~" (at 0 0 0)
        (effects (font (size 1.27 1.27)) hide)
      )
      (property "ki_keywords" "cap capacitor" (at 0 0 0)
        (effects (font (size 1.27 1.27)) hide)
      )
      (property "ki_description" "Unpolarized capacitor" (at 0 0 0)
        (effects (font (size 1.27 1.27)) hide)
      )
      (property "ki_fp_filters" "C_*" (at 0 0 0)
        (effects (font (size 1.27 1.27)) hide)
      )
      (symbol "C_0_1"
        (polyline
          (pts
            (xy -2.032 -0.762)
            (xy 2.032 -0.762)
          )
          (stroke (width 0.508) (type default))
          (fill (type none))
        )
        (polyline
          (pts
            (xy -2.032 0.762)
            (xy 2.032 0.762)
          )
          (stroke (width 0.508) (type default))
          (fill (type none))
        )
      )
      (symbol "C_1_1"
        (pin passive line (at 0 3.81 270) (length 2.794)
          (name "~" (effects (font (size 1.27 1.27))))
          (number "1" (effects (font (size 1.27 1.27))))
        )
        (pin passive line (at 0 -3.81 90) (length 2.794)
          (name "~" (effects (font (size 1.27 1.27))))
          (number "2" (effects (font (size 1.27 1.27))))
        )
      )
    )
    (symbol "Device:D_Zener" (pin_numbers hide) (pin_names (offset 1.016) hide) (in_bom yes) (on_board yes)
      (property "Reference" "D" (at 0 2.54 0)
        (effects (font (size 1.27 1.27)))
      )
      (property "Value" "D_Zener" (at 0 -2.54 0)
        (effects (font (size 1.27 1.27)))
      )
      (property "Footprint" "" (at 0 0 0)
        (effects (font (size 1.27 1.27)) hide)
      )
      (property "Datasheet" "~" (at 0 0 0)
        (effects (font (size 1.27 1.27)) hide)
      )
      (property "ki_keywords" "diode" (at 0 0 0)
        (effects (font (size 1.27 1.27)) hide)
      )
      (property "ki_description" "Zener diode" (at 0 0 0)
        (effects (font (size 1.27 1.27)) hide)
      )
      (property "ki_fp_filters" "TO-???* *_Diode_* *SingleDiode* D_*" (at 0 0 0)
        (effects (font (size 1.27 1.27)) hide)
      )
      (symbol "D_Zener_0_1"
        (polyline
          (pts
            (xy 1.27 0)
            (xy -1.27 0)
          )
          (stroke (width 0) (type default))
          (fill (type none))
        )
        (polyline
          (pts
            (xy -1.27 -1.27)
            (xy -1.27 1.27)
            (xy -0.762 1.27)
          )
          (stroke (width 0.254) (type default))
          (fill (type none))
        )
        (polyline
          (pts
            (xy 1.27 -1.27)
            (xy 1.27 1.27)
            (xy -1.27 0)
            (xy 1.27 -1.27)
          )
          (stroke (width 0.254) (type default))
          (fill (type none))
        )
      )
      (symbol "D_Zener_1_1"
        (pin passive line (at -3.81 0 0) (length 2.54)
          (name "K" (effects (font (size 1.27 1.27))))
          (number "1" (effects (font (size 1.27 1.27))))
        )
        (pin passive line (at 3.81 0 180) (length 2.54)
          (name "A" (effects (font (size 1.27 1.27))))
          (number "2" (effects (font (size 1.27 1.27))))
        )
      )
    )
    (symbol "Device:Q_NMOS_DGS" (pin_names (offset 0) hide) (in_bom yes) (on_board yes)
      (property "Reference" "Q" (at 5.08 1.27 0)
        (effects (font (size 1.27 1.27)) (justify left))
      )
      (property "Value" "Q_NMOS_DGS" (at 5.08 -1.27 0)
        (effects (font (size 1.27 1.27)) (justify left))
      )
      (property "Footprint" "" (at 5.08 2.54 0)
        (effects (font (size 1.27 1.27)) hide)
      )
      (property "Datasheet" "~" (at 0 0 0)
        (effects (font (size 1.27 1.27)) hide)
      )
      (property "ki_keywords" "transistor NMOS N-MOS N-MOSFET" (at 0 0 0)
        (effects (font (size 1.27 1.27)) hide)
      )
      (property "ki_description" "N-MOSFET transistor, drain/gate/source" (at 0 0 0)
        (effects (font (size 1.27 1.27)) hide)
      )
      (symbol "Q_NMOS_DGS_0_1"
        (polyline
          (pts
            (xy 0.254 0)
            (xy -2.54 0)
          )
          (stroke (width 0) (type default))
          (fill (type none))
        )
        (polyline
          (pts
            (xy 0.254 1.905)
            (xy 0.254 -1.905)
          )
          (stroke (width 0.254) (type default))
          (fill (type none))
        )
        (polyline
          (pts
            (xy 0.762 -1.27)
            (xy 0.762 -2.286)
          )
          (stroke (width 0.254) (type default))
          (fill (type none))
        )
        (polyline
          (pts
            (xy 0.762 0.508)
            (xy 0.762 -0.508)
          )
          (stroke (width 0.254) (type default))
          (fill (type none))
        )
        (polyline
          (pts
            (xy 0.762 2.286)
            (xy 0.762 1.27)
          )
          (stroke (width 0.254) (type default))
          (fill (type none))
        )
        (polyline
          (pts
            (xy 2.54 2.54)
            (xy 2.54 1.778)
          )
          (stroke (width 0) (type default))
          (fill (type none))
        )
        (polyline
          (pts
            (xy 2.54 -2.54)
            (xy 2.54 0)
            (xy 0.762 0)
          )
          (stroke (width 0) (type default))
          (fill (type none))
        )
        (polyline
          (pts
            (xy 0.762 -1.778)
            (xy 3.302 -1.778)
            (xy 3.302 1.778)
            (xy 0.762 1.778)
          )
          (stroke (width 0) (type default))
          (fill (type none))
        )
        (polyline
          (pts
            (xy 1.016 0)
            (xy 2.032 0.381)
            (xy 2.032 -0.381)
            (xy 1.016 0)
          )
          (stroke (width 0) (type default))
          (fill (type outline))
        )
        (polyline
          (pts
            (xy 2.794 0.508)
            (xy 2.921 0.381)
            (xy 3.683 0.381)
            (xy 3.81 0.254)
          )
          (stroke (width 0) (type default))
          (fill (type none))
        )
        (polyline
          (pts
            (xy 3.302 0.381)
            (xy 2.921 -0.254)
            (xy 3.683 -0.254)
            (xy 3.302 0.381)
          )
          (stroke (width 0) (type default))
          (fill (type none))
        )
        (circle (center 1.651 0) (radius 2.794)
          (stroke (width 0.254) (type default))
          (fill (type none))
        )
        (circle (center 2.54 -1.778) (radius 0.254)
          (stroke (width 0) (type default))
          (fill (type outline))
        )
        (circle (center 2.54 1.778) (radius 0.254)
          (stroke (width 0) (type default))
          (fill (type outline))
        )
      )
      (symbol "Q_NMOS_DGS_1_1"
        (pin passive line (at 2.54 5.08 270) (length 2.54)
          (name "D" (effects (font (size 1.27 1.27))))
          (number "1" (effects (font (size 1.27 1.27))))
        )
        (pin input line (at -5.08 0 0) (length 2.54)
          (name "G" (effects (font (size 1.27 1.27))))
          (number "2" (effects (font (size 1.27 1.27))))
        )
        (pin passive line (at 2.54 -5.08 90) (length 2.54)
          (name "S" (effects (font (size 1.27 1.27))))
          (number "3" (effects (font (size 1.27 1.27))))
        )
      )
    )
    (symbol "Device:R" (pin_numbers hide) (pin_names (offset 0)) (in_bom yes) (on_board yes)
      (property "Reference" "R" (at 2.032 0 90)
        (effects (font (size 1.27 1.27)))
      )
      (property "Value" "R" (at 0 0 90)
        (effects (font (size 1.27 1.27)))
      )
      (property "Footprint" "" (at -1.778 0 90)
        (effects (font (size 1.27 1.27)) hide)
      )
      (property "Datasheet" "~" (at 0 0 0)
        (effects (font (size 1.27 1.27)) hide)
      )
      (property "ki_keywords" "R res resistor" (at 0 0 0)
        (effects (font (size 1.27 1.27)) hide)
      )
      (property "ki_description" "Resistor" (at 0 0 0)
        (effects (font (size 1.27 1.27)) hide)
      )
      (property "ki_fp_filters" "R_*" (at 0 0 0)
        (effects (font (size 1.27 1.27)) hide)
      )
      (symbol "R_0_1"
        (rectangle (start -1.016 -2.54) (end 1.016 2.54)
          (stroke (width 0.254) (type default))
          (fill (type none))
        )
      )
      (symbol "R_1_1"
        (pin passive line (at 0 3.81 270) (length 1.27)
          (name "~" (effects (font (size 1.27 1.27))))
          (number "1" (effects (font (size 1.27 1.27))))
        )
        (pin passive line (at 0 -3.81 90) (length 1.27)
          (name "~" (effects (font (size 1.27 1.27))))
          (number "2" (effects (font (size 1.27 1.27))))
        )
      )
    )
    (symbol "pbv3:BAS70DW-04" (pin_names (offset 1.016)) (in_bom yes) (on_board yes)
      (property "Reference" "D" (at 0 10.16 0)
        (effects (font (size 1.524 1.524)))
      )
      (property "Value" "BAS70DW-04" (at 0 -12.7 0)
        (effects (font (size 1.524 1.524)))
      )
      (property "Footprint" "" (at 0 0 90)
        (effects (font (size 1.524 1.524)) hide)
      )
      (property "Datasheet" "" (at 0 0 90)
        (effects (font (size 1.524 1.524)) hide)
      )
      (property "ki_description" "Quad diode" (at 0 0 0)
        (effects (font (size 1.27 1.27)) hide)
      )
      (symbol "BAS70DW-04_0_1"
        (polyline
          (pts
            (xy -5.08 -1.27)
            (xy -7.62 -1.27)
          )
          (stroke (width 0) (type default))
          (fill (type none))
        )
        (polyline
          (pts
            (xy -5.08 0)
            (xy -5.08 -2.54)
          )
          (stroke (width 0) (type default))
          (fill (type none))
        )
        (polyline
          (pts
            (xy -2.54 7.62)
            (xy -2.54 5.08)
          )
          (stroke (width 0) (type default))
          (fill (type none))
        )
        (polyline
          (pts
            (xy 1.27 -8.89)
            (xy -7.62 -8.89)
          )
          (stroke (width 0) (type default))
          (fill (type none))
        )
        (polyline
          (pts
            (xy 2.54 -10.16)
            (xy 2.54 -7.62)
          )
          (stroke (width 0) (type default))
          (fill (type none))
        )
        (polyline
          (pts
            (xy 5.08 -1.27)
            (xy 7.62 -1.27)
          )
          (stroke (width 0) (type default))
          (fill (type none))
        )
        (polyline
          (pts
            (xy 5.08 0)
            (xy 5.08 -2.54)
          )
          (stroke (width 0) (type default))
          (fill (type none))
        )
        (polyline
          (pts
            (xy -7.62 6.35)
            (xy -5.08 6.35)
            (xy -5.08 7.62)
            (xy -2.54 6.35)
            (xy -5.08 5.08)
            (xy -5.08 6.35)
          )
          (stroke (width 0) (type default))
          (fill (type none))
        )
        (polyline
          (pts
            (xy 7.62 -8.89)
            (xy 5.08 -8.89)
            (xy 5.08 -10.16)
            (xy 2.54 -8.89)
            (xy 5.08 -7.62)
            (xy 5.08 -8.89)
          )
          (stroke (width 0) (type default))
          (fill (type none))
        )
        (polyline
          (pts
            (xy 2.54 -8.89)
            (xy 1.27 -8.89)
            (xy 1.27 -1.27)
            (xy 2.54 -1.27)
            (xy 2.54 0)
            (xy 5.08 -1.27)
            (xy 2.54 -2.54)
            (xy 2.54 -1.27)
          )
          (stroke (width 0) (type default))
          (fill (type none))
        )
        (polyline
          (pts
            (xy -2.54 6.35)
            (xy 7.62 6.35)
            (xy -1.27 6.35)
            (xy -1.27 -1.27)
            (xy -2.54 -1.27)
            (xy -2.54 0)
            (xy -5.08 -1.27)
            (xy -2.54 -2.54)
            (xy -2.54 -1.27)
          )
          (stroke (width 0) (type default))
          (fill (type none))
        )
        (rectangle (start 7.62 8.89) (end -7.62 -11.43)
          (stroke (width 0) (type default))
          (fill (type background))
        )
      )
      (symbol "BAS70DW-04_1_1"
        (pin input line (at -12.7 6.35 0) (length 5.08)
          (name "~" (effects (font (size 1.27 1.27))))
          (number "1" (effects (font (size 1.27 1.27))))
        )
        (pin input line (at -12.7 -1.27 0) (length 5.08)
          (name "~" (effects (font (size 1.27 1.27))))
          (number "2" (effects (font (size 1.27 1.27))))
        )
        (pin input line (at -12.7 -8.89 0) (length 5.08)
          (name "~" (effects (font (size 1.27 1.27))))
          (number "3" (effects (font (size 1.27 1.27))))
        )
        (pin input line (at 12.7 -8.89 180) (length 5.08)
          (name "~" (effects (font (size 1.27 1.27))))
          (number "4" (effects (font (size 1.27 1.27))))
        )
        (pin input line (at 12.7 -1.27 180) (length 5.08)
          (name "~" (effects (font (size 1.27 1.27))))
          (number "5" (effects (font (size 1.27 1.27))))
        )
        (pin input line (at 12.7 6.35 180) (length 5.08)
          (name "~" (effects (font (size 1.27 1.27))))
          (number "6" (effects (font (size 1.27 1.27))))
        )
      )
    )
    (symbol "power:GND" (power) (pin_names (offset 0)) (in_bom yes) (on_board yes)
      (property "Reference" "#PWR" (at 0 -6.35 0)
        (effects (font (size 1.27 1.27)) hide)
      )
      (property "Value" "GND" (at 0 -3.81 0)
        (effects (font (size 1.27 1.27)))
      )
      (property "Footprint" "" (at 0 0 0)
        (effects (font (size 1.27 1.27)) hide)
      )
      (property "Datasheet" "" (at 0 0 0)
        (effects (font (size 1.27 1.27)) hide)
      )
      (property "ki_keywords" "power-flag" (at 0 0 0)
        (effects (font (size 1.27 1.27)) hide)
      )
      (property "ki_description" "Power symbol creates a global label with name \"GND\" , ground" (at 0 0 0)
        (effects (font (size 1.27 1.27)) hide)
      )
      (symbol "GND_0_1"
        (polyline
          (pts
            (xy 0 0)
            (xy 0 -1.27)
            (xy 1.27 -1.27)
            (xy 0 -2.54)
            (xy -1.27 -1.27)
            (xy 0 -1.27)
          )
          (stroke (width 0) (type default))
          (fill (type none))
        )
      )
      (symbol "GND_1_1"
        (pin power_in line (at 0 0 270) (length 0) hide
          (name "GND" (effects (font (size 1.27 1.27))))
          (number "1" (effects (font (size 1.27 1.27))))
        )
      )
    )
  )

  (junction (at 115.57 119.38) (diameter 0) (color 0 0 0 0)
    (uuid 014d13cd-26ad-4d0e-86ad-a43b541cab14)
  )
  (junction (at 199.39 68.58) (diameter 0) (color 0 0 0 0)
    (uuid 20caf6d2-76a7-497e-ac56-f6d31eb9027b)
  )
  (junction (at 175.26 107.95) (diameter 0) (color 0 0 0 0)
    (uuid 25bc3602-3fb4-4a04-94e3-21ba22562c24)
  )
  (junction (at 88.9 88.9) (diameter 0) (color 0 0 0 0)
    (uuid 2b5a9ad3-7ec4-447d-916c-47adf5f9674f)
  )
  (junction (at 185.42 88.9) (diameter 0) (color 0 0 0 0)
    (uuid 319639ae-c2c5-486d-93b1-d03bb1b64252)
  )
  (junction (at 185.42 68.58) (diameter 0) (color 0 0 0 0)
    (uuid 3c8d03bf-f31d-4aa0-b8db-a227ffd7d8d6)
  )
  (junction (at 166.37 97.79) (diameter 0) (color 0 0 0 0)
    (uuid 49575217-40b0-4890-8acf-12982cca52b5)
  )
  (junction (at 152.4 97.79) (diameter 0) (color 0 0 0 0)
    (uuid 4a54c707-7b6f-4a3d-a74d-5e3526114aba)
  )
  (junction (at 115.57 88.9) (diameter 0) (color 0 0 0 0)
    (uuid 528fd7da-c9a6-40ae-9f1a-60f6a7f4d534)
  )
  (junction (at 209.55 68.58) (diameter 0) (color 0 0 0 0)
    (uuid 62a1f3d4-027d-4ecf-a37a-6fcf4263e9d2)
  )
  (junction (at 87.63 124.46) (diameter 0) (color 0 0 0 0)
    (uuid 71f8d568-0f23-4ff2-8e60-1600ce517a48)
  )
  (junction (at 161.29 107.95) (diameter 0) (color 0 0 0 0)
    (uuid 89c9afdc-c346-4300-a392-5f9dd8c1e5bd)
  )
  (junction (at 123.19 88.9) (diameter 0) (color 0 0 0 0)
    (uuid a25b7e01-1754-4cc9-8a14-3d9c461e5af5)
  )
  (junction (at 166.37 107.95) (diameter 0) (color 0 0 0 0)
    (uuid c1bac86f-cbf6-4c5b-b60d-c26fa73d9c09)
  )
  (junction (at 107.95 88.9) (diameter 0) (color 0 0 0 0)
    (uuid c454102f-dc92-4550-9492-797fc8e6b49c)
  )
  (junction (at 107.95 119.38) (diameter 0) (color 0 0 0 0)
    (uuid cd5e758d-cb66-484a-ae8b-21f53ceee49e)
  )
  (junction (at 161.29 97.79) (diameter 0) (color 0 0 0 0)
    (uuid d0cd3439-276c-41ba-b38d-f84f6da38415)
  )
  (junction (at 152.4 107.95) (diameter 0) (color 0 0 0 0)
    (uuid e1b88aa4-d887-4eea-83ff-5c009f4390c4)
  )
  (junction (at 105.41 124.46) (diameter 0) (color 0 0 0 0)
    (uuid e413cfad-d7bd-41ab-b8dd-4b67484671a6)
  )
  (junction (at 209.55 88.9) (diameter 0) (color 0 0 0 0)
    (uuid e6d68f56-4a40-4849-b8d1-13d5ca292900)
  )
  (junction (at 199.39 88.9) (diameter 0) (color 0 0 0 0)
    (uuid f6983918-fe05-46ea-b355-bc522ec53440)
  )
  (junction (at 82.55 88.9) (diameter 0) (color 0 0 0 0)
    (uuid fa00d3f4-bb71-4b1d-aa40-ae9267e2c41f)
  )

  (wire (pts (xy 87.63 124.46) (xy 93.98 124.46))
    (stroke (width 0) (type default))
    (uuid 0cbeb329-a88d-4a47-a5c2-a1d693de2f8c)
  )
  (wire (pts (xy 182.88 88.9) (xy 185.42 88.9))
    (stroke (width 0) (type default))
    (uuid 0fc5db66-6188-4c1f-bb14-0868bef113eb)
  )
  (wire (pts (xy 175.26 68.58) (xy 175.26 92.71))
    (stroke (width 0) (type default))
    (uuid 10e52e95-44f3-4059-a86d-dcda603e0623)
  )
  (wire (pts (xy 72.39 88.9) (xy 68.58 88.9))
    (stroke (width 0) (type default))
    (uuid 1427bb3f-0689-4b41-a816-cd79a5202fd0)
  )
  (wire (pts (xy 185.42 80.01) (xy 185.42 77.47))
    (stroke (width 0) (type default))
    (uuid 142dd724-2a9f-4eea-ab21-209b1bc7ec65)
  )
  (wire (pts (xy 185.42 87.63) (xy 185.42 88.9))
    (stroke (width 0) (type default))
    (uuid 15a82541-58d8-45b5-99c5-fb52e017e3ea)
  )
  (wire (pts (xy 138.43 97.79) (xy 140.97 97.79))
    (stroke (width 0) (type default))
    (uuid 1ab71a3c-340b-469a-ada5-4f87f0b7b2fa)
  )
  (wire (pts (xy 166.37 99.06) (xy 166.37 97.79))
    (stroke (width 0) (type default))
    (uuid 283c990c-ae5a-4e41-a3ad-b40ca29fe90e)
  )
  (wire (pts (xy 209.55 74.93) (xy 209.55 68.58))
    (stroke (width 0) (type default))
    (uuid 2f291a4b-4ecb-4692-9ad2-324f9784c0d4)
  )
  (wire (pts (xy 82.55 96.52) (xy 82.55 99.06))
    (stroke (width 0) (type default))
    (uuid 31f91ec8-56e4-4e08-9ccd-012652772211)
  )
  (wire (pts (xy 182.88 114.3) (xy 182.88 88.9))
    (stroke (width 0) (type default))
    (uuid 3a70978e-dcc2-4620-a99c-514362812927)
  )
  (wire (pts (xy 209.55 88.9) (xy 209.55 82.55))
    (stroke (width 0) (type default))
    (uuid 3d6cdd62-5634-4e30-acf8-1b9c1dbf6653)
  )
  (wire (pts (xy 128.27 88.9) (xy 128.27 121.92))
    (stroke (width 0) (type default))
    (uuid 443bc73a-8dc0-4e2f-a292-a5eff00efa5b)
  )
  (wire (pts (xy 175.26 102.87) (xy 175.26 107.95))
    (stroke (width 0) (type default))
    (uuid 4aa97874-2fd2-414c-b381-9420384c2fd8)
  )
  (wire (pts (xy 152.4 97.79) (xy 152.4 99.06))
    (stroke (width 0) (type default))
    (uuid 4b1fce17-dec7-457e-ba3b-a77604e77dc9)
  )
  (wire (pts (xy 115.57 81.28) (xy 115.57 88.9))
    (stroke (width 0) (type default))
    (uuid 501880c3-8633-456f-9add-0e8fa1932ba6)
  )
  (wire (pts (xy 105.41 124.46) (xy 138.43 124.46))
    (stroke (width 0) (type default))
    (uuid 52a8f1be-73ca-41a8-bc24-2320706b0ec1)
  )
  (wire (pts (xy 80.01 88.9) (xy 82.55 88.9))
    (stroke (width 0) (type default))
    (uuid 59cb2966-1e9c-4b3b-b3c8-7499378d8dde)
  )
  (wire (pts (xy 82.55 88.9) (xy 88.9 88.9))
    (stroke (width 0) (type default))
    (uuid 616287d9-a51f-498c-8b91-be46a0aa3a7f)
  )
  (wire (pts (xy 115.57 116.84) (xy 115.57 119.38))
    (stroke (width 0) (type default))
    (uuid 626679e8-6101-4722-ac57-5b8d9dab4c8b)
  )
  (wire (pts (xy 152.4 97.79) (xy 161.29 97.79))
    (stroke (width 0) (type default))
    (uuid 633292d3-80c5-4986-be82-ce926e9f09f4)
  )
  (wire (pts (xy 101.6 124.46) (xy 105.41 124.46))
    (stroke (width 0) (type default))
    (uuid 691af561-538d-4e8f-a916-26cad45eb7d6)
  )
  (wire (pts (xy 68.58 124.46) (xy 87.63 124.46))
    (stroke (width 0) (type default))
    (uuid 6afc19cf-38b4-47a3-bc2b-445b18724310)
  )
  (wire (pts (xy 199.39 68.58) (xy 200.66 68.58))
    (stroke (width 0) (type default))
    (uuid 6d0c9e39-9878-44c8-8283-9a59e45006fa)
  )
  (wire (pts (xy 175.26 68.58) (xy 185.42 68.58))
    (stroke (width 0) (type default))
    (uuid 74f5ec08-7600-4a0b-a9e4-aae29f9ea08a)
  )
  (wire (pts (xy 199.39 74.93) (xy 199.39 68.58))
    (stroke (width 0) (type default))
    (uuid 759788bd-3cb9-4d38-b58c-5cb10b7dca6b)
  )
  (wire (pts (xy 152.4 107.95) (xy 161.29 107.95))
    (stroke (width 0) (type default))
    (uuid 7744b6ee-910d-401d-b730-65c35d3d8092)
  )
  (wire (pts (xy 166.37 106.68) (xy 166.37 107.95))
    (stroke (width 0) (type default))
    (uuid 7760a75a-d74b-4185-b34e-cbc7b2c339b6)
  )
  (wire (pts (xy 138.43 107.95) (xy 152.4 107.95))
    (stroke (width 0) (type default))
    (uuid 78f9c3d3-3556-46f6-9744-05ad54b330f0)
  )
  (wire (pts (xy 115.57 81.28) (xy 138.43 81.28))
    (stroke (width 0) (type default))
    (uuid 7a879184-fad8-4feb-afb5-86fe8d34f1f7)
  )
  (wire (pts (xy 166.37 97.79) (xy 167.64 97.79))
    (stroke (width 0) (type default))
    (uuid 7c2008c8-0626-4a09-a873-065e83502a0e)
  )
  (wire (pts (xy 199.39 88.9) (xy 209.55 88.9))
    (stroke (width 0) (type default))
    (uuid 7c411b3e-aca2-424f-b644-2d21c9d80fa7)
  )
  (wire (pts (xy 88.9 88.9) (xy 93.98 88.9))
    (stroke (width 0) (type default))
    (uuid 7db990e4-92e1-4f99-b4d2-435bbec1ba83)
  )
  (wire (pts (xy 107.95 83.82) (xy 132.08 83.82))
    (stroke (width 0) (type default))
    (uuid 810ed4ff-ffe2-4032-9af6-fb5ada3bae5b)
  )
  (wire (pts (xy 115.57 121.92) (xy 115.57 119.38))
    (stroke (width 0) (type default))
    (uuid 83021f70-e61e-4ad3-bae7-b9f02b28be4f)
  )
  (wire (pts (xy 88.9 99.06) (xy 88.9 96.52))
    (stroke (width 0) (type default))
    (uuid 84d296ba-3d39-4264-ad19-947f90c54396)
  )
  (wire (pts (xy 152.4 107.95) (xy 152.4 106.68))
    (stroke (width 0) (type default))
    (uuid 869d6302-ae22-478f-9723-3feacbb12eef)
  )
  (wire (pts (xy 161.29 107.95) (xy 166.37 107.95))
    (stroke (width 0) (type default))
    (uuid 8b7bbefd-8f78-41f8-809c-2534a5de3b39)
  )
  (wire (pts (xy 107.95 88.9) (xy 107.95 91.44))
    (stroke (width 0) (type default))
    (uuid 8efee08b-b92e-4ba6-8722-c058e18114fe)
  )
  (wire (pts (xy 132.08 119.38) (xy 132.08 107.95))
    (stroke (width 0) (type default))
    (uuid 91fe070a-a49b-4bc5-805a-42f23e10d114)
  )
  (wire (pts (xy 209.55 68.58) (xy 214.63 68.58))
    (stroke (width 0) (type default))
    (uuid 9c607e49-ee5c-4e85-a7da-6fede9912412)
  )
  (wire (pts (xy 123.19 91.44) (xy 123.19 88.9))
    (stroke (width 0) (type default))
    (uuid 9f782c92-a5e8-49db-bfda-752b35522ce4)
  )
  (wire (pts (xy 138.43 124.46) (xy 138.43 107.95))
    (stroke (width 0) (type default))
    (uuid a5c8e189-1ddc-4a66-984b-e0fd1529d346)
  )
  (wire (pts (xy 105.41 119.38) (xy 105.41 124.46))
    (stroke (width 0) (type default))
    (uuid b59f18ce-2e34-4b6e-b14d-8d73b8268179)
  )
  (wire (pts (xy 107.95 119.38) (xy 105.41 119.38))
    (stroke (width 0) (type default))
    (uuid b7bf6e08-7978-4190-aff5-c90d967f0f9c)
  )
  (wire (pts (xy 161.29 97.79) (xy 166.37 97.79))
    (stroke (width 0) (type default))
    (uuid b854a395-bfc6-4140-9640-75d4f9296771)
  )
  (wire (pts (xy 199.39 82.55) (xy 199.39 88.9))
    (stroke (width 0) (type default))
    (uuid bb59b92a-e4d0-4b9e-82cd-26304f5c15b8)
  )
  (wire (pts (xy 138.43 81.28) (xy 138.43 97.79))
    (stroke (width 0) (type default))
    (uuid c71f56c1-5b7c-4373-9716-fffac482104c)
  )
  (wire (pts (xy 123.19 119.38) (xy 132.08 119.38))
    (stroke (width 0) (type default))
    (uuid c8a7af6e-c432-4fa3-91ee-c8bf0c5a9ebe)
  )
  (wire (pts (xy 128.27 121.92) (xy 115.57 121.92))
    (stroke (width 0) (type default))
    (uuid cc75e5ae-3348-4e7a-bd16-4df685ee47bd)
  )
  (wire (pts (xy 107.95 116.84) (xy 107.95 119.38))
    (stroke (width 0) (type default))
    (uuid ccc4cc25-ac17-45ef-825c-e079951ffb21)
  )
  (wire (pts (xy 123.19 116.84) (xy 123.19 119.38))
    (stroke (width 0) (type default))
    (uuid d01102e9-b170-4eb1-a0a4-9a31feb850b7)
  )
  (wire (pts (xy 166.37 107.95) (xy 175.26 107.95))
    (stroke (width 0) (type default))
    (uuid d102186a-5b58-41d0-9985-3dbb3593f397)
  )
  (wire (pts (xy 148.59 97.79) (xy 152.4 97.79))
    (stroke (width 0) (type default))
    (uuid d66d3c12-11ce-4566-9a45-962e329503d8)
  )
  (wire (pts (xy 107.95 83.82) (xy 107.95 88.9))
    (stroke (width 0) (type default))
    (uuid da6f4122-0ecc-496f-b0fd-e4abef534976)
  )
  (wire (pts (xy 161.29 99.06) (xy 161.29 97.79))
    (stroke (width 0) (type default))
    (uuid dda1e6ca-91ec-4136-b90b-3c54d79454b9)
  )
  (wire (pts (xy 115.57 88.9) (xy 115.57 91.44))
    (stroke (width 0) (type default))
    (uuid e300709f-6c72-488d-a598-efcbd6d3af54)
  )
  (wire (pts (xy 175.26 107.95) (xy 175.26 114.3))
    (stroke (width 0) (type default))
    (uuid e36988d2-ecb2-461b-a443-7006f447e828)
  )
  (wire (pts (xy 185.42 88.9) (xy 199.39 88.9))
    (stroke (width 0) (type default))
    (uuid e5e5220d-5b7e-47da-a902-b997ec8d4d58)
  )
  (wire (pts (xy 185.42 69.85) (xy 185.42 68.58))
    (stroke (width 0) (type default))
    (uuid e70b6168-f98e-4322-bc55-500948ef7b77)
  )
  (wire (pts (xy 123.19 88.9) (xy 128.27 88.9))
    (stroke (width 0) (type default))
    (uuid eac8d865-0226-4958-b547-6b5592f39713)
  )
  (wire (pts (xy 101.6 88.9) (xy 107.95 88.9))
    (stroke (width 0) (type default))
    (uuid f1782535-55f4-4299-bd4f-6f51b0b7259c)
  )
  (wire (pts (xy 132.08 83.82) (xy 132.08 100.33))
    (stroke (width 0) (type default))
    (uuid f2480d0c-9b08-4037-9175-b2369af04d4c)
  )
  (wire (pts (xy 209.55 88.9) (xy 214.63 88.9))
    (stroke (width 0) (type default))
    (uuid f345e52a-8e0a-425a-b438-90809dd3b799)
  )
  (wire (pts (xy 208.28 68.58) (xy 209.55 68.58))
    (stroke (width 0) (type default))
    (uuid f447e585-df78-4239-b8cb-4653b3837bb1)
  )
  (wire (pts (xy 198.12 68.58) (xy 199.39 68.58))
    (stroke (width 0) (type default))
    (uuid f44d04c5-0d17-4d52-8328-ef3b4fdfba5f)
  )
  (wire (pts (xy 185.42 68.58) (xy 190.5 68.58))
    (stroke (width 0) (type default))
    (uuid f4a8afbe-ed68-4253-959f-6be4d2cbf8c5)
  )
  (wire (pts (xy 161.29 106.68) (xy 161.29 107.95))
    (stroke (width 0) (type default))
    (uuid f5bf5b4a-5213-48af-a5cd-0d67969d2de6)
  )
  (wire (pts (xy 87.63 124.46) (xy 87.63 125.73))
    (stroke (width 0) (type default))
    (uuid fe14c012-3d58-4e5e-9a37-4b9765a7f764)
  )

  (text "HVmux + HV filter" (at 63.5 64.77 0)
    (effects (font (size 6.604 6.604)) (justify left bottom))
    (uuid dbe92a0d-89cb-4d3f-9497-c2c1d93a3018)
  )

  (label "HVOSC" (at 68.58 88.9 0) (fields_autoplaced)
    (effects (font (size 1.524 1.524)) (justify left bottom))
    (uuid fc4ad874-c922-4070-89f9-7262080469d8)
  )

  (hierarchical_label "HV_IN_RTN" (shape input) (at 182.88 114.3 270) (fields_autoplaced)
    (effects (font (size 1.524 1.524)) (justify right))
    (uuid 01f82238-6335-48fe-8b0a-6853e227345a)
  )
  (hierarchical_label "HV_OUT_RTN" (shape input) (at 214.63 88.9 0) (fields_autoplaced)
    (effects (font (size 1.524 1.524)) (justify left))
    (uuid 0e249018-17e7-42b3-ae5d-5ebf3ae299ae)
  )
  (hierarchical_label "GND" (shape input) (at 68.58 124.46 180) (fields_autoplaced)
    (effects (font (size 1.524 1.524)) (justify right))
    (uuid 13bbfffc-affb-4b43-9eb1-f2ed90a8a919)
  )
  (hierarchical_label "HV_OUT" (shape input) (at 214.63 68.58 0) (fields_autoplaced)
    (effects (font (size 1.524 1.524)) (justify left))
    (uuid 63489ebf-0f52-43a6-a0ab-158b1a7d4988)
  )
  (hierarchical_label "HV_IN" (shape input) (at 175.26 114.3 270) (fields_autoplaced)
    (effects (font (size 1.524 1.524)) (justify right))
    (uuid 7c00778a-4692-4f9b-87d5-2d355077ce1e)
  )
  (hierarchical_label "HVOSC" (shape input) (at 68.58 88.9 180) (fields_autoplaced)
    (effects (font (size 1.524 1.524)) (justify right))
    (uuid 97581b9a-3f6b-4e88-8768-6fdb60e6aca6)
  )

  (symbol (lib_id "Device:R") (at 76.2 88.9 270) (unit 1)
    (in_bom yes) (on_board yes) (dnp no)
    (uuid 00000000-0000-0000-0000-000059f08275)
    (property "Reference" "R14" (at 76.2 90.932 90)
      (effects (font (size 1.27 1.27)))
    )
    (property "Value" "499R" (at 76.2 88.9 90)
      (effects (font (size 1.27 1.27)))
    )
    (property "Footprint" "Resistor_SMD:R_0201_0603Metric" (at 76.2 87.122 90)
      (effects (font (size 1.27 1.27)) hide)
    )
    (property "Datasheet" "" (at 76.2 88.9 0)
      (effects (font (size 1.27 1.27)))
    )
    (property "Part" "ERJ-1GNF4990C" (at 76.2 88.9 0)
      (effects (font (size 1.27 1.27)) hide)
    )
    (pin "1" (uuid b6d3e6b1-4fdb-4600-8339-e15317f74269))
    (pin "2" (uuid c71f55ed-8b0d-4053-bda8-e1811b500d5c))
    (instances
      (project "pbv3"
        (path "/8e06ba1f-e3ba-4eb9-a10e-887dffd566d6/00000000-0000-0000-0000-000059f07aaa"
          (reference "R14") (unit 1)
        )
      )
    )
  )

  (symbol (lib_id "Device:C") (at 88.9 92.71 0) (unit 1)
    (in_bom yes) (on_board yes) (dnp no)
    (uuid 00000000-0000-0000-0000-000059f0827c)
    (property "Reference" "C19" (at 89.535 90.17 0)
      (effects (font (size 1.27 1.27)) (justify left))
    )
    (property "Value" "1nF" (at 89.535 95.25 0)
      (effects (font (size 1.27 1.27)) (justify left))
    )
    (property "Footprint" "Capacitor_SMD:C_0402_1005Metric" (at 89.8652 96.52 0)
      (effects (font (size 1.27 1.27)) hide)
    )
    (property "Datasheet" "" (at 88.9 92.71 0)
      (effects (font (size 1.27 1.27)))
    )
    (property "Part" "GRT1555C1H102JA02D" (at 88.9 92.71 0)
      (effects (font (size 1.27 1.27)) hide)
    )
    (pin "1" (uuid 5b8e2a6e-19a1-4cad-855c-93ae9185f244))
    (pin "2" (uuid 80a00ffb-c6b0-43d4-8459-54561e7cbe63))
    (instances
      (project "pbv3"
        (path "/8e06ba1f-e3ba-4eb9-a10e-887dffd566d6/00000000-0000-0000-0000-000059f07aaa"
          (reference "C19") (unit 1)
        )
      )
    )
  )

  (symbol (lib_id "Device:C") (at 97.79 88.9 270) (unit 1)
    (in_bom yes) (on_board yes) (dnp no)
    (uuid 00000000-0000-0000-0000-000059f08283)
    (property "Reference" "C20" (at 100.33 89.535 0)
      (effects (font (size 1.27 1.27)) (justify left))
    )
    (property "Value" "68nF/1kV" (at 95.25 89.535 0)
      (effects (font (size 1.27 1.27)) (justify left))
    )
    (property "Footprint" "Capacitor_SMD:C_1210_3225Metric" (at 93.98 89.8652 0)
      (effects (font (size 1.27 1.27)) hide)
    )
    (property "Datasheet" "" (at 97.79 88.9 0)
      (effects (font (size 1.27 1.27)))
    )
    (property "Part" "C1210C683KDRACTU" (at 97.79 88.9 0)
      (effects (font (size 1.27 1.27)) hide)
    )
    (pin "1" (uuid 84ffbb13-b4ed-4870-b8de-b6d78fbf3794))
    (pin "2" (uuid 435ead52-c169-443a-8062-5377c2062aaf))
    (instances
      (project "pbv3"
        (path "/8e06ba1f-e3ba-4eb9-a10e-887dffd566d6/00000000-0000-0000-0000-000059f07aaa"
          (reference "C20") (unit 1)
        )
      )
    )
  )

  (symbol (lib_id "pbv3:BAS70DW-04") (at 116.84 104.14 270) (unit 1)
    (in_bom yes) (on_board yes) (dnp no)
    (uuid 00000000-0000-0000-0000-000059f0828a)
    (property "Reference" "D1" (at 127 104.14 0)
      (effects (font (size 1.524 1.524)))
    )
    (property "Value" "BAT54SDW-7-F" (at 104.14 104.14 0)
      (effects (font (size 1.524 1.524)))
    )
    (property "Footprint" "TO_SOT_Packages_SMD:SOT-363_SC-70-6" (at 116.84 104.14 90)
      (effects (font (size 1.524 1.524)) hide)
    )
    (property "Datasheet" "" (at 116.84 104.14 90)
      (effects (font (size 1.524 1.524)) hide)
    )
    (property "Part" "BAT54SDW-7-F" (at 116.84 104.14 0)
      (effects (font (size 1.27 1.27)) hide)
    )
    (pin "1" (uuid 3e4fa335-b4ad-42d3-b963-d6ba403b12bd))
    (pin "2" (uuid cff4e32b-58a6-4e66-8953-bf4ced4fdee8))
    (pin "3" (uuid 970604e1-e3af-403e-8d4a-19c9dbd6bf38))
    (pin "4" (uuid 5e51cd7d-dce9-4bbf-b1e2-8712a52ce40d))
    (pin "5" (uuid 044f7c79-a10c-473e-9b27-a59c295ffdf1))
    (pin "6" (uuid 95a7427e-6525-445e-a8b9-84d38111f181))
    (instances
      (project "pbv3"
        (path "/8e06ba1f-e3ba-4eb9-a10e-887dffd566d6/00000000-0000-0000-0000-000059f07aaa"
          (reference "D1") (unit 1)
        )
      )
    )
  )

  (symbol (lib_id "Device:C") (at 111.76 119.38 270) (unit 1)
    (in_bom yes) (on_board yes) (dnp no)
    (uuid 00000000-0000-0000-0000-000059f08291)
    (property "Reference" "C22" (at 114.3 120.015 0)
      (effects (font (size 1.27 1.27)) (justify left))
    )
    (property "Value" "1uF" (at 109.22 120.015 0)
      (effects (font (size 1.27 1.27)) (justify left))
    )
    (property "Footprint" "Capacitor_SMD:C_0603_1608Metric" (at 107.95 120.3452 0)
      (effects (font (size 1.27 1.27)) hide)
    )
    (property "Datasheet" "" (at 111.76 119.38 0)
      (effects (font (size 1.27 1.27)))
    )
    (property "Part" "CC0603KRX5R8BB105" (at 111.76 119.38 0)
      (effects (font (size 1.27 1.27)) hide)
    )
    (pin "1" (uuid 1c2060be-3fa9-499b-b71b-36291f0bcaa4))
    (pin "2" (uuid 8b11bd4c-2f2d-49bf-80dd-eebab4f3d582))
    (instances
      (project "pbv3"
        (path "/8e06ba1f-e3ba-4eb9-a10e-887dffd566d6/00000000-0000-0000-0000-000059f07aaa"
          (reference "C22") (unit 1)
        )
      )
    )
  )

  (symbol (lib_id "Device:C") (at 119.38 88.9 270) (unit 1)
    (in_bom yes) (on_board yes) (dnp no)
    (uuid 00000000-0000-0000-0000-000059f08298)
    (property "Reference" "C23" (at 121.92 89.535 0)
      (effects (font (size 1.27 1.27)) (justify left))
    )
    (property "Value" "1uF" (at 116.84 89.535 0)
      (effects (font (size 1.27 1.27)) (justify left))
    )
    (property "Footprint" "Capacitor_SMD:C_0603_1608Metric" (at 115.57 89.8652 0)
      (effects (font (size 1.27 1.27)) hide)
    )
    (property "Datasheet" "" (at 119.38 88.9 0)
      (effects (font (size 1.27 1.27)))
    )
    (property "Part" "CC0603KRX5R8BB105" (at 119.38 88.9 0)
      (effects (font (size 1.27 1.27)) hide)
    )
    (pin "1" (uuid e158092a-b261-4092-8ebe-ce90f3128bdf))
    (pin "2" (uuid dd78c6a7-3c4b-4a75-826e-7c0a41e055de))
    (instances
      (project "pbv3"
        (path "/8e06ba1f-e3ba-4eb9-a10e-887dffd566d6/00000000-0000-0000-0000-000059f07aaa"
          (reference "C23") (unit 1)
        )
      )
    )
  )

  (symbol (lib_id "Device:C") (at 132.08 104.14 0) (unit 1)
    (in_bom yes) (on_board yes) (dnp no)
    (uuid 00000000-0000-0000-0000-000059f0829f)
    (property "Reference" "C24" (at 132.715 101.6 0)
      (effects (font (size 1.27 1.27)) (justify left))
    )
    (property "Value" "1uF" (at 132.715 106.68 0)
      (effects (font (size 1.27 1.27)) (justify left))
    )
    (property "Footprint" "Capacitor_SMD:C_0603_1608Metric" (at 133.0452 107.95 0)
      (effects (font (size 1.27 1.27)) hide)
    )
    (property "Datasheet" "" (at 132.08 104.14 0)
      (effects (font (size 1.27 1.27)))
    )
    (property "Part" "CC0603KRX5R8BB105" (at 132.08 104.14 0)
      (effects (font (size 1.27 1.27)) hide)
    )
    (pin "1" (uuid 369b3659-c181-47dc-8452-e2de8b1cd204))
    (pin "2" (uuid edc8f391-0b6a-4a66-802b-2b3733d943db))
    (instances
      (project "pbv3"
        (path "/8e06ba1f-e3ba-4eb9-a10e-887dffd566d6/00000000-0000-0000-0000-000059f07aaa"
          (reference "C24") (unit 1)
        )
      )
    )
  )

  (symbol (lib_id "Device:C") (at 97.79 124.46 270) (unit 1)
    (in_bom yes) (on_board yes) (dnp no)
    (uuid 00000000-0000-0000-0000-000059f082a6)
    (property "Reference" "C21" (at 100.33 125.095 0)
      (effects (font (size 1.27 1.27)) (justify left))
    )
    (property "Value" "68nF/1kV" (at 95.25 125.095 0)
      (effects (font (size 1.27 1.27)) (justify left))
    )
    (property "Footprint" "Capacitor_SMD:C_1210_3225Metric" (at 93.98 125.4252 0)
      (effects (font (size 1.27 1.27)) hide)
    )
    (property "Datasheet" "" (at 97.79 124.46 0)
      (effects (font (size 1.27 1.27)))
    )
    (property "Part" "C1210C683KDRACTU" (at 97.79 124.46 0)
      (effects (font (size 1.27 1.27)) hide)
    )
    (pin "1" (uuid 1555c017-8be0-443b-9ac1-6a964789a0cf))
    (pin "2" (uuid 737724c0-2c60-4036-86dd-d53fbfe67f53))
    (instances
      (project "pbv3"
        (path "/8e06ba1f-e3ba-4eb9-a10e-887dffd566d6/00000000-0000-0000-0000-000059f07aaa"
          (reference "C21") (unit 1)
        )
      )
    )
  )

  (symbol (lib_id "power:GND") (at 88.9 99.06 0) (unit 1)
    (in_bom yes) (on_board yes) (dnp no)
    (uuid 00000000-0000-0000-0000-000059f082b8)
    (property "Reference" "#PWR018" (at 88.9 105.41 0)
      (effects (font (size 1.27 1.27)) hide)
    )
    (property "Value" "GND" (at 88.9 102.87 0)
      (effects (font (size 1.27 1.27)))
    )
    (property "Footprint" "" (at 88.9 99.06 0)
      (effects (font (size 1.27 1.27)))
    )
    (property "Datasheet" "" (at 88.9 99.06 0)
      (effects (font (size 1.27 1.27)))
    )
    (pin "1" (uuid 9d7b1418-6c23-4392-bd3f-16d1b3bd9909))
    (instances
      (project "pbv3"
        (path "/8e06ba1f-e3ba-4eb9-a10e-887dffd566d6/00000000-0000-0000-0000-000059f07aaa"
          (reference "#PWR018") (unit 1)
        )
      )
    )
  )

  (symbol (lib_id "power:GND") (at 87.63 125.73 0) (unit 1)
    (in_bom yes) (on_board yes) (dnp no)
    (uuid 00000000-0000-0000-0000-000059f082be)
    (property "Reference" "#PWR019" (at 87.63 132.08 0)
      (effects (font (size 1.27 1.27)) hide)
    )
    (property "Value" "GND" (at 87.63 129.54 0)
      (effects (font (size 1.27 1.27)))
    )
    (property "Footprint" "" (at 87.63 125.73 0)
      (effects (font (size 1.27 1.27)))
    )
    (property "Datasheet" "" (at 87.63 125.73 0)
      (effects (font (size 1.27 1.27)))
    )
    (pin "1" (uuid 16b57ba4-054b-41f0-819a-51a68f73b524))
    (instances
      (project "pbv3"
        (path "/8e06ba1f-e3ba-4eb9-a10e-887dffd566d6/00000000-0000-0000-0000-000059f07aaa"
          (reference "#PWR019") (unit 1)
        )
      )
    )
  )

  (symbol (lib_id "Device:R") (at 144.78 97.79 270) (unit 1)
    (in_bom yes) (on_board yes) (dnp no)
    (uuid 00000000-0000-0000-0000-000059f082d5)
    (property "Reference" "R15" (at 144.78 99.822 90)
      (effects (font (size 1.27 1.27)))
    )
    (property "Value" "100R" (at 144.78 97.79 90)
      (effects (font (size 1.27 1.27)))
    )
    (property "Footprint" "Resistor_SMD:R_0201_0603Metric" (at 144.78 96.012 90)
      (effects (font (size 1.27 1.27)) hide)
    )
    (property "Datasheet" "" (at 144.78 97.79 0)
      (effects (font (size 1.27 1.27)))
    )
    (property "Part" "ERJ-1GNJ101C" (at 144.78 97.79 0)
      (effects (font (size 1.27 1.27)) hide)
    )
    (pin "1" (uuid 8c58b9c6-42fa-43ad-a456-e387b2c947c3))
    (pin "2" (uuid a95cd55b-33bc-4004-8e6c-a8e74b14bb6b))
    (instances
      (project "pbv3"
        (path "/8e06ba1f-e3ba-4eb9-a10e-887dffd566d6/00000000-0000-0000-0000-000059f07aaa"
          (reference "R15") (unit 1)
        )
      )
    )
  )

  (symbol (lib_id "Device:C") (at 152.4 102.87 0) (unit 1)
    (in_bom yes) (on_board yes) (dnp no)
    (uuid 00000000-0000-0000-0000-000059f082e3)
    (property "Reference" "C25" (at 153.035 100.33 0)
      (effects (font (size 1.27 1.27)) (justify left))
    )
    (property "Value" "10nF" (at 153.035 105.41 0)
      (effects (font (size 1.27 1.27)) (justify left))
    )
    (property "Footprint" "Capacitor_SMD:C_0402_1005Metric" (at 153.3652 106.68 0)
      (effects (font (size 1.27 1.27)) hide)
    )
    (property "Datasheet" "" (at 152.4 102.87 0)
      (effects (font (size 1.27 1.27)))
    )
    (property "Part" "CGA2B3X5R1V103K050BB" (at 152.4 102.87 0)
      (effects (font (size 1.27 1.27)) hide)
    )
    (pin "1" (uuid e9c4bd5e-e01a-4fa6-931d-aa35acdafeac))
    (pin "2" (uuid 366c129a-725d-4148-83c6-a739290fcf1f))
    (instances
      (project "pbv3"
        (path "/8e06ba1f-e3ba-4eb9-a10e-887dffd566d6/00000000-0000-0000-0000-000059f07aaa"
          (reference "C25") (unit 1)
        )
      )
    )
  )

  (symbol (lib_id "Device:Q_NMOS_DGS") (at 172.72 97.79 0) (unit 1)
    (in_bom yes) (on_board yes) (dnp no)
    (uuid 00000000-0000-0000-0000-000059f082ea)
    (property "Reference" "Q1" (at 180.34 96.52 0)
      (effects (font (size 1.27 1.27)) (justify right))
    )
    (property "Value" "HVmux" (at 173.99 92.71 0)
      (effects (font (size 1.27 1.27)) (justify right))
    )
    (property "Footprint" "pbv3:HVmux" (at 177.8 95.25 0)
      (effects (font (size 1.27 1.27)) hide)
    )
    (property "Datasheet" "" (at 172.72 97.79 0)
      (effects (font (size 1.27 1.27)))
    )
    (pin "1" (uuid 52e7fd43-c612-4b77-bc0c-6984a0f5390a))
    (pin "2" (uuid 31606e64-d70c-484d-aa13-8121440fd5e3))
    (pin "3" (uuid 58aeee1b-6523-4140-98c9-371e6047b257))
    (instances
      (project "pbv3"
        (path "/8e06ba1f-e3ba-4eb9-a10e-887dffd566d6/00000000-0000-0000-0000-000059f07aaa"
          (reference "Q1") (unit 1)
        )
      )
    )
  )

  (symbol (lib_id "Device:R") (at 166.37 102.87 0) (unit 1)
    (in_bom yes) (on_board yes) (dnp no)
    (uuid 00000000-0000-0000-0000-000059f082f1)
    (property "Reference" "R17" (at 168.402 102.87 90)
      (effects (font (size 1.27 1.27)))
    )
    (property "Value" "30k" (at 166.37 102.87 90)
      (effects (font (size 1.27 1.27)))
    )
    (property "Footprint" "Resistor_SMD:R_0201_0603Metric" (at 164.592 102.87 90)
      (effects (font (size 1.27 1.27)) hide)
    )
    (property "Datasheet" "" (at 166.37 102.87 0)
      (effects (font (size 1.27 1.27)))
    )
    (property "Part" "ERJ-1GNF3002C" (at 166.37 102.87 0)
      (effects (font (size 1.27 1.27)) hide)
    )
    (pin "1" (uuid 1a8d2671-ef5c-4a13-be45-276b7e3bc987))
    (pin "2" (uuid 12827a74-57a4-42ac-90ef-eb30a99dd2e5))
    (instances
      (project "pbv3"
        (path "/8e06ba1f-e3ba-4eb9-a10e-887dffd566d6/00000000-0000-0000-0000-000059f07aaa"
          (reference "R17") (unit 1)
        )
      )
    )
  )

  (symbol (lib_id "Device:D_Zener") (at 161.29 102.87 270) (unit 1)
    (in_bom yes) (on_board yes) (dnp no)
    (uuid 00000000-0000-0000-0000-000059f082f8)
    (property "Reference" "D2" (at 163.83 102.87 0)
      (effects (font (size 1.27 1.27)))
    )
    (property "Value" "BZX84-C4V7,215 " (at 158.75 102.87 0)
      (effects (font (size 1.27 1.27)))
    )
    (property "Footprint" "Diode_SMD:D_SOT-23_ANK" (at 161.29 102.87 0)
      (effects (font (size 1.27 1.27)) hide)
    )
    (property "Datasheet" "" (at 161.29 102.87 0)
      (effects (font (size 1.27 1.27)))
    )
    (property "Part" "BZX84-C4V7,215 " (at 161.29 102.87 0)
      (effects (font (size 1.27 1.27)) hide)
    )
    (pin "1" (uuid db478544-8060-43ca-9476-dd90d3bbcf11))
    (pin "2" (uuid 2ce453c2-132e-42c8-b998-2d2bcf244d0f))
    (instances
      (project "pbv3"
        (path "/8e06ba1f-e3ba-4eb9-a10e-887dffd566d6/00000000-0000-0000-0000-000059f07aaa"
          (reference "D2") (unit 1)
        )
      )
    )
  )

  (symbol (lib_id "Device:R") (at 185.42 73.66 0) (unit 1)
    (in_bom yes) (on_board yes) (dnp no)
    (uuid 00000000-0000-0000-0000-000059f08314)
    (property "Reference" "R18" (at 187.452 73.66 90)
      (effects (font (size 1.27 1.27)))
    )
    (property "Value" "4M7" (at 185.42 73.66 90)
      (effects (font (size 1.27 1.27)))
    )
    (property "Footprint" "Resistor_SMD:R_0805_2012Metric" (at 183.642 73.66 90)
      (effects (font (size 1.27 1.27)) hide)
    )
    (property "Datasheet" "" (at 185.42 73.66 0)
      (effects (font (size 1.27 1.27)))
    )
    (property "Part" "RC0805FR-104M7L" (at 185.42 73.66 0)
      (effects (font (size 1.27 1.27)) hide)
    )
    (pin "1" (uuid 03cb71dc-aa9f-4ef4-9b19-7d6989258e7e))
    (pin "2" (uuid f0813490-a64b-4f87-8d42-00833a78de66))
    (instances
      (project "pbv3"
        (path "/8e06ba1f-e3ba-4eb9-a10e-887dffd566d6/00000000-0000-0000-0000-000059f07aaa"
          (reference "R18") (unit 1)
        )
      )
    )
  )

  (symbol (lib_id "Device:R") (at 185.42 83.82 0) (unit 1)
    (in_bom yes) (on_board yes) (dnp no)
    (uuid 00000000-0000-0000-0000-000059f0831b)
    (property "Reference" "R19" (at 187.452 83.82 90)
      (effects (font (size 1.27 1.27)))
    )
    (property "Value" "4M7" (at 185.42 83.82 90)
      (effects (font (size 1.27 1.27)))
    )
    (property "Footprint" "Resistor_SMD:R_0805_2012Metric" (at 183.642 83.82 90)
      (effects (font (size 1.27 1.27)) hide)
    )
    (property "Datasheet" "" (at 185.42 83.82 0)
      (effects (font (size 1.27 1.27)))
    )
    (property "Part" "RC0805FR-104M7L" (at 185.42 83.82 0)
      (effects (font (size 1.27 1.27)) hide)
    )
    (pin "1" (uuid 7663fdb4-8770-4583-a874-ecce78dd9771))
    (pin "2" (uuid eae91cba-d07c-496a-a67b-cd0a2f6e08aa))
    (instances
      (project "pbv3"
        (path "/8e06ba1f-e3ba-4eb9-a10e-887dffd566d6/00000000-0000-0000-0000-000059f07aaa"
          (reference "R19") (unit 1)
        )
      )
    )
  )

  (symbol (lib_id "Device:R") (at 194.31 68.58 270) (unit 1)
    (in_bom yes) (on_board yes) (dnp no)
    (uuid 00000000-0000-0000-0000-000059f08322)
    (property "Reference" "R20" (at 194.31 70.612 90)
      (effects (font (size 1.27 1.27)))
    )
    (property "Value" "4k7" (at 194.31 68.58 90)
      (effects (font (size 1.27 1.27)))
    )
    (property "Footprint" "Resistor_SMD:R_0805_2012Metric" (at 194.31 66.802 90)
      (effects (font (size 1.27 1.27)) hide)
    )
    (property "Datasheet" "" (at 194.31 68.58 0)
      (effects (font (size 1.27 1.27)))
    )
    (property "Part" "ERJ-6GEYJ472V " (at 194.31 68.58 0)
      (effects (font (size 1.27 1.27)) hide)
    )
    (pin "1" (uuid bd6ecc50-4475-4d56-b8a2-9140d4bda6fb))
    (pin "2" (uuid c814aa21-9c46-4566-a094-0e8d80cc6be7))
    (instances
      (project "pbv3"
        (path "/8e06ba1f-e3ba-4eb9-a10e-887dffd566d6/00000000-0000-0000-0000-000059f07aaa"
          (reference "R20") (unit 1)
        )
      )
    )
  )

  (symbol (lib_id "Device:R") (at 204.47 68.58 270) (unit 1)
    (in_bom yes) (on_board yes) (dnp no)
    (uuid 00000000-0000-0000-0000-000059f08329)
    (property "Reference" "R21" (at 204.47 70.612 90)
      (effects (font (size 1.27 1.27)))
    )
    (property "Value" "4k7" (at 204.47 68.58 90)
      (effects (font (size 1.27 1.27)))
    )
    (property "Footprint" "Resistor_SMD:R_0805_2012Metric" (at 204.47 66.802 90)
      (effects (font (size 1.27 1.27)) hide)
    )
    (property "Datasheet" "" (at 204.47 68.58 0)
      (effects (font (size 1.27 1.27)))
    )
    (property "Part" "ERJ-6GEYJ472V " (at 204.47 68.58 0)
      (effects (font (size 1.27 1.27)) hide)
    )
    (pin "1" (uuid f488e431-44e6-4c3b-b784-b22fbf6c9f9e))
    (pin "2" (uuid c3a56073-2271-41b3-979b-770739878d07))
    (instances
      (project "pbv3"
        (path "/8e06ba1f-e3ba-4eb9-a10e-887dffd566d6/00000000-0000-0000-0000-000059f07aaa"
          (reference "R21") (unit 1)
        )
      )
    )
  )

  (symbol (lib_id "Device:C") (at 199.39 78.74 0) (unit 1)
    (in_bom yes) (on_board yes) (dnp no)
    (uuid 00000000-0000-0000-0000-000059f08330)
    (property "Reference" "C26" (at 200.025 76.2 0)
      (effects (font (size 1.27 1.27)) (justify left))
    )
    (property "Value" "68nF/1kV" (at 200.025 81.28 0)
      (effects (font (size 1.27 1.27)) (justify left))
    )
    (property "Footprint" "Capacitor_SMD:C_1210_3225Metric" (at 200.3552 82.55 0)
      (effects (font (size 1.27 1.27)) hide)
    )
    (property "Datasheet" "" (at 199.39 78.74 0)
      (effects (font (size 1.27 1.27)))
    )
    (property "Part" "C1210C683KDRACTU" (at 199.39 78.74 0)
      (effects (font (size 1.27 1.27)) hide)
    )
    (pin "1" (uuid bcf4428f-3b5c-443b-b934-44196fa75e76))
    (pin "2" (uuid 48093090-3d87-4cfe-af50-2822fcc2acbc))
    (instances
      (project "pbv3"
        (path "/8e06ba1f-e3ba-4eb9-a10e-887dffd566d6/00000000-0000-0000-0000-000059f07aaa"
          (reference "C26") (unit 1)
        )
      )
    )
  )

  (symbol (lib_id "Device:C") (at 209.55 78.74 0) (unit 1)
    (in_bom yes) (on_board yes) (dnp no)
    (uuid 00000000-0000-0000-0000-000059f08337)
    (property "Reference" "C27" (at 210.185 76.2 0)
      (effects (font (size 1.27 1.27)) (justify left))
    )
    (property "Value" "68nF/1kV" (at 210.185 81.28 0)
      (effects (font (size 1.27 1.27)) (justify left))
    )
    (property "Footprint" "Capacitor_SMD:C_1210_3225Metric" (at 210.5152 82.55 0)
      (effects (font (size 1.27 1.27)) hide)
    )
    (property "Datasheet" "" (at 209.55 78.74 0)
      (effects (font (size 1.27 1.27)))
    )
    (property "Part" "C1210C683KDRACTU" (at 209.55 78.74 0)
      (effects (font (size 1.27 1.27)) hide)
    )
    (pin "1" (uuid d560d59e-193b-4157-a598-2712b0398f0b))
    (pin "2" (uuid fadbcad7-c746-4352-b193-39bbb489224a))
    (instances
      (project "pbv3"
        (path "/8e06ba1f-e3ba-4eb9-a10e-887dffd566d6/00000000-0000-0000-0000-000059f07aaa"
          (reference "C27") (unit 1)
        )
      )
    )
  )

  (symbol (lib_id "Device:D_Zener") (at 82.55 92.71 270) (unit 1)
    (in_bom yes) (on_board yes) (dnp no)
    (uuid 00000000-0000-0000-0000-00005edf0a29)
    (property "Reference" "D3" (at 85.09 92.71 0)
      (effects (font (size 1.27 1.27)))
    )
    (property "Value" "NP" (at 80.01 92.71 0)
      (effects (font (size 1.27 1.27)))
    )
    (property "Footprint" "Diode_SMD:D_0201_0603Metric" (at 82.55 92.71 0)
      (effects (font (size 1.27 1.27)) hide)
    )
    (property "Datasheet" "" (at 82.55 92.71 0)
      (effects (font (size 1.27 1.27)))
    )
    (property "Part" "GDZ5V1LP3-7" (at 82.55 92.71 0)
      (effects (font (size 1.27 1.27)) hide)
    )
    (pin "1" (uuid 908f8058-f18e-4794-8f26-b9e7a0a95f81))
    (pin "2" (uuid 2e6e4da7-4138-4cfe-b625-b386e28a750a))
    (instances
      (project "pbv3"
        (path "/8e06ba1f-e3ba-4eb9-a10e-887dffd566d6/00000000-0000-0000-0000-000059f07aaa"
          (reference "D3") (unit 1)
        )
      )
    )
  )

  (symbol (lib_id "power:GND") (at 82.55 99.06 0) (unit 1)
    (in_bom yes) (on_board yes) (dnp no)
    (uuid 00000000-0000-0000-0000-00005edf1206)
    (property "Reference" "#PWR0108" (at 82.55 105.41 0)
      (effects (font (size 1.27 1.27)) hide)
    )
    (property "Value" "GND" (at 82.55 102.87 0)
      (effects (font (size 1.27 1.27)))
    )
    (property "Footprint" "" (at 82.55 99.06 0)
      (effects (font (size 1.27 1.27)))
    )
    (property "Datasheet" "" (at 82.55 99.06 0)
      (effects (font (size 1.27 1.27)))
    )
    (pin "1" (uuid 1af346e6-8eef-4f5b-ad80-80e4baed2799))
    (instances
      (project "pbv3"
        (path "/8e06ba1f-e3ba-4eb9-a10e-887dffd566d6/00000000-0000-0000-0000-000059f07aaa"
          (reference "#PWR0108") (unit 1)
        )
      )
    )
  )
)
