(kicad_sch (version 20230121) (generator eeschema)

  (uuid 8e06ba1f-e3ba-4eb9-a10e-887dffd566d6)

  (paper "A4")

  (title_block
    (title "Powerboard v3")
    (date "2017-10-23")
    (rev "A")
    (company "LBNL")
    (comment 1 "Timon Heim")
  )

  (lib_symbols
    (symbol "Device:R" (pin_numbers hide) (pin_names (offset 0)) (in_bom yes) (on_board yes)
      (property "Reference" "R" (at 2.032 0 90)
        (effects (font (size 1.27 1.27)))
      )
      (property "Value" "R" (at 0 0 90)
        (effects (font (size 1.27 1.27)))
      )
      (property "Footprint" "" (at -1.778 0 90)
        (effects (font (size 1.27 1.27)) hide)
      )
      (property "Datasheet" "~" (at 0 0 0)
        (effects (font (size 1.27 1.27)) hide)
      )
      (property "ki_keywords" "R res resistor" (at 0 0 0)
        (effects (font (size 1.27 1.27)) hide)
      )
      (property "ki_description" "Resistor" (at 0 0 0)
        (effects (font (size 1.27 1.27)) hide)
      )
      (property "ki_fp_filters" "R_*" (at 0 0 0)
        (effects (font (size 1.27 1.27)) hide)
      )
      (symbol "R_0_1"
        (rectangle (start -1.016 -2.54) (end 1.016 2.54)
          (stroke (width 0.254) (type default))
          (fill (type none))
        )
      )
      (symbol "R_1_1"
        (pin passive line (at 0 3.81 270) (length 1.27)
          (name "~" (effects (font (size 1.27 1.27))))
          (number "1" (effects (font (size 1.27 1.27))))
        )
        (pin passive line (at 0 -3.81 90) (length 1.27)
          (name "~" (effects (font (size 1.27 1.27))))
          (number "2" (effects (font (size 1.27 1.27))))
        )
      )
    )
    (symbol "pbv3:BondPad" (pin_names (offset 1.016)) (in_bom yes) (on_board yes)
      (property "Reference" "J" (at 0 2.54 0)
        (effects (font (size 1.524 1.524)))
      )
      (property "Value" "BondPad" (at 0 -2.54 0)
        (effects (font (size 1.524 1.524)))
      )
      (property "Footprint" "" (at 0 0 0)
        (effects (font (size 1.524 1.524)) hide)
      )
      (property "Datasheet" "" (at 0 0 0)
        (effects (font (size 1.524 1.524)) hide)
      )
      (symbol "BondPad_0_1"
        (rectangle (start -1.27 1.27) (end 1.27 -1.27)
          (stroke (width 0) (type default))
          (fill (type background))
        )
      )
      (symbol "BondPad_1_1"
        (pin input line (at 6.35 0 180) (length 5.08)
          (name "~" (effects (font (size 1.27 1.27))))
          (number "1" (effects (font (size 1.27 1.27))))
        )
      )
    )
    (symbol "power:GND" (power) (pin_names (offset 0)) (in_bom yes) (on_board yes)
      (property "Reference" "#PWR" (at 0 -6.35 0)
        (effects (font (size 1.27 1.27)) hide)
      )
      (property "Value" "GND" (at 0 -3.81 0)
        (effects (font (size 1.27 1.27)))
      )
      (property "Footprint" "" (at 0 0 0)
        (effects (font (size 1.27 1.27)) hide)
      )
      (property "Datasheet" "" (at 0 0 0)
        (effects (font (size 1.27 1.27)) hide)
      )
      (property "ki_keywords" "power-flag" (at 0 0 0)
        (effects (font (size 1.27 1.27)) hide)
      )
      (property "ki_description" "Power symbol creates a global label with name \"GND\" , ground" (at 0 0 0)
        (effects (font (size 1.27 1.27)) hide)
      )
      (symbol "GND_0_1"
        (polyline
          (pts
            (xy 0 0)
            (xy 0 -1.27)
            (xy 1.27 -1.27)
            (xy 0 -2.54)
            (xy -1.27 -1.27)
            (xy 0 -1.27)
          )
          (stroke (width 0) (type default))
          (fill (type none))
        )
      )
      (symbol "GND_1_1"
        (pin power_in line (at 0 0 270) (length 0) hide
          (name "GND" (effects (font (size 1.27 1.27))))
          (number "1" (effects (font (size 1.27 1.27))))
        )
      )
    )
  )

  (junction (at 142.24 39.37) (diameter 0) (color 0 0 0 0)
    (uuid 00f3ea8b-8a54-4e56-84ff-d98f6c00496c)
  )
  (junction (at 49.53 57.15) (diameter 0) (color 0 0 0 0)
    (uuid 36d783e7-096f-4c97-9672-7e08c083b87b)
  )
  (junction (at 140.97 52.07) (diameter 0) (color 0 0 0 0)
    (uuid 3f8a5430-68a9-4732-9b89-4e00dd8ae219)
  )
  (junction (at 208.28 49.53) (diameter 0) (color 0 0 0 0)
    (uuid 802c2dc3-ca9f-491e-9d66-7893e89ac34c)
  )
  (junction (at 50.8 49.53) (diameter 0) (color 0 0 0 0)
    (uuid 9031bb33-c6aa-4758-bf5c-3274ed3ebab7)
  )
  (junction (at 124.46 39.37) (diameter 0) (color 0 0 0 0)
    (uuid c8b92953-cd23-44e6-85ce-083fb8c3f20f)
  )
  (junction (at 133.35 49.53) (diameter 0) (color 0 0 0 0)
    (uuid f64497d1-1d62-44a4-8e5e-6fba4ebc969a)
  )
  (junction (at 107.95 43.18) (diameter 0) (color 0 0 0 0)
    (uuid fb30f9bb-6a0b-4d8a-82b0-266eab794bc6)
  )

  (polyline (pts (xy 15.24 15.24) (xy 177.8 15.24))
    (stroke (width 0) (type default))
    (uuid 009b5465-0a65-4237-93e7-eb65321eeb18)
  )

  (wire (pts (xy 142.24 39.37) (xy 142.24 43.18))
    (stroke (width 0) (type default))
    (uuid 011ee658-718d-416a-85fd-961729cd1ee5)
  )
  (wire (pts (xy 124.46 35.56) (xy 124.46 39.37))
    (stroke (width 0) (type default))
    (uuid 0520f61d-4522-4301-a3fa-8ed0bf060f69)
  )
  (wire (pts (xy 203.2 62.23) (xy 214.63 62.23))
    (stroke (width 0) (type default))
    (uuid 076046ab-4b56-4060-b8d9-0d80806d0277)
  )
  (wire (pts (xy 99.06 59.69) (xy 113.03 59.69))
    (stroke (width 0) (type default))
    (uuid 0a1a4d88-972a-46ce-b25e-6cb796bd41f7)
  )
  (wire (pts (xy 240.03 110.49) (xy 243.84 110.49))
    (stroke (width 0) (type default))
    (uuid 0fd35a3e-b394-4aae-875a-fac843f9cbb7)
  )
  (wire (pts (xy 203.2 68.58) (xy 214.63 68.58))
    (stroke (width 0) (type default))
    (uuid 1171ce37-6ad7-4662-bb68-5592c945ebf3)
  )
  (wire (pts (xy 107.95 39.37) (xy 107.95 43.18))
    (stroke (width 0) (type default))
    (uuid 1199146e-a60b-416a-b503-e77d6d2892f9)
  )
  (wire (pts (xy 73.66 149.86) (xy 67.31 149.86))
    (stroke (width 0) (type default))
    (uuid 16121028-bdf5-49c0-aae7-e28fe5bfa771)
  )
  (wire (pts (xy 240.03 49.53) (xy 250.19 49.53))
    (stroke (width 0) (type default))
    (uuid 180245d9-4a3f-4d1b-adcc-b4eafac722e0)
  )
  (wire (pts (xy 104.14 52.07) (xy 140.97 52.07))
    (stroke (width 0) (type default))
    (uuid 196a8dd5-5fd6-4c7f-ae4a-0104bd82e61b)
  )
  (wire (pts (xy 212.09 142.24) (xy 212.09 143.51))
    (stroke (width 0) (type default))
    (uuid 1f9ae101-c652-4998-a503-17aedf3d5746)
  )
  (wire (pts (xy 68.58 74.93) (xy 53.34 74.93))
    (stroke (width 0) (type default))
    (uuid 1fbb0219-551e-409b-a61b-76e8cebdfb9d)
  )
  (polyline (pts (xy 177.8 114.3) (xy 15.24 114.3))
    (stroke (width 0) (type default))
    (uuid 221bef83-3ea7-4d3f-adeb-53a8a07c6273)
  )

  (wire (pts (xy 265.43 149.86) (xy 240.03 149.86))
    (stroke (width 0) (type default))
    (uuid 22bb6c80-05a9-4d89-98b0-f4c23fe6c1ce)
  )
  (wire (pts (xy 105.41 49.53) (xy 133.35 49.53))
    (stroke (width 0) (type default))
    (uuid 2454fd1b-3484-4838-8b7e-d26357238fe1)
  )
  (wire (pts (xy 240.03 54.61) (xy 250.19 54.61))
    (stroke (width 0) (type default))
    (uuid 28e37b45-f843-47c2-85c9-ca19f5430ece)
  )
  (wire (pts (xy 214.63 153.67) (xy 203.2 153.67))
    (stroke (width 0) (type default))
    (uuid 29bb7297-26fb-4776-9266-2355d022bab0)
  )
  (wire (pts (xy 208.28 38.1) (xy 265.43 38.1))
    (stroke (width 0) (type default))
    (uuid 2db910a0-b943-40b4-b81f-068ba5265f56)
  )
  (wire (pts (xy 240.03 142.24) (xy 242.57 142.24))
    (stroke (width 0) (type default))
    (uuid 30317bf0-88bb-49e7-bf8b-9f3883982225)
  )
  (wire (pts (xy 62.23 154.94) (xy 58.42 154.94))
    (stroke (width 0) (type default))
    (uuid 30c33e3e-fb78-498d-bffe-76273d527004)
  )
  (wire (pts (xy 210.82 90.17) (xy 214.63 90.17))
    (stroke (width 0) (type default))
    (uuid 3326423d-8df7-4a7e-a354-349430b8fbd7)
  )
  (wire (pts (xy 66.04 135.89) (xy 66.04 146.05))
    (stroke (width 0) (type default))
    (uuid 3c5e5ea9-793d-46e3-86bc-5884c4490dc7)
  )
  (wire (pts (xy 242.57 138.43) (xy 243.84 138.43))
    (stroke (width 0) (type default))
    (uuid 3e915099-a18e-49f4-89bb-abe64c2dade5)
  )
  (wire (pts (xy 50.8 46.99) (xy 68.58 46.99))
    (stroke (width 0) (type default))
    (uuid 3f43d730-2a73-49fe-9672-32428e7f5b49)
  )
  (wire (pts (xy 240.03 100.33) (xy 243.84 100.33))
    (stroke (width 0) (type default))
    (uuid 4185c36c-c66e-4dbd-be5d-841e551f4885)
  )
  (wire (pts (xy 140.97 54.61) (xy 140.97 52.07))
    (stroke (width 0) (type default))
    (uuid 42ff012d-5eb7-42b9-bb45-415cf26799c6)
  )
  (wire (pts (xy 99.06 67.31) (xy 113.03 67.31))
    (stroke (width 0) (type default))
    (uuid 43707e99-bdd7-4b02-9974-540ed6c2b0aa)
  )
  (wire (pts (xy 99.06 50.8) (xy 104.14 50.8))
    (stroke (width 0) (type default))
    (uuid 45884597-7014-4461-83ee-9975c42b9a53)
  )
  (polyline (pts (xy 281.94 15.24) (xy 281.94 162.56))
    (stroke (width 0) (type default))
    (uuid 477892a1-722e-4cda-bb6c-fcdb8ba5f93e)
  )
  (polyline (pts (xy 180.34 162.56) (xy 180.34 15.24))
    (stroke (width 0) (type default))
    (uuid 479331ff-c540-41f4-84e6-b48d65171e59)
  )

  (wire (pts (xy 109.22 157.48) (xy 109.22 154.94))
    (stroke (width 0) (type default))
    (uuid 4ba06b66-7669-4c70-b585-f5d4c9c33527)
  )
  (wire (pts (xy 210.82 115.57) (xy 214.63 115.57))
    (stroke (width 0) (type default))
    (uuid 4c843bdb-6c9e-40dd-85e2-0567846e18ba)
  )
  (wire (pts (xy 210.82 95.25) (xy 214.63 95.25))
    (stroke (width 0) (type default))
    (uuid 4d4fecdd-be4a-47e9-9085-2268d5852d8f)
  )
  (polyline (pts (xy 180.34 15.24) (xy 281.94 15.24))
    (stroke (width 0) (type default))
    (uuid 4d586a18-26c5-441e-a9ff-8125ee516126)
  )

  (wire (pts (xy 109.22 154.94) (xy 100.33 154.94))
    (stroke (width 0) (type default))
    (uuid 4db55cb8-197b-4402-871f-ce582b65664b)
  )
  (wire (pts (xy 210.82 85.09) (xy 214.63 85.09))
    (stroke (width 0) (type default))
    (uuid 4ec618ae-096f-4256-9328-005ee04f13d6)
  )
  (wire (pts (xy 240.03 46.99) (xy 250.19 46.99))
    (stroke (width 0) (type default))
    (uuid 54212c01-b363-47b8-a145-45c40df316f4)
  )
  (wire (pts (xy 240.03 62.23) (xy 250.19 62.23))
    (stroke (width 0) (type default))
    (uuid 57276367-9ce4-4738-88d7-6e8cb94c966c)
  )
  (wire (pts (xy 140.97 52.07) (xy 214.63 52.07))
    (stroke (width 0) (type default))
    (uuid 593b8647-0095-46cc-ba23-3cf2a86edb5e)
  )
  (wire (pts (xy 62.23 157.48) (xy 62.23 154.94))
    (stroke (width 0) (type default))
    (uuid 5b0a5a46-7b51-4262-a80e-d33dd1806615)
  )
  (wire (pts (xy 212.09 143.51) (xy 210.82 143.51))
    (stroke (width 0) (type default))
    (uuid 5c30b9b4-3014-4f50-9329-27a539b67e01)
  )
  (wire (pts (xy 187.96 133.35) (xy 214.63 133.35))
    (stroke (width 0) (type default))
    (uuid 5d9921f1-08b3-4cc9-8cf7-e9a72ca2fdb7)
  )
  (wire (pts (xy 208.28 49.53) (xy 214.63 49.53))
    (stroke (width 0) (type default))
    (uuid 60aa0ce8-9d0e-48ca-bbf9-866403979e9b)
  )
  (polyline (pts (xy 15.24 116.84) (xy 175.26 116.84))
    (stroke (width 0) (type default))
    (uuid 60ff6322-62e2-4602-9bc0-7a0f0a5ecfbf)
  )

  (wire (pts (xy 73.66 157.48) (xy 62.23 157.48))
    (stroke (width 0) (type default))
    (uuid 6bd115d6-07e0-45db-8f2e-3cbb0429104f)
  )
  (wire (pts (xy 210.82 110.49) (xy 214.63 110.49))
    (stroke (width 0) (type default))
    (uuid 6ffdf05e-e119-49f9-85e9-13e4901df42a)
  )
  (wire (pts (xy 240.03 85.09) (xy 243.84 85.09))
    (stroke (width 0) (type default))
    (uuid 71c6e723-673c-45a9-a0e4-9742220c52a3)
  )
  (wire (pts (xy 124.46 39.37) (xy 124.46 43.18))
    (stroke (width 0) (type default))
    (uuid 72508b1f-1505-46cb-9d37-2081c5a12aca)
  )
  (wire (pts (xy 210.82 120.65) (xy 214.63 120.65))
    (stroke (width 0) (type default))
    (uuid 72b36951-3ec7-4569-9c88-cf9b4afe1cae)
  )
  (wire (pts (xy 68.58 60.96) (xy 53.34 60.96))
    (stroke (width 0) (type default))
    (uuid 79770cd5-32d7-429a-8248-0d9e6212231a)
  )
  (wire (pts (xy 49.53 57.15) (xy 68.58 57.15))
    (stroke (width 0) (type default))
    (uuid 7a74c4b1-6243-4a12-85a2-bc41d346e7aa)
  )
  (wire (pts (xy 203.2 59.69) (xy 214.63 59.69))
    (stroke (width 0) (type default))
    (uuid 7bfba61b-6752-4a45-9ee6-5984dcb15041)
  )
  (wire (pts (xy 50.8 49.53) (xy 50.8 50.8))
    (stroke (width 0) (type default))
    (uuid 7d76d925-f900-42af-a03f-bb32d2381b09)
  )
  (wire (pts (xy 210.82 100.33) (xy 214.63 100.33))
    (stroke (width 0) (type default))
    (uuid 8458d41c-5d62-455d-b6e1-9f718c0faac9)
  )
  (wire (pts (xy 240.03 57.15) (xy 250.19 57.15))
    (stroke (width 0) (type default))
    (uuid 88610282-a92d-4c3d-917a-ea95d59e0759)
  )
  (wire (pts (xy 212.09 138.43) (xy 210.82 138.43))
    (stroke (width 0) (type default))
    (uuid 88cb65f4-7e9e-44eb-8692-3b6e2e788a94)
  )
  (wire (pts (xy 210.82 105.41) (xy 214.63 105.41))
    (stroke (width 0) (type default))
    (uuid 8de2d84c-ff45-4d4f-bc49-c166f6ae6b91)
  )
  (wire (pts (xy 46.99 40.64) (xy 50.8 40.64))
    (stroke (width 0) (type default))
    (uuid 9186dae5-6dc3-4744-9f90-e697559c6ac8)
  )
  (polyline (pts (xy 15.24 195.58) (xy 15.24 116.84))
    (stroke (width 0) (type default))
    (uuid 9186fd02-f30d-4e17-aa38-378ab73e3908)
  )

  (wire (pts (xy 210.82 80.01) (xy 214.63 80.01))
    (stroke (width 0) (type default))
    (uuid 92035a88-6c95-4a61-bd8a-cb8dd9e5018a)
  )
  (wire (pts (xy 240.03 74.93) (xy 243.84 74.93))
    (stroke (width 0) (type default))
    (uuid 935057d5-6882-4c15-9a35-54677912ba12)
  )
  (wire (pts (xy 208.28 49.53) (xy 208.28 38.1))
    (stroke (width 0) (type default))
    (uuid 96de0051-7945-413a-9219-1ab367546962)
  )
  (wire (pts (xy 73.66 161.29) (xy 62.23 161.29))
    (stroke (width 0) (type default))
    (uuid 97fe2a5c-4eee-4c7a-9c43-47749b396494)
  )
  (wire (pts (xy 187.96 135.89) (xy 66.04 135.89))
    (stroke (width 0) (type default))
    (uuid 98914cc3-56fe-40bb-820a-3d157225c145)
  )
  (wire (pts (xy 46.99 49.53) (xy 50.8 49.53))
    (stroke (width 0) (type default))
    (uuid 98b00c9d-9188-4bce-aa70-92d12dd9cf82)
  )
  (wire (pts (xy 68.58 71.12) (xy 53.34 71.12))
    (stroke (width 0) (type default))
    (uuid 99332785-d9f1-4363-9377-26ddc18e6d2c)
  )
  (wire (pts (xy 107.95 39.37) (xy 124.46 39.37))
    (stroke (width 0) (type default))
    (uuid 997c2f12-73ba-4c01-9ee0-42e37cbab790)
  )
  (wire (pts (xy 203.2 66.04) (xy 214.63 66.04))
    (stroke (width 0) (type default))
    (uuid 99dfa524-0366-4808-b4e8-328fc38e8656)
  )
  (wire (pts (xy 210.82 149.86) (xy 214.63 149.86))
    (stroke (width 0) (type default))
    (uuid 9a2d648d-863a-4b7b-80f9-d537185c212b)
  )
  (polyline (pts (xy 177.8 15.24) (xy 177.8 114.3))
    (stroke (width 0) (type default))
    (uuid 9aedbb9e-8340-4899-b813-05b23382a36b)
  )

  (wire (pts (xy 66.04 146.05) (xy 73.66 146.05))
    (stroke (width 0) (type default))
    (uuid 9dcdc92b-2219-4a4a-8954-45f02cc3ab25)
  )
  (wire (pts (xy 50.8 46.99) (xy 50.8 49.53))
    (stroke (width 0) (type default))
    (uuid a24ce0e2-fdd3-4e6a-b754-5dee9713dd27)
  )
  (wire (pts (xy 240.03 105.41) (xy 243.84 105.41))
    (stroke (width 0) (type default))
    (uuid a8b4bc7e-da32-4fb8-b71a-d7b47c6f741f)
  )
  (polyline (pts (xy 175.26 195.58) (xy 15.24 195.58))
    (stroke (width 0) (type default))
    (uuid aa130053-a451-4f12-97f7-3d4d891a5f83)
  )

  (wire (pts (xy 105.41 46.99) (xy 105.41 49.53))
    (stroke (width 0) (type default))
    (uuid ae77c3c8-1144-468e-ad5b-a0b4090735bd)
  )
  (wire (pts (xy 142.24 39.37) (xy 138.43 39.37))
    (stroke (width 0) (type default))
    (uuid afd38b10-2eca-4abe-aed1-a96fb07ffdbe)
  )
  (wire (pts (xy 196.85 54.61) (xy 214.63 54.61))
    (stroke (width 0) (type default))
    (uuid b0271cdd-de22-4bf4-8f55-fc137cfbd4ec)
  )
  (polyline (pts (xy 281.94 162.56) (xy 180.34 162.56))
    (stroke (width 0) (type default))
    (uuid b09666f9-12f1-4ee9-8877-2292c94258ca)
  )

  (wire (pts (xy 240.03 90.17) (xy 243.84 90.17))
    (stroke (width 0) (type default))
    (uuid b4833916-7a3e-4498-86fb-ec6d13262ffe)
  )
  (polyline (pts (xy 15.24 114.3) (xy 15.24 15.24))
    (stroke (width 0) (type default))
    (uuid b52d6ff3-fef1-496e-8dd5-ebb89b6bce6a)
  )

  (wire (pts (xy 142.24 35.56) (xy 142.24 39.37))
    (stroke (width 0) (type default))
    (uuid bc0dbc57-3ae8-4ce5-a05c-2d6003bba475)
  )
  (wire (pts (xy 240.03 59.69) (xy 250.19 59.69))
    (stroke (width 0) (type default))
    (uuid bdf40d30-88ff-4479-bad1-69529464b61b)
  )
  (wire (pts (xy 240.03 115.57) (xy 243.84 115.57))
    (stroke (width 0) (type default))
    (uuid c088f712-1abe-4cac-9a8b-d564931395aa)
  )
  (wire (pts (xy 133.35 54.61) (xy 133.35 49.53))
    (stroke (width 0) (type default))
    (uuid c3b3d7f4-943f-4cff-b180-87ef3e1bcbff)
  )
  (wire (pts (xy 99.06 46.99) (xy 105.41 46.99))
    (stroke (width 0) (type default))
    (uuid c3c499b1-9227-4e4b-9982-f9f1aa6203b9)
  )
  (wire (pts (xy 115.57 151.13) (xy 118.11 151.13))
    (stroke (width 0) (type default))
    (uuid c4c57986-e599-4bfc-b511-f092eaddf780)
  )
  (wire (pts (xy 240.03 153.67) (xy 243.84 153.67))
    (stroke (width 0) (type default))
    (uuid c4cab9c5-d6e5-4660-b910-603a51b56783)
  )
  (wire (pts (xy 104.14 50.8) (xy 104.14 52.07))
    (stroke (width 0) (type default))
    (uuid c514e30c-e48e-4ca5-ab44-8b3afedef1f2)
  )
  (wire (pts (xy 210.82 74.93) (xy 214.63 74.93))
    (stroke (width 0) (type default))
    (uuid c8b6b273-3d20-4a46-8069-f6d608563604)
  )
  (wire (pts (xy 138.43 39.37) (xy 138.43 41.91))
    (stroke (width 0) (type default))
    (uuid c8fd9dd3-06ad-4146-9239-0065013959ef)
  )
  (wire (pts (xy 99.06 55.88) (xy 113.03 55.88))
    (stroke (width 0) (type default))
    (uuid c9b9e62d-dede-4d1a-9a05-275614f8bdb2)
  )
  (wire (pts (xy 49.53 57.15) (xy 49.53 64.77))
    (stroke (width 0) (type default))
    (uuid cb6062da-8dcd-4826-92fd-4071e9e97213)
  )
  (wire (pts (xy 242.57 143.51) (xy 243.84 143.51))
    (stroke (width 0) (type default))
    (uuid cb721686-5255-4788-a3b0-ce4312e32eb7)
  )
  (wire (pts (xy 99.06 43.18) (xy 107.95 43.18))
    (stroke (width 0) (type default))
    (uuid cc15f583-a41b-43af-ba94-a75455506a96)
  )
  (wire (pts (xy 240.03 95.25) (xy 243.84 95.25))
    (stroke (width 0) (type default))
    (uuid cc48dd41-7768-48d3-b096-2c4cc2126c9d)
  )
  (wire (pts (xy 107.95 46.99) (xy 214.63 46.99))
    (stroke (width 0) (type default))
    (uuid ce72ea62-9343-4a4f-81bf-8ac601f5d005)
  )
  (wire (pts (xy 67.31 149.86) (xy 67.31 152.4))
    (stroke (width 0) (type default))
    (uuid d0a0deb1-4f0f-4ede-b730-2c6d67cb9618)
  )
  (wire (pts (xy 240.03 139.7) (xy 242.57 139.7))
    (stroke (width 0) (type default))
    (uuid d3d57924-54a6-421d-a3a0-a044fc909e88)
  )
  (wire (pts (xy 99.06 63.5) (xy 113.03 63.5))
    (stroke (width 0) (type default))
    (uuid d4c9471f-7503-4339-928c-d1abae1eede6)
  )
  (wire (pts (xy 214.63 139.7) (xy 212.09 139.7))
    (stroke (width 0) (type default))
    (uuid d4db7f11-8cfe-40d2-b021-b36f05241701)
  )
  (wire (pts (xy 187.96 135.89) (xy 187.96 133.35))
    (stroke (width 0) (type default))
    (uuid dae72997-44fc-4275-b36f-cd70bf46cfba)
  )
  (wire (pts (xy 240.03 80.01) (xy 243.84 80.01))
    (stroke (width 0) (type default))
    (uuid e091e263-c616-48ef-a460-465c70218987)
  )
  (wire (pts (xy 99.06 71.12) (xy 113.03 71.12))
    (stroke (width 0) (type default))
    (uuid e17e6c0e-7e5b-43f0-ad48-0a2760b45b04)
  )
  (wire (pts (xy 99.06 74.93) (xy 113.03 74.93))
    (stroke (width 0) (type default))
    (uuid e4e20505-1208-4100-a4aa-676f50844c06)
  )
  (wire (pts (xy 62.23 161.29) (xy 62.23 163.83))
    (stroke (width 0) (type default))
    (uuid e5217a0c-7f55-4c30-adda-7f8d95709d1b)
  )
  (wire (pts (xy 214.63 142.24) (xy 212.09 142.24))
    (stroke (width 0) (type default))
    (uuid e5b328f6-dc69-4905-ae98-2dc3200a51d6)
  )
  (polyline (pts (xy 175.26 116.84) (xy 175.26 195.58))
    (stroke (width 0) (type default))
    (uuid e7369115-d491-4ef3-be3d-f5298992c3e8)
  )

  (wire (pts (xy 100.33 151.13) (xy 107.95 151.13))
    (stroke (width 0) (type default))
    (uuid e97b5984-9f0f-43a4-9b8a-838eef4cceb2)
  )
  (wire (pts (xy 240.03 120.65) (xy 243.84 120.65))
    (stroke (width 0) (type default))
    (uuid ea6fde00-59dc-4a79-a647-7e38199fae0e)
  )
  (wire (pts (xy 242.57 139.7) (xy 242.57 138.43))
    (stroke (width 0) (type default))
    (uuid eab9c52c-3aa0-43a7-bc7f-7e234ff1e9f4)
  )
  (wire (pts (xy 210.82 128.27) (xy 214.63 128.27))
    (stroke (width 0) (type default))
    (uuid eb8d02e9-145c-465d-b6a8-bae84d47a94b)
  )
  (wire (pts (xy 133.35 49.53) (xy 208.28 49.53))
    (stroke (width 0) (type default))
    (uuid ed8a7f02-cf05-41d0-97b4-4388ef205e73)
  )
  (wire (pts (xy 50.8 40.64) (xy 50.8 43.18))
    (stroke (width 0) (type default))
    (uuid f1a9fb80-4cc4-410f-9616-e19c969dcab5)
  )
  (wire (pts (xy 107.95 43.18) (xy 107.95 46.99))
    (stroke (width 0) (type default))
    (uuid f1e619ac-5067-41df-8384-776ec70a6093)
  )
  (wire (pts (xy 240.03 128.27) (xy 243.84 128.27))
    (stroke (width 0) (type default))
    (uuid f73b5500-6337-4860-a114-6e307f65ec9f)
  )
  (wire (pts (xy 265.43 38.1) (xy 265.43 149.86))
    (stroke (width 0) (type default))
    (uuid f8bd6470-fafd-47f2-8ed5-9449988187ce)
  )
  (wire (pts (xy 240.03 52.07) (xy 250.19 52.07))
    (stroke (width 0) (type default))
    (uuid f8f3a9fc-1e34-4573-a767-508104e8d242)
  )
  (wire (pts (xy 242.57 142.24) (xy 242.57 143.51))
    (stroke (width 0) (type default))
    (uuid f959907b-1cef-4760-b043-4260a660a2ae)
  )
  (wire (pts (xy 46.99 57.15) (xy 49.53 57.15))
    (stroke (width 0) (type default))
    (uuid fa918b6d-f6cf-4471-be3b-4ff713f55a2e)
  )
  (wire (pts (xy 212.09 139.7) (xy 212.09 138.43))
    (stroke (width 0) (type default))
    (uuid faa1812c-fdf3-47ae-9cf4-ae06a263bfbd)
  )
  (wire (pts (xy 50.8 43.18) (xy 68.58 43.18))
    (stroke (width 0) (type default))
    (uuid fea7c5d1-76d6-41a0-b5e3-29889dbb8ce0)
  )

  (text "50mOhm" (at 193.04 68.58 0)
    (effects (font (size 1.524 1.524)) (justify left bottom))
    (uuid 1f8b2c0c-b042-4e2e-80f6-4959a27b238f)
  )
  (text "POWER" (at 143.51 24.13 0)
    (effects (font (size 6.604 6.604)) (justify left bottom))
    (uuid 21ae9c3a-7138-444e-be38-56a4842ab594)
  )
  (text "10mOhm" (at 193.04 62.23 0)
    (effects (font (size 1.524 1.524)) (justify left bottom))
    (uuid 700e8b73-5976-423f-a3f3-ab3d9f3e9760)
  )
  (text "AMAC" (at 182.88 24.13 0)
    (effects (font (size 6.604 6.604)) (justify left bottom))
    (uuid 7599133e-c681-4202-85d9-c20dac196c64)
  )
  (text "HV" (at 161.29 125.73 0)
    (effects (font (size 6.604 6.604)) (justify left bottom))
    (uuid c7e7067c-5f5e-48d8-ab59-df26f9b35863)
  )
  (text "Fuse?" (at 48.26 35.56 0)
    (effects (font (size 1.524 1.524)) (justify left bottom))
    (uuid e5203297-b913-4288-a576-12a92185cb52)
  )

  (label "PTAT" (at 113.03 74.93 0) (fields_autoplaced)
    (effects (font (size 1.524 1.524)) (justify left bottom))
    (uuid 097edb1b-8998-4e70-b670-bba125982348)
  )
  (label "DCDCEN" (at 250.19 46.99 0) (fields_autoplaced)
    (effects (font (size 1.524 1.524)) (justify left bottom))
    (uuid 099096e4-8c2a-4d84-a16f-06b4b6330e7a)
  )
  (label "FVOUT" (at 203.2 62.23 0) (fields_autoplaced)
    (effects (font (size 1.524 1.524)) (justify left bottom))
    (uuid 0e1ed1c5-7428-4dc7-b76e-49b2d5f8177d)
  )
  (label "FVIN" (at 203.2 68.58 0) (fields_autoplaced)
    (effects (font (size 1.524 1.524)) (justify left bottom))
    (uuid 14c51520-6d91-4098-a59a-5121f2a898f7)
  )
  (label "FVOUT" (at 113.03 63.5 0) (fields_autoplaced)
    (effects (font (size 1.524 1.524)) (justify left bottom))
    (uuid 2d67a417-188f-4014-9282-000265d80009)
  )
  (label "PTAT" (at 250.19 52.07 0) (fields_autoplaced)
    (effects (font (size 1.524 1.524)) (justify left bottom))
    (uuid 34a74736-156e-4bf3-9200-cd137cfa59da)
  )
  (label "PGOOD" (at 113.03 71.12 0) (fields_autoplaced)
    (effects (font (size 1.524 1.524)) (justify left bottom))
    (uuid 477311b9-8f81-40c8-9c55-fd87e287247a)
  )
  (label "NTCPBn" (at 53.34 74.93 0) (fields_autoplaced)
    (effects (font (size 1.524 1.524)) (justify left bottom))
    (uuid 6284122b-79c3-4e04-925e-3d32cc3ec077)
  )
  (label "NTCPBp" (at 53.34 71.12 0) (fields_autoplaced)
    (effects (font (size 1.524 1.524)) (justify left bottom))
    (uuid 67763d19-f622-4e1e-81e5-5b24da7c3f99)
  )
  (label "OFin" (at 49.53 64.77 90) (fields_autoplaced)
    (effects (font (size 1.524 1.524)) (justify left bottom))
    (uuid 79e31048-072a-4a40-a625-26bb0b5f046b)
  )
  (label "FVIN" (at 113.03 67.31 0) (fields_autoplaced)
    (effects (font (size 1.524 1.524)) (justify left bottom))
    (uuid 84e5506c-143e-495f-9aa4-d3a71622f213)
  )
  (label "PGOOD" (at 250.19 49.53 0) (fields_autoplaced)
    (effects (font (size 1.524 1.524)) (justify left bottom))
    (uuid 87d7448e-e139-4209-ae0b-372f805267da)
  )
  (label "GPO2" (at 250.19 59.69 0) (fields_autoplaced)
    (effects (font (size 1.524 1.524)) (justify left bottom))
    (uuid 8fc062a7-114d-48eb-a8f8-71128838f380)
  )
  (label "GPO1" (at 250.19 62.23 0) (fields_autoplaced)
    (effects (font (size 1.524 1.524)) (justify left bottom))
    (uuid 917920ab-0c6e-4927-974d-ef342cdd4f63)
  )
  (label "DCDCEN" (at 53.34 60.96 0) (fields_autoplaced)
    (effects (font (size 1.524 1.524)) (justify left bottom))
    (uuid 994b6220-4755-4d84-91b3-6122ac1c2c5e)
  )
  (label "VIN" (at 203.2 66.04 0) (fields_autoplaced)
    (effects (font (size 1.524 1.524)) (justify left bottom))
    (uuid a13ab237-8f8d-4e16-8c47-4440653b8534)
  )
  (label "VOUT" (at 110.49 39.37 0) (fields_autoplaced)
    (effects (font (size 1.524 1.524)) (justify left bottom))
    (uuid aa2ea573-3f20-43c1-aa99-1f9c6031a9aa)
  )
  (label "OFin" (at 203.2 153.67 0) (fields_autoplaced)
    (effects (font (size 1.524 1.524)) (justify left bottom))
    (uuid b4300db7-1220-431a-b7c3-2edbdf8fa6fc)
  )
  (label "GPO2" (at 113.03 59.69 0) (fields_autoplaced)
    (effects (font (size 1.524 1.524)) (justify left bottom))
    (uuid c76d4423-ef1b-4a6f-8176-33d65f2877bb)
  )
  (label "VOUT" (at 203.2 59.69 0) (fields_autoplaced)
    (effects (font (size 1.524 1.524)) (justify left bottom))
    (uuid ca5a4651-0d1d-441b-b17d-01518ef3b656)
  )
  (label "NTCPBn" (at 250.19 54.61 0) (fields_autoplaced)
    (effects (font (size 1.524 1.524)) (justify left bottom))
    (uuid d0d2eee9-31f6-44fa-8149-ebb4dc2dc0dc)
  )
  (label "NTCPBp" (at 250.19 57.15 0) (fields_autoplaced)
    (effects (font (size 1.524 1.524)) (justify left bottom))
    (uuid ee41cb8e-512d-41d2-81e1-3c50fff32aeb)
  )
  (label "VCC1V4" (at 209.55 38.1 0) (fields_autoplaced)
    (effects (font (size 1.524 1.524)) (justify left bottom))
    (uuid eed466bf-cd88-4860-9abf-41a594ca08bd)
  )
  (label "VIN" (at 57.15 43.18 0) (fields_autoplaced)
    (effects (font (size 1.524 1.524)) (justify left bottom))
    (uuid f40d350f-0d3e-4f8a-b004-d950f2f8f1ba)
  )
  (label "GPO1" (at 113.03 55.88 0) (fields_autoplaced)
    (effects (font (size 1.524 1.524)) (justify left bottom))
    (uuid f7667b23-296e-4362-a7e3-949632c8954b)
  )

  (symbol (lib_id "pbv3:BondPad") (at 40.64 40.64 0) (unit 1)
    (in_bom yes) (on_board yes) (dnp no)
    (uuid 00000000-0000-0000-0000-000059eee934)
    (property "Reference" "J1" (at 40.64 38.1 0)
      (effects (font (size 1.524 1.524)))
    )
    (property "Value" "VIN" (at 40.64 43.18 0)
      (effects (font (size 1.524 1.524)))
    )
    (property "Footprint" "pbv3:pad" (at 40.64 40.64 0)
      (effects (font (size 1.524 1.524)) hide)
    )
    (property "Datasheet" "" (at 40.64 40.64 0)
      (effects (font (size 1.524 1.524)) hide)
    )
    (pin "1" (uuid 281cba2a-9a0d-4ba9-ae02-4851a4d5ef54))
    (instances
      (project "pbv3"
        (path "/8e06ba1f-e3ba-4eb9-a10e-887dffd566d6"
          (reference "J1") (unit 1)
        )
      )
    )
  )

  (symbol (lib_id "pbv3:BondPad") (at 40.64 49.53 0) (unit 1)
    (in_bom yes) (on_board yes) (dnp no)
    (uuid 00000000-0000-0000-0000-000059eee968)
    (property "Reference" "J2" (at 40.64 46.99 0)
      (effects (font (size 1.524 1.524)))
    )
    (property "Value" "VIN_RTN" (at 40.64 52.07 0)
      (effects (font (size 1.524 1.524)))
    )
    (property "Footprint" "pbv3:pad" (at 40.64 49.53 0)
      (effects (font (size 1.524 1.524)) hide)
    )
    (property "Datasheet" "" (at 40.64 49.53 0)
      (effects (font (size 1.524 1.524)) hide)
    )
    (pin "1" (uuid 5e6ca305-2b2a-4bbd-8304-3c766e1c0de3))
    (instances
      (project "pbv3"
        (path "/8e06ba1f-e3ba-4eb9-a10e-887dffd566d6"
          (reference "J2") (unit 1)
        )
      )
    )
  )

  (symbol (lib_id "pbv3:BondPad") (at 130.81 35.56 180) (unit 1)
    (in_bom yes) (on_board yes) (dnp no)
    (uuid 00000000-0000-0000-0000-000059eefe53)
    (property "Reference" "J11" (at 130.81 38.1 0)
      (effects (font (size 1.524 1.524)))
    )
    (property "Value" "VOUT_X" (at 130.81 33.02 0)
      (effects (font (size 1.524 1.524)))
    )
    (property "Footprint" "pbv3:pad" (at 130.81 35.56 0)
      (effects (font (size 1.524 1.524)) hide)
    )
    (property "Datasheet" "" (at 130.81 35.56 0)
      (effects (font (size 1.524 1.524)) hide)
    )
    (pin "1" (uuid 8eb9444f-6643-489b-8c83-9ba20cc4fb10))
    (instances
      (project "pbv3"
        (path "/8e06ba1f-e3ba-4eb9-a10e-887dffd566d6"
          (reference "J11") (unit 1)
        )
      )
    )
  )

  (symbol (lib_id "pbv3:BondPad") (at 130.81 43.18 180) (unit 1)
    (in_bom yes) (on_board yes) (dnp no)
    (uuid 00000000-0000-0000-0000-000059eefeb2)
    (property "Reference" "J12" (at 130.81 45.72 0)
      (effects (font (size 1.524 1.524)))
    )
    (property "Value" "VOUT_Y" (at 130.81 40.64 0)
      (effects (font (size 1.524 1.524)))
    )
    (property "Footprint" "pbv3:pad" (at 130.81 43.18 0)
      (effects (font (size 1.524 1.524)) hide)
    )
    (property "Datasheet" "" (at 130.81 43.18 0)
      (effects (font (size 1.524 1.524)) hide)
    )
    (pin "1" (uuid 673f1a23-6661-4620-90df-f91c1a23f2f1))
    (instances
      (project "pbv3"
        (path "/8e06ba1f-e3ba-4eb9-a10e-887dffd566d6"
          (reference "J12") (unit 1)
        )
      )
    )
  )

  (symbol (lib_id "pbv3:BondPad") (at 148.59 35.56 180) (unit 1)
    (in_bom yes) (on_board yes) (dnp no)
    (uuid 00000000-0000-0000-0000-000059eeff0f)
    (property "Reference" "J13" (at 148.59 38.1 0)
      (effects (font (size 1.524 1.524)))
    )
    (property "Value" "VOUT_RTN_X" (at 148.59 33.02 0)
      (effects (font (size 1.524 1.524)))
    )
    (property "Footprint" "pbv3:pad" (at 148.59 35.56 0)
      (effects (font (size 1.524 1.524)) hide)
    )
    (property "Datasheet" "" (at 148.59 35.56 0)
      (effects (font (size 1.524 1.524)) hide)
    )
    (pin "1" (uuid 734d7fc0-16f5-46ac-9a62-d1aec48247ec))
    (instances
      (project "pbv3"
        (path "/8e06ba1f-e3ba-4eb9-a10e-887dffd566d6"
          (reference "J13") (unit 1)
        )
      )
    )
  )

  (symbol (lib_id "pbv3:BondPad") (at 148.59 43.18 180) (unit 1)
    (in_bom yes) (on_board yes) (dnp no)
    (uuid 00000000-0000-0000-0000-000059eeff8b)
    (property "Reference" "J14" (at 148.59 45.72 0)
      (effects (font (size 1.524 1.524)))
    )
    (property "Value" "VOUT_RTN_Y" (at 148.59 40.64 0)
      (effects (font (size 1.524 1.524)))
    )
    (property "Footprint" "pbv3:pad" (at 148.59 43.18 0)
      (effects (font (size 1.524 1.524)) hide)
    )
    (property "Datasheet" "" (at 148.59 43.18 0)
      (effects (font (size 1.524 1.524)) hide)
    )
    (pin "1" (uuid f6e654e6-0b62-44cf-aa6c-98db940c48e7))
    (instances
      (project "pbv3"
        (path "/8e06ba1f-e3ba-4eb9-a10e-887dffd566d6"
          (reference "J14") (unit 1)
        )
      )
    )
  )

  (symbol (lib_id "power:GND") (at 62.23 163.83 0) (unit 1)
    (in_bom yes) (on_board yes) (dnp no)
    (uuid 00000000-0000-0000-0000-000059ef94b5)
    (property "Reference" "#PWR0102" (at 62.23 170.18 0)
      (effects (font (size 1.27 1.27)) hide)
    )
    (property "Value" "GND" (at 62.23 167.64 0)
      (effects (font (size 1.27 1.27)))
    )
    (property "Footprint" "" (at 62.23 163.83 0)
      (effects (font (size 1.27 1.27)))
    )
    (property "Datasheet" "" (at 62.23 163.83 0)
      (effects (font (size 1.27 1.27)))
    )
    (pin "1" (uuid 229202cd-20dc-4eab-ac2e-7f028bc91419))
    (instances
      (project "pbv3"
        (path "/8e06ba1f-e3ba-4eb9-a10e-887dffd566d6"
          (reference "#PWR0102") (unit 1)
        )
      )
    )
  )

  (symbol (lib_id "power:GND") (at 138.43 41.91 0) (unit 1)
    (in_bom yes) (on_board yes) (dnp no)
    (uuid 00000000-0000-0000-0000-000059f05eaa)
    (property "Reference" "#PWR0105" (at 138.43 48.26 0)
      (effects (font (size 1.27 1.27)) hide)
    )
    (property "Value" "GND" (at 138.43 45.72 0)
      (effects (font (size 1.27 1.27)))
    )
    (property "Footprint" "" (at 138.43 41.91 0)
      (effects (font (size 1.27 1.27)))
    )
    (property "Datasheet" "" (at 138.43 41.91 0)
      (effects (font (size 1.27 1.27)))
    )
    (pin "1" (uuid 888ff86d-eeb6-42bb-a8b9-8bba5d300088))
    (instances
      (project "pbv3"
        (path "/8e06ba1f-e3ba-4eb9-a10e-887dffd566d6"
          (reference "#PWR0105") (unit 1)
        )
      )
    )
  )

  (symbol (lib_id "power:GND") (at 50.8 50.8 0) (unit 1)
    (in_bom yes) (on_board yes) (dnp no)
    (uuid 00000000-0000-0000-0000-000059f064e3)
    (property "Reference" "#PWR0101" (at 50.8 57.15 0)
      (effects (font (size 1.27 1.27)) hide)
    )
    (property "Value" "GND" (at 50.8 54.61 0)
      (effects (font (size 1.27 1.27)))
    )
    (property "Footprint" "" (at 50.8 50.8 0)
      (effects (font (size 1.27 1.27)))
    )
    (property "Datasheet" "" (at 50.8 50.8 0)
      (effects (font (size 1.27 1.27)))
    )
    (pin "1" (uuid 64b90e1f-b66a-437d-be77-1d73d8d72146))
    (instances
      (project "pbv3"
        (path "/8e06ba1f-e3ba-4eb9-a10e-887dffd566d6"
          (reference "#PWR0101") (unit 1)
        )
      )
    )
  )

  (symbol (lib_id "pbv3:BondPad") (at 40.64 57.15 0) (unit 1)
    (in_bom yes) (on_board yes) (dnp no)
    (uuid 00000000-0000-0000-0000-000059f06b61)
    (property "Reference" "J3" (at 40.64 54.61 0)
      (effects (font (size 1.524 1.524)))
    )
    (property "Value" "OFin" (at 40.64 59.69 0)
      (effects (font (size 1.524 1.524)))
    )
    (property "Footprint" "pbv3:pad" (at 40.64 57.15 0)
      (effects (font (size 1.524 1.524)) hide)
    )
    (property "Datasheet" "" (at 40.64 57.15 0)
      (effects (font (size 1.524 1.524)) hide)
    )
    (pin "1" (uuid c1f22372-d0a7-487f-b12d-572047ecc2f5))
    (instances
      (project "pbv3"
        (path "/8e06ba1f-e3ba-4eb9-a10e-887dffd566d6"
          (reference "J3") (unit 1)
        )
      )
    )
  )

  (symbol (lib_id "pbv3:BondPad") (at 124.46 151.13 180) (unit 1)
    (in_bom yes) (on_board yes) (dnp no)
    (uuid 00000000-0000-0000-0000-000059f0a45b)
    (property "Reference" "J10" (at 124.46 153.67 0)
      (effects (font (size 1.524 1.524)))
    )
    (property "Value" "HV_OUT" (at 124.46 148.59 0)
      (effects (font (size 1.524 1.524)))
    )
    (property "Footprint" "pbv3:pad" (at 124.46 151.13 0)
      (effects (font (size 1.524 1.524)) hide)
    )
    (property "Datasheet" "" (at 124.46 151.13 0)
      (effects (font (size 1.524 1.524)) hide)
    )
    (pin "1" (uuid 3798c140-04fd-494f-aa13-bb990e502791))
    (instances
      (project "pbv3"
        (path "/8e06ba1f-e3ba-4eb9-a10e-887dffd566d6"
          (reference "J10") (unit 1)
        )
      )
    )
  )

  (symbol (lib_id "power:GND") (at 67.31 152.4 0) (unit 1)
    (in_bom yes) (on_board yes) (dnp no)
    (uuid 00000000-0000-0000-0000-000059f0a65e)
    (property "Reference" "#PWR0103" (at 67.31 158.75 0)
      (effects (font (size 1.27 1.27)) hide)
    )
    (property "Value" "GND" (at 67.31 156.21 0)
      (effects (font (size 1.27 1.27)))
    )
    (property "Footprint" "" (at 67.31 152.4 0)
      (effects (font (size 1.27 1.27)))
    )
    (property "Datasheet" "" (at 67.31 152.4 0)
      (effects (font (size 1.27 1.27)))
    )
    (pin "1" (uuid 1257fa4c-2f92-4e07-b43d-826125b0853c))
    (instances
      (project "pbv3"
        (path "/8e06ba1f-e3ba-4eb9-a10e-887dffd566d6"
          (reference "#PWR0103") (unit 1)
        )
      )
    )
  )

  (symbol (lib_id "pbv3:BondPad") (at 52.07 154.94 0) (unit 1)
    (in_bom yes) (on_board yes) (dnp no)
    (uuid 00000000-0000-0000-0000-000059f0a7a4)
    (property "Reference" "J4" (at 52.07 152.4 0)
      (effects (font (size 1.524 1.524)))
    )
    (property "Value" "HV_IN" (at 52.07 157.48 0)
      (effects (font (size 1.524 1.524)))
    )
    (property "Footprint" "pbv3:pad" (at 52.07 154.94 0)
      (effects (font (size 1.524 1.524)) hide)
    )
    (property "Datasheet" "" (at 52.07 154.94 0)
      (effects (font (size 1.524 1.524)) hide)
    )
    (pin "1" (uuid 122cd6ff-87b3-455d-9734-dd35dee6c1d9))
    (instances
      (project "pbv3"
        (path "/8e06ba1f-e3ba-4eb9-a10e-887dffd566d6"
          (reference "J4") (unit 1)
        )
      )
    )
  )

  (symbol (lib_id "power:GND") (at 196.85 54.61 0) (unit 1)
    (in_bom yes) (on_board yes) (dnp no)
    (uuid 00000000-0000-0000-0000-000059f2094a)
    (property "Reference" "#PWR0106" (at 196.85 60.96 0)
      (effects (font (size 1.27 1.27)) hide)
    )
    (property "Value" "GND" (at 196.85 58.42 0)
      (effects (font (size 1.27 1.27)))
    )
    (property "Footprint" "" (at 196.85 54.61 0)
      (effects (font (size 1.27 1.27)))
    )
    (property "Datasheet" "" (at 196.85 54.61 0)
      (effects (font (size 1.27 1.27)))
    )
    (pin "1" (uuid d67c72c0-c93b-4cc5-b15d-acaf44e08394))
    (instances
      (project "pbv3"
        (path "/8e06ba1f-e3ba-4eb9-a10e-887dffd566d6"
          (reference "#PWR0106") (unit 1)
        )
      )
    )
  )

  (symbol (lib_id "pbv3:BondPad") (at 204.47 80.01 0) (unit 1)
    (in_bom yes) (on_board yes) (dnp no)
    (uuid 00000000-0000-0000-0000-000059f2b21a)
    (property "Reference" "J16" (at 204.47 77.47 0)
      (effects (font (size 1.524 1.524)))
    )
    (property "Value" "HRSTBx" (at 196.85 80.01 0)
      (effects (font (size 1.524 1.524)))
    )
    (property "Footprint" "pbv3:pad" (at 204.47 80.01 0)
      (effects (font (size 1.524 1.524)) hide)
    )
    (property "Datasheet" "" (at 204.47 80.01 0)
      (effects (font (size 1.524 1.524)) hide)
    )
    (pin "1" (uuid b844e201-b8ae-4f29-a5c5-b71aa7365157))
    (instances
      (project "pbv3"
        (path "/8e06ba1f-e3ba-4eb9-a10e-887dffd566d6"
          (reference "J16") (unit 1)
        )
      )
    )
  )

  (symbol (lib_id "pbv3:BondPad") (at 204.47 85.09 0) (unit 1)
    (in_bom yes) (on_board yes) (dnp no)
    (uuid 00000000-0000-0000-0000-000059f2b4b6)
    (property "Reference" "J17" (at 204.47 82.55 0)
      (effects (font (size 1.524 1.524)))
    )
    (property "Value" "LDx0EN" (at 196.85 85.09 0)
      (effects (font (size 1.524 1.524)))
    )
    (property "Footprint" "pbv3:pad" (at 204.47 85.09 0)
      (effects (font (size 1.524 1.524)) hide)
    )
    (property "Datasheet" "" (at 204.47 85.09 0)
      (effects (font (size 1.524 1.524)) hide)
    )
    (pin "1" (uuid 89bddea0-e123-4afd-be16-6b7dd934bb45))
    (instances
      (project "pbv3"
        (path "/8e06ba1f-e3ba-4eb9-a10e-887dffd566d6"
          (reference "J17") (unit 1)
        )
      )
    )
  )

  (symbol (lib_id "pbv3:BondPad") (at 204.47 90.17 0) (unit 1)
    (in_bom yes) (on_board yes) (dnp no)
    (uuid 00000000-0000-0000-0000-000059f2b758)
    (property "Reference" "J18" (at 204.47 87.63 0)
      (effects (font (size 1.524 1.524)))
    )
    (property "Value" "HREFx" (at 196.85 90.17 0)
      (effects (font (size 1.524 1.524)))
    )
    (property "Footprint" "pbv3:pad" (at 204.47 90.17 0)
      (effects (font (size 1.524 1.524)) hide)
    )
    (property "Datasheet" "" (at 204.47 90.17 0)
      (effects (font (size 1.524 1.524)) hide)
    )
    (pin "1" (uuid 661e63a6-57d4-4bd6-8435-e9e47baf2ef9))
    (instances
      (project "pbv3"
        (path "/8e06ba1f-e3ba-4eb9-a10e-887dffd566d6"
          (reference "J18") (unit 1)
        )
      )
    )
  )

  (symbol (lib_id "pbv3:BondPad") (at 204.47 95.25 0) (unit 1)
    (in_bom yes) (on_board yes) (dnp no)
    (uuid 00000000-0000-0000-0000-000059f2cfab)
    (property "Reference" "J19" (at 204.47 92.71 0)
      (effects (font (size 1.524 1.524)))
    )
    (property "Value" "NTCxP" (at 196.85 95.25 0)
      (effects (font (size 1.524 1.524)))
    )
    (property "Footprint" "pbv3:pad" (at 204.47 95.25 0)
      (effects (font (size 1.524 1.524)) hide)
    )
    (property "Datasheet" "" (at 204.47 95.25 0)
      (effects (font (size 1.524 1.524)) hide)
    )
    (pin "1" (uuid f1de17b2-77f9-4731-89b1-0e00eaea67cd))
    (instances
      (project "pbv3"
        (path "/8e06ba1f-e3ba-4eb9-a10e-887dffd566d6"
          (reference "J19") (unit 1)
        )
      )
    )
  )

  (symbol (lib_id "pbv3:BondPad") (at 204.47 100.33 0) (unit 1)
    (in_bom yes) (on_board yes) (dnp no)
    (uuid 00000000-0000-0000-0000-000059f2d40a)
    (property "Reference" "J20" (at 204.47 97.79 0)
      (effects (font (size 1.524 1.524)))
    )
    (property "Value" "NTCxN" (at 196.85 100.33 0)
      (effects (font (size 1.524 1.524)))
    )
    (property "Footprint" "pbv3:pad" (at 204.47 100.33 0)
      (effects (font (size 1.524 1.524)) hide)
    )
    (property "Datasheet" "" (at 204.47 100.33 0)
      (effects (font (size 1.524 1.524)) hide)
    )
    (pin "1" (uuid 1571b9d4-6db3-4d13-8517-4e3c9ceea84e))
    (instances
      (project "pbv3"
        (path "/8e06ba1f-e3ba-4eb9-a10e-887dffd566d6"
          (reference "J20") (unit 1)
        )
      )
    )
  )

  (symbol (lib_id "pbv3:BondPad") (at 204.47 105.41 0) (unit 1)
    (in_bom yes) (on_board yes) (dnp no)
    (uuid 00000000-0000-0000-0000-000059f2d6a1)
    (property "Reference" "J21" (at 204.47 102.87 0)
      (effects (font (size 1.524 1.524)))
    )
    (property "Value" "LDx1EN" (at 196.85 105.41 0)
      (effects (font (size 1.524 1.524)))
    )
    (property "Footprint" "pbv3:pad" (at 204.47 105.41 0)
      (effects (font (size 1.524 1.524)) hide)
    )
    (property "Datasheet" "" (at 204.47 105.41 0)
      (effects (font (size 1.524 1.524)) hide)
    )
    (pin "1" (uuid 880c680a-7e6c-48f7-8226-9c3889b584d9))
    (instances
      (project "pbv3"
        (path "/8e06ba1f-e3ba-4eb9-a10e-887dffd566d6"
          (reference "J21") (unit 1)
        )
      )
    )
  )

  (symbol (lib_id "pbv3:BondPad") (at 204.47 74.93 0) (unit 1)
    (in_bom yes) (on_board yes) (dnp no)
    (uuid 00000000-0000-0000-0000-000059f365aa)
    (property "Reference" "J15" (at 204.47 72.39 0)
      (effects (font (size 1.524 1.524)))
    )
    (property "Value" "SSSHx" (at 196.85 74.93 0)
      (effects (font (size 1.524 1.524)))
    )
    (property "Footprint" "pbv3:pad" (at 204.47 74.93 0)
      (effects (font (size 1.524 1.524)) hide)
    )
    (property "Datasheet" "" (at 204.47 74.93 0)
      (effects (font (size 1.524 1.524)) hide)
    )
    (pin "1" (uuid 0c7f3068-d7bd-4edc-bafd-a387dbfe8fb4))
    (instances
      (project "pbv3"
        (path "/8e06ba1f-e3ba-4eb9-a10e-887dffd566d6"
          (reference "J15") (unit 1)
        )
      )
    )
  )

  (symbol (lib_id "pbv3:BondPad") (at 204.47 120.65 0) (unit 1)
    (in_bom yes) (on_board yes) (dnp no)
    (uuid 00000000-0000-0000-0000-000059f36857)
    (property "Reference" "J24" (at 204.47 118.11 0)
      (effects (font (size 1.524 1.524)))
    )
    (property "Value" "CALx" (at 196.85 120.65 0)
      (effects (font (size 1.524 1.524)))
    )
    (property "Footprint" "pbv3:pad" (at 204.47 120.65 0)
      (effects (font (size 1.524 1.524)) hide)
    )
    (property "Datasheet" "" (at 204.47 120.65 0)
      (effects (font (size 1.524 1.524)) hide)
    )
    (pin "1" (uuid 43108d1f-6fab-4012-bb34-effc39df9879))
    (instances
      (project "pbv3"
        (path "/8e06ba1f-e3ba-4eb9-a10e-887dffd566d6"
          (reference "J24") (unit 1)
        )
      )
    )
  )

  (symbol (lib_id "pbv3:BondPad") (at 204.47 115.57 0) (unit 1)
    (in_bom yes) (on_board yes) (dnp no)
    (uuid 00000000-0000-0000-0000-000059f36b07)
    (property "Reference" "J23" (at 204.47 113.03 0)
      (effects (font (size 1.524 1.524)))
    )
    (property "Value" "SHUNTx" (at 196.85 115.57 0)
      (effects (font (size 1.524 1.524)))
    )
    (property "Footprint" "pbv3:pad" (at 204.47 115.57 0)
      (effects (font (size 1.524 1.524)) hide)
    )
    (property "Datasheet" "" (at 204.47 115.57 0)
      (effects (font (size 1.524 1.524)) hide)
    )
    (pin "1" (uuid a80327aa-cef0-4f3b-b4be-5dceece67053))
    (instances
      (project "pbv3"
        (path "/8e06ba1f-e3ba-4eb9-a10e-887dffd566d6"
          (reference "J23") (unit 1)
        )
      )
    )
  )

  (symbol (lib_id "pbv3:BondPad") (at 204.47 110.49 0) (unit 1)
    (in_bom yes) (on_board yes) (dnp no)
    (uuid 00000000-0000-0000-0000-000059f36db7)
    (property "Reference" "J22" (at 204.47 107.95 0)
      (effects (font (size 1.524 1.524)))
    )
    (property "Value" "LDx2EN" (at 196.85 110.49 0)
      (effects (font (size 1.524 1.524)))
    )
    (property "Footprint" "pbv3:pad" (at 204.47 110.49 0)
      (effects (font (size 1.524 1.524)) hide)
    )
    (property "Datasheet" "" (at 204.47 110.49 0)
      (effects (font (size 1.524 1.524)) hide)
    )
    (pin "1" (uuid cf924a46-a8af-4eda-944f-d464493bb254))
    (instances
      (project "pbv3"
        (path "/8e06ba1f-e3ba-4eb9-a10e-887dffd566d6"
          (reference "J22") (unit 1)
        )
      )
    )
  )

  (symbol (lib_id "pbv3:BondPad") (at 250.19 80.01 0) (mirror y) (unit 1)
    (in_bom yes) (on_board yes) (dnp no)
    (uuid 00000000-0000-0000-0000-000059f3bec5)
    (property "Reference" "J30" (at 250.19 77.47 0)
      (effects (font (size 1.524 1.524)))
    )
    (property "Value" "HRSTBy" (at 257.81 80.01 0)
      (effects (font (size 1.524 1.524)))
    )
    (property "Footprint" "pbv3:pad" (at 250.19 80.01 0)
      (effects (font (size 1.524 1.524)) hide)
    )
    (property "Datasheet" "" (at 250.19 80.01 0)
      (effects (font (size 1.524 1.524)) hide)
    )
    (pin "1" (uuid 2419f267-078b-4cc4-8bea-095fc4b6eff9))
    (instances
      (project "pbv3"
        (path "/8e06ba1f-e3ba-4eb9-a10e-887dffd566d6"
          (reference "J30") (unit 1)
        )
      )
    )
  )

  (symbol (lib_id "pbv3:BondPad") (at 250.19 85.09 0) (mirror y) (unit 1)
    (in_bom yes) (on_board yes) (dnp no)
    (uuid 00000000-0000-0000-0000-000059f3becb)
    (property "Reference" "J31" (at 250.19 82.55 0)
      (effects (font (size 1.524 1.524)))
    )
    (property "Value" "LDy0EN" (at 257.81 85.09 0)
      (effects (font (size 1.524 1.524)))
    )
    (property "Footprint" "pbv3:pad" (at 250.19 85.09 0)
      (effects (font (size 1.524 1.524)) hide)
    )
    (property "Datasheet" "" (at 250.19 85.09 0)
      (effects (font (size 1.524 1.524)) hide)
    )
    (pin "1" (uuid 39e4b6eb-a1fe-4cb5-a6fd-282a9ff5da5f))
    (instances
      (project "pbv3"
        (path "/8e06ba1f-e3ba-4eb9-a10e-887dffd566d6"
          (reference "J31") (unit 1)
        )
      )
    )
  )

  (symbol (lib_id "pbv3:BondPad") (at 250.19 90.17 0) (mirror y) (unit 1)
    (in_bom yes) (on_board yes) (dnp no)
    (uuid 00000000-0000-0000-0000-000059f3bed1)
    (property "Reference" "J32" (at 250.19 87.63 0)
      (effects (font (size 1.524 1.524)))
    )
    (property "Value" "HREFy" (at 257.81 90.17 0)
      (effects (font (size 1.524 1.524)))
    )
    (property "Footprint" "pbv3:pad" (at 250.19 90.17 0)
      (effects (font (size 1.524 1.524)) hide)
    )
    (property "Datasheet" "" (at 250.19 90.17 0)
      (effects (font (size 1.524 1.524)) hide)
    )
    (pin "1" (uuid faaa4eb1-3a85-4ffb-8e62-4408e03c107e))
    (instances
      (project "pbv3"
        (path "/8e06ba1f-e3ba-4eb9-a10e-887dffd566d6"
          (reference "J32") (unit 1)
        )
      )
    )
  )

  (symbol (lib_id "pbv3:BondPad") (at 250.19 95.25 0) (mirror y) (unit 1)
    (in_bom yes) (on_board yes) (dnp no)
    (uuid 00000000-0000-0000-0000-000059f3bed7)
    (property "Reference" "J33" (at 250.19 92.71 0)
      (effects (font (size 1.524 1.524)))
    )
    (property "Value" "NTCyN" (at 257.81 95.25 0)
      (effects (font (size 1.524 1.524)))
    )
    (property "Footprint" "pbv3:pad" (at 250.19 95.25 0)
      (effects (font (size 1.524 1.524)) hide)
    )
    (property "Datasheet" "" (at 250.19 95.25 0)
      (effects (font (size 1.524 1.524)) hide)
    )
    (pin "1" (uuid d3d8510c-6b1c-4e8a-855b-60a000e61716))
    (instances
      (project "pbv3"
        (path "/8e06ba1f-e3ba-4eb9-a10e-887dffd566d6"
          (reference "J33") (unit 1)
        )
      )
    )
  )

  (symbol (lib_id "pbv3:BondPad") (at 250.19 100.33 0) (mirror y) (unit 1)
    (in_bom yes) (on_board yes) (dnp no)
    (uuid 00000000-0000-0000-0000-000059f3bedd)
    (property "Reference" "J34" (at 250.19 97.79 0)
      (effects (font (size 1.524 1.524)))
    )
    (property "Value" "NTCyP" (at 257.81 100.33 0)
      (effects (font (size 1.524 1.524)))
    )
    (property "Footprint" "pbv3:pad" (at 250.19 100.33 0)
      (effects (font (size 1.524 1.524)) hide)
    )
    (property "Datasheet" "" (at 250.19 100.33 0)
      (effects (font (size 1.524 1.524)) hide)
    )
    (pin "1" (uuid a56fcb7d-4606-41ed-bac8-c8ff5c7bd3dc))
    (instances
      (project "pbv3"
        (path "/8e06ba1f-e3ba-4eb9-a10e-887dffd566d6"
          (reference "J34") (unit 1)
        )
      )
    )
  )

  (symbol (lib_id "pbv3:BondPad") (at 250.19 105.41 0) (mirror y) (unit 1)
    (in_bom yes) (on_board yes) (dnp no)
    (uuid 00000000-0000-0000-0000-000059f3bee3)
    (property "Reference" "J35" (at 250.19 102.87 0)
      (effects (font (size 1.524 1.524)))
    )
    (property "Value" "LDy1EN" (at 257.81 105.41 0)
      (effects (font (size 1.524 1.524)))
    )
    (property "Footprint" "pbv3:pad" (at 250.19 105.41 0)
      (effects (font (size 1.524 1.524)) hide)
    )
    (property "Datasheet" "" (at 250.19 105.41 0)
      (effects (font (size 1.524 1.524)) hide)
    )
    (pin "1" (uuid 6985d672-0b2c-4d30-85ce-fa4aa143d43e))
    (instances
      (project "pbv3"
        (path "/8e06ba1f-e3ba-4eb9-a10e-887dffd566d6"
          (reference "J35") (unit 1)
        )
      )
    )
  )

  (symbol (lib_id "pbv3:BondPad") (at 250.19 74.93 0) (mirror y) (unit 1)
    (in_bom yes) (on_board yes) (dnp no)
    (uuid 00000000-0000-0000-0000-000059f3bee9)
    (property "Reference" "J29" (at 250.19 72.39 0)
      (effects (font (size 1.524 1.524)))
    )
    (property "Value" "SSSHy" (at 257.81 74.93 0)
      (effects (font (size 1.524 1.524)))
    )
    (property "Footprint" "pbv3:pad" (at 250.19 74.93 0)
      (effects (font (size 1.524 1.524)) hide)
    )
    (property "Datasheet" "" (at 250.19 74.93 0)
      (effects (font (size 1.524 1.524)) hide)
    )
    (pin "1" (uuid 8ea6d60b-dcfd-430e-a709-9a9e8389cd2f))
    (instances
      (project "pbv3"
        (path "/8e06ba1f-e3ba-4eb9-a10e-887dffd566d6"
          (reference "J29") (unit 1)
        )
      )
    )
  )

  (symbol (lib_id "pbv3:BondPad") (at 250.19 120.65 0) (mirror y) (unit 1)
    (in_bom yes) (on_board yes) (dnp no)
    (uuid 00000000-0000-0000-0000-000059f3beef)
    (property "Reference" "J38" (at 250.19 118.11 0)
      (effects (font (size 1.524 1.524)))
    )
    (property "Value" "CAly" (at 257.81 120.65 0)
      (effects (font (size 1.524 1.524)))
    )
    (property "Footprint" "pbv3:pad" (at 250.19 120.65 0)
      (effects (font (size 1.524 1.524)) hide)
    )
    (property "Datasheet" "" (at 250.19 120.65 0)
      (effects (font (size 1.524 1.524)) hide)
    )
    (pin "1" (uuid 3506b753-0d85-43ff-9318-6c29ee04b06a))
    (instances
      (project "pbv3"
        (path "/8e06ba1f-e3ba-4eb9-a10e-887dffd566d6"
          (reference "J38") (unit 1)
        )
      )
    )
  )

  (symbol (lib_id "pbv3:BondPad") (at 250.19 115.57 0) (mirror y) (unit 1)
    (in_bom yes) (on_board yes) (dnp no)
    (uuid 00000000-0000-0000-0000-000059f3bef5)
    (property "Reference" "J37" (at 250.19 113.03 0)
      (effects (font (size 1.524 1.524)))
    )
    (property "Value" "SHUNTy" (at 257.81 115.57 0)
      (effects (font (size 1.524 1.524)))
    )
    (property "Footprint" "pbv3:pad" (at 250.19 115.57 0)
      (effects (font (size 1.524 1.524)) hide)
    )
    (property "Datasheet" "" (at 250.19 115.57 0)
      (effects (font (size 1.524 1.524)) hide)
    )
    (pin "1" (uuid cb0458a5-8de3-402d-bc84-e7300939b3d3))
    (instances
      (project "pbv3"
        (path "/8e06ba1f-e3ba-4eb9-a10e-887dffd566d6"
          (reference "J37") (unit 1)
        )
      )
    )
  )

  (symbol (lib_id "pbv3:BondPad") (at 250.19 110.49 0) (mirror y) (unit 1)
    (in_bom yes) (on_board yes) (dnp no)
    (uuid 00000000-0000-0000-0000-000059f3befb)
    (property "Reference" "J36" (at 250.19 107.95 0)
      (effects (font (size 1.524 1.524)))
    )
    (property "Value" "LDy2EN" (at 257.81 110.49 0)
      (effects (font (size 1.524 1.524)))
    )
    (property "Footprint" "pbv3:pad" (at 250.19 110.49 0)
      (effects (font (size 1.524 1.524)) hide)
    )
    (property "Datasheet" "" (at 250.19 110.49 0)
      (effects (font (size 1.524 1.524)) hide)
    )
    (pin "1" (uuid 1f51a2ee-802a-496d-93e6-8c33781b2f11))
    (instances
      (project "pbv3"
        (path "/8e06ba1f-e3ba-4eb9-a10e-887dffd566d6"
          (reference "J36") (unit 1)
        )
      )
    )
  )

  (symbol (lib_id "power:GND") (at 109.22 157.48 0) (unit 1)
    (in_bom yes) (on_board yes) (dnp no)
    (uuid 00000000-0000-0000-0000-000059f3f88d)
    (property "Reference" "#PWR0104" (at 109.22 163.83 0)
      (effects (font (size 1.27 1.27)) hide)
    )
    (property "Value" "GND" (at 109.22 161.29 0)
      (effects (font (size 1.27 1.27)))
    )
    (property "Footprint" "" (at 109.22 157.48 0)
      (effects (font (size 1.27 1.27)))
    )
    (property "Datasheet" "" (at 109.22 157.48 0)
      (effects (font (size 1.27 1.27)))
    )
    (pin "1" (uuid b9a50e99-44bb-494d-87fb-f50af41bd4ef))
    (instances
      (project "pbv3"
        (path "/8e06ba1f-e3ba-4eb9-a10e-887dffd566d6"
          (reference "#PWR0104") (unit 1)
        )
      )
    )
  )

  (symbol (lib_id "pbv3:BondPad") (at 250.19 128.27 180) (unit 1)
    (in_bom yes) (on_board yes) (dnp no)
    (uuid 00000000-0000-0000-0000-000059f3ffe2)
    (property "Reference" "J39" (at 250.19 130.81 0)
      (effects (font (size 1.524 1.524)))
    )
    (property "Value" "HVretY" (at 257.81 128.27 0)
      (effects (font (size 1.524 1.524)))
    )
    (property "Footprint" "pbv3:pad" (at 250.19 128.27 0)
      (effects (font (size 1.524 1.524)) hide)
    )
    (property "Datasheet" "" (at 250.19 128.27 0)
      (effects (font (size 1.524 1.524)) hide)
    )
    (pin "1" (uuid da2f181b-4558-4a27-9d56-3ca9a9750134))
    (instances
      (project "pbv3"
        (path "/8e06ba1f-e3ba-4eb9-a10e-887dffd566d6"
          (reference "J39") (unit 1)
        )
      )
    )
  )

  (symbol (lib_id "pbv3:BondPad") (at 204.47 128.27 0) (unit 1)
    (in_bom yes) (on_board yes) (dnp no)
    (uuid 00000000-0000-0000-0000-000059f402b6)
    (property "Reference" "J25" (at 204.47 125.73 0)
      (effects (font (size 1.524 1.524)))
    )
    (property "Value" "HVretX" (at 196.85 128.27 0)
      (effects (font (size 1.524 1.524)))
    )
    (property "Footprint" "pbv3:pad" (at 204.47 128.27 0)
      (effects (font (size 1.524 1.524)) hide)
    )
    (property "Datasheet" "" (at 204.47 128.27 0)
      (effects (font (size 1.524 1.524)) hide)
    )
    (pin "1" (uuid 8a6d0e9f-35fd-49b4-bcfd-bf4c1393d045))
    (instances
      (project "pbv3"
        (path "/8e06ba1f-e3ba-4eb9-a10e-887dffd566d6"
          (reference "J25") (unit 1)
        )
      )
    )
  )

  (symbol (lib_id "pbv3:BondPad") (at 250.19 138.43 180) (unit 1)
    (in_bom yes) (on_board yes) (dnp no)
    (uuid 00000000-0000-0000-0000-000059f4095c)
    (property "Reference" "J40" (at 250.19 140.97 0)
      (effects (font (size 1.524 1.524)))
    )
    (property "Value" "CMDoutP" (at 257.81 138.43 0)
      (effects (font (size 1.524 1.524)))
    )
    (property "Footprint" "pbv3:pad" (at 250.19 138.43 0)
      (effects (font (size 1.524 1.524)) hide)
    )
    (property "Datasheet" "" (at 250.19 138.43 0)
      (effects (font (size 1.524 1.524)) hide)
    )
    (pin "1" (uuid 67608a77-f50b-4eec-85d9-1d0bba4c5c73))
    (instances
      (project "pbv3"
        (path "/8e06ba1f-e3ba-4eb9-a10e-887dffd566d6"
          (reference "J40") (unit 1)
        )
      )
    )
  )

  (symbol (lib_id "pbv3:BondPad") (at 250.19 143.51 180) (unit 1)
    (in_bom yes) (on_board yes) (dnp no)
    (uuid 00000000-0000-0000-0000-000059f40c45)
    (property "Reference" "J41" (at 250.19 146.05 0)
      (effects (font (size 1.524 1.524)))
    )
    (property "Value" "CMDoutN" (at 257.81 143.51 0)
      (effects (font (size 1.524 1.524)))
    )
    (property "Footprint" "pbv3:pad" (at 250.19 143.51 0)
      (effects (font (size 1.524 1.524)) hide)
    )
    (property "Datasheet" "" (at 250.19 143.51 0)
      (effects (font (size 1.524 1.524)) hide)
    )
    (pin "1" (uuid 23a4b9ee-966e-47a6-b50c-dfc53ee72eff))
    (instances
      (project "pbv3"
        (path "/8e06ba1f-e3ba-4eb9-a10e-887dffd566d6"
          (reference "J41") (unit 1)
        )
      )
    )
  )

  (symbol (lib_id "pbv3:BondPad") (at 204.47 138.43 0) (unit 1)
    (in_bom yes) (on_board yes) (dnp no)
    (uuid 00000000-0000-0000-0000-000059f41436)
    (property "Reference" "J26" (at 204.47 135.89 0)
      (effects (font (size 1.524 1.524)))
    )
    (property "Value" "CMDinP" (at 196.85 138.43 0)
      (effects (font (size 1.524 1.524)))
    )
    (property "Footprint" "pbv3:pad" (at 204.47 138.43 0)
      (effects (font (size 1.524 1.524)) hide)
    )
    (property "Datasheet" "" (at 204.47 138.43 0)
      (effects (font (size 1.524 1.524)) hide)
    )
    (pin "1" (uuid 8f3fe051-b904-48fe-a5e7-125eb0bf21f4))
    (instances
      (project "pbv3"
        (path "/8e06ba1f-e3ba-4eb9-a10e-887dffd566d6"
          (reference "J26") (unit 1)
        )
      )
    )
  )

  (symbol (lib_id "pbv3:BondPad") (at 204.47 143.51 0) (unit 1)
    (in_bom yes) (on_board yes) (dnp no)
    (uuid 00000000-0000-0000-0000-000059f41709)
    (property "Reference" "J27" (at 204.47 140.97 0)
      (effects (font (size 1.524 1.524)))
    )
    (property "Value" "CMDinN" (at 196.85 143.51 0)
      (effects (font (size 1.524 1.524)))
    )
    (property "Footprint" "pbv3:pad" (at 204.47 143.51 0)
      (effects (font (size 1.524 1.524)) hide)
    )
    (property "Datasheet" "" (at 204.47 143.51 0)
      (effects (font (size 1.524 1.524)) hide)
    )
    (pin "1" (uuid ac12336a-c2ac-40f8-b055-be8a5ff62426))
    (instances
      (project "pbv3"
        (path "/8e06ba1f-e3ba-4eb9-a10e-887dffd566d6"
          (reference "J27") (unit 1)
        )
      )
    )
  )

  (symbol (lib_id "pbv3:BondPad") (at 250.19 153.67 180) (unit 1)
    (in_bom yes) (on_board yes) (dnp no)
    (uuid 00000000-0000-0000-0000-000059f422d1)
    (property "Reference" "J42" (at 250.19 156.21 0)
      (effects (font (size 1.524 1.524)))
    )
    (property "Value" "OFout" (at 257.81 153.67 0)
      (effects (font (size 1.524 1.524)))
    )
    (property "Footprint" "pbv3:pad" (at 250.19 153.67 0)
      (effects (font (size 1.524 1.524)) hide)
    )
    (property "Datasheet" "" (at 250.19 153.67 0)
      (effects (font (size 1.524 1.524)) hide)
    )
    (pin "1" (uuid 71397e76-b6a2-431e-a781-9527506befc9))
    (instances
      (project "pbv3"
        (path "/8e06ba1f-e3ba-4eb9-a10e-887dffd566d6"
          (reference "J42") (unit 1)
        )
      )
    )
  )

  (symbol (lib_id "pbv3:BondPad") (at 204.47 149.86 0) (unit 1)
    (in_bom yes) (on_board yes) (dnp no)
    (uuid 00000000-0000-0000-0000-000059f425b4)
    (property "Reference" "J28" (at 204.47 147.32 0)
      (effects (font (size 1.524 1.524)))
    )
    (property "Value" "CAL" (at 196.85 149.86 0)
      (effects (font (size 1.524 1.524)))
    )
    (property "Footprint" "pbv3:pad" (at 204.47 149.86 0)
      (effects (font (size 1.524 1.524)) hide)
    )
    (property "Datasheet" "" (at 204.47 149.86 0)
      (effects (font (size 1.524 1.524)) hide)
    )
    (pin "1" (uuid ef5b5fb7-b188-4e19-93ed-a58cef64e8c3))
    (instances
      (project "pbv3"
        (path "/8e06ba1f-e3ba-4eb9-a10e-887dffd566d6"
          (reference "J28") (unit 1)
        )
      )
    )
  )

  (symbol (lib_id "pbv3:BondPad") (at 133.35 60.96 90) (unit 1)
    (in_bom yes) (on_board yes) (dnp no)
    (uuid 00000000-0000-0000-0000-00005aabf9e9)
    (property "Reference" "J5" (at 130.81 60.96 0)
      (effects (font (size 1.524 1.524)))
    )
    (property "Value" "T1V4" (at 135.89 60.96 0)
      (effects (font (size 1.524 1.524)))
    )
    (property "Footprint" "pbv3:pad" (at 133.35 60.96 0)
      (effects (font (size 1.524 1.524)) hide)
    )
    (property "Datasheet" "" (at 133.35 60.96 0)
      (effects (font (size 1.524 1.524)) hide)
    )
    (pin "1" (uuid 50c76261-991e-4f8e-b0e3-d44d86d66ff8))
    (instances
      (project "pbv3"
        (path "/8e06ba1f-e3ba-4eb9-a10e-887dffd566d6"
          (reference "J5") (unit 1)
        )
      )
    )
  )

  (symbol (lib_id "pbv3:BondPad") (at 140.97 60.96 90) (unit 1)
    (in_bom yes) (on_board yes) (dnp no)
    (uuid 00000000-0000-0000-0000-00005aabfc0c)
    (property "Reference" "J6" (at 138.43 60.96 0)
      (effects (font (size 1.524 1.524)))
    )
    (property "Value" "T3V3" (at 143.51 60.96 0)
      (effects (font (size 1.524 1.524)))
    )
    (property "Footprint" "pbv3:pad" (at 140.97 60.96 0)
      (effects (font (size 1.524 1.524)) hide)
    )
    (property "Datasheet" "" (at 140.97 60.96 0)
      (effects (font (size 1.524 1.524)) hide)
    )
    (pin "1" (uuid fe775beb-f6a9-44e7-b984-d6f0e072f7b9))
    (instances
      (project "pbv3"
        (path "/8e06ba1f-e3ba-4eb9-a10e-887dffd566d6"
          (reference "J6") (unit 1)
        )
      )
    )
  )

  (symbol (lib_id "Device:R") (at 111.76 151.13 270) (unit 1)
    (in_bom yes) (on_board yes) (dnp no)
    (uuid 5d35712c-9958-4bf0-9524-ac87279642d9)
    (property "Reference" "R16" (at 111.76 153.162 90)
      (effects (font (size 1.27 1.27)))
    )
    (property "Value" "100R" (at 111.76 151.13 90)
      (effects (font (size 1.27 1.27)))
    )
    (property "Footprint" "Resistor_SMD:R_0201_0603Metric" (at 111.76 149.352 90)
      (effects (font (size 1.27 1.27)) hide)
    )
    (property "Datasheet" "" (at 111.76 151.13 0)
      (effects (font (size 1.27 1.27)))
    )
    (property "Part" "ERJ-1GNJ101C" (at 111.76 151.13 0)
      (effects (font (size 1.27 1.27)) hide)
    )
    (pin "1" (uuid 9663312f-157c-48b6-a267-1ca62bae8538))
    (pin "2" (uuid 0dd8aa43-bb2c-42f2-bc4a-3918ab30d9c3))
    (instances
      (project "pbv3"
        (path "/8e06ba1f-e3ba-4eb9-a10e-887dffd566d6"
          (reference "R16") (unit 1)
        )
      )
    )
  )

  (sheet (at 68.58 40.64) (size 30.48 36.83) (fields_autoplaced)
    (stroke (width 0) (type solid))
    (fill (color 0 0 0 0.0000))
    (uuid 00000000-0000-0000-0000-000059efea3a)
    (property "Sheetname" "Power" (at 68.58 39.8014 0)
      (effects (font (size 1.524 1.524)) (justify left bottom))
    )
    (property "Sheetfile" "pbv3_power.kicad_sch" (at 68.58 78.1562 0)
      (effects (font (size 1.524 1.524)) (justify left top))
    )
    (pin "VOUT" input (at 99.06 43.18 0)
      (effects (font (size 1.524 1.524)) (justify right))
      (uuid ec31c074-17b2-48e1-ab01-071acad3fa04)
    )
    (pin "VIN" input (at 68.58 43.18 180)
      (effects (font (size 1.524 1.524)) (justify left))
      (uuid 60dcd1fe-7079-4cb8-b509-04558ccf5097)
    )
    (pin "VIN_RTN" input (at 68.58 46.99 180)
      (effects (font (size 1.524 1.524)) (justify left))
      (uuid c5eb1e4c-ce83-470e-8f32-e20ff1f886a3)
    )
    (pin "PTAT" input (at 99.06 74.93 0)
      (effects (font (size 1.524 1.524)) (justify right))
      (uuid 85b7594c-358f-454b-b2ad-dd0b1d67ed76)
    )
    (pin "DCDCEN" input (at 68.58 60.96 180)
      (effects (font (size 1.524 1.524)) (justify left))
      (uuid 16bd6381-8ac0-4bf2-9dce-ecc20c724b8d)
    )
    (pin "PGOOD" input (at 99.06 71.12 0)
      (effects (font (size 1.524 1.524)) (justify right))
      (uuid a5cd8da1-8f7f-4f80-bb23-0317de562222)
    )
    (pin "FVOUT" input (at 99.06 63.5 0)
      (effects (font (size 1.524 1.524)) (justify right))
      (uuid 4f66b314-0f62-4fb6-8c3c-f9c6a75cd3ec)
    )
    (pin "VCC3V3" input (at 99.06 50.8 0)
      (effects (font (size 1.524 1.524)) (justify right))
      (uuid 01e9b6e7-adf9-4ee7-9447-a588630ee4a2)
    )
    (pin "VCC1V4" input (at 99.06 46.99 0)
      (effects (font (size 1.524 1.524)) (justify right))
      (uuid ca87f11b-5f48-4b57-8535-68d3ec2fe5a9)
    )
    (pin "LREGEN" input (at 68.58 57.15 180)
      (effects (font (size 1.524 1.524)) (justify left))
      (uuid 7d928d56-093a-4ca8-aed1-414b7e703b45)
    )
    (pin "NTCp" input (at 68.58 71.12 180)
      (effects (font (size 1.524 1.524)) (justify left))
      (uuid 8a650ebf-3f78-4ca4-a26b-a5028693e36d)
    )
    (pin "NTCn" input (at 68.58 74.93 180)
      (effects (font (size 1.524 1.524)) (justify left))
      (uuid 730b670c-9bcf-4dcd-9a8d-fcaa61fb0955)
    )
    (pin "FVIN" input (at 99.06 67.31 0)
      (effects (font (size 1.524 1.524)) (justify right))
      (uuid abe07c9a-17c3-43b5-b7a6-ae867ac27ea7)
    )
    (pin "Bit1_VOUT" input (at 99.06 55.88 0)
      (effects (font (size 1.524 1.524)) (justify right))
      (uuid 0c3dceba-7c95-4b3d-b590-0eb581444beb)
    )
    (pin "Bit2_VOUT" input (at 99.06 59.69 0)
      (effects (font (size 1.524 1.524)) (justify right))
      (uuid 965308c8-e014-459a-b9db-b8493a601c62)
    )
    (instances
      (project "pbv3"
        (path "/8e06ba1f-e3ba-4eb9-a10e-887dffd566d6" (page "2"))
      )
    )
  )

  (sheet (at 214.63 44.45) (size 25.4 113.03) (fields_autoplaced)
    (stroke (width 0) (type solid))
    (fill (color 0 0 0 0.0000))
    (uuid 00000000-0000-0000-0000-000059f0798f)
    (property "Sheetname" "AMAC" (at 214.63 43.6114 0)
      (effects (font (size 1.524 1.524)) (justify left bottom))
    )
    (property "Sheetfile" "amac.kicad_sch" (at 214.63 158.1662 0)
      (effects (font (size 1.524 1.524)) (justify left top))
    )
    (pin "VDCDC" input (at 214.63 46.99 180)
      (effects (font (size 1.524 1.524)) (justify left))
      (uuid b9bb0e73-161a-4d06-b6eb-a9f66d8a95f5)
    )
    (pin "VLREG" input (at 214.63 49.53 180)
      (effects (font (size 1.524 1.524)) (justify left))
      (uuid 4107d40a-e5df-4255-aacc-13f9928e090c)
    )
    (pin "GND" input (at 214.63 54.61 180)
      (effects (font (size 1.524 1.524)) (justify left))
      (uuid 0fdc6f30-77bc-4e9b-8665-c8aa9acf5bf9)
    )
    (pin "CUR1Vp" input (at 214.63 59.69 180)
      (effects (font (size 1.524 1.524)) (justify left))
      (uuid 0ae82096-0994-4fb0-9a2a-d4ac4804abac)
    )
    (pin "CUR1Vn" input (at 214.63 62.23 180)
      (effects (font (size 1.524 1.524)) (justify left))
      (uuid e0f06b5c-de63-4833-a591-ca9e19217a35)
    )
    (pin "DCDCEN" input (at 240.03 46.99 0)
      (effects (font (size 1.524 1.524)) (justify right))
      (uuid 8195a7cf-4576-44dd-9e0e-ee048fdb93dd)
    )
    (pin "NTCPBn" input (at 240.03 54.61 0)
      (effects (font (size 1.524 1.524)) (justify right))
      (uuid e7bb7815-0d52-4bb8-b29a-8cf960bd2905)
    )
    (pin "NTCPBp" input (at 240.03 57.15 0)
      (effects (font (size 1.524 1.524)) (justify right))
      (uuid d2d7bea6-0c22-495f-8666-323b30e03150)
    )
    (pin "CUR10Vn" input (at 214.63 68.58 180)
      (effects (font (size 1.524 1.524)) (justify left))
      (uuid 0f324b67-75ef-407f-8dbc-3c1fc5c2abba)
    )
    (pin "CUR10Vp" input (at 214.63 66.04 180)
      (effects (font (size 1.524 1.524)) (justify left))
      (uuid 1c68b844-c861-46b7-b734-0242168a4220)
    )
    (pin "PGOOD" input (at 240.03 49.53 0)
      (effects (font (size 1.524 1.524)) (justify right))
      (uuid 4b03e854-02fe-44cc-bece-f8268b7cae54)
    )
    (pin "PTAT" input (at 240.03 52.07 0)
      (effects (font (size 1.524 1.524)) (justify right))
      (uuid b5071759-a4d7-4769-be02-251f23cd4454)
    )
    (pin "SSSHy" input (at 240.03 74.93 0)
      (effects (font (size 1.524 1.524)) (justify right))
      (uuid cada57e2-1fa7-4b9d-a2a0-2218773d5c50)
    )
    (pin "HRSTBy" input (at 240.03 80.01 0)
      (effects (font (size 1.524 1.524)) (justify right))
      (uuid 752417ee-7d0b-4ac8-a22c-26669881a2ab)
    )
    (pin "LDy0EN" input (at 240.03 85.09 0)
      (effects (font (size 1.524 1.524)) (justify right))
      (uuid 9f80220c-1612-4589-b9ca-a5579617bdb8)
    )
    (pin "HREFy" input (at 240.03 90.17 0)
      (effects (font (size 1.524 1.524)) (justify right))
      (uuid 224768bc-6009-43ba-aa4a-70cbaa15b5a3)
    )
    (pin "NTCyN" input (at 240.03 95.25 0)
      (effects (font (size 1.524 1.524)) (justify right))
      (uuid fef37e8b-0ff0-4da2-8a57-acaf19551d1a)
    )
    (pin "NTCyP" input (at 240.03 100.33 0)
      (effects (font (size 1.524 1.524)) (justify right))
      (uuid d21cc5e4-177a-4e1d-a8d5-060ed33e5b8e)
    )
    (pin "LDy1EN" input (at 240.03 105.41 0)
      (effects (font (size 1.524 1.524)) (justify right))
      (uuid 89c0bc4d-eee5-4a77-ac35-d30b35db5cbe)
    )
    (pin "LDy2EN" input (at 240.03 110.49 0)
      (effects (font (size 1.524 1.524)) (justify right))
      (uuid e1c30a32-820e-4b17-aec9-5cb8b76f0ccc)
    )
    (pin "SHUNTy" input (at 240.03 115.57 0)
      (effects (font (size 1.524 1.524)) (justify right))
      (uuid 88d2c4b8-79f2-4e8b-9f70-b7e0ed9c70f8)
    )
    (pin "CALy" input (at 240.03 120.65 0)
      (effects (font (size 1.524 1.524)) (justify right))
      (uuid a7531a95-7ca1-4f34-955e-18120cec99e6)
    )
    (pin "OFout" input (at 240.03 153.67 0)
      (effects (font (size 1.524 1.524)) (justify right))
      (uuid f8fc38ec-0b98-40bc-ae2f-e5cc29973bca)
    )
    (pin "GPO2" input (at 240.03 59.69 0)
      (effects (font (size 1.524 1.524)) (justify right))
      (uuid 34d03349-6d78-4165-a683-2d8b76f2bae8)
    )
    (pin "HVret1" input (at 214.63 128.27 180)
      (effects (font (size 1.524 1.524)) (justify left))
      (uuid bb4b1afc-c46e-451d-8dad-36b7dec82f26)
    )
    (pin "CMDin_P" input (at 214.63 139.7 180)
      (effects (font (size 1.524 1.524)) (justify left))
      (uuid 37b6c6d6-3e12-4736-912a-ea6e2bf06721)
    )
    (pin "CMDin_N" input (at 214.63 142.24 180)
      (effects (font (size 1.524 1.524)) (justify left))
      (uuid 86dc7a78-7d51-4111-9eea-8a8f7977eb16)
    )
    (pin "CMDout_P" output (at 240.03 139.7 0)
      (effects (font (size 1.524 1.524)) (justify right))
      (uuid e32ee344-1030-4498-9cac-bfbf7540faf4)
    )
    (pin "CMDout_N" input (at 240.03 142.24 0)
      (effects (font (size 1.524 1.524)) (justify right))
      (uuid 0bcafe80-ffba-4f1e-ae51-95a595b006db)
    )
    (pin "HVOSC0" input (at 214.63 133.35 180)
      (effects (font (size 1.524 1.524)) (justify left))
      (uuid 026ac84e-b8b2-4dd2-b675-8323c24fd778)
    )
    (pin "VDDHI" input (at 214.63 52.07 180)
      (effects (font (size 1.524 1.524)) (justify left))
      (uuid da25bf79-0abb-4fac-a221-ca5c574dfc29)
    )
    (pin "LAM" input (at 240.03 149.86 0)
      (effects (font (size 1.524 1.524)) (justify right))
      (uuid 34cdc1c9-c9e2-44c4-9677-c1c7d7efd83d)
    )
    (pin "HVret2" input (at 240.03 128.27 0)
      (effects (font (size 1.524 1.524)) (justify right))
      (uuid c49d23ab-146d-4089-864f-2d22b5b414b9)
    )
    (pin "LDx0EN" input (at 214.63 85.09 180)
      (effects (font (size 1.524 1.524)) (justify left))
      (uuid c7af8405-da2e-4a34-b9b8-518f342f8995)
    )
    (pin "HRSTBx" input (at 214.63 80.01 180)
      (effects (font (size 1.524 1.524)) (justify left))
      (uuid aa79024d-ca7e-4c24-b127-7df08bbd0c75)
    )
    (pin "SSSHx" input (at 214.63 74.93 180)
      (effects (font (size 1.524 1.524)) (justify left))
      (uuid 26801cfb-b53b-4a6a-a2f4-5f4986565765)
    )
    (pin "HREFx" input (at 214.63 90.17 180)
      (effects (font (size 1.524 1.524)) (justify left))
      (uuid f78e02cd-9600-4173-be8d-67e530b5d19f)
    )
    (pin "NTCxP" input (at 214.63 95.25 180)
      (effects (font (size 1.524 1.524)) (justify left))
      (uuid 6f80f798-dc24-438f-a1eb-4ee2936267c8)
    )
    (pin "NTCxN" input (at 214.63 100.33 180)
      (effects (font (size 1.524 1.524)) (justify left))
      (uuid f66398f1-1ae7-4d4d-939f-958c174c6bce)
    )
    (pin "LDx1EN" input (at 214.63 105.41 180)
      (effects (font (size 1.524 1.524)) (justify left))
      (uuid 088f77ba-fca9-42b3-876e-a6937267f957)
    )
    (pin "LDx2EN" input (at 214.63 110.49 180)
      (effects (font (size 1.524 1.524)) (justify left))
      (uuid 71989e06-8659-4605-b2da-4f729cc41263)
    )
    (pin "SHUNTx" input (at 214.63 115.57 180)
      (effects (font (size 1.524 1.524)) (justify left))
      (uuid 9a0b74a5-4879-4b51-8e8e-6d85a0107422)
    )
    (pin "CALx" input (at 214.63 120.65 180)
      (effects (font (size 1.524 1.524)) (justify left))
      (uuid eae14f5f-515c-4a6f-ad0e-e8ef233d14bf)
    )
    (pin "OFin" input (at 214.63 153.67 180)
      (effects (font (size 1.524 1.524)) (justify left))
      (uuid 6e435cd4-da2b-4602-a0aa-5dd988834dff)
    )
    (pin "CAL" input (at 214.63 149.86 180)
      (effects (font (size 1.524 1.524)) (justify left))
      (uuid 6f675e5f-8fe6-4148-baf1-da97afc770f8)
    )
    (pin "GPO1" input (at 240.03 62.23 0)
      (effects (font (size 1.524 1.524)) (justify right))
      (uuid d69a5fdf-de15-4ec9-94f6-f9ee2f4b69fa)
    )
    (instances
      (project "pbv3"
        (path "/8e06ba1f-e3ba-4eb9-a10e-887dffd566d6" (page "4"))
      )
    )
  )

  (sheet (at 73.66 142.24) (size 26.67 25.4) (fields_autoplaced)
    (stroke (width 0) (type solid))
    (fill (color 0 0 0 0.0000))
    (uuid 00000000-0000-0000-0000-000059f07aaa)
    (property "Sheetname" "HV" (at 73.66 141.4014 0)
      (effects (font (size 1.524 1.524)) (justify left bottom))
    )
    (property "Sheetfile" "hv.kicad_sch" (at 73.66 168.3262 0)
      (effects (font (size 1.524 1.524)) (justify left top))
    )
    (pin "HVOSC" input (at 73.66 146.05 180)
      (effects (font (size 1.524 1.524)) (justify left))
      (uuid 5bcace5d-edd0-4e19-92d0-835e43cf8eb2)
    )
    (pin "GND" input (at 73.66 149.86 180)
      (effects (font (size 1.524 1.524)) (justify left))
      (uuid bd065eaf-e495-4837-bdb3-129934de1fc7)
    )
    (pin "HV_IN" input (at 73.66 157.48 180)
      (effects (font (size 1.524 1.524)) (justify left))
      (uuid 6ec113ca-7d27-4b14-a180-1e5e2fd1c167)
    )
    (pin "HV_IN_RTN" input (at 73.66 161.29 180)
      (effects (font (size 1.524 1.524)) (justify left))
      (uuid e43dbe34-ed17-4e35-a5c7-2f1679b3c415)
    )
    (pin "HV_OUT_RTN" input (at 100.33 154.94 0)
      (effects (font (size 1.524 1.524)) (justify right))
      (uuid 14769dc5-8525-4984-8b15-a734ee247efa)
    )
    (pin "HV_OUT" input (at 100.33 151.13 0)
      (effects (font (size 1.524 1.524)) (justify right))
      (uuid 19c56563-5fe3-442a-885b-418dbc2421eb)
    )
    (instances
      (project "pbv3"
        (path "/8e06ba1f-e3ba-4eb9-a10e-887dffd566d6" (page "3"))
      )
    )
  )

  (sheet_instances
    (path "/" (page "1"))
  )
)
