(kicad_sch (version 20230121) (generator eeschema)

  (uuid 054bdd61-075c-4d74-ab78-918085654073)

  (paper "A4")

  (title_block
    (title "Powerboard v3")
    (date "2017-10-23")
    (rev "A")
    (company "LBNL")
    (comment 1 "Timon Heim")
  )

  (lib_symbols
    (symbol "Device:C" (pin_numbers hide) (pin_names (offset 0.254)) (in_bom yes) (on_board yes)
      (property "Reference" "C" (at 0.635 2.54 0)
        (effects (font (size 1.27 1.27)) (justify left))
      )
      (property "Value" "C" (at 0.635 -2.54 0)
        (effects (font (size 1.27 1.27)) (justify left))
      )
      (property "Footprint" "" (at 0.9652 -3.81 0)
        (effects (font (size 1.27 1.27)) hide)
      )
      (property "Datasheet" "~" (at 0 0 0)
        (effects (font (size 1.27 1.27)) hide)
      )
      (property "ki_keywords" "cap capacitor" (at 0 0 0)
        (effects (font (size 1.27 1.27)) hide)
      )
      (property "ki_description" "Unpolarized capacitor" (at 0 0 0)
        (effects (font (size 1.27 1.27)) hide)
      )
      (property "ki_fp_filters" "C_*" (at 0 0 0)
        (effects (font (size 1.27 1.27)) hide)
      )
      (symbol "C_0_1"
        (polyline
          (pts
            (xy -2.032 -0.762)
            (xy 2.032 -0.762)
          )
          (stroke (width 0.508) (type default))
          (fill (type none))
        )
        (polyline
          (pts
            (xy -2.032 0.762)
            (xy 2.032 0.762)
          )
          (stroke (width 0.508) (type default))
          (fill (type none))
        )
      )
      (symbol "C_1_1"
        (pin passive line (at 0 3.81 270) (length 2.794)
          (name "~" (effects (font (size 1.27 1.27))))
          (number "1" (effects (font (size 1.27 1.27))))
        )
        (pin passive line (at 0 -3.81 90) (length 2.794)
          (name "~" (effects (font (size 1.27 1.27))))
          (number "2" (effects (font (size 1.27 1.27))))
        )
      )
    )
    (symbol "Device:D_Zener" (pin_numbers hide) (pin_names (offset 1.016) hide) (in_bom yes) (on_board yes)
      (property "Reference" "D" (at 0 2.54 0)
        (effects (font (size 1.27 1.27)))
      )
      (property "Value" "D_Zener" (at 0 -2.54 0)
        (effects (font (size 1.27 1.27)))
      )
      (property "Footprint" "" (at 0 0 0)
        (effects (font (size 1.27 1.27)) hide)
      )
      (property "Datasheet" "~" (at 0 0 0)
        (effects (font (size 1.27 1.27)) hide)
      )
      (property "ki_keywords" "diode" (at 0 0 0)
        (effects (font (size 1.27 1.27)) hide)
      )
      (property "ki_description" "Zener diode" (at 0 0 0)
        (effects (font (size 1.27 1.27)) hide)
      )
      (property "ki_fp_filters" "TO-???* *_Diode_* *SingleDiode* D_*" (at 0 0 0)
        (effects (font (size 1.27 1.27)) hide)
      )
      (symbol "D_Zener_0_1"
        (polyline
          (pts
            (xy 1.27 0)
            (xy -1.27 0)
          )
          (stroke (width 0) (type default))
          (fill (type none))
        )
        (polyline
          (pts
            (xy -1.27 -1.27)
            (xy -1.27 1.27)
            (xy -0.762 1.27)
          )
          (stroke (width 0.254) (type default))
          (fill (type none))
        )
        (polyline
          (pts
            (xy 1.27 -1.27)
            (xy 1.27 1.27)
            (xy -1.27 0)
            (xy 1.27 -1.27)
          )
          (stroke (width 0.254) (type default))
          (fill (type none))
        )
      )
      (symbol "D_Zener_1_1"
        (pin passive line (at -3.81 0 0) (length 2.54)
          (name "K" (effects (font (size 1.27 1.27))))
          (number "1" (effects (font (size 1.27 1.27))))
        )
        (pin passive line (at 3.81 0 180) (length 2.54)
          (name "A" (effects (font (size 1.27 1.27))))
          (number "2" (effects (font (size 1.27 1.27))))
        )
      )
    )
    (symbol "Device:Q_NMOS_DGS" (pin_names (offset 0) hide) (in_bom yes) (on_board yes)
      (property "Reference" "Q" (at 5.08 1.27 0)
        (effects (font (size 1.27 1.27)) (justify left))
      )
      (property "Value" "Q_NMOS_DGS" (at 5.08 -1.27 0)
        (effects (font (size 1.27 1.27)) (justify left))
      )
      (property "Footprint" "" (at 5.08 2.54 0)
        (effects (font (size 1.27 1.27)) hide)
      )
      (property "Datasheet" "~" (at 0 0 0)
        (effects (font (size 1.27 1.27)) hide)
      )
      (property "ki_keywords" "transistor NMOS N-MOS N-MOSFET" (at 0 0 0)
        (effects (font (size 1.27 1.27)) hide)
      )
      (property "ki_description" "N-MOSFET transistor, drain/gate/source" (at 0 0 0)
        (effects (font (size 1.27 1.27)) hide)
      )
      (symbol "Q_NMOS_DGS_0_1"
        (polyline
          (pts
            (xy 0.254 0)
            (xy -2.54 0)
          )
          (stroke (width 0) (type default))
          (fill (type none))
        )
        (polyline
          (pts
            (xy 0.254 1.905)
            (xy 0.254 -1.905)
          )
          (stroke (width 0.254) (type default))
          (fill (type none))
        )
        (polyline
          (pts
            (xy 0.762 -1.27)
            (xy 0.762 -2.286)
          )
          (stroke (width 0.254) (type default))
          (fill (type none))
        )
        (polyline
          (pts
            (xy 0.762 0.508)
            (xy 0.762 -0.508)
          )
          (stroke (width 0.254) (type default))
          (fill (type none))
        )
        (polyline
          (pts
            (xy 0.762 2.286)
            (xy 0.762 1.27)
          )
          (stroke (width 0.254) (type default))
          (fill (type none))
        )
        (polyline
          (pts
            (xy 2.54 2.54)
            (xy 2.54 1.778)
          )
          (stroke (width 0) (type default))
          (fill (type none))
        )
        (polyline
          (pts
            (xy 2.54 -2.54)
            (xy 2.54 0)
            (xy 0.762 0)
          )
          (stroke (width 0) (type default))
          (fill (type none))
        )
        (polyline
          (pts
            (xy 0.762 -1.778)
            (xy 3.302 -1.778)
            (xy 3.302 1.778)
            (xy 0.762 1.778)
          )
          (stroke (width 0) (type default))
          (fill (type none))
        )
        (polyline
          (pts
            (xy 1.016 0)
            (xy 2.032 0.381)
            (xy 2.032 -0.381)
            (xy 1.016 0)
          )
          (stroke (width 0) (type default))
          (fill (type outline))
        )
        (polyline
          (pts
            (xy 2.794 0.508)
            (xy 2.921 0.381)
            (xy 3.683 0.381)
            (xy 3.81 0.254)
          )
          (stroke (width 0) (type default))
          (fill (type none))
        )
        (polyline
          (pts
            (xy 3.302 0.381)
            (xy 2.921 -0.254)
            (xy 3.683 -0.254)
            (xy 3.302 0.381)
          )
          (stroke (width 0) (type default))
          (fill (type none))
        )
        (circle (center 1.651 0) (radius 2.794)
          (stroke (width 0.254) (type default))
          (fill (type none))
        )
        (circle (center 2.54 -1.778) (radius 0.254)
          (stroke (width 0) (type default))
          (fill (type outline))
        )
        (circle (center 2.54 1.778) (radius 0.254)
          (stroke (width 0) (type default))
          (fill (type outline))
        )
      )
      (symbol "Q_NMOS_DGS_1_1"
        (pin passive line (at 2.54 5.08 270) (length 2.54)
          (name "D" (effects (font (size 1.27 1.27))))
          (number "1" (effects (font (size 1.27 1.27))))
        )
        (pin input line (at -5.08 0 0) (length 2.54)
          (name "G" (effects (font (size 1.27 1.27))))
          (number "2" (effects (font (size 1.27 1.27))))
        )
        (pin passive line (at 2.54 -5.08 90) (length 2.54)
          (name "S" (effects (font (size 1.27 1.27))))
          (number "3" (effects (font (size 1.27 1.27))))
        )
      )
    )
    (symbol "Device:R" (pin_numbers hide) (pin_names (offset 0)) (in_bom yes) (on_board yes)
      (property "Reference" "R" (at 2.032 0 90)
        (effects (font (size 1.27 1.27)))
      )
      (property "Value" "R" (at 0 0 90)
        (effects (font (size 1.27 1.27)))
      )
      (property "Footprint" "" (at -1.778 0 90)
        (effects (font (size 1.27 1.27)) hide)
      )
      (property "Datasheet" "~" (at 0 0 0)
        (effects (font (size 1.27 1.27)) hide)
      )
      (property "ki_keywords" "R res resistor" (at 0 0 0)
        (effects (font (size 1.27 1.27)) hide)
      )
      (property "ki_description" "Resistor" (at 0 0 0)
        (effects (font (size 1.27 1.27)) hide)
      )
      (property "ki_fp_filters" "R_*" (at 0 0 0)
        (effects (font (size 1.27 1.27)) hide)
      )
      (symbol "R_0_1"
        (rectangle (start -1.016 -2.54) (end 1.016 2.54)
          (stroke (width 0.254) (type default))
          (fill (type none))
        )
      )
      (symbol "R_1_1"
        (pin passive line (at 0 3.81 270) (length 1.27)
          (name "~" (effects (font (size 1.27 1.27))))
          (number "1" (effects (font (size 1.27 1.27))))
        )
        (pin passive line (at 0 -3.81 90) (length 1.27)
          (name "~" (effects (font (size 1.27 1.27))))
          (number "2" (effects (font (size 1.27 1.27))))
        )
      )
    )
    (symbol "pbv3:BAS70DW-04" (pin_names (offset 1.016)) (in_bom yes) (on_board yes)
      (property "Reference" "D" (at 0 10.16 0)
        (effects (font (size 1.524 1.524)))
      )
      (property "Value" "BAS70DW-04" (at 0 -12.7 0)
        (effects (font (size 1.524 1.524)))
      )
      (property "Footprint" "" (at 0 0 90)
        (effects (font (size 1.524 1.524)) hide)
      )
      (property "Datasheet" "" (at 0 0 90)
        (effects (font (size 1.524 1.524)) hide)
      )
      (property "ki_description" "Quad diode" (at 0 0 0)
        (effects (font (size 1.27 1.27)) hide)
      )
      (symbol "BAS70DW-04_0_1"
        (polyline
          (pts
            (xy -5.08 -1.27)
            (xy -7.62 -1.27)
          )
          (stroke (width 0) (type default))
          (fill (type none))
        )
        (polyline
          (pts
            (xy -5.08 0)
            (xy -5.08 -2.54)
          )
          (stroke (width 0) (type default))
          (fill (type none))
        )
        (polyline
          (pts
            (xy -2.54 7.62)
            (xy -2.54 5.08)
          )
          (stroke (width 0) (type default))
          (fill (type none))
        )
        (polyline
          (pts
            (xy 1.27 -8.89)
            (xy -7.62 -8.89)
          )
          (stroke (width 0) (type default))
          (fill (type none))
        )
        (polyline
          (pts
            (xy 2.54 -10.16)
            (xy 2.54 -7.62)
          )
          (stroke (width 0) (type default))
          (fill (type none))
        )
        (polyline
          (pts
            (xy 5.08 -1.27)
            (xy 7.62 -1.27)
          )
          (stroke (width 0) (type default))
          (fill (type none))
        )
        (polyline
          (pts
            (xy 5.08 0)
            (xy 5.08 -2.54)
          )
          (stroke (width 0) (type default))
          (fill (type none))
        )
        (polyline
          (pts
            (xy -7.62 6.35)
            (xy -5.08 6.35)
            (xy -5.08 7.62)
            (xy -2.54 6.35)
            (xy -5.08 5.08)
            (xy -5.08 6.35)
          )
          (stroke (width 0) (type default))
          (fill (type none))
        )
        (polyline
          (pts
            (xy 7.62 -8.89)
            (xy 5.08 -8.89)
            (xy 5.08 -10.16)
            (xy 2.54 -8.89)
            (xy 5.08 -7.62)
            (xy 5.08 -8.89)
          )
          (stroke (width 0) (type default))
          (fill (type none))
        )
        (polyline
          (pts
            (xy 2.54 -8.89)
            (xy 1.27 -8.89)
            (xy 1.27 -1.27)
            (xy 2.54 -1.27)
            (xy 2.54 0)
            (xy 5.08 -1.27)
            (xy 2.54 -2.54)
            (xy 2.54 -1.27)
          )
          (stroke (width 0) (type default))
          (fill (type none))
        )
        (polyline
          (pts
            (xy -2.54 6.35)
            (xy 7.62 6.35)
            (xy -1.27 6.35)
            (xy -1.27 -1.27)
            (xy -2.54 -1.27)
            (xy -2.54 0)
            (xy -5.08 -1.27)
            (xy -2.54 -2.54)
            (xy -2.54 -1.27)
          )
          (stroke (width 0) (type default))
          (fill (type none))
        )
        (rectangle (start 7.62 8.89) (end -7.62 -11.43)
          (stroke (width 0) (type default))
          (fill (type background))
        )
      )
      (symbol "BAS70DW-04_1_1"
        (pin input line (at -12.7 6.35 0) (length 5.08)
          (name "~" (effects (font (size 1.27 1.27))))
          (number "1" (effects (font (size 1.27 1.27))))
        )
        (pin input line (at -12.7 -1.27 0) (length 5.08)
          (name "~" (effects (font (size 1.27 1.27))))
          (number "2" (effects (font (size 1.27 1.27))))
        )
        (pin input line (at -12.7 -8.89 0) (length 5.08)
          (name "~" (effects (font (size 1.27 1.27))))
          (number "3" (effects (font (size 1.27 1.27))))
        )
        (pin input line (at 12.7 -8.89 180) (length 5.08)
          (name "~" (effects (font (size 1.27 1.27))))
          (number "4" (effects (font (size 1.27 1.27))))
        )
        (pin input line (at 12.7 -1.27 180) (length 5.08)
          (name "~" (effects (font (size 1.27 1.27))))
          (number "5" (effects (font (size 1.27 1.27))))
        )
        (pin input line (at 12.7 6.35 180) (length 5.08)
          (name "~" (effects (font (size 1.27 1.27))))
          (number "6" (effects (font (size 1.27 1.27))))
        )
      )
    )
    (symbol "power:GND" (power) (pin_names (offset 0)) (in_bom yes) (on_board yes)
      (property "Reference" "#PWR" (at 0 -6.35 0)
        (effects (font (size 1.27 1.27)) hide)
      )
      (property "Value" "GND" (at 0 -3.81 0)
        (effects (font (size 1.27 1.27)))
      )
      (property "Footprint" "" (at 0 0 0)
        (effects (font (size 1.27 1.27)) hide)
      )
      (property "Datasheet" "" (at 0 0 0)
        (effects (font (size 1.27 1.27)) hide)
      )
      (property "ki_keywords" "power-flag" (at 0 0 0)
        (effects (font (size 1.27 1.27)) hide)
      )
      (property "ki_description" "Power symbol creates a global label with name \"GND\" , ground" (at 0 0 0)
        (effects (font (size 1.27 1.27)) hide)
      )
      (symbol "GND_0_1"
        (polyline
          (pts
            (xy 0 0)
            (xy 0 -1.27)
            (xy 1.27 -1.27)
            (xy 0 -2.54)
            (xy -1.27 -1.27)
            (xy 0 -1.27)
          )
          (stroke (width 0) (type default))
          (fill (type none))
        )
      )
      (symbol "GND_1_1"
        (pin power_in line (at 0 0 270) (length 0) hide
          (name "GND" (effects (font (size 1.27 1.27))))
          (number "1" (effects (font (size 1.27 1.27))))
        )
      )
    )
  )

  (junction (at 88.9 88.9) (diameter 0) (color 0 0 0 0)
    (uuid 0c78a496-6577-4ecb-8491-720b3ee9c832)
  )
  (junction (at 161.29 107.95) (diameter 0) (color 0 0 0 0)
    (uuid 0c85559d-b62d-4d33-81de-d17b2e255e6b)
  )
  (junction (at 185.42 88.9) (diameter 0) (color 0 0 0 0)
    (uuid 17414911-8221-4ec5-816d-dc77f7cee7d1)
  )
  (junction (at 115.57 88.9) (diameter 0) (color 0 0 0 0)
    (uuid 195a4234-23e4-4a2f-b821-f8cfa248ed49)
  )
  (junction (at 166.37 107.95) (diameter 0) (color 0 0 0 0)
    (uuid 1aa35546-c260-44fd-916b-fbc941c9479d)
  )
  (junction (at 199.39 68.58) (diameter 0) (color 0 0 0 0)
    (uuid 29c8221b-0885-4c62-a489-286f9ace4901)
  )
  (junction (at 185.42 68.58) (diameter 0) (color 0 0 0 0)
    (uuid 35cb977a-e897-426d-824c-a79837c7ba9e)
  )
  (junction (at 115.57 119.38) (diameter 0) (color 0 0 0 0)
    (uuid 418a7ef0-9bb1-41ba-b659-2da4d96e0cf6)
  )
  (junction (at 87.63 124.46) (diameter 0) (color 0 0 0 0)
    (uuid 48c7502b-71f7-4b4a-b278-a0246bf56cb1)
  )
  (junction (at 83.82 88.9) (diameter 0) (color 0 0 0 0)
    (uuid 5d3b98c0-3f9a-44ef-945f-397df043c826)
  )
  (junction (at 161.29 97.79) (diameter 0) (color 0 0 0 0)
    (uuid 5d4719f9-70c5-4f58-9b05-95c0fc716b41)
  )
  (junction (at 199.39 88.9) (diameter 0) (color 0 0 0 0)
    (uuid 70e23889-2cca-4fb9-8482-8679a6274e14)
  )
  (junction (at 152.4 107.95) (diameter 0) (color 0 0 0 0)
    (uuid 730416ac-8c08-4b10-a109-1404e2248f48)
  )
  (junction (at 175.26 107.95) (diameter 0) (color 0 0 0 0)
    (uuid 8b31eaac-3080-41e4-bbac-bd14f53f22e6)
  )
  (junction (at 107.95 119.38) (diameter 0) (color 0 0 0 0)
    (uuid 9cd67e15-5824-4906-8ef0-e69ed78956f9)
  )
  (junction (at 152.4 97.79) (diameter 0) (color 0 0 0 0)
    (uuid 9d4cdbc3-3a05-4a2d-938e-fbcf7048611b)
  )
  (junction (at 123.19 88.9) (diameter 0) (color 0 0 0 0)
    (uuid 9e315916-1079-43af-aa40-830d5880b37c)
  )
  (junction (at 166.37 97.79) (diameter 0) (color 0 0 0 0)
    (uuid a078bdaf-7ad4-4663-aaa6-7ef9460f6c57)
  )
  (junction (at 105.41 124.46) (diameter 0) (color 0 0 0 0)
    (uuid babf07cc-ccbe-4fd0-8e27-2d6db0dac4af)
  )
  (junction (at 209.55 68.58) (diameter 0) (color 0 0 0 0)
    (uuid bdc26b2a-cc5d-4b8f-834d-fdd908ee9e38)
  )
  (junction (at 209.55 88.9) (diameter 0) (color 0 0 0 0)
    (uuid f48acef7-25d6-462b-aa0a-985c883f38d1)
  )
  (junction (at 107.95 88.9) (diameter 0) (color 0 0 0 0)
    (uuid fbed71fa-055c-4ad1-8676-ac6ffce9f56b)
  )

  (wire (pts (xy 115.57 88.9) (xy 115.57 91.44))
    (stroke (width 0) (type default))
    (uuid 0201060e-1044-498a-82ff-3dfaa16b8f49)
  )
  (wire (pts (xy 101.6 124.46) (xy 105.41 124.46))
    (stroke (width 0) (type default))
    (uuid 040a438d-493c-45de-bbbf-6a38fc5c5507)
  )
  (wire (pts (xy 138.43 97.79) (xy 140.97 97.79))
    (stroke (width 0) (type default))
    (uuid 040eeb9e-46b2-4980-b82d-88d60efd5e9f)
  )
  (wire (pts (xy 152.4 97.79) (xy 161.29 97.79))
    (stroke (width 0) (type default))
    (uuid 0ca8e524-e547-4aca-99d7-ae3b69870a39)
  )
  (wire (pts (xy 132.08 119.38) (xy 132.08 107.95))
    (stroke (width 0) (type default))
    (uuid 0f9cade3-5973-4942-8fbc-b7c9fd5cbf14)
  )
  (wire (pts (xy 115.57 81.28) (xy 138.43 81.28))
    (stroke (width 0) (type default))
    (uuid 13119ad3-0c14-46a2-86be-3059992e36fb)
  )
  (wire (pts (xy 68.58 124.46) (xy 87.63 124.46))
    (stroke (width 0) (type default))
    (uuid 150b3231-fb83-4a2d-997f-d93deb493513)
  )
  (wire (pts (xy 76.2 88.9) (xy 68.58 88.9))
    (stroke (width 0) (type default))
    (uuid 1ee6a2be-7eb5-436d-b729-2e96cc68a38b)
  )
  (wire (pts (xy 175.26 68.58) (xy 185.42 68.58))
    (stroke (width 0) (type default))
    (uuid 1fac4d30-d5d9-4ed1-be8a-e962ea0ddd8a)
  )
  (wire (pts (xy 166.37 99.06) (xy 166.37 97.79))
    (stroke (width 0) (type default))
    (uuid 2303f0ca-d89c-4397-886c-f4a3ed8b2ac2)
  )
  (wire (pts (xy 123.19 119.38) (xy 132.08 119.38))
    (stroke (width 0) (type default))
    (uuid 254fef52-1591-42b1-8a2a-501d029eed22)
  )
  (wire (pts (xy 199.39 68.58) (xy 200.66 68.58))
    (stroke (width 0) (type default))
    (uuid 28799286-1f21-4421-b13f-4230c2779ada)
  )
  (wire (pts (xy 128.27 88.9) (xy 128.27 121.92))
    (stroke (width 0) (type default))
    (uuid 36a87cbc-aa9a-443a-8796-c04502fd6b96)
  )
  (wire (pts (xy 185.42 80.01) (xy 185.42 77.47))
    (stroke (width 0) (type default))
    (uuid 3984c9a0-ac94-4cfc-aa87-2b9b9a5716fe)
  )
  (wire (pts (xy 152.4 107.95) (xy 152.4 106.68))
    (stroke (width 0) (type default))
    (uuid 3ea59233-447d-4ae7-bfc0-50685abe8b65)
  )
  (wire (pts (xy 115.57 116.84) (xy 115.57 119.38))
    (stroke (width 0) (type default))
    (uuid 3fc12abe-1b7a-488c-bb65-d1183f6b867d)
  )
  (wire (pts (xy 115.57 81.28) (xy 115.57 88.9))
    (stroke (width 0) (type default))
    (uuid 40a91683-0cf4-4830-a896-e74103fb0031)
  )
  (wire (pts (xy 107.95 116.84) (xy 107.95 119.38))
    (stroke (width 0) (type default))
    (uuid 41921f01-3215-4722-b987-8d400c13a887)
  )
  (wire (pts (xy 199.39 82.55) (xy 199.39 88.9))
    (stroke (width 0) (type default))
    (uuid 427c2c02-e11c-4faf-9f76-1d0ad36dc8ca)
  )
  (wire (pts (xy 175.26 68.58) (xy 175.26 92.71))
    (stroke (width 0) (type default))
    (uuid 44a59865-bcb6-4ea5-8c65-2b7e791ee636)
  )
  (wire (pts (xy 209.55 88.9) (xy 209.55 82.55))
    (stroke (width 0) (type default))
    (uuid 47ea2c4d-295c-4bbe-bf6e-5c7e650ac3e3)
  )
  (wire (pts (xy 166.37 106.68) (xy 166.37 107.95))
    (stroke (width 0) (type default))
    (uuid 4b6fb4b7-2b01-421a-b0e0-44f963d2fe35)
  )
  (wire (pts (xy 152.4 107.95) (xy 161.29 107.95))
    (stroke (width 0) (type default))
    (uuid 4f2f00e4-72fd-46a2-a4ec-a0366a9ec96f)
  )
  (wire (pts (xy 198.12 68.58) (xy 199.39 68.58))
    (stroke (width 0) (type default))
    (uuid 513d42ca-d0fd-4e22-a07f-23fac49e9cd2)
  )
  (wire (pts (xy 105.41 124.46) (xy 138.43 124.46))
    (stroke (width 0) (type default))
    (uuid 573df38a-bab0-4b52-bd6f-f011e8f92ff2)
  )
  (wire (pts (xy 123.19 88.9) (xy 128.27 88.9))
    (stroke (width 0) (type default))
    (uuid 58a087eb-7ae0-4b91-bb98-efb14dbe7dfa)
  )
  (wire (pts (xy 132.08 83.82) (xy 132.08 100.33))
    (stroke (width 0) (type default))
    (uuid 5d1dfd97-a9e5-43bb-bcb3-ea5beb647f25)
  )
  (wire (pts (xy 161.29 99.06) (xy 161.29 97.79))
    (stroke (width 0) (type default))
    (uuid 613574e1-40a3-4d36-9530-07a74e7c742f)
  )
  (wire (pts (xy 185.42 87.63) (xy 185.42 88.9))
    (stroke (width 0) (type default))
    (uuid 62f208a2-38e7-4355-8d1a-a6f1715556fb)
  )
  (wire (pts (xy 87.63 124.46) (xy 93.98 124.46))
    (stroke (width 0) (type default))
    (uuid 63ae7191-ece6-4cff-b7ed-379e9634c7fd)
  )
  (wire (pts (xy 166.37 97.79) (xy 167.64 97.79))
    (stroke (width 0) (type default))
    (uuid 68eaf219-f152-4907-b993-c51bce1ee05c)
  )
  (wire (pts (xy 88.9 88.9) (xy 93.98 88.9))
    (stroke (width 0) (type default))
    (uuid 7150b465-09b6-42a8-9ac7-0d66d92052b2)
  )
  (wire (pts (xy 138.43 107.95) (xy 152.4 107.95))
    (stroke (width 0) (type default))
    (uuid 77fa3a34-f27b-4356-be15-e323c6971d96)
  )
  (wire (pts (xy 88.9 99.06) (xy 88.9 96.52))
    (stroke (width 0) (type default))
    (uuid 78244fbc-fe72-4222-bdd4-f021b0d23868)
  )
  (wire (pts (xy 107.95 88.9) (xy 107.95 91.44))
    (stroke (width 0) (type default))
    (uuid 796944cf-b53a-4362-93b7-ce70e37f974b)
  )
  (wire (pts (xy 128.27 121.92) (xy 115.57 121.92))
    (stroke (width 0) (type default))
    (uuid 83fa77a8-a938-4faf-b524-6f4025cc74a3)
  )
  (wire (pts (xy 209.55 88.9) (xy 214.63 88.9))
    (stroke (width 0) (type default))
    (uuid 842a31ce-3b94-4f8a-936f-9ad510a1d9d5)
  )
  (wire (pts (xy 87.63 124.46) (xy 87.63 125.73))
    (stroke (width 0) (type default))
    (uuid 8bfd8e3b-2a9e-4cf1-85ab-96450b3e9295)
  )
  (wire (pts (xy 138.43 81.28) (xy 138.43 97.79))
    (stroke (width 0) (type default))
    (uuid 901aa07d-6cfe-4a24-bca8-c21fbb117c43)
  )
  (wire (pts (xy 185.42 88.9) (xy 199.39 88.9))
    (stroke (width 0) (type default))
    (uuid 90cccaa5-7f33-4cec-8f44-9a40bd6db71c)
  )
  (wire (pts (xy 161.29 106.68) (xy 161.29 107.95))
    (stroke (width 0) (type default))
    (uuid 90eaa948-f01d-4beb-914c-f6916107fc96)
  )
  (wire (pts (xy 185.42 69.85) (xy 185.42 68.58))
    (stroke (width 0) (type default))
    (uuid 978be20c-6950-4d3d-bc3d-36734ce9ccf6)
  )
  (wire (pts (xy 105.41 119.38) (xy 105.41 124.46))
    (stroke (width 0) (type default))
    (uuid 9ec0be17-3571-4cfd-83ca-c505602c3be6)
  )
  (wire (pts (xy 166.37 107.95) (xy 175.26 107.95))
    (stroke (width 0) (type default))
    (uuid a1eb1cc7-60bb-4e53-90d3-95afb9003287)
  )
  (wire (pts (xy 115.57 121.92) (xy 115.57 119.38))
    (stroke (width 0) (type default))
    (uuid a50dff5b-3ac0-4b27-9d1f-7beb90fde464)
  )
  (wire (pts (xy 107.95 119.38) (xy 105.41 119.38))
    (stroke (width 0) (type default))
    (uuid a8f2dacf-2d5a-4a9a-849c-44c9324f121c)
  )
  (wire (pts (xy 182.88 114.3) (xy 182.88 88.9))
    (stroke (width 0) (type default))
    (uuid a923bb61-58c2-4811-9863-8b0e16892b59)
  )
  (wire (pts (xy 83.82 88.9) (xy 88.9 88.9))
    (stroke (width 0) (type default))
    (uuid b08b848f-dd7b-48d8-8f22-591112a88fe0)
  )
  (wire (pts (xy 182.88 88.9) (xy 185.42 88.9))
    (stroke (width 0) (type default))
    (uuid b1ab6a21-695e-4ce9-83c4-9f861dbe4187)
  )
  (wire (pts (xy 199.39 74.93) (xy 199.39 68.58))
    (stroke (width 0) (type default))
    (uuid b679f9e1-e47a-4c1a-82b7-68750c8b27b4)
  )
  (wire (pts (xy 209.55 68.58) (xy 214.63 68.58))
    (stroke (width 0) (type default))
    (uuid bcf3e2f6-5656-49ed-a347-8f6c0cb0fc00)
  )
  (wire (pts (xy 107.95 83.82) (xy 107.95 88.9))
    (stroke (width 0) (type default))
    (uuid bdb6c00f-bd6a-4f88-a1dd-df6edcfa78c8)
  )
  (wire (pts (xy 107.95 83.82) (xy 132.08 83.82))
    (stroke (width 0) (type default))
    (uuid bddf3e51-e088-45fd-a86a-6bfa110f7d8c)
  )
  (wire (pts (xy 161.29 97.79) (xy 166.37 97.79))
    (stroke (width 0) (type default))
    (uuid bf293fc3-0f93-4cc4-ba29-ea566fa56ab7)
  )
  (wire (pts (xy 175.26 107.95) (xy 175.26 114.3))
    (stroke (width 0) (type default))
    (uuid c3d45c91-207a-4b30-b816-e66ccb213087)
  )
  (wire (pts (xy 185.42 68.58) (xy 190.5 68.58))
    (stroke (width 0) (type default))
    (uuid d6e25be2-6b59-46d3-b7c7-2b0c3863bb1c)
  )
  (wire (pts (xy 161.29 107.95) (xy 166.37 107.95))
    (stroke (width 0) (type default))
    (uuid d89db194-d264-4324-84ed-e5113eb3500f)
  )
  (wire (pts (xy 152.4 97.79) (xy 152.4 99.06))
    (stroke (width 0) (type default))
    (uuid d9764da1-0617-43d4-ad98-fe6a7f5eb019)
  )
  (wire (pts (xy 148.59 97.79) (xy 152.4 97.79))
    (stroke (width 0) (type default))
    (uuid da2ad276-2e89-44d0-84db-4f891312c40c)
  )
  (wire (pts (xy 83.82 101.6) (xy 83.82 105.41))
    (stroke (width 0) (type default))
    (uuid dc1e85e9-d043-4ae7-b23f-5675279dc98d)
  )
  (wire (pts (xy 199.39 88.9) (xy 209.55 88.9))
    (stroke (width 0) (type default))
    (uuid dc23c328-65de-43fb-a914-8938066176bf)
  )
  (wire (pts (xy 209.55 74.93) (xy 209.55 68.58))
    (stroke (width 0) (type default))
    (uuid dd015456-e6f0-4a6e-a2a9-a913aba4d7cb)
  )
  (wire (pts (xy 175.26 102.87) (xy 175.26 107.95))
    (stroke (width 0) (type default))
    (uuid de9b5f29-8a20-4e57-a3cd-973e0b9635f5)
  )
  (wire (pts (xy 208.28 68.58) (xy 209.55 68.58))
    (stroke (width 0) (type default))
    (uuid e260b958-e1c5-40d1-a2f3-6370d4a1489f)
  )
  (wire (pts (xy 138.43 124.46) (xy 138.43 107.95))
    (stroke (width 0) (type default))
    (uuid ee0671bb-ed39-46fd-be29-4e8b62f0e3a7)
  )
  (wire (pts (xy 83.82 93.98) (xy 83.82 88.9))
    (stroke (width 0) (type default))
    (uuid efe19cab-0cf1-472c-995c-b906cb8228ea)
  )
  (wire (pts (xy 123.19 116.84) (xy 123.19 119.38))
    (stroke (width 0) (type default))
    (uuid f2923a13-0a67-4af4-aa0e-d70892b9fce2)
  )
  (wire (pts (xy 101.6 88.9) (xy 107.95 88.9))
    (stroke (width 0) (type default))
    (uuid f37bf3bd-4b63-4819-bd5a-c1246efc8995)
  )
  (wire (pts (xy 123.19 91.44) (xy 123.19 88.9))
    (stroke (width 0) (type default))
    (uuid fb03953b-8a5f-4587-8746-542c3bcd0799)
  )

  (text "HVmux + HV filter" (at 63.5 64.77 0)
    (effects (font (size 6.604 6.604)) (justify left bottom))
    (uuid 296d686a-7eac-482e-88e5-a9a1a464e985)
  )

  (label "HVOSC" (at 68.58 88.9 0) (fields_autoplaced)
    (effects (font (size 1.524 1.524)) (justify left bottom))
    (uuid 0b5e56c2-74b4-4f3b-971b-581bae97c652)
  )

  (hierarchical_label "HV_IN" (shape input) (at 175.26 114.3 270) (fields_autoplaced)
    (effects (font (size 1.524 1.524)) (justify right))
    (uuid 118fb43c-3fe2-4064-aed8-f57b6f2acb18)
  )
  (hierarchical_label "GND" (shape input) (at 68.58 124.46 180) (fields_autoplaced)
    (effects (font (size 1.524 1.524)) (justify right))
    (uuid 1ab4bd98-4caf-415e-b91c-fa2f89aca95d)
  )
  (hierarchical_label "HVOSC" (shape input) (at 68.58 88.9 180) (fields_autoplaced)
    (effects (font (size 1.524 1.524)) (justify right))
    (uuid 310e9e8d-e8a1-4438-9c71-d18a3dd50562)
  )
  (hierarchical_label "HV_OUT" (shape input) (at 214.63 68.58 0) (fields_autoplaced)
    (effects (font (size 1.524 1.524)) (justify left))
    (uuid 64f90ff6-5941-4ee4-add3-50a7ef68d4e2)
  )
  (hierarchical_label "HV_OUT_RTN" (shape input) (at 214.63 88.9 0) (fields_autoplaced)
    (effects (font (size 1.524 1.524)) (justify left))
    (uuid 82dfce11-c957-43b4-9279-af6afcc7453a)
  )
  (hierarchical_label "HV_IN_RTN" (shape input) (at 182.88 114.3 270) (fields_autoplaced)
    (effects (font (size 1.524 1.524)) (justify right))
    (uuid a3db4c87-26b4-4c7a-9236-38a0318f9e4d)
  )

  (symbol (lib_id "Device:R") (at 80.01 88.9 270) (unit 1)
    (in_bom yes) (on_board yes) (dnp no)
    (uuid 00000000-0000-0000-0000-000059f08275)
    (property "Reference" "R501" (at 80.01 90.932 90)
      (effects (font (size 1.27 1.27)))
    )
    (property "Value" "499R" (at 80.01 88.9 90)
      (effects (font (size 1.27 1.27)))
    )
    (property "Footprint" "Resistor_SMD:R_0201_0603Metric" (at 80.01 87.122 90)
      (effects (font (size 1.27 1.27)) hide)
    )
    (property "Datasheet" "" (at 80.01 88.9 0)
      (effects (font (size 1.27 1.27)))
    )
    (property "Part" "ERJ-1GNF4990C" (at 80.01 88.9 0)
      (effects (font (size 1.27 1.27)) hide)
    )
    (pin "1" (uuid 84addbe9-4a56-4475-ab2c-50c5cc5f74b1))
    (pin "2" (uuid 1e63d159-a08a-443a-9fec-75c3c939d0b8))
    (instances
      (project "pbv3"
        (path "/dc50893b-31d3-4789-b901-e1bcb1f4629b/00000000-0000-0000-0000-00005cffa990"
          (reference "R501") (unit 1)
        )
        (path "/dc50893b-31d3-4789-b901-e1bcb1f4629b/00000000-0000-0000-0000-000059f07aaa"
          (reference "R14") (unit 1)
        )
      )
    )
  )

  (symbol (lib_id "Device:C") (at 88.9 92.71 0) (unit 1)
    (in_bom yes) (on_board yes) (dnp no)
    (uuid 00000000-0000-0000-0000-000059f0827c)
    (property "Reference" "C501" (at 89.535 90.17 0)
      (effects (font (size 1.27 1.27)) (justify left))
    )
    (property "Value" "1nF" (at 89.535 95.25 0)
      (effects (font (size 1.27 1.27)) (justify left))
    )
    (property "Footprint" "Capacitor_SMD:C_0402_1005Metric" (at 89.8652 96.52 0)
      (effects (font (size 1.27 1.27)) hide)
    )
    (property "Datasheet" "" (at 88.9 92.71 0)
      (effects (font (size 1.27 1.27)))
    )
    (property "Part" "GRT1555C1H102JA02D" (at 88.9 92.71 0)
      (effects (font (size 1.27 1.27)) hide)
    )
    (pin "1" (uuid a0fe5828-2da1-46f5-81e5-d868e1a34a9b))
    (pin "2" (uuid c7fcefc7-be4d-45ff-beea-1ef27ca28911))
    (instances
      (project "pbv3"
        (path "/dc50893b-31d3-4789-b901-e1bcb1f4629b/00000000-0000-0000-0000-00005cffa990"
          (reference "C501") (unit 1)
        )
        (path "/dc50893b-31d3-4789-b901-e1bcb1f4629b/00000000-0000-0000-0000-000059f07aaa"
          (reference "C19") (unit 1)
        )
      )
    )
  )

  (symbol (lib_id "Device:C") (at 97.79 88.9 270) (unit 1)
    (in_bom yes) (on_board yes) (dnp no)
    (uuid 00000000-0000-0000-0000-000059f08283)
    (property "Reference" "C502" (at 100.33 89.535 0)
      (effects (font (size 1.27 1.27)) (justify left))
    )
    (property "Value" "68nF/1kV" (at 95.25 89.535 0)
      (effects (font (size 1.27 1.27)) (justify left))
    )
    (property "Footprint" "Capacitor_SMD:C_1210_3225Metric" (at 93.98 89.8652 0)
      (effects (font (size 1.27 1.27)) hide)
    )
    (property "Datasheet" "" (at 97.79 88.9 0)
      (effects (font (size 1.27 1.27)))
    )
    (property "Part" "C1210C683KDRACTU" (at 97.79 88.9 0)
      (effects (font (size 1.27 1.27)) hide)
    )
    (pin "1" (uuid 67b7e656-d97a-42c9-a675-a902deda8c1d))
    (pin "2" (uuid 889278bf-0fab-440b-8e14-cf47818b4f62))
    (instances
      (project "pbv3"
        (path "/dc50893b-31d3-4789-b901-e1bcb1f4629b/00000000-0000-0000-0000-00005cffa990"
          (reference "C502") (unit 1)
        )
        (path "/dc50893b-31d3-4789-b901-e1bcb1f4629b/00000000-0000-0000-0000-000059f07aaa"
          (reference "C20") (unit 1)
        )
      )
    )
  )

  (symbol (lib_id "pbv3:BAS70DW-04") (at 116.84 104.14 270) (unit 1)
    (in_bom yes) (on_board yes) (dnp no)
    (uuid 00000000-0000-0000-0000-000059f0828a)
    (property "Reference" "D501" (at 127 104.14 0)
      (effects (font (size 1.524 1.524)))
    )
    (property "Value" "BAT54SDW-7-F" (at 104.14 104.14 0)
      (effects (font (size 1.524 1.524)))
    )
    (property "Footprint" "TO_SOT_Packages_SMD:SOT-363_SC-70-6" (at 116.84 104.14 90)
      (effects (font (size 1.524 1.524)) hide)
    )
    (property "Datasheet" "" (at 116.84 104.14 90)
      (effects (font (size 1.524 1.524)) hide)
    )
    (property "Part" "BAT54SDW-7-F" (at 116.84 104.14 0)
      (effects (font (size 1.27 1.27)) hide)
    )
    (pin "1" (uuid 64c3b56e-9893-49f5-8367-6228bbe40788))
    (pin "2" (uuid 83ae7dbf-fe84-437d-ab57-38fb182aa005))
    (pin "3" (uuid 7c2a009d-85e4-4154-8a02-5ed6fd51921d))
    (pin "4" (uuid 71e77d40-dade-41ee-9344-7e58702af180))
    (pin "5" (uuid ab8c215d-04a9-417e-bdf1-89ddfc4d4b18))
    (pin "6" (uuid 94b43586-8936-44b2-a4c2-d7e2f3070afb))
    (instances
      (project "pbv3"
        (path "/dc50893b-31d3-4789-b901-e1bcb1f4629b/00000000-0000-0000-0000-00005cffa990"
          (reference "D501") (unit 1)
        )
        (path "/dc50893b-31d3-4789-b901-e1bcb1f4629b/00000000-0000-0000-0000-000059f07aaa"
          (reference "D1") (unit 1)
        )
      )
    )
  )

  (symbol (lib_id "Device:C") (at 111.76 119.38 270) (unit 1)
    (in_bom yes) (on_board yes) (dnp no)
    (uuid 00000000-0000-0000-0000-000059f08291)
    (property "Reference" "C504" (at 114.3 120.015 0)
      (effects (font (size 1.27 1.27)) (justify left))
    )
    (property "Value" "1uF" (at 109.22 120.015 0)
      (effects (font (size 1.27 1.27)) (justify left))
    )
    (property "Footprint" "Capacitor_SMD:C_0603_1608Metric" (at 107.95 120.3452 0)
      (effects (font (size 1.27 1.27)) hide)
    )
    (property "Datasheet" "" (at 111.76 119.38 0)
      (effects (font (size 1.27 1.27)))
    )
    (property "Part" "CC0603KRX5R8BB105" (at 111.76 119.38 0)
      (effects (font (size 1.27 1.27)) hide)
    )
    (pin "1" (uuid ada643fb-3f48-4600-99c1-827569ec2e88))
    (pin "2" (uuid b4281b35-de41-4fca-89f2-f4ae5132491f))
    (instances
      (project "pbv3"
        (path "/dc50893b-31d3-4789-b901-e1bcb1f4629b/00000000-0000-0000-0000-00005cffa990"
          (reference "C504") (unit 1)
        )
        (path "/dc50893b-31d3-4789-b901-e1bcb1f4629b/00000000-0000-0000-0000-000059f07aaa"
          (reference "C22") (unit 1)
        )
      )
    )
  )

  (symbol (lib_id "Device:C") (at 119.38 88.9 270) (unit 1)
    (in_bom yes) (on_board yes) (dnp no)
    (uuid 00000000-0000-0000-0000-000059f08298)
    (property "Reference" "C505" (at 121.92 89.535 0)
      (effects (font (size 1.27 1.27)) (justify left))
    )
    (property "Value" "1uF" (at 116.84 89.535 0)
      (effects (font (size 1.27 1.27)) (justify left))
    )
    (property "Footprint" "Capacitor_SMD:C_0603_1608Metric" (at 115.57 89.8652 0)
      (effects (font (size 1.27 1.27)) hide)
    )
    (property "Datasheet" "" (at 119.38 88.9 0)
      (effects (font (size 1.27 1.27)))
    )
    (property "Part" "CC0603KRX5R8BB105" (at 119.38 88.9 0)
      (effects (font (size 1.27 1.27)) hide)
    )
    (pin "1" (uuid 03e60fcd-1460-4b22-8cbb-05cc45895638))
    (pin "2" (uuid 10bca99a-9783-4bab-9a0d-22da2c8443bf))
    (instances
      (project "pbv3"
        (path "/dc50893b-31d3-4789-b901-e1bcb1f4629b/00000000-0000-0000-0000-00005cffa990"
          (reference "C505") (unit 1)
        )
        (path "/dc50893b-31d3-4789-b901-e1bcb1f4629b/00000000-0000-0000-0000-000059f07aaa"
          (reference "C23") (unit 1)
        )
      )
    )
  )

  (symbol (lib_id "Device:C") (at 132.08 104.14 0) (unit 1)
    (in_bom yes) (on_board yes) (dnp no)
    (uuid 00000000-0000-0000-0000-000059f0829f)
    (property "Reference" "C506" (at 132.715 101.6 0)
      (effects (font (size 1.27 1.27)) (justify left))
    )
    (property "Value" "1uF" (at 132.715 106.68 0)
      (effects (font (size 1.27 1.27)) (justify left))
    )
    (property "Footprint" "Capacitor_SMD:C_0603_1608Metric" (at 133.0452 107.95 0)
      (effects (font (size 1.27 1.27)) hide)
    )
    (property "Datasheet" "" (at 132.08 104.14 0)
      (effects (font (size 1.27 1.27)))
    )
    (property "Part" "CC0603KRX5R8BB105" (at 132.08 104.14 0)
      (effects (font (size 1.27 1.27)) hide)
    )
    (pin "1" (uuid 3c19532c-86ff-4d8e-9085-211dd8a88510))
    (pin "2" (uuid 84180856-0acd-47cc-944c-0431f4892cd6))
    (instances
      (project "pbv3"
        (path "/dc50893b-31d3-4789-b901-e1bcb1f4629b/00000000-0000-0000-0000-00005cffa990"
          (reference "C506") (unit 1)
        )
        (path "/dc50893b-31d3-4789-b901-e1bcb1f4629b/00000000-0000-0000-0000-000059f07aaa"
          (reference "C24") (unit 1)
        )
      )
    )
  )

  (symbol (lib_id "Device:C") (at 97.79 124.46 270) (unit 1)
    (in_bom yes) (on_board yes) (dnp no)
    (uuid 00000000-0000-0000-0000-000059f082a6)
    (property "Reference" "C503" (at 100.33 125.095 0)
      (effects (font (size 1.27 1.27)) (justify left))
    )
    (property "Value" "68nF/1kV" (at 95.25 125.095 0)
      (effects (font (size 1.27 1.27)) (justify left))
    )
    (property "Footprint" "Capacitor_SMD:C_1210_3225Metric" (at 93.98 125.4252 0)
      (effects (font (size 1.27 1.27)) hide)
    )
    (property "Datasheet" "" (at 97.79 124.46 0)
      (effects (font (size 1.27 1.27)))
    )
    (property "Part" "C1210C683KDRACTU" (at 97.79 124.46 0)
      (effects (font (size 1.27 1.27)) hide)
    )
    (pin "1" (uuid c7c46d74-5b10-454f-b886-68aa9b9d8635))
    (pin "2" (uuid da314fa5-f047-4f3f-bd6c-a59943966556))
    (instances
      (project "pbv3"
        (path "/dc50893b-31d3-4789-b901-e1bcb1f4629b/00000000-0000-0000-0000-00005cffa990"
          (reference "C503") (unit 1)
        )
        (path "/dc50893b-31d3-4789-b901-e1bcb1f4629b/00000000-0000-0000-0000-000059f07aaa"
          (reference "C21") (unit 1)
        )
      )
    )
  )

  (symbol (lib_id "power:GND") (at 88.9 99.06 0) (unit 1)
    (in_bom yes) (on_board yes) (dnp no)
    (uuid 00000000-0000-0000-0000-000059f082b8)
    (property "Reference" "#PWR0502" (at 88.9 105.41 0)
      (effects (font (size 1.27 1.27)) hide)
    )
    (property "Value" "GND" (at 88.9 102.87 0)
      (effects (font (size 1.27 1.27)))
    )
    (property "Footprint" "" (at 88.9 99.06 0)
      (effects (font (size 1.27 1.27)))
    )
    (property "Datasheet" "" (at 88.9 99.06 0)
      (effects (font (size 1.27 1.27)))
    )
    (pin "1" (uuid 1e583e6b-ac3d-4fbd-a79c-9a027d85f978))
    (instances
      (project "pbv3"
        (path "/dc50893b-31d3-4789-b901-e1bcb1f4629b/00000000-0000-0000-0000-00005cffa990"
          (reference "#PWR0502") (unit 1)
        )
        (path "/dc50893b-31d3-4789-b901-e1bcb1f4629b/00000000-0000-0000-0000-000059f07aaa"
          (reference "#PWR018") (unit 1)
        )
      )
    )
  )

  (symbol (lib_id "power:GND") (at 87.63 125.73 0) (unit 1)
    (in_bom yes) (on_board yes) (dnp no)
    (uuid 00000000-0000-0000-0000-000059f082be)
    (property "Reference" "#PWR0501" (at 87.63 132.08 0)
      (effects (font (size 1.27 1.27)) hide)
    )
    (property "Value" "GND" (at 87.63 129.54 0)
      (effects (font (size 1.27 1.27)))
    )
    (property "Footprint" "" (at 87.63 125.73 0)
      (effects (font (size 1.27 1.27)))
    )
    (property "Datasheet" "" (at 87.63 125.73 0)
      (effects (font (size 1.27 1.27)))
    )
    (pin "1" (uuid 339d9d6f-2a19-4001-99db-5976881f29a0))
    (instances
      (project "pbv3"
        (path "/dc50893b-31d3-4789-b901-e1bcb1f4629b/00000000-0000-0000-0000-00005cffa990"
          (reference "#PWR0501") (unit 1)
        )
        (path "/dc50893b-31d3-4789-b901-e1bcb1f4629b/00000000-0000-0000-0000-000059f07aaa"
          (reference "#PWR019") (unit 1)
        )
      )
    )
  )

  (symbol (lib_id "Device:R") (at 144.78 97.79 270) (unit 1)
    (in_bom yes) (on_board yes) (dnp no)
    (uuid 00000000-0000-0000-0000-000059f082d5)
    (property "Reference" "R502" (at 144.78 99.822 90)
      (effects (font (size 1.27 1.27)))
    )
    (property "Value" "100R" (at 144.78 97.79 90)
      (effects (font (size 1.27 1.27)))
    )
    (property "Footprint" "Resistor_SMD:R_0201_0603Metric" (at 144.78 96.012 90)
      (effects (font (size 1.27 1.27)) hide)
    )
    (property "Datasheet" "" (at 144.78 97.79 0)
      (effects (font (size 1.27 1.27)))
    )
    (property "Part" "ERJ-1GNJ101C" (at 144.78 97.79 0)
      (effects (font (size 1.27 1.27)) hide)
    )
    (pin "1" (uuid d7ee5663-f5e4-4e82-bb88-fcd536cfc09e))
    (pin "2" (uuid ae815d24-d5bc-4e33-80fa-4e948d3968a6))
    (instances
      (project "pbv3"
        (path "/dc50893b-31d3-4789-b901-e1bcb1f4629b/00000000-0000-0000-0000-00005cffa990"
          (reference "R502") (unit 1)
        )
        (path "/dc50893b-31d3-4789-b901-e1bcb1f4629b/00000000-0000-0000-0000-000059f07aaa"
          (reference "R15") (unit 1)
        )
      )
    )
  )

  (symbol (lib_id "Device:C") (at 152.4 102.87 0) (unit 1)
    (in_bom yes) (on_board yes) (dnp no)
    (uuid 00000000-0000-0000-0000-000059f082e3)
    (property "Reference" "C507" (at 153.035 100.33 0)
      (effects (font (size 1.27 1.27)) (justify left))
    )
    (property "Value" "10nF" (at 153.035 105.41 0)
      (effects (font (size 1.27 1.27)) (justify left))
    )
    (property "Footprint" "Capacitor_SMD:C_0402_1005Metric" (at 153.3652 106.68 0)
      (effects (font (size 1.27 1.27)) hide)
    )
    (property "Datasheet" "" (at 152.4 102.87 0)
      (effects (font (size 1.27 1.27)))
    )
    (property "Part" "CGA2B3X5R1V103K050BB" (at 152.4 102.87 0)
      (effects (font (size 1.27 1.27)) hide)
    )
    (pin "1" (uuid 8d9943a0-30e0-4fcc-926f-acf21b5b98b5))
    (pin "2" (uuid 6de6b1a8-62b8-402a-ac1c-48bdfb0163aa))
    (instances
      (project "pbv3"
        (path "/dc50893b-31d3-4789-b901-e1bcb1f4629b/00000000-0000-0000-0000-00005cffa990"
          (reference "C507") (unit 1)
        )
        (path "/dc50893b-31d3-4789-b901-e1bcb1f4629b/00000000-0000-0000-0000-000059f07aaa"
          (reference "C25") (unit 1)
        )
      )
    )
  )

  (symbol (lib_id "Device:Q_NMOS_DGS") (at 172.72 97.79 0) (unit 1)
    (in_bom yes) (on_board yes) (dnp no)
    (uuid 00000000-0000-0000-0000-000059f082ea)
    (property "Reference" "Q501" (at 180.34 96.52 0)
      (effects (font (size 1.27 1.27)) (justify right))
    )
    (property "Value" "HVmux" (at 173.99 92.71 0)
      (effects (font (size 1.27 1.27)) (justify right))
    )
    (property "Footprint" "pbv3:HVmux" (at 177.8 95.25 0)
      (effects (font (size 1.27 1.27)) hide)
    )
    (property "Datasheet" "" (at 172.72 97.79 0)
      (effects (font (size 1.27 1.27)))
    )
    (pin "1" (uuid 82ea5262-8cb0-4aa3-ac2d-a35dc022e2a3))
    (pin "2" (uuid f1bac821-cf31-41a8-bf8e-2b03c1abfffa))
    (pin "3" (uuid adc1aa17-b02d-4c7b-871a-8d8cc56e4ada))
    (instances
      (project "pbv3"
        (path "/dc50893b-31d3-4789-b901-e1bcb1f4629b/00000000-0000-0000-0000-00005cffa990"
          (reference "Q501") (unit 1)
        )
        (path "/dc50893b-31d3-4789-b901-e1bcb1f4629b/00000000-0000-0000-0000-000059f07aaa"
          (reference "Q1") (unit 1)
        )
      )
    )
  )

  (symbol (lib_id "Device:R") (at 166.37 102.87 0) (unit 1)
    (in_bom yes) (on_board yes) (dnp no)
    (uuid 00000000-0000-0000-0000-000059f082f1)
    (property "Reference" "R504" (at 168.402 102.87 90)
      (effects (font (size 1.27 1.27)))
    )
    (property "Value" "30k" (at 166.37 102.87 90)
      (effects (font (size 1.27 1.27)))
    )
    (property "Footprint" "Resistor_SMD:R_0201_0603Metric" (at 164.592 102.87 90)
      (effects (font (size 1.27 1.27)) hide)
    )
    (property "Datasheet" "" (at 166.37 102.87 0)
      (effects (font (size 1.27 1.27)))
    )
    (property "Part" "ERJ-1GNF3002C" (at 166.37 102.87 0)
      (effects (font (size 1.27 1.27)) hide)
    )
    (pin "1" (uuid 631af5b7-e61b-4366-8eed-06c2ec7f414f))
    (pin "2" (uuid 5b5db768-b407-4784-a482-03da519391d4))
    (instances
      (project "pbv3"
        (path "/dc50893b-31d3-4789-b901-e1bcb1f4629b/00000000-0000-0000-0000-00005cffa990"
          (reference "R504") (unit 1)
        )
        (path "/dc50893b-31d3-4789-b901-e1bcb1f4629b/00000000-0000-0000-0000-000059f07aaa"
          (reference "R17") (unit 1)
        )
      )
    )
  )

  (symbol (lib_id "Device:D_Zener") (at 161.29 102.87 270) (unit 1)
    (in_bom yes) (on_board yes) (dnp no)
    (uuid 00000000-0000-0000-0000-000059f082f8)
    (property "Reference" "D502" (at 163.83 102.87 0)
      (effects (font (size 1.27 1.27)))
    )
    (property "Value" "BZX84-C4V7,215 " (at 158.75 102.87 0)
      (effects (font (size 1.27 1.27)))
    )
    (property "Footprint" "Diode_SMD:D_SOT-23_ANK" (at 161.29 102.87 0)
      (effects (font (size 1.27 1.27)) hide)
    )
    (property "Datasheet" "" (at 161.29 102.87 0)
      (effects (font (size 1.27 1.27)))
    )
    (property "Part" "BZX84-C4V7,215 " (at 161.29 102.87 0)
      (effects (font (size 1.27 1.27)) hide)
    )
    (pin "1" (uuid bc8bf929-a5cc-4f99-8d2a-948f66411e56))
    (pin "2" (uuid 17b625a4-a888-44e0-b5b5-5c9335e7d116))
    (instances
      (project "pbv3"
        (path "/dc50893b-31d3-4789-b901-e1bcb1f4629b/00000000-0000-0000-0000-00005cffa990"
          (reference "D502") (unit 1)
        )
        (path "/dc50893b-31d3-4789-b901-e1bcb1f4629b/00000000-0000-0000-0000-000059f07aaa"
          (reference "D2") (unit 1)
        )
      )
    )
  )

  (symbol (lib_id "Device:R") (at 185.42 73.66 0) (unit 1)
    (in_bom yes) (on_board yes) (dnp no)
    (uuid 00000000-0000-0000-0000-000059f08314)
    (property "Reference" "R505" (at 187.452 73.66 90)
      (effects (font (size 1.27 1.27)))
    )
    (property "Value" "4M7" (at 185.42 73.66 90)
      (effects (font (size 1.27 1.27)))
    )
    (property "Footprint" "Resistor_SMD:R_0805_2012Metric" (at 183.642 73.66 90)
      (effects (font (size 1.27 1.27)) hide)
    )
    (property "Datasheet" "" (at 185.42 73.66 0)
      (effects (font (size 1.27 1.27)))
    )
    (property "Part" "RC0805FR-104M7L" (at 185.42 73.66 0)
      (effects (font (size 1.27 1.27)) hide)
    )
    (pin "1" (uuid a4c3ecda-b296-44fa-8d6a-e4928a23ba9f))
    (pin "2" (uuid 567515f0-d848-4f6e-8391-1638c53671c3))
    (instances
      (project "pbv3"
        (path "/dc50893b-31d3-4789-b901-e1bcb1f4629b/00000000-0000-0000-0000-00005cffa990"
          (reference "R505") (unit 1)
        )
        (path "/dc50893b-31d3-4789-b901-e1bcb1f4629b/00000000-0000-0000-0000-000059f07aaa"
          (reference "R18") (unit 1)
        )
      )
    )
  )

  (symbol (lib_id "Device:R") (at 185.42 83.82 0) (unit 1)
    (in_bom yes) (on_board yes) (dnp no)
    (uuid 00000000-0000-0000-0000-000059f0831b)
    (property "Reference" "R506" (at 187.452 83.82 90)
      (effects (font (size 1.27 1.27)))
    )
    (property "Value" "4M7" (at 185.42 83.82 90)
      (effects (font (size 1.27 1.27)))
    )
    (property "Footprint" "Resistor_SMD:R_0805_2012Metric" (at 183.642 83.82 90)
      (effects (font (size 1.27 1.27)) hide)
    )
    (property "Datasheet" "" (at 185.42 83.82 0)
      (effects (font (size 1.27 1.27)))
    )
    (property "Part" "RC0805FR-104M7L" (at 185.42 83.82 0)
      (effects (font (size 1.27 1.27)) hide)
    )
    (pin "1" (uuid 7bca4f9e-b0b4-4c1d-9e2f-67e281cb4cce))
    (pin "2" (uuid 68dcda1c-eaae-492f-8b38-af27e9acf9e5))
    (instances
      (project "pbv3"
        (path "/dc50893b-31d3-4789-b901-e1bcb1f4629b/00000000-0000-0000-0000-00005cffa990"
          (reference "R506") (unit 1)
        )
        (path "/dc50893b-31d3-4789-b901-e1bcb1f4629b/00000000-0000-0000-0000-000059f07aaa"
          (reference "R19") (unit 1)
        )
      )
    )
  )

  (symbol (lib_id "Device:R") (at 194.31 68.58 270) (unit 1)
    (in_bom yes) (on_board yes) (dnp no)
    (uuid 00000000-0000-0000-0000-000059f08322)
    (property "Reference" "R507" (at 194.31 70.612 90)
      (effects (font (size 1.27 1.27)))
    )
    (property "Value" "4k7" (at 194.31 68.58 90)
      (effects (font (size 1.27 1.27)))
    )
    (property "Footprint" "Resistor_SMD:R_0805_2012Metric" (at 194.31 66.802 90)
      (effects (font (size 1.27 1.27)) hide)
    )
    (property "Datasheet" "" (at 194.31 68.58 0)
      (effects (font (size 1.27 1.27)))
    )
    (property "Part" "ERJ-6GEYJ472V " (at 194.31 68.58 0)
      (effects (font (size 1.27 1.27)) hide)
    )
    (pin "1" (uuid 7e0a94a5-71e1-4db6-a3c9-ed35b8d6c216))
    (pin "2" (uuid 508ac672-4f4a-4781-9c53-b80271b3c07a))
    (instances
      (project "pbv3"
        (path "/dc50893b-31d3-4789-b901-e1bcb1f4629b/00000000-0000-0000-0000-00005cffa990"
          (reference "R507") (unit 1)
        )
        (path "/dc50893b-31d3-4789-b901-e1bcb1f4629b/00000000-0000-0000-0000-000059f07aaa"
          (reference "R20") (unit 1)
        )
      )
    )
  )

  (symbol (lib_id "Device:R") (at 204.47 68.58 270) (unit 1)
    (in_bom yes) (on_board yes) (dnp no)
    (uuid 00000000-0000-0000-0000-000059f08329)
    (property "Reference" "R508" (at 204.47 70.612 90)
      (effects (font (size 1.27 1.27)))
    )
    (property "Value" "4k7" (at 204.47 68.58 90)
      (effects (font (size 1.27 1.27)))
    )
    (property "Footprint" "Resistor_SMD:R_0805_2012Metric" (at 204.47 66.802 90)
      (effects (font (size 1.27 1.27)) hide)
    )
    (property "Datasheet" "" (at 204.47 68.58 0)
      (effects (font (size 1.27 1.27)))
    )
    (property "Part" "ERJ-6GEYJ472V " (at 204.47 68.58 0)
      (effects (font (size 1.27 1.27)) hide)
    )
    (pin "1" (uuid ca4ade4b-071e-4766-bfd1-eee3b7fe162d))
    (pin "2" (uuid 567280a0-0fd2-442e-8d65-0abc04d4b153))
    (instances
      (project "pbv3"
        (path "/dc50893b-31d3-4789-b901-e1bcb1f4629b/00000000-0000-0000-0000-00005cffa990"
          (reference "R508") (unit 1)
        )
        (path "/dc50893b-31d3-4789-b901-e1bcb1f4629b/00000000-0000-0000-0000-000059f07aaa"
          (reference "R21") (unit 1)
        )
      )
    )
  )

  (symbol (lib_id "Device:C") (at 199.39 78.74 0) (unit 1)
    (in_bom yes) (on_board yes) (dnp no)
    (uuid 00000000-0000-0000-0000-000059f08330)
    (property "Reference" "C508" (at 200.025 76.2 0)
      (effects (font (size 1.27 1.27)) (justify left))
    )
    (property "Value" "68nF/1kV" (at 200.025 81.28 0)
      (effects (font (size 1.27 1.27)) (justify left))
    )
    (property "Footprint" "Capacitor_SMD:C_1210_3225Metric" (at 200.3552 82.55 0)
      (effects (font (size 1.27 1.27)) hide)
    )
    (property "Datasheet" "" (at 199.39 78.74 0)
      (effects (font (size 1.27 1.27)))
    )
    (property "Part" "C1210C683KDRACTU" (at 199.39 78.74 0)
      (effects (font (size 1.27 1.27)) hide)
    )
    (pin "1" (uuid 74786656-fe72-4862-be1d-666d07ea3ef6))
    (pin "2" (uuid cbf5cb4f-9a84-421b-b9e2-a8f313ec7a95))
    (instances
      (project "pbv3"
        (path "/dc50893b-31d3-4789-b901-e1bcb1f4629b/00000000-0000-0000-0000-00005cffa990"
          (reference "C508") (unit 1)
        )
        (path "/dc50893b-31d3-4789-b901-e1bcb1f4629b/00000000-0000-0000-0000-000059f07aaa"
          (reference "C26") (unit 1)
        )
      )
    )
  )

  (symbol (lib_id "Device:C") (at 209.55 78.74 0) (unit 1)
    (in_bom yes) (on_board yes) (dnp no)
    (uuid 00000000-0000-0000-0000-000059f08337)
    (property "Reference" "C509" (at 210.185 76.2 0)
      (effects (font (size 1.27 1.27)) (justify left))
    )
    (property "Value" "68nF/1kV" (at 210.185 81.28 0)
      (effects (font (size 1.27 1.27)) (justify left))
    )
    (property "Footprint" "Capacitor_SMD:C_1210_3225Metric" (at 210.5152 82.55 0)
      (effects (font (size 1.27 1.27)) hide)
    )
    (property "Datasheet" "" (at 209.55 78.74 0)
      (effects (font (size 1.27 1.27)))
    )
    (property "Part" "C1210C683KDRACTU" (at 209.55 78.74 0)
      (effects (font (size 1.27 1.27)) hide)
    )
    (pin "1" (uuid 2c5a7349-9aeb-4819-a9d9-8eb7dc2a19db))
    (pin "2" (uuid b77e1d5f-840e-4bdf-b3d8-15e289b4eb95))
    (instances
      (project "pbv3"
        (path "/dc50893b-31d3-4789-b901-e1bcb1f4629b/00000000-0000-0000-0000-00005cffa990"
          (reference "C509") (unit 1)
        )
        (path "/dc50893b-31d3-4789-b901-e1bcb1f4629b/00000000-0000-0000-0000-000059f07aaa"
          (reference "C27") (unit 1)
        )
      )
    )
  )

  (symbol (lib_id "Device:D_Zener") (at 83.82 97.79 270) (unit 1)
    (in_bom yes) (on_board yes) (dnp no)
    (uuid 00000000-0000-0000-0000-00005ee0e84f)
    (property "Reference" "D503" (at 86.36 97.79 0)
      (effects (font (size 1.27 1.27)))
    )
    (property "Value" "NP" (at 81.28 97.79 0)
      (effects (font (size 1.27 1.27)))
    )
    (property "Footprint" "Diode_SMD:D_0201_0603Metric" (at 83.82 97.79 0)
      (effects (font (size 1.27 1.27)) hide)
    )
    (property "Datasheet" "" (at 83.82 97.79 0)
      (effects (font (size 1.27 1.27)))
    )
    (property "Part" "GDZ5V1LP3-7" (at 83.82 97.79 0)
      (effects (font (size 1.27 1.27)) hide)
    )
    (pin "1" (uuid 1a8fa9d2-33f2-4ca9-9f2e-a8bdfa85611a))
    (pin "2" (uuid f5ee9207-aef3-4ba3-89dc-684b916d2255))
    (instances
      (project "pbv3"
        (path "/dc50893b-31d3-4789-b901-e1bcb1f4629b/00000000-0000-0000-0000-00005cffa990"
          (reference "D503") (unit 1)
        )
        (path "/dc50893b-31d3-4789-b901-e1bcb1f4629b/00000000-0000-0000-0000-000059f07aaa"
          (reference "D201") (unit 1)
        )
      )
    )
  )

  (symbol (lib_id "power:GND") (at 83.82 105.41 0) (unit 1)
    (in_bom yes) (on_board yes) (dnp no)
    (uuid 00000000-0000-0000-0000-00005ee0ef8a)
    (property "Reference" "#PWR0503" (at 83.82 111.76 0)
      (effects (font (size 1.27 1.27)) hide)
    )
    (property "Value" "GND" (at 83.82 109.22 0)
      (effects (font (size 1.27 1.27)))
    )
    (property "Footprint" "" (at 83.82 105.41 0)
      (effects (font (size 1.27 1.27)))
    )
    (property "Datasheet" "" (at 83.82 105.41 0)
      (effects (font (size 1.27 1.27)))
    )
    (pin "1" (uuid 282c2a00-c620-4c22-b231-af99b73d071e))
    (instances
      (project "pbv3"
        (path "/dc50893b-31d3-4789-b901-e1bcb1f4629b/00000000-0000-0000-0000-00005cffa990"
          (reference "#PWR0503") (unit 1)
        )
        (path "/dc50893b-31d3-4789-b901-e1bcb1f4629b/00000000-0000-0000-0000-000059f07aaa"
          (reference "#PWR0212") (unit 1)
        )
      )
    )
  )
)
