(kicad_sch (version 20230121) (generator eeschema)

  (uuid 633f75c5-3e59-4c5c-acaa-7b07045091db)

  (paper "A4")

  (title_block
    (title "Powerboard v3")
    (date "2020-06-07")
    (rev "A")
    (company "Albert-Ludwigs-Universität Freiburg")
    (comment 1 "Dennis Sperlich")
  )

  (lib_symbols
    (symbol "pbv3-rescue:C" (pin_numbers hide) (pin_names (offset 0.254)) (in_bom yes) (on_board yes)
      (property "Reference" "C" (at 0.635 2.54 0)
        (effects (font (size 1.27 1.27)) (justify left))
      )
      (property "Value" "C" (at 0.635 -2.54 0)
        (effects (font (size 1.27 1.27)) (justify left))
      )
      (property "Footprint" "" (at 0.9652 -3.81 0)
        (effects (font (size 1.27 1.27)) hide)
      )
      (property "Datasheet" "" (at 0 0 0)
        (effects (font (size 1.27 1.27)) hide)
      )
      (property "ki_fp_filters" "C_*" (at 0 0 0)
        (effects (font (size 1.27 1.27)) hide)
      )
      (symbol "C_0_1"
        (polyline
          (pts
            (xy -2.032 -0.762)
            (xy 2.032 -0.762)
          )
          (stroke (width 0.508) (type default))
          (fill (type none))
        )
        (polyline
          (pts
            (xy -2.032 0.762)
            (xy 2.032 0.762)
          )
          (stroke (width 0.508) (type default))
          (fill (type none))
        )
      )
      (symbol "C_1_1"
        (pin passive line (at 0 3.81 270) (length 2.794)
          (name "~" (effects (font (size 1.27 1.27))))
          (number "1" (effects (font (size 1.27 1.27))))
        )
        (pin passive line (at 0 -3.81 90) (length 2.794)
          (name "~" (effects (font (size 1.27 1.27))))
          (number "2" (effects (font (size 1.27 1.27))))
        )
      )
    )
    (symbol "pbv3-rescue:L" (pin_numbers hide) (pin_names (offset 1.016) hide) (in_bom yes) (on_board yes)
      (property "Reference" "L" (at -1.27 0 90)
        (effects (font (size 1.27 1.27)))
      )
      (property "Value" "L" (at 1.905 0 90)
        (effects (font (size 1.27 1.27)))
      )
      (property "Footprint" "" (at 0 0 0)
        (effects (font (size 1.27 1.27)) hide)
      )
      (property "Datasheet" "" (at 0 0 0)
        (effects (font (size 1.27 1.27)) hide)
      )
      (property "ki_fp_filters" "Choke_* *Coil* Inductor_* L_*" (at 0 0 0)
        (effects (font (size 1.27 1.27)) hide)
      )
      (symbol "L_0_1"
        (arc (start 0 -2.54) (mid 0.6323 -1.905) (end 0 -1.27)
          (stroke (width 0) (type default))
          (fill (type none))
        )
        (arc (start 0 -1.27) (mid 0.6323 -0.635) (end 0 0)
          (stroke (width 0) (type default))
          (fill (type none))
        )
        (arc (start 0 0) (mid 0.6323 0.635) (end 0 1.27)
          (stroke (width 0) (type default))
          (fill (type none))
        )
        (arc (start 0 1.27) (mid 0.6323 1.905) (end 0 2.54)
          (stroke (width 0) (type default))
          (fill (type none))
        )
      )
      (symbol "L_1_1"
        (pin passive line (at 0 3.81 270) (length 1.27)
          (name "1" (effects (font (size 1.27 1.27))))
          (number "1" (effects (font (size 1.27 1.27))))
        )
        (pin passive line (at 0 -3.81 90) (length 1.27)
          (name "2" (effects (font (size 1.27 1.27))))
          (number "2" (effects (font (size 1.27 1.27))))
        )
      )
    )
    (symbol "pbv3-rescue:R" (pin_numbers hide) (pin_names (offset 0)) (in_bom yes) (on_board yes)
      (property "Reference" "R" (at 2.032 0 90)
        (effects (font (size 1.27 1.27)))
      )
      (property "Value" "R" (at 0 0 90)
        (effects (font (size 1.27 1.27)))
      )
      (property "Footprint" "" (at -1.778 0 90)
        (effects (font (size 1.27 1.27)) hide)
      )
      (property "Datasheet" "" (at 0 0 0)
        (effects (font (size 1.27 1.27)) hide)
      )
      (property "ki_fp_filters" "R_* R_*" (at 0 0 0)
        (effects (font (size 1.27 1.27)) hide)
      )
      (symbol "R_0_1"
        (rectangle (start -1.016 -2.54) (end 1.016 2.54)
          (stroke (width 0.254) (type default))
          (fill (type none))
        )
      )
      (symbol "R_1_1"
        (pin passive line (at 0 3.81 270) (length 1.27)
          (name "~" (effects (font (size 1.27 1.27))))
          (number "1" (effects (font (size 1.27 1.27))))
        )
        (pin passive line (at 0 -3.81 90) (length 1.27)
          (name "~" (effects (font (size 1.27 1.27))))
          (number "2" (effects (font (size 1.27 1.27))))
        )
      )
    )
    (symbol "pbv3:LREG" (pin_names (offset 1.016)) (in_bom yes) (on_board yes)
      (property "Reference" "U" (at -6.35 7.62 0)
        (effects (font (size 1.524 1.524)))
      )
      (property "Value" "LREG" (at 0 -8.89 0)
        (effects (font (size 1.524 1.524)))
      )
      (property "Footprint" "" (at 1.27 1.27 90)
        (effects (font (size 6.604 6.604)) hide)
      )
      (property "Datasheet" "" (at 1.27 1.27 90)
        (effects (font (size 6.604 6.604)) hide)
      )
      (symbol "LREG_0_1"
        (rectangle (start -7.62 -7.62) (end 7.62 6.35)
          (stroke (width 0) (type default))
          (fill (type background))
        )
      )
      (symbol "LREG_1_1"
        (pin input line (at -12.7 5.08 0) (length 5.08)
          (name "VIN" (effects (font (size 1.27 1.27))))
          (number "1" (effects (font (size 1.27 1.27))))
        )
        (pin input line (at -12.7 1.27 0) (length 5.08)
          (name "~{EN1V4}" (effects (font (size 1.27 1.27))))
          (number "2" (effects (font (size 1.27 1.27))))
        )
        (pin input line (at -12.7 -2.54 0) (length 5.08)
          (name "~{EN3V3}" (effects (font (size 1.27 1.27))))
          (number "3" (effects (font (size 1.27 1.27))))
        )
        (pin no_connect line (at -12.7 -6.35 0) (length 5.08)
          (name "NC" (effects (font (size 1.27 1.27))))
          (number "4" (effects (font (size 1.27 1.27))))
        )
        (pin no_connect line (at 12.7 -6.35 180) (length 5.08)
          (name "NC" (effects (font (size 1.27 1.27))))
          (number "5" (effects (font (size 1.27 1.27))))
        )
        (pin input line (at 12.7 -2.54 180) (length 5.08)
          (name "GND" (effects (font (size 1.27 1.27))))
          (number "6" (effects (font (size 1.27 1.27))))
        )
        (pin input line (at 12.7 1.27 180) (length 5.08)
          (name "3V3" (effects (font (size 1.27 1.27))))
          (number "7" (effects (font (size 1.27 1.27))))
        )
        (pin input line (at 12.7 5.08 180) (length 5.08)
          (name "1V4" (effects (font (size 1.27 1.27))))
          (number "8" (effects (font (size 1.27 1.27))))
        )
        (pin input line (at 0 11.43 270) (length 5.08)
          (name "TPAD" (effects (font (size 1.27 1.27))))
          (number "9" (effects (font (size 1.27 1.27))))
        )
      )
    )
    (symbol "pbv3:bpol12v" (pin_names (offset 1.016)) (in_bom yes) (on_board yes)
      (property "Reference" "U" (at 0 8.89 0)
        (effects (font (size 1.524 1.524)))
      )
      (property "Value" "bpol12v" (at 0 -2.54 0)
        (effects (font (size 1.524 1.524)))
      )
      (property "Footprint" "" (at 0 0 0)
        (effects (font (size 1.524 1.524)) hide)
      )
      (property "Datasheet" "" (at 0 0 0)
        (effects (font (size 1.524 1.524)) hide)
      )
      (property "ki_description" "CERN BPOL12V DCDC converter" (at 0 0 0)
        (effects (font (size 1.27 1.27)) hide)
      )
      (symbol "bpol12v_0_1"
        (rectangle (start -17.78 17.78) (end 17.78 -17.78)
          (stroke (width 0) (type default))
          (fill (type background))
        )
      )
      (symbol "bpol12v_1_1"
        (pin input line (at -22.86 8.89 0) (length 5.08)
          (name "RF" (effects (font (size 1.27 1.27))))
          (number "1" (effects (font (size 1.27 1.27))))
        )
        (pin input line (at -6.35 -22.86 90) (length 5.08)
          (name "BOOTS" (effects (font (size 1.27 1.27))))
          (number "10" (effects (font (size 1.27 1.27))))
        )
        (pin input line (at -3.81 -22.86 90) (length 5.08)
          (name "PHASE11" (effects (font (size 1.27 1.27))))
          (number "11" (effects (font (size 1.27 1.27))))
        )
        (pin input line (at -1.27 -22.86 90) (length 5.08)
          (name "PHASE12" (effects (font (size 1.27 1.27))))
          (number "12" (effects (font (size 1.27 1.27))))
        )
        (pin input line (at 1.27 -22.86 90) (length 5.08)
          (name "PHASE13" (effects (font (size 1.27 1.27))))
          (number "13" (effects (font (size 1.27 1.27))))
        )
        (pin input line (at 3.81 -22.86 90) (length 5.08)
          (name "PHASE14" (effects (font (size 1.27 1.27))))
          (number "14" (effects (font (size 1.27 1.27))))
        )
        (pin input line (at 6.35 -22.86 90) (length 5.08)
          (name "PHASE15" (effects (font (size 1.27 1.27))))
          (number "15" (effects (font (size 1.27 1.27))))
        )
        (pin no_connect line (at 8.89 -22.86 90) (length 5.08)
          (name "NC" (effects (font (size 1.27 1.27))))
          (number "16" (effects (font (size 1.27 1.27))))
        )
        (pin input line (at 22.86 -8.89 180) (length 5.08)
          (name "PGND" (effects (font (size 1.27 1.27))))
          (number "17" (effects (font (size 1.27 1.27))))
        )
        (pin input line (at 22.86 -6.35 180) (length 5.08)
          (name "PGND" (effects (font (size 1.27 1.27))))
          (number "18" (effects (font (size 1.27 1.27))))
        )
        (pin input line (at 22.86 -3.81 180) (length 5.08)
          (name "PGND" (effects (font (size 1.27 1.27))))
          (number "19" (effects (font (size 1.27 1.27))))
        )
        (pin input line (at -22.86 6.35 0) (length 5.08)
          (name "PGOOD" (effects (font (size 1.27 1.27))))
          (number "2" (effects (font (size 1.27 1.27))))
        )
        (pin input line (at 22.86 -1.27 180) (length 5.08)
          (name "GND" (effects (font (size 1.27 1.27))))
          (number "20" (effects (font (size 1.27 1.27))))
        )
        (pin input line (at 22.86 1.27 180) (length 5.08)
          (name "Bit2_VOUT" (effects (font (size 1.27 1.27))))
          (number "21" (effects (font (size 1.27 1.27))))
        )
        (pin input line (at 22.86 3.81 180) (length 5.08)
          (name "INV_ENABLE" (effects (font (size 1.27 1.27))))
          (number "22" (effects (font (size 1.27 1.27))))
        )
        (pin input line (at 22.86 6.35 180) (length 5.08)
          (name "Bit1_VOUT" (effects (font (size 1.27 1.27))))
          (number "23" (effects (font (size 1.27 1.27))))
        )
        (pin input line (at 22.86 8.89 180) (length 5.08)
          (name "VOUT" (effects (font (size 1.27 1.27))))
          (number "24" (effects (font (size 1.27 1.27))))
        )
        (pin input line (at 8.89 22.86 270) (length 5.08)
          (name "PTAT" (effects (font (size 1.27 1.27))))
          (number "25" (effects (font (size 1.27 1.27))))
        )
        (pin input line (at 6.35 22.86 270) (length 5.08)
          (name "PVIN" (effects (font (size 1.27 1.27))))
          (number "26" (effects (font (size 1.27 1.27))))
        )
        (pin input line (at 3.81 22.86 270) (length 5.08)
          (name "PVIN" (effects (font (size 1.27 1.27))))
          (number "27" (effects (font (size 1.27 1.27))))
        )
        (pin input line (at 1.27 22.86 270) (length 5.08)
          (name "PVIN" (effects (font (size 1.27 1.27))))
          (number "28" (effects (font (size 1.27 1.27))))
        )
        (pin input line (at -1.27 22.86 270) (length 5.08)
          (name "PVIN" (effects (font (size 1.27 1.27))))
          (number "29" (effects (font (size 1.27 1.27))))
        )
        (pin input line (at -22.86 3.81 0) (length 5.08)
          (name "GND" (effects (font (size 1.27 1.27))))
          (number "3" (effects (font (size 1.27 1.27))))
        )
        (pin input line (at -3.81 22.86 270) (length 5.08)
          (name "VIN" (effects (font (size 1.27 1.27))))
          (number "30" (effects (font (size 1.27 1.27))))
        )
        (pin no_connect line (at -6.35 22.86 270) (length 5.08)
          (name "BGP_EA" (effects (font (size 1.27 1.27))))
          (number "31" (effects (font (size 1.27 1.27))))
        )
        (pin input line (at -8.89 22.86 270) (length 5.08)
          (name "EN" (effects (font (size 1.27 1.27))))
          (number "32" (effects (font (size 1.27 1.27))))
        )
        (pin input line (at -16.51 22.86 270) (length 5.08)
          (name "PAD" (effects (font (size 1.27 1.27))))
          (number "33" (effects (font (size 1.27 1.27))))
        )
        (pin input line (at -22.86 1.27 0) (length 5.08)
          (name "VI" (effects (font (size 1.27 1.27))))
          (number "4" (effects (font (size 1.27 1.27))))
        )
        (pin input line (at -22.86 -1.27 0) (length 5.08)
          (name "GND" (effects (font (size 1.27 1.27))))
          (number "5" (effects (font (size 1.27 1.27))))
        )
        (pin input line (at -22.86 -3.81 0) (length 5.08)
          (name "V33DR" (effects (font (size 1.27 1.27))))
          (number "6" (effects (font (size 1.27 1.27))))
        )
        (pin input line (at -22.86 -6.35 0) (length 5.08)
          (name "PGND" (effects (font (size 1.27 1.27))))
          (number "7" (effects (font (size 1.27 1.27))))
        )
        (pin input line (at -22.86 -8.89 0) (length 5.08)
          (name "PGND" (effects (font (size 1.27 1.27))))
          (number "8" (effects (font (size 1.27 1.27))))
        )
        (pin input line (at -8.89 -22.86 90) (length 5.08)
          (name "PGND" (effects (font (size 1.27 1.27))))
          (number "9" (effects (font (size 1.27 1.27))))
        )
      )
    )
    (symbol "power:GND" (power) (pin_names (offset 0)) (in_bom yes) (on_board yes)
      (property "Reference" "#PWR" (at 0 -6.35 0)
        (effects (font (size 1.27 1.27)) hide)
      )
      (property "Value" "GND" (at 0 -3.81 0)
        (effects (font (size 1.27 1.27)))
      )
      (property "Footprint" "" (at 0 0 0)
        (effects (font (size 1.27 1.27)) hide)
      )
      (property "Datasheet" "" (at 0 0 0)
        (effects (font (size 1.27 1.27)) hide)
      )
      (property "ki_keywords" "power-flag" (at 0 0 0)
        (effects (font (size 1.27 1.27)) hide)
      )
      (property "ki_description" "Power symbol creates a global label with name \"GND\" , ground" (at 0 0 0)
        (effects (font (size 1.27 1.27)) hide)
      )
      (symbol "GND_0_1"
        (polyline
          (pts
            (xy 0 0)
            (xy 0 -1.27)
            (xy 1.27 -1.27)
            (xy 0 -2.54)
            (xy -1.27 -1.27)
            (xy 0 -1.27)
          )
          (stroke (width 0) (type default))
          (fill (type none))
        )
      )
      (symbol "GND_1_1"
        (pin power_in line (at 0 0 270) (length 0) hide
          (name "GND" (effects (font (size 1.27 1.27))))
          (number "1" (effects (font (size 1.27 1.27))))
        )
      )
    )
  )

  (junction (at 85.09 58.42) (diameter 0) (color 0 0 0 0)
    (uuid 00557b03-9ac7-4db5-bd3b-b3dfa0d1e9ff)
  )
  (junction (at 128.27 113.03) (diameter 0) (color 0 0 0 0)
    (uuid 0076d7d0-08c8-4c44-86a9-f61888f733ef)
  )
  (junction (at 90.17 50.8) (diameter 0) (color 0 0 0 0)
    (uuid 03fb28eb-06eb-4ca4-8fee-5adeb193c473)
  )
  (junction (at 243.84 91.44) (diameter 0) (color 0 0 0 0)
    (uuid 0d17e3f6-2a8f-4f60-9640-673bb1077bc9)
  )
  (junction (at 171.45 121.92) (diameter 0) (color 0 0 0 0)
    (uuid 0da1a042-dcd2-462e-a940-b6f7846a91a3)
  )
  (junction (at 203.2 73.66) (diameter 0) (color 0 0 0 0)
    (uuid 0e40bd92-1dae-45fd-ad04-0e17634efa22)
  )
  (junction (at 113.03 58.42) (diameter 0) (color 0 0 0 0)
    (uuid 196028da-dc90-4e6e-a511-0257e5edb92e)
  )
  (junction (at 133.35 113.03) (diameter 0) (color 0 0 0 0)
    (uuid 1b790b18-3642-41b0-942f-f26422196597)
  )
  (junction (at 243.84 66.04) (diameter 0) (color 0 0 0 0)
    (uuid 21237301-2325-4ae4-8aab-04f67a186822)
  )
  (junction (at 90.17 58.42) (diameter 0) (color 0 0 0 0)
    (uuid 2304b1c9-f77d-4eb5-81d9-86b22b10c7f5)
  )
  (junction (at 251.46 91.44) (diameter 0) (color 0 0 0 0)
    (uuid 284ecb32-72bc-4d4a-b4d0-eff8e036d9c0)
  )
  (junction (at 85.09 50.8) (diameter 0) (color 0 0 0 0)
    (uuid 3a9e9a2e-210c-4397-a87f-9433e2b1f227)
  )
  (junction (at 135.89 121.92) (diameter 0) (color 0 0 0 0)
    (uuid 3ee4ae18-6286-47a4-aa09-c026406369c3)
  )
  (junction (at 92.71 90.17) (diameter 0) (color 0 0 0 0)
    (uuid 4fbfee01-ed82-4f1c-a4c8-a89b336db5ff)
  )
  (junction (at 133.35 63.5) (diameter 0) (color 0 0 0 0)
    (uuid 5a63d1ea-f2f3-4b48-9932-8de8b463b6ed)
  )
  (junction (at 105.41 50.8) (diameter 0) (color 0 0 0 0)
    (uuid 5dc21df6-5721-46a6-bc68-64b54e1dfd9e)
  )
  (junction (at 104.14 97.79) (diameter 0) (color 0 0 0 0)
    (uuid 5fbb5b31-843e-4091-87eb-d5903ebdb358)
  )
  (junction (at 130.81 113.03) (diameter 0) (color 0 0 0 0)
    (uuid 6237f906-f0e8-40f3-8ead-916d685bb656)
  )
  (junction (at 167.64 121.92) (diameter 0) (color 0 0 0 0)
    (uuid 6c23f34c-1dd2-4a3b-ab15-941f5582b13b)
  )
  (junction (at 104.14 111.76) (diameter 0) (color 0 0 0 0)
    (uuid 6e18622d-ab16-46d3-8547-8e9d6c8c3481)
  )
  (junction (at 119.38 50.8) (diameter 0) (color 0 0 0 0)
    (uuid 7aa91509-e9ed-4fbe-9f8a-767a189822b1)
  )
  (junction (at 240.03 91.44) (diameter 0) (color 0 0 0 0)
    (uuid 7c256668-27e7-4ff2-875a-158c3c8b004e)
  )
  (junction (at 125.73 63.5) (diameter 0) (color 0 0 0 0)
    (uuid 8b8cb615-ebfb-4a18-9345-02af32590981)
  )
  (junction (at 128.27 63.5) (diameter 0) (color 0 0 0 0)
    (uuid 96179f84-670d-4ff5-93e9-2ff82b7ade81)
  )
  (junction (at 100.33 110.49) (diameter 0) (color 0 0 0 0)
    (uuid 9b974558-45b0-41b2-b495-397616b679f7)
  )
  (junction (at 171.45 116.84) (diameter 0) (color 0 0 0 0)
    (uuid 9c49eb64-94e2-4a4e-86cb-59182e699d74)
  )
  (junction (at 100.33 92.71) (diameter 0) (color 0 0 0 0)
    (uuid 9f156a06-a5e8-4efb-8865-5186353e0437)
  )
  (junction (at 73.66 58.42) (diameter 0) (color 0 0 0 0)
    (uuid a222b58a-5a99-49fe-9cb2-ef7227684852)
  )
  (junction (at 105.41 58.42) (diameter 0) (color 0 0 0 0)
    (uuid a2fb43a7-27ea-4c8d-81db-7d808eea3937)
  )
  (junction (at 203.2 69.85) (diameter 0) (color 0 0 0 0)
    (uuid aec87296-7157-489f-ae8b-7d174457c7a2)
  )
  (junction (at 77.47 50.8) (diameter 0) (color 0 0 0 0)
    (uuid b14b2d4d-5565-4846-9006-ed02ecdaac0e)
  )
  (junction (at 266.7 69.85) (diameter 0) (color 0 0 0 0)
    (uuid b594b064-24e0-40d8-9986-fca5a86620e4)
  )
  (junction (at 92.71 110.49) (diameter 0) (color 0 0 0 0)
    (uuid b60fd6a2-03e4-4281-8b9d-040b4b583c0d)
  )
  (junction (at 130.81 63.5) (diameter 0) (color 0 0 0 0)
    (uuid b6b1e7f6-ccd0-4544-9741-9a66af6e90d4)
  )
  (junction (at 135.89 113.03) (diameter 0) (color 0 0 0 0)
    (uuid b8cacaeb-66f8-4147-89ce-d0297dfdf1e6)
  )
  (junction (at 95.25 110.49) (diameter 0) (color 0 0 0 0)
    (uuid bc2237cd-6f78-4722-82f2-3a8db58844cd)
  )
  (junction (at 161.29 121.92) (diameter 0) (color 0 0 0 0)
    (uuid c4ad5c29-c84a-4b82-8557-29788410b560)
  )
  (junction (at 154.94 95.25) (diameter 0) (color 0 0 0 0)
    (uuid ceeb9c53-3901-4d0a-9ec7-48a467f1f324)
  )
  (junction (at 154.94 97.79) (diameter 0) (color 0 0 0 0)
    (uuid d2babe59-7d18-49e9-8920-58ab276633a7)
  )
  (junction (at 86.36 99.06) (diameter 0) (color 0 0 0 0)
    (uuid d38cbfe6-a5cb-4649-9b62-d465b849900e)
  )
  (junction (at 251.46 66.04) (diameter 0) (color 0 0 0 0)
    (uuid d836c0e1-596e-4430-8ff6-43b2a19470a7)
  )
  (junction (at 92.71 85.09) (diameter 0) (color 0 0 0 0)
    (uuid df350d1f-ead5-48f5-a046-d294663bb344)
  )
  (junction (at 90.17 82.55) (diameter 0) (color 0 0 0 0)
    (uuid e1624de1-9d53-4a8b-9f55-e4136f30a0b0)
  )
  (junction (at 257.81 91.44) (diameter 0) (color 0 0 0 0)
    (uuid e1b6a8aa-b000-4358-b941-616b4c3a0b37)
  )
  (junction (at 113.03 50.8) (diameter 0) (color 0 0 0 0)
    (uuid e896affd-ca40-46c2-9241-26baf6926b91)
  )
  (junction (at 77.47 58.42) (diameter 0) (color 0 0 0 0)
    (uuid ec99fc86-0e9a-4075-8162-59cddfdf832b)
  )
  (junction (at 257.81 69.85) (diameter 0) (color 0 0 0 0)
    (uuid ede9cfaa-e271-46c2-975d-20465c16ed40)
  )
  (junction (at 194.31 121.92) (diameter 0) (color 0 0 0 0)
    (uuid f30d46dc-9de3-4aef-a04f-55d7dca4443e)
  )

  (no_connect (at 152.4 85.09) (uuid 8573c4f3-80a6-4546-a803-cb29fde4464c))

  (wire (pts (xy 161.29 132.08) (xy 161.29 129.54))
    (stroke (width 0) (type default))
    (uuid 0487aaa0-a73e-4cb7-a9ce-74592068f8a8)
  )
  (wire (pts (xy 125.73 63.5) (xy 125.73 66.04))
    (stroke (width 0) (type default))
    (uuid 0591a61a-b2ff-4e5b-be00-1a4e46b48e9d)
  )
  (wire (pts (xy 125.73 63.5) (xy 128.27 63.5))
    (stroke (width 0) (type default))
    (uuid 065fccdc-359c-47d1-899f-bdd1193ae482)
  )
  (wire (pts (xy 77.47 58.42) (xy 85.09 58.42))
    (stroke (width 0) (type default))
    (uuid 07670d98-b877-49ae-8def-516a48578e97)
  )
  (wire (pts (xy 154.94 97.79) (xy 154.94 101.6))
    (stroke (width 0) (type default))
    (uuid 09c03aeb-2c4c-4c1b-97ad-d4fece5e3f27)
  )
  (wire (pts (xy 93.98 80.01) (xy 92.71 80.01))
    (stroke (width 0) (type default))
    (uuid 09f1a2b8-586d-4ae3-a797-a5cd229fe4b3)
  )
  (wire (pts (xy 100.33 92.71) (xy 100.33 96.52))
    (stroke (width 0) (type default))
    (uuid 0ac0cefb-81fd-4b2a-8cc0-45a00b9e697e)
  )
  (wire (pts (xy 123.19 120.65) (xy 123.19 121.92))
    (stroke (width 0) (type default))
    (uuid 0adb38fd-5c31-4e95-92b4-4d9a86e52a75)
  )
  (wire (pts (xy 113.03 66.04) (xy 113.03 63.5))
    (stroke (width 0) (type default))
    (uuid 0bfe9c16-525a-4147-86ea-1b43133e187a)
  )
  (wire (pts (xy 82.55 116.84) (xy 72.39 116.84))
    (stroke (width 0) (type default))
    (uuid 0cb99ba5-e8c7-4f08-a14c-8177758a13fe)
  )
  (wire (pts (xy 138.43 66.04) (xy 138.43 64.77))
    (stroke (width 0) (type default))
    (uuid 136575b5-fb88-440b-abe6-5317cc05a249)
  )
  (wire (pts (xy 243.84 71.12) (xy 243.84 66.04))
    (stroke (width 0) (type default))
    (uuid 13b16be9-bcd7-4955-9580-4dca8a219744)
  )
  (wire (pts (xy 240.03 91.44) (xy 240.03 92.71))
    (stroke (width 0) (type default))
    (uuid 13eed468-3794-47fd-9eb9-cca216699acd)
  )
  (wire (pts (xy 152.4 92.71) (xy 154.94 92.71))
    (stroke (width 0) (type default))
    (uuid 1593efeb-4759-429e-87bc-982a1c6a8eb7)
  )
  (wire (pts (xy 232.41 69.85) (xy 257.81 69.85))
    (stroke (width 0) (type default))
    (uuid 15dc524f-453b-47e6-96bb-16d7d3b9bcfb)
  )
  (wire (pts (xy 92.71 85.09) (xy 92.71 90.17))
    (stroke (width 0) (type default))
    (uuid 189611db-aa63-483a-8a84-722d3a84da7e)
  )
  (wire (pts (xy 92.71 80.01) (xy 92.71 85.09))
    (stroke (width 0) (type default))
    (uuid 1a1bf4ff-0d83-4e61-8e7c-fb09a7f076db)
  )
  (wire (pts (xy 207.01 73.66) (xy 203.2 73.66))
    (stroke (width 0) (type default))
    (uuid 1a3e71ca-6246-49bd-b597-3adff8ae02a3)
  )
  (wire (pts (xy 99.06 50.8) (xy 105.41 50.8))
    (stroke (width 0) (type default))
    (uuid 1da3880b-a9d8-4396-9516-2a07d0e125d6)
  )
  (wire (pts (xy 257.81 91.44) (xy 257.81 88.9))
    (stroke (width 0) (type default))
    (uuid 1ecd6d4e-60e8-4d26-a2f3-b4f9245f2e1f)
  )
  (wire (pts (xy 57.15 50.8) (xy 77.47 50.8))
    (stroke (width 0) (type default))
    (uuid 20ffac99-f35f-4c47-806d-9f3ac6408964)
  )
  (wire (pts (xy 251.46 66.04) (xy 269.24 66.04))
    (stroke (width 0) (type default))
    (uuid 21c3d731-d70a-4884-86df-10107d2d6d52)
  )
  (wire (pts (xy 135.89 121.92) (xy 144.78 121.92))
    (stroke (width 0) (type default))
    (uuid 251ea477-ca8d-410f-b1b3-02b065cc3063)
  )
  (wire (pts (xy 154.94 95.25) (xy 154.94 97.79))
    (stroke (width 0) (type default))
    (uuid 263d52e5-32f1-4d4f-ad24-edec65d1beca)
  )
  (polyline (pts (xy 76.2 142.24) (xy 172.72 142.24))
    (stroke (width 0) (type default))
    (uuid 286889e3-90d2-46e5-bbe7-e4403120d8d2)
  )

  (wire (pts (xy 130.81 63.5) (xy 130.81 66.04))
    (stroke (width 0) (type default))
    (uuid 2aad1f8c-9c8f-4d1a-a06e-e203ebf28a37)
  )
  (wire (pts (xy 104.14 97.79) (xy 104.14 111.76))
    (stroke (width 0) (type default))
    (uuid 2cea0308-7a8a-4062-8cab-8cf57f571779)
  )
  (wire (pts (xy 198.12 66.04) (xy 207.01 66.04))
    (stroke (width 0) (type default))
    (uuid 2e81f85b-6273-4999-a4ff-a05760a25d49)
  )
  (wire (pts (xy 257.81 71.12) (xy 257.81 69.85))
    (stroke (width 0) (type default))
    (uuid 30f25da0-b9ed-41a8-9b32-074603e97d46)
  )
  (wire (pts (xy 130.81 113.03) (xy 130.81 111.76))
    (stroke (width 0) (type default))
    (uuid 31862c16-6678-497c-b2ac-7dcb696b41a7)
  )
  (wire (pts (xy 90.17 71.12) (xy 90.17 68.58))
    (stroke (width 0) (type default))
    (uuid 397786e3-fc48-4700-ba8e-8fafd08768fd)
  )
  (wire (pts (xy 203.2 73.66) (xy 203.2 74.93))
    (stroke (width 0) (type default))
    (uuid 3ad87e77-777e-4af8-90fd-62c1ab82f283)
  )
  (polyline (pts (xy 172.72 48.26) (xy 102.87 48.26))
    (stroke (width 0) (type default))
    (uuid 3b370eed-94e2-40e4-822d-d269d299b68f)
  )

  (wire (pts (xy 243.84 78.74) (xy 243.84 81.28))
    (stroke (width 0) (type default))
    (uuid 3b9b9fa8-cf1b-4f18-9ce3-8ccbde61c237)
  )
  (wire (pts (xy 125.73 111.76) (xy 125.73 113.03))
    (stroke (width 0) (type default))
    (uuid 3ec0e338-24c6-446f-8726-49549a5d3812)
  )
  (wire (pts (xy 85.09 82.55) (xy 90.17 82.55))
    (stroke (width 0) (type default))
    (uuid 3eceb20e-b8a3-4fea-998a-930b26b3634d)
  )
  (wire (pts (xy 158.75 90.17) (xy 158.75 91.44))
    (stroke (width 0) (type default))
    (uuid 4362c064-43ca-4de1-8695-66d6c15eefd9)
  )
  (wire (pts (xy 82.55 118.11) (xy 82.55 116.84))
    (stroke (width 0) (type default))
    (uuid 4486a782-4e98-4911-9142-d8789bd9cb8b)
  )
  (wire (pts (xy 95.25 110.49) (xy 100.33 110.49))
    (stroke (width 0) (type default))
    (uuid 45d47fe3-c3b2-4d4e-9838-f8329e5211af)
  )
  (wire (pts (xy 167.64 132.08) (xy 167.64 129.54))
    (stroke (width 0) (type default))
    (uuid 47147ffa-2f90-4bfe-98b6-cfb93f1d46ab)
  )
  (wire (pts (xy 95.25 104.14) (xy 95.25 110.49))
    (stroke (width 0) (type default))
    (uuid 47cbd36b-e278-4c58-9f50-01d06f05a512)
  )
  (wire (pts (xy 152.4 121.92) (xy 161.29 121.92))
    (stroke (width 0) (type default))
    (uuid 48479a33-19c0-43e8-bcdc-8bb6fb28f745)
  )
  (wire (pts (xy 113.03 50.8) (xy 119.38 50.8))
    (stroke (width 0) (type default))
    (uuid 4a03bf57-c9bc-4512-a7bc-36f5a09d6935)
  )
  (wire (pts (xy 123.19 121.92) (xy 135.89 121.92))
    (stroke (width 0) (type default))
    (uuid 4a268475-c7f4-44d6-82b9-913d6ac52ffe)
  )
  (wire (pts (xy 100.33 92.71) (xy 106.68 92.71))
    (stroke (width 0) (type default))
    (uuid 4c1abb22-353e-497e-a507-9c856e2fe82f)
  )
  (wire (pts (xy 90.17 58.42) (xy 105.41 58.42))
    (stroke (width 0) (type default))
    (uuid 4c6d367f-16e1-4899-8465-cc01b868bda3)
  )
  (wire (pts (xy 85.09 58.42) (xy 90.17 58.42))
    (stroke (width 0) (type default))
    (uuid 4cf72d78-7b35-40bb-9d0b-d0bff0b4c68b)
  )
  (wire (pts (xy 251.46 66.04) (xy 243.84 66.04))
    (stroke (width 0) (type default))
    (uuid 501adf7f-c202-4c80-8e12-42d0aa8280ab)
  )
  (wire (pts (xy 128.27 113.03) (xy 130.81 113.03))
    (stroke (width 0) (type default))
    (uuid 52e1ce11-1b88-4dd5-a232-d90ecd6b26ef)
  )
  (wire (pts (xy 100.33 110.49) (xy 100.33 113.03))
    (stroke (width 0) (type default))
    (uuid 536e7299-01f9-4e6e-b7aa-e732c94f5195)
  )
  (wire (pts (xy 243.84 91.44) (xy 251.46 91.44))
    (stroke (width 0) (type default))
    (uuid 5740370b-25fb-4f93-9bdd-5831b97b0cd9)
  )
  (wire (pts (xy 90.17 87.63) (xy 90.17 99.06))
    (stroke (width 0) (type default))
    (uuid 5bc0337b-3a72-4968-8990-fb0203c04125)
  )
  (wire (pts (xy 219.71 57.15) (xy 223.52 57.15))
    (stroke (width 0) (type default))
    (uuid 5e004c4c-af48-4711-be1b-2783e246f058)
  )
  (wire (pts (xy 156.21 87.63) (xy 152.4 87.63))
    (stroke (width 0) (type default))
    (uuid 5e57b659-e896-4ca6-b0d6-eecee6387ca6)
  )
  (wire (pts (xy 86.36 99.06) (xy 86.36 100.33))
    (stroke (width 0) (type default))
    (uuid 60c3a747-44e1-4a53-9e1f-36feb8a6b312)
  )
  (wire (pts (xy 232.41 73.66) (xy 240.03 73.66))
    (stroke (width 0) (type default))
    (uuid 62a42783-731d-4a7f-aa4a-a1c6c4b63060)
  )
  (wire (pts (xy 152.4 90.17) (xy 158.75 90.17))
    (stroke (width 0) (type default))
    (uuid 64e01688-bf15-4987-92c1-c1c615089175)
  )
  (wire (pts (xy 135.89 113.03) (xy 135.89 121.92))
    (stroke (width 0) (type default))
    (uuid 66122b22-3143-4233-8367-cb78f05766e1)
  )
  (wire (pts (xy 105.41 50.8) (xy 105.41 44.45))
    (stroke (width 0) (type default))
    (uuid 66ba20a9-84f5-41c7-9860-0072850a1ddd)
  )
  (wire (pts (xy 130.81 113.03) (xy 133.35 113.03))
    (stroke (width 0) (type default))
    (uuid 7080533c-bf98-4985-a97e-c3db62cc0d61)
  )
  (wire (pts (xy 203.2 85.09) (xy 203.2 82.55))
    (stroke (width 0) (type default))
    (uuid 751b634c-f59c-4a50-988e-7bd06c872952)
  )
  (wire (pts (xy 133.35 113.03) (xy 133.35 111.76))
    (stroke (width 0) (type default))
    (uuid 77f39ab9-976e-4b83-86a6-c58f3f1407ab)
  )
  (wire (pts (xy 125.73 50.8) (xy 125.73 63.5))
    (stroke (width 0) (type default))
    (uuid 7a5bb9e0-84ed-4003-b1cd-dcbf4250fe8a)
  )
  (wire (pts (xy 171.45 121.92) (xy 177.8 121.92))
    (stroke (width 0) (type default))
    (uuid 7a66ae67-f0de-4b0e-9eb1-d283614472c7)
  )
  (wire (pts (xy 194.31 121.92) (xy 198.12 121.92))
    (stroke (width 0) (type default))
    (uuid 7fe8489e-5674-4479-bf97-82a32d513a7e)
  )
  (wire (pts (xy 135.89 63.5) (xy 135.89 66.04))
    (stroke (width 0) (type default))
    (uuid 8222aa9d-f2f0-4e32-af57-68cf65da830e)
  )
  (wire (pts (xy 257.81 91.44) (xy 266.7 91.44))
    (stroke (width 0) (type default))
    (uuid 843aafa7-eaab-4937-92f3-37c88b8ca156)
  )
  (wire (pts (xy 86.36 90.17) (xy 86.36 87.63))
    (stroke (width 0) (type default))
    (uuid 87faab06-c579-400a-8971-082430d0f8bb)
  )
  (wire (pts (xy 123.19 113.03) (xy 123.19 111.76))
    (stroke (width 0) (type default))
    (uuid 88273dea-bd8b-47dd-ab7c-45689b1d4322)
  )
  (wire (pts (xy 67.31 58.42) (xy 73.66 58.42))
    (stroke (width 0) (type default))
    (uuid 883295d0-6c7d-4f6f-8ac9-307e697b9125)
  )
  (wire (pts (xy 251.46 66.04) (xy 251.46 78.74))
    (stroke (width 0) (type default))
    (uuid 8906f19c-713e-4728-b10a-00a892a46738)
  )
  (wire (pts (xy 86.36 87.63) (xy 80.01 87.63))
    (stroke (width 0) (type default))
    (uuid 891ff9d3-d413-4639-9d5b-595f7c615f7a)
  )
  (wire (pts (xy 133.35 113.03) (xy 135.89 113.03))
    (stroke (width 0) (type default))
    (uuid 893e8665-4cbe-4be0-8897-2e49f5ae61c0)
  )
  (wire (pts (xy 113.03 63.5) (xy 111.76 63.5))
    (stroke (width 0) (type default))
    (uuid 899faaca-e729-4b8a-a80b-e00c8afd465d)
  )
  (wire (pts (xy 86.36 110.49) (xy 92.71 110.49))
    (stroke (width 0) (type default))
    (uuid 8c0d8b2b-3af1-42c6-9084-35c4cbae9be4)
  )
  (wire (pts (xy 130.81 63.5) (xy 133.35 63.5))
    (stroke (width 0) (type default))
    (uuid 8c339fd8-e0a6-4ffe-91c1-88d3e6edba5b)
  )
  (polyline (pts (xy 172.72 142.24) (xy 172.72 48.26))
    (stroke (width 0) (type default))
    (uuid 8f2e471a-a0d2-4466-99ec-f7cb8a9d8929)
  )

  (wire (pts (xy 223.52 57.15) (xy 223.52 59.69))
    (stroke (width 0) (type default))
    (uuid 92e0b211-230e-47e8-9255-3837b7bc5aba)
  )
  (wire (pts (xy 232.41 66.04) (xy 243.84 66.04))
    (stroke (width 0) (type default))
    (uuid 9359ae8e-2692-4ce0-b8af-090e61ba9565)
  )
  (wire (pts (xy 106.68 95.25) (xy 104.14 95.25))
    (stroke (width 0) (type default))
    (uuid 939bbba1-853f-4976-9745-a06b5fd9176d)
  )
  (wire (pts (xy 203.2 69.85) (xy 203.2 73.66))
    (stroke (width 0) (type default))
    (uuid 95040397-25ed-4170-81ff-a9f187c9d661)
  )
  (wire (pts (xy 257.81 78.74) (xy 257.81 81.28))
    (stroke (width 0) (type default))
    (uuid 951eec6c-6ed0-4393-aa65-1b42639aef33)
  )
  (wire (pts (xy 171.45 116.84) (xy 171.45 80.01))
    (stroke (width 0) (type default))
    (uuid 9708151f-df27-44f4-a7f2-da0302021d21)
  )
  (wire (pts (xy 135.89 111.76) (xy 135.89 113.03))
    (stroke (width 0) (type default))
    (uuid 97672c19-464b-416f-8cfe-47f9859f22c3)
  )
  (wire (pts (xy 198.12 116.84) (xy 171.45 116.84))
    (stroke (width 0) (type default))
    (uuid 979858c7-fb54-41ab-9985-2b687ede0da4)
  )
  (wire (pts (xy 86.36 110.49) (xy 86.36 107.95))
    (stroke (width 0) (type default))
    (uuid 9973cbee-0e27-4d74-9129-20a0fdec1ed6)
  )
  (wire (pts (xy 120.65 60.96) (xy 120.65 66.04))
    (stroke (width 0) (type default))
    (uuid 99b054a6-f1ef-419e-b389-19f61cf6bcec)
  )
  (wire (pts (xy 95.25 92.71) (xy 100.33 92.71))
    (stroke (width 0) (type default))
    (uuid 9b002dfd-89a6-420e-9bb6-07a3afa3b5ea)
  )
  (wire (pts (xy 90.17 50.8) (xy 91.44 50.8))
    (stroke (width 0) (type default))
    (uuid 9b3ef77d-661c-47e9-bb0d-3c1c5d4eb1c8)
  )
  (wire (pts (xy 240.03 91.44) (xy 243.84 91.44))
    (stroke (width 0) (type default))
    (uuid 9d3ce882-5145-4ded-8a29-69144d5e9cb7)
  )
  (wire (pts (xy 90.17 50.8) (xy 90.17 40.64))
    (stroke (width 0) (type default))
    (uuid 9d80068d-8d72-49e0-9c67-2cf89ae7fec5)
  )
  (wire (pts (xy 77.47 50.8) (xy 85.09 50.8))
    (stroke (width 0) (type default))
    (uuid 9fff48b7-0721-4ebb-9976-bbdbb47410b7)
  )
  (wire (pts (xy 119.38 50.8) (xy 125.73 50.8))
    (stroke (width 0) (type default))
    (uuid a064004c-7c9d-4c6a-a62b-75724768eafa)
  )
  (polyline (pts (xy 102.87 48.26) (xy 102.87 67.31))
    (stroke (width 0) (type default))
    (uuid a155f9db-4202-494e-91d3-cbae963bb2c9)
  )

  (wire (pts (xy 104.14 111.76) (xy 120.65 111.76))
    (stroke (width 0) (type default))
    (uuid a2d8cec1-70fc-41aa-8ef4-4a25f56b53e0)
  )
  (wire (pts (xy 95.25 92.71) (xy 95.25 96.52))
    (stroke (width 0) (type default))
    (uuid a43a6522-b5d0-4455-99b0-3b15fbb41548)
  )
  (wire (pts (xy 167.64 121.92) (xy 171.45 121.92))
    (stroke (width 0) (type default))
    (uuid a7e7b59a-d6ab-45f0-9f88-23327712a9eb)
  )
  (wire (pts (xy 73.66 58.42) (xy 77.47 58.42))
    (stroke (width 0) (type default))
    (uuid a8781137-a088-4ca1-bd47-e6a184c69d9e)
  )
  (wire (pts (xy 101.6 80.01) (xy 106.68 80.01))
    (stroke (width 0) (type default))
    (uuid a890802b-32fa-4180-84bf-8bbf1280bb81)
  )
  (wire (pts (xy 257.81 69.85) (xy 266.7 69.85))
    (stroke (width 0) (type default))
    (uuid ab9e1516-e981-4ce3-b43c-398695dd2de4)
  )
  (wire (pts (xy 133.35 63.5) (xy 133.35 66.04))
    (stroke (width 0) (type default))
    (uuid abff3ce1-ffe0-4779-9ccc-7dc8cc40f207)
  )
  (wire (pts (xy 133.35 63.5) (xy 135.89 63.5))
    (stroke (width 0) (type default))
    (uuid ac5d1dfb-a062-47c5-a091-6d72cd5a3908)
  )
  (wire (pts (xy 128.27 63.5) (xy 130.81 63.5))
    (stroke (width 0) (type default))
    (uuid ac94de38-2f02-4696-95eb-9c36f6d90e6c)
  )
  (wire (pts (xy 105.41 50.8) (xy 113.03 50.8))
    (stroke (width 0) (type default))
    (uuid acc3f0c8-82ee-4d2b-8d27-e6856f13ce6f)
  )
  (wire (pts (xy 266.7 77.47) (xy 266.7 69.85))
    (stroke (width 0) (type default))
    (uuid ad38594d-2662-4d9f-8203-2caaa7d508bf)
  )
  (wire (pts (xy 198.12 40.64) (xy 198.12 66.04))
    (stroke (width 0) (type default))
    (uuid ad5a406b-9f26-43db-a3ef-8dbaefa360c9)
  )
  (wire (pts (xy 185.42 121.92) (xy 194.31 121.92))
    (stroke (width 0) (type default))
    (uuid ad7fc7e6-3610-455e-998c-d380a0904445)
  )
  (wire (pts (xy 266.7 69.85) (xy 269.24 69.85))
    (stroke (width 0) (type default))
    (uuid b23fe242-7c61-4acd-9f65-0c4ee4d703d6)
  )
  (wire (pts (xy 92.71 90.17) (xy 106.68 90.17))
    (stroke (width 0) (type default))
    (uuid b2fa3465-d994-44c6-928a-b2080aadd377)
  )
  (wire (pts (xy 90.17 99.06) (xy 86.36 99.06))
    (stroke (width 0) (type default))
    (uuid b3f5b85a-9365-42dd-a18d-7cc2962e420d)
  )
  (wire (pts (xy 85.09 50.8) (xy 90.17 50.8))
    (stroke (width 0) (type default))
    (uuid b7720dcc-1a92-4091-b3d5-1987298acbb7)
  )
  (wire (pts (xy 82.55 125.73) (xy 82.55 127))
    (stroke (width 0) (type default))
    (uuid b82df8b0-08f8-4877-9e72-5749f621695e)
  )
  (wire (pts (xy 82.55 127) (xy 72.39 127))
    (stroke (width 0) (type default))
    (uuid b932308b-773f-44da-9aad-ceedf52eb84a)
  )
  (wire (pts (xy 219.71 59.69) (xy 219.71 57.15))
    (stroke (width 0) (type default))
    (uuid ba531765-525a-440f-99fd-1cd985ce4e02)
  )
  (wire (pts (xy 194.31 129.54) (xy 194.31 132.08))
    (stroke (width 0) (type default))
    (uuid bdacd875-10cf-45e4-8206-de1789b6a21b)
  )
  (wire (pts (xy 92.71 90.17) (xy 92.71 110.49))
    (stroke (width 0) (type default))
    (uuid bdfbbe8b-06e2-415b-b9dd-f0ebc0022257)
  )
  (wire (pts (xy 106.68 97.79) (xy 104.14 97.79))
    (stroke (width 0) (type default))
    (uuid beba6f68-174d-4c35-bb0e-7c9df62d72f5)
  )
  (wire (pts (xy 203.2 69.85) (xy 207.01 69.85))
    (stroke (width 0) (type default))
    (uuid c2a8a1bb-68c4-460b-8561-a99bc4656c2e)
  )
  (wire (pts (xy 154.94 97.79) (xy 152.4 97.79))
    (stroke (width 0) (type default))
    (uuid c2c96c07-ae5f-4232-8e1d-5a4c67a016c4)
  )
  (wire (pts (xy 161.29 121.92) (xy 167.64 121.92))
    (stroke (width 0) (type default))
    (uuid c45c99d7-e71e-4a33-a73f-853f7054a629)
  )
  (wire (pts (xy 90.17 40.64) (xy 198.12 40.64))
    (stroke (width 0) (type default))
    (uuid c559f792-166a-4749-80a4-1f7f7d0dc8bb)
  )
  (wire (pts (xy 100.33 104.14) (xy 100.33 110.49))
    (stroke (width 0) (type default))
    (uuid ca1069e0-f65c-4f05-831e-825f9eeeb66f)
  )
  (wire (pts (xy 240.03 73.66) (xy 240.03 91.44))
    (stroke (width 0) (type default))
    (uuid ca61b2a1-a181-4525-add8-54275ea1e0c3)
  )
  (wire (pts (xy 125.73 113.03) (xy 128.27 113.03))
    (stroke (width 0) (type default))
    (uuid cc5ac649-ab11-49fc-8f07-32295f2f573b)
  )
  (wire (pts (xy 90.17 82.55) (xy 106.68 82.55))
    (stroke (width 0) (type default))
    (uuid cc80a1df-6547-477d-a599-8c815bd97fca)
  )
  (wire (pts (xy 92.71 85.09) (xy 106.68 85.09))
    (stroke (width 0) (type default))
    (uuid ce6fef80-4d4f-411c-8088-592d9d08fcda)
  )
  (wire (pts (xy 73.66 59.69) (xy 73.66 58.42))
    (stroke (width 0) (type default))
    (uuid cf482c7b-b0cd-427d-83d2-a33f6f8ced09)
  )
  (wire (pts (xy 104.14 111.76) (xy 104.14 113.03))
    (stroke (width 0) (type default))
    (uuid d179cf22-8e48-4680-b444-49f44bdbc48d)
  )
  (wire (pts (xy 251.46 91.44) (xy 257.81 91.44))
    (stroke (width 0) (type default))
    (uuid d28b9bef-5584-45f3-ba80-1d1413db94cd)
  )
  (wire (pts (xy 90.17 87.63) (xy 106.68 87.63))
    (stroke (width 0) (type default))
    (uuid d3060307-2c26-4d91-931e-3ca65ef351b7)
  )
  (wire (pts (xy 171.45 80.01) (xy 152.4 80.01))
    (stroke (width 0) (type default))
    (uuid d7b7751f-49e0-44a9-a62c-fbbc91ad4411)
  )
  (wire (pts (xy 113.03 58.42) (xy 119.38 58.42))
    (stroke (width 0) (type default))
    (uuid d85025fb-e43d-4823-a5dd-ad8943feb675)
  )
  (wire (pts (xy 128.27 66.04) (xy 128.27 63.5))
    (stroke (width 0) (type default))
    (uuid da347b35-8b17-4c9e-81d1-c168445a88eb)
  )
  (wire (pts (xy 199.39 69.85) (xy 203.2 69.85))
    (stroke (width 0) (type default))
    (uuid db5f77fc-4656-4629-ab96-be32c9b5d6c5)
  )
  (wire (pts (xy 251.46 86.36) (xy 251.46 91.44))
    (stroke (width 0) (type default))
    (uuid e3f9c19d-49ed-4e40-96fc-024c31789b7e)
  )
  (wire (pts (xy 266.7 91.44) (xy 266.7 85.09))
    (stroke (width 0) (type default))
    (uuid e8db007b-c76d-49a4-bd73-7711663bf31c)
  )
  (wire (pts (xy 86.36 97.79) (xy 86.36 99.06))
    (stroke (width 0) (type default))
    (uuid ea0a49ea-46ac-4b7c-ac70-1a5c52dbf9ed)
  )
  (wire (pts (xy 152.4 95.25) (xy 154.94 95.25))
    (stroke (width 0) (type default))
    (uuid ebc33c23-b2f1-4082-b858-16630e0cb89f)
  )
  (wire (pts (xy 104.14 95.25) (xy 104.14 97.79))
    (stroke (width 0) (type default))
    (uuid ebe5e13a-f642-4e11-b911-8b4ba8066731)
  )
  (wire (pts (xy 152.4 82.55) (xy 156.21 82.55))
    (stroke (width 0) (type default))
    (uuid ec8b9020-44fa-4221-ac54-01ed0dede4e8)
  )
  (wire (pts (xy 171.45 121.92) (xy 171.45 116.84))
    (stroke (width 0) (type default))
    (uuid eed28de2-b96e-4d1b-be6a-3bc868abbc75)
  )
  (wire (pts (xy 105.41 58.42) (xy 113.03 58.42))
    (stroke (width 0) (type default))
    (uuid ef06fa1f-58a8-457c-bcf5-3c4701e2aebe)
  )
  (wire (pts (xy 128.27 111.76) (xy 128.27 113.03))
    (stroke (width 0) (type default))
    (uuid f136e638-c4f0-4d0e-af01-8b16b63a608e)
  )
  (polyline (pts (xy 99.06 67.31) (xy 72.39 67.31))
    (stroke (width 0) (type default))
    (uuid f204c375-3eb9-48d4-b1c3-90e39290b377)
  )

  (wire (pts (xy 92.71 110.49) (xy 95.25 110.49))
    (stroke (width 0) (type default))
    (uuid f6524778-165d-40ae-8769-3082e82e931f)
  )
  (wire (pts (xy 154.94 92.71) (xy 154.94 95.25))
    (stroke (width 0) (type default))
    (uuid f812b26b-6156-4eb6-adbe-e3741cb8bdd4)
  )
  (wire (pts (xy 243.84 88.9) (xy 243.84 91.44))
    (stroke (width 0) (type default))
    (uuid fb256c68-3c79-4a8e-a56c-e9920d041772)
  )
  (wire (pts (xy 90.17 78.74) (xy 90.17 82.55))
    (stroke (width 0) (type default))
    (uuid fd31957d-ce23-4c81-82b5-0e62516bceda)
  )

  (text "C11 reverse geometry cap." (at 118.11 46.99 0)
    (effects (font (size 1.524 1.524)) (justify left bottom))
    (uuid 34f4dab6-6acd-4895-9933-9f020e7a4d20)
  )
  (text "830um x 1500um die" (at 210.82 88.9 0)
    (effects (font (size 1.524 1.524)) (justify left bottom))
    (uuid 3c24ac5e-07ff-478d-aead-6843d5c340ca)
  )
  (text "Custom coil" (at 142.24 127 0)
    (effects (font (size 1.524 1.524)) (justify left bottom))
    (uuid 572232cb-eba8-412b-9ad9-2af0f9cb3c2e)
  )
  (text "Packaged or bare die?" (at 210.82 86.36 0)
    (effects (font (size 1.524 1.524)) (justify left bottom))
    (uuid 66a379cf-41bb-4c62-9aa0-01fecb25753b)
  )
  (text "Crosscheck BPOL12V pinout" (at 140.97 68.58 0)
    (effects (font (size 1.524 1.524)) (justify left bottom))
    (uuid 6966f764-6ca2-4e01-9975-ec7c81888a01)
  )
  (text "8mOhm in between" (at 207.01 119.38 0)
    (effects (font (size 1.524 1.524)) (justify left bottom))
    (uuid 741d7623-cf63-4dae-a654-2b503453e65e)
  )
  (text "42mΩ trace + 8mΩ Inductor" (at 50.8 43.18 0)
    (effects (font (size 1.524 1.524)) (justify left bottom))
    (uuid 79fd3b2d-3ffd-4fa4-bc40-96a698c33dbb)
  )
  (text "Shielded" (at 76.2 140.97 0)
    (effects (font (size 6.604 6.604)) (justify left bottom))
    (uuid b457c687-6cb9-4cb4-88ce-cd6bf8540fa2)
  )
  (text "QFN8 packaged" (at 213.36 91.44 0)
    (effects (font (size 1.524 1.524)) (justify left bottom))
    (uuid b9d42e56-4d49-4174-ae8a-eafaf74251b5)
  )
  (text "External Pull-down?" (at 181.61 68.58 0)
    (effects (font (size 1.524 1.524)) (justify left bottom))
    (uuid bbf45a9d-c64e-4f11-8540-e8fa39549699)
  )
  (text "bPOL12V_v4 requires 500kΩ between Vi and Vout\nclaims Vref=615mV -> 499k:340k results in 1.5176V\nVoltage settings: 1.618, 1.416, 1.315"
    (at 20.32 104.14 0)
    (effects (font (size 1.524 1.524)) (justify left bottom))
    (uuid ed84f6f6-0973-4c6c-9f65-8a3497495771)
  )
  (text "Need 50mOhm between VIN and FVIN to AMAC." (at 78.74 35.56 0)
    (effects (font (size 1.524 1.524)) (justify left bottom))
    (uuid eeb1f64c-f5ed-49ea-b52f-2df9cff026f7)
  )

  (label "FVOUT" (at 154.94 80.01 0) (fields_autoplaced)
    (effects (font (size 1.524 1.524)) (justify left bottom))
    (uuid 0f30c589-1da9-44c3-9669-b2064ce8998b)
  )
  (label "VOUT" (at 90.17 69.85 0) (fields_autoplaced)
    (effects (font (size 1.524 1.524)) (justify left bottom))
    (uuid 2040a0c1-0b2b-48de-a51f-79bfc73dba10)
  )
  (label "VOUT" (at 190.5 121.92 0) (fields_autoplaced)
    (effects (font (size 1.524 1.524)) (justify left bottom))
    (uuid 497a7a08-16cc-44b1-8da9-69cf52c83e89)
  )
  (label "VIN" (at 199.39 66.04 0) (fields_autoplaced)
    (effects (font (size 1.524 1.524)) (justify left bottom))
    (uuid 4de09ef3-fed7-4d75-a92a-55dac47ac47a)
  )
  (label "FVOUT" (at 80.01 87.63 0) (fields_autoplaced)
    (effects (font (size 1.524 1.524)) (justify left bottom))
    (uuid b9086175-f44c-4e71-b882-25cd78abf8b0)
  )

  (hierarchical_label "VOUT" (shape input) (at 198.12 121.92 0) (fields_autoplaced)
    (effects (font (size 1.524 1.524)) (justify left))
    (uuid 150165f2-0f1c-44a2-bfdc-55ac502edaea)
  )
  (hierarchical_label "FVOUT" (shape input) (at 198.12 116.84 0) (fields_autoplaced)
    (effects (font (size 1.524 1.524)) (justify left))
    (uuid 21e7aa4b-8f86-4768-84d2-fd6705385d6b)
  )
  (hierarchical_label "FVIN" (shape input) (at 105.41 44.45 90) (fields_autoplaced)
    (effects (font (size 1.524 1.524)) (justify left))
    (uuid 30581e60-2d2a-441a-9b41-ff2416a8d2af)
  )
  (hierarchical_label "NTCn" (shape input) (at 72.39 127 180) (fields_autoplaced)
    (effects (font (size 1.524 1.524)) (justify right))
    (uuid 3470ce5c-2432-48fe-9566-bb332881c635)
  )
  (hierarchical_label "Bit1_VOUT" (shape input) (at 156.21 82.55 0) (fields_autoplaced)
    (effects (font (size 1.524 1.524)) (justify left))
    (uuid 3d8fc3d2-fb25-43d2-b7f4-8d376182ebaa)
  )
  (hierarchical_label "VCC1V4" (shape input) (at 269.24 66.04 0) (fields_autoplaced)
    (effects (font (size 1.524 1.524)) (justify left))
    (uuid 61f112c5-1974-4465-b2ae-5a371e9f243d)
  )
  (hierarchical_label "PGOOD" (shape input) (at 85.09 82.55 180) (fields_autoplaced)
    (effects (font (size 1.524 1.524)) (justify right))
    (uuid 763b259e-f9f8-4217-9efd-65ca784f6851)
  )
  (hierarchical_label "VIN" (shape input) (at 57.15 50.8 180) (fields_autoplaced)
    (effects (font (size 1.524 1.524)) (justify right))
    (uuid 7990af17-ff04-478a-8f0c-2c45f4cd5952)
  )
  (hierarchical_label "NTCp" (shape input) (at 72.39 116.84 180) (fields_autoplaced)
    (effects (font (size 1.524 1.524)) (justify right))
    (uuid 7abbe503-2f1a-45ad-9760-b5a2ff7b664d)
  )
  (hierarchical_label "Bit2_VOUT" (shape input) (at 156.21 87.63 0) (fields_autoplaced)
    (effects (font (size 1.524 1.524)) (justify left))
    (uuid a9214392-af75-4a15-a07d-61386ec5455f)
  )
  (hierarchical_label "VIN_RTN" (shape input) (at 67.31 58.42 180) (fields_autoplaced)
    (effects (font (size 1.524 1.524)) (justify right))
    (uuid b3d4e240-701f-47d2-ab62-7e3c12ba9eaf)
  )
  (hierarchical_label "VCC3V3" (shape input) (at 269.24 69.85 0) (fields_autoplaced)
    (effects (font (size 1.524 1.524)) (justify left))
    (uuid b8cdf76b-2d6c-4e7d-a74a-2fab567fa39d)
  )
  (hierarchical_label "DCDCEN" (shape input) (at 120.65 60.96 180) (fields_autoplaced)
    (effects (font (size 1.524 1.524)) (justify right))
    (uuid d11e887e-141e-4a35-8ed8-fe9106a38088)
  )
  (hierarchical_label "LREGEN" (shape input) (at 199.39 69.85 180) (fields_autoplaced)
    (effects (font (size 1.524 1.524)) (justify right))
    (uuid e87d6291-d889-4bca-99b4-4ea1e6c6bd38)
  )
  (hierarchical_label "PTAT" (shape input) (at 138.43 64.77 90) (fields_autoplaced)
    (effects (font (size 1.524 1.524)) (justify left))
    (uuid f47f0996-cf7a-4dcf-8ace-c4d542792ff2)
  )

  (symbol (lib_id "pbv3:bpol12v") (at 129.54 88.9 0) (unit 1)
    (in_bom yes) (on_board yes) (dnp no)
    (uuid 00000000-0000-0000-0000-000059f01058)
    (property "Reference" "U701" (at 129.54 80.01 0)
      (effects (font (size 1.524 1.524)))
    )
    (property "Value" "BPOL12V" (at 129.54 91.44 0)
      (effects (font (size 1.524 1.524)))
    )
    (property "Footprint" "Package_DFN_QFN:QFN-32-1EP_5x5mm_P0.5mm_EP3.7x3.7mm" (at 129.54 88.9 0)
      (effects (font (size 1.524 1.524)) hide)
    )
    (property "Datasheet" "" (at 129.54 88.9 0)
      (effects (font (size 1.524 1.524)) hide)
    )
    (pin "1" (uuid d5f4e023-83a3-4313-9927-33b5fc38df0c))
    (pin "10" (uuid f825c941-f028-461a-8f46-25b9c8619667))
    (pin "11" (uuid e213368f-13b9-41c2-8182-d9559fd0b037))
    (pin "12" (uuid 28152667-df5c-4f6d-8732-61d0230901e9))
    (pin "13" (uuid 0fdbbd5a-25d2-4301-8d46-f973f9821e13))
    (pin "14" (uuid 4a82fbb4-4f86-44b0-a57a-8df7352281e3))
    (pin "15" (uuid 37808aca-b114-4afa-86f8-4a7374fb1251))
    (pin "16" (uuid 32772fda-346b-4fe0-8a82-8e5d42102caa))
    (pin "17" (uuid 37fabfff-ba9f-4e77-acca-72151bdd259b))
    (pin "18" (uuid 9d906569-c82f-4a7b-82f0-525e85bf8c99))
    (pin "19" (uuid d78ef561-a016-4fd1-a511-cf91298ae413))
    (pin "2" (uuid 8c2813cb-0eca-4f06-9383-e705372b9b58))
    (pin "20" (uuid a3ed5d56-6758-4ef4-bf46-faf5ab7c5370))
    (pin "21" (uuid a33b1a7e-fed5-4b82-8098-a20345bcf778))
    (pin "22" (uuid ab918f64-ef24-4c62-831b-d05ba7b4e23b))
    (pin "23" (uuid 7010cd7f-612e-42bd-8bb2-4aba6f02ebb0))
    (pin "24" (uuid c09ce86b-476e-408e-9121-d7efa15ecdcf))
    (pin "25" (uuid 95355da9-c29c-4fac-8a19-041a9a083a58))
    (pin "26" (uuid 19a450e3-949c-4268-b3cd-05ce76ff367a))
    (pin "27" (uuid 3383e5b0-118a-4f32-bbfb-13e1853958b2))
    (pin "28" (uuid bac3e9b8-ca7d-4ca5-b24e-018fea19326f))
    (pin "29" (uuid 050cee12-8c84-472b-b682-faa739970a09))
    (pin "3" (uuid 62884505-9779-4575-bcac-29115f67dfa8))
    (pin "30" (uuid 1f810eea-7f54-433c-9bbd-dbd1a60216da))
    (pin "31" (uuid b7713760-a9c7-422c-bdf4-3844bec453cd))
    (pin "32" (uuid 315d068c-b23f-4423-88f1-053cb07cb4f7))
    (pin "33" (uuid b62851f8-5785-4db2-bb4e-4d8b07e4dc12))
    (pin "4" (uuid f85b707b-c164-44fe-b6f5-1f0641c164e8))
    (pin "5" (uuid dbe957ab-1b72-48ad-8f59-27fc6ea1454f))
    (pin "6" (uuid bb76a8d3-a59a-4f90-bdad-8ec9853793e0))
    (pin "7" (uuid 912c0221-f944-46f6-ba12-3bff265e898a))
    (pin "8" (uuid d4a3126a-a132-4187-af88-aef5e6f8b12d))
    (pin "9" (uuid 3d5edb30-5108-4cee-bf03-5fbf035fef70))
    (instances
      (project "pbv3"
        (path "/dc50893b-31d3-4789-b901-e1bcb1f4629b/00000000-0000-0000-0000-00005cffab5b"
          (reference "U701") (unit 1)
        )
        (path "/dc50893b-31d3-4789-b901-e1bcb1f4629b/00000000-0000-0000-0000-000059efea3a"
          (reference "U1") (unit 1)
        )
      )
    )
  )

  (symbol (lib_id "pbv3-rescue:C") (at 77.47 54.61 0) (unit 1)
    (in_bom yes) (on_board yes) (dnp no)
    (uuid 00000000-0000-0000-0000-000059f0106d)
    (property "Reference" "C701" (at 78.105 52.07 0)
      (effects (font (size 1.27 1.27)) (justify left))
    )
    (property "Value" "100nF" (at 78.105 57.15 0)
      (effects (font (size 1.27 1.27)) (justify left))
    )
    (property "Footprint" "pbv3:SMD_0306_FR" (at 78.4352 58.42 0)
      (effects (font (size 1.27 1.27)) hide)
    )
    (property "Datasheet" "" (at 77.47 54.61 0)
      (effects (font (size 1.27 1.27)))
    )
    (property "Part" "TWK107 B7104MVHT" (at 77.47 54.61 0)
      (effects (font (size 1.524 1.524)) hide)
    )
    (pin "1" (uuid 456566e5-4a6c-4840-b241-38d78bdd335f))
    (pin "2" (uuid 59ad4c52-a1db-429b-ab90-2403dcce7c01))
    (instances
      (project "pbv3"
        (path "/dc50893b-31d3-4789-b901-e1bcb1f4629b/00000000-0000-0000-0000-00005cffab5b"
          (reference "C701") (unit 1)
        )
        (path "/dc50893b-31d3-4789-b901-e1bcb1f4629b/00000000-0000-0000-0000-000059efea3a"
          (reference "C1") (unit 1)
        )
      )
    )
  )

  (symbol (lib_id "pbv3-rescue:C") (at 85.09 54.61 0) (unit 1)
    (in_bom yes) (on_board yes) (dnp no)
    (uuid 00000000-0000-0000-0000-000059f01074)
    (property "Reference" "C702" (at 85.725 52.07 0)
      (effects (font (size 1.27 1.27)) (justify left))
    )
    (property "Value" "1uF" (at 85.725 57.15 0)
      (effects (font (size 1.27 1.27)) (justify left))
    )
    (property "Footprint" "Capacitor_SMD:C_0805_2012Metric" (at 86.0552 58.42 0)
      (effects (font (size 1.27 1.27)) hide)
    )
    (property "Datasheet" "" (at 85.09 54.61 0)
      (effects (font (size 1.27 1.27)))
    )
    (property "Part" "C2012X7R1H105K125AB" (at 85.09 54.61 0)
      (effects (font (size 1.524 1.524)) hide)
    )
    (property "Comment" "High demand item, decide and order soon (may be use CC0805MKX5R8BB226)" (at 85.09 54.61 0)
      (effects (font (size 1.524 1.524)) hide)
    )
    (pin "1" (uuid 080225d7-b073-4739-bf27-52f996e870be))
    (pin "2" (uuid 39dbfefa-cbfc-4e2a-b536-78ff7b7d84e1))
    (instances
      (project "pbv3"
        (path "/dc50893b-31d3-4789-b901-e1bcb1f4629b/00000000-0000-0000-0000-00005cffab5b"
          (reference "C702") (unit 1)
        )
        (path "/dc50893b-31d3-4789-b901-e1bcb1f4629b/00000000-0000-0000-0000-000059efea3a"
          (reference "C2") (unit 1)
        )
      )
    )
  )

  (symbol (lib_id "pbv3-rescue:C") (at 105.41 54.61 0) (unit 1)
    (in_bom yes) (on_board yes) (dnp no)
    (uuid 00000000-0000-0000-0000-000059f0107b)
    (property "Reference" "C704" (at 106.045 52.07 0)
      (effects (font (size 1.27 1.27)) (justify left))
    )
    (property "Value" "10uF" (at 106.045 57.15 0)
      (effects (font (size 1.27 1.27)) (justify left))
    )
    (property "Footprint" "Capacitor_SMD:C_0805_2012Metric" (at 106.3752 58.42 0)
      (effects (font (size 1.27 1.27)) hide)
    )
    (property "Datasheet" "" (at 105.41 54.61 0)
      (effects (font (size 1.27 1.27)))
    )
    (property "Part" "GRM21BR61E106KA73L" (at 105.41 54.61 0)
      (effects (font (size 1.524 1.524)) hide)
    )
    (property "Comment" "First chose TMK212BBJ106MG-T, may to to evaluate TMK212BBJ106KD-T, this is lower in profile, but seems mostly market driven" (at 105.41 54.61 0)
      (effects (font (size 1.524 1.524)) hide)
    )
    (pin "1" (uuid 68f1f70c-f487-4c8e-8bc2-bc208d72fdac))
    (pin "2" (uuid 8ed7778d-23cb-4a1e-bfff-5550f0c8f189))
    (instances
      (project "pbv3"
        (path "/dc50893b-31d3-4789-b901-e1bcb1f4629b/00000000-0000-0000-0000-00005cffab5b"
          (reference "C704") (unit 1)
        )
        (path "/dc50893b-31d3-4789-b901-e1bcb1f4629b/00000000-0000-0000-0000-000059efea3a"
          (reference "C4") (unit 1)
        )
      )
    )
  )

  (symbol (lib_id "pbv3-rescue:C") (at 113.03 54.61 0) (unit 1)
    (in_bom yes) (on_board yes) (dnp no)
    (uuid 00000000-0000-0000-0000-000059f01082)
    (property "Reference" "C705" (at 113.665 52.07 0)
      (effects (font (size 1.27 1.27)) (justify left))
    )
    (property "Value" "10uF" (at 113.665 57.15 0)
      (effects (font (size 1.27 1.27)) (justify left))
    )
    (property "Footprint" "Capacitor_SMD:C_0805_2012Metric" (at 113.9952 58.42 0)
      (effects (font (size 1.27 1.27)) hide)
    )
    (property "Datasheet" "" (at 113.03 54.61 0)
      (effects (font (size 1.27 1.27)))
    )
    (property "Part" "GRM21BR61E106KA73L" (at 113.03 54.61 0)
      (effects (font (size 1.524 1.524)) hide)
    )
    (property "Comment" "Evaluate TMK212BBJ106KD-T, this is lower in profile" (at 113.03 54.61 0)
      (effects (font (size 1.524 1.524)) hide)
    )
    (pin "1" (uuid b84b8a72-eea4-4848-bbd3-d8807cc8dbd9))
    (pin "2" (uuid 8957093d-7411-4579-8d2a-4766341ebd21))
    (instances
      (project "pbv3"
        (path "/dc50893b-31d3-4789-b901-e1bcb1f4629b/00000000-0000-0000-0000-00005cffab5b"
          (reference "C705") (unit 1)
        )
        (path "/dc50893b-31d3-4789-b901-e1bcb1f4629b/00000000-0000-0000-0000-000059efea3a"
          (reference "C5") (unit 1)
        )
      )
    )
  )

  (symbol (lib_id "pbv3-rescue:L") (at 95.25 50.8 270) (unit 1)
    (in_bom yes) (on_board yes) (dnp no)
    (uuid 00000000-0000-0000-0000-000059f01089)
    (property "Reference" "L701" (at 97.79 52.07 90)
      (effects (font (size 1.27 1.27)))
    )
    (property "Value" "82nH" (at 95.25 48.26 90)
      (effects (font (size 1.27 1.27)))
    )
    (property "Footprint" "PBEC:1515SQ-82N" (at 95.25 50.8 0)
      (effects (font (size 1.27 1.27)) hide)
    )
    (property "Datasheet" "" (at 95.25 50.8 0)
      (effects (font (size 1.27 1.27)))
    )
    (property "Part" "1515SQ-82N" (at 95.25 50.8 0)
      (effects (font (size 1.27 1.27)) hide)
    )
    (pin "1" (uuid 4f83de49-5808-4aa1-bd69-ab1f6ad0ad3d))
    (pin "2" (uuid d575f245-53c4-44bd-9a1e-edd3b26a8474))
    (instances
      (project "pbv3"
        (path "/dc50893b-31d3-4789-b901-e1bcb1f4629b/00000000-0000-0000-0000-00005cffab5b"
          (reference "L701") (unit 1)
        )
        (path "/dc50893b-31d3-4789-b901-e1bcb1f4629b/00000000-0000-0000-0000-000059efea3a"
          (reference "L1") (unit 1)
        )
      )
    )
  )

  (symbol (lib_id "power:GND") (at 73.66 59.69 0) (unit 1)
    (in_bom yes) (on_board yes) (dnp no)
    (uuid 00000000-0000-0000-0000-000059f010af)
    (property "Reference" "#PWR0701" (at 73.66 66.04 0)
      (effects (font (size 1.27 1.27)) hide)
    )
    (property "Value" "GND" (at 73.66 63.5 0)
      (effects (font (size 1.27 1.27)))
    )
    (property "Footprint" "" (at 73.66 59.69 0)
      (effects (font (size 1.27 1.27)))
    )
    (property "Datasheet" "" (at 73.66 59.69 0)
      (effects (font (size 1.27 1.27)))
    )
    (pin "1" (uuid a2e0e0a1-0dba-47c1-bf56-d1a776ce1ccf))
    (instances
      (project "pbv3"
        (path "/dc50893b-31d3-4789-b901-e1bcb1f4629b/00000000-0000-0000-0000-00005cffab5b"
          (reference "#PWR0701") (unit 1)
        )
        (path "/dc50893b-31d3-4789-b901-e1bcb1f4629b/00000000-0000-0000-0000-000059efea3a"
          (reference "#PWR0201") (unit 1)
        )
      )
    )
  )

  (symbol (lib_id "pbv3-rescue:L") (at 148.59 121.92 90) (unit 1)
    (in_bom yes) (on_board yes) (dnp no)
    (uuid 00000000-0000-0000-0000-000059f010b7)
    (property "Reference" "L702" (at 148.59 123.19 90)
      (effects (font (size 1.27 1.27)))
    )
    (property "Value" "250nH" (at 148.59 119.38 90)
      (effects (font (size 1.27 1.27)))
    )
    (property "Footprint" "pbv3:YaleCoil" (at 148.59 121.92 0)
      (effects (font (size 1.27 1.27)) hide)
    )
    (property "Datasheet" "" (at 148.59 121.92 0)
      (effects (font (size 1.27 1.27)))
    )
    (pin "1" (uuid 7f461c37-e728-45fd-b8bc-e159b454994a))
    (pin "2" (uuid c30b7dd7-06e7-482d-8528-c5632d0a9862))
    (instances
      (project "pbv3"
        (path "/dc50893b-31d3-4789-b901-e1bcb1f4629b/00000000-0000-0000-0000-00005cffab5b"
          (reference "L702") (unit 1)
        )
        (path "/dc50893b-31d3-4789-b901-e1bcb1f4629b/00000000-0000-0000-0000-000059efea3a"
          (reference "L2") (unit 1)
        )
      )
    )
  )

  (symbol (lib_id "pbv3-rescue:L") (at 181.61 121.92 90) (unit 1)
    (in_bom yes) (on_board yes) (dnp no)
    (uuid 00000000-0000-0000-0000-000059f010be)
    (property "Reference" "L703" (at 181.61 123.19 90)
      (effects (font (size 1.27 1.27)))
    )
    (property "Value" "12.3nH" (at 181.61 119.38 90)
      (effects (font (size 1.27 1.27)))
    )
    (property "Footprint" "pbv3:0806SQ-12N" (at 181.61 121.92 0)
      (effects (font (size 1.27 1.27)) hide)
    )
    (property "Datasheet" "" (at 181.61 121.92 0)
      (effects (font (size 1.27 1.27)))
    )
    (property "Part" "0806SQ-12N" (at 181.61 121.92 0)
      (effects (font (size 1.27 1.27)) hide)
    )
    (pin "1" (uuid b617f7de-403c-4ac9-8cc0-9cefaed0a266))
    (pin "2" (uuid 5dae85e2-41a6-483c-aac6-9f2f6ef2b7fe))
    (instances
      (project "pbv3"
        (path "/dc50893b-31d3-4789-b901-e1bcb1f4629b/00000000-0000-0000-0000-00005cffab5b"
          (reference "L703") (unit 1)
        )
        (path "/dc50893b-31d3-4789-b901-e1bcb1f4629b/00000000-0000-0000-0000-000059efea3a"
          (reference "L3") (unit 1)
        )
      )
    )
  )

  (symbol (lib_id "pbv3-rescue:C") (at 161.29 125.73 0) (unit 1)
    (in_bom yes) (on_board yes) (dnp no)
    (uuid 00000000-0000-0000-0000-000059f010c5)
    (property "Reference" "C708" (at 161.925 123.19 0)
      (effects (font (size 1.27 1.27)) (justify left))
    )
    (property "Value" "22uF" (at 161.925 128.27 0)
      (effects (font (size 1.27 1.27)) (justify left))
    )
    (property "Footprint" "Capacitor_SMD:C_0805_2012Metric" (at 162.2552 129.54 0)
      (effects (font (size 1.27 1.27)) hide)
    )
    (property "Datasheet" "" (at 161.29 125.73 0)
      (effects (font (size 1.27 1.27)))
    )
    (property "Part" "GRM219R61C226ME15L" (at 161.29 125.73 0)
      (effects (font (size 1.524 1.524)) hide)
    )
    (property "Comment" "First chose TMK212BBJ106MG-T, may to to evaluate TMK212BBJ106KD-T, this is lower in profile, but seems mostly market driven" (at 161.29 125.73 0)
      (effects (font (size 1.524 1.524)) hide)
    )
    (pin "1" (uuid 9a7ba945-6285-4e95-bb92-a3c60c534114))
    (pin "2" (uuid 9d053ddf-727f-4ac3-99a4-04f1659f5de2))
    (instances
      (project "pbv3"
        (path "/dc50893b-31d3-4789-b901-e1bcb1f4629b/00000000-0000-0000-0000-00005cffab5b"
          (reference "C708") (unit 1)
        )
        (path "/dc50893b-31d3-4789-b901-e1bcb1f4629b/00000000-0000-0000-0000-000059efea3a"
          (reference "C7") (unit 1)
        )
      )
    )
  )

  (symbol (lib_id "pbv3-rescue:C") (at 167.64 125.73 0) (unit 1)
    (in_bom yes) (on_board yes) (dnp no)
    (uuid 00000000-0000-0000-0000-000059f010cc)
    (property "Reference" "C709" (at 168.275 123.19 0)
      (effects (font (size 1.27 1.27)) (justify left))
    )
    (property "Value" "22uF" (at 168.275 128.27 0)
      (effects (font (size 1.27 1.27)) (justify left))
    )
    (property "Footprint" "Capacitor_SMD:C_0805_2012Metric" (at 168.6052 129.54 0)
      (effects (font (size 1.27 1.27)) hide)
    )
    (property "Datasheet" "" (at 167.64 125.73 0)
      (effects (font (size 1.27 1.27)))
    )
    (property "Part" "GRM219R61C226ME15L" (at 167.64 125.73 0)
      (effects (font (size 1.524 1.524)) hide)
    )
    (property "Comment" "First chose TMK212BBJ106MG-T, may to to evaluate TMK212BBJ106KD-T, this is lower in profile, but seems mostly market driven" (at 167.64 125.73 0)
      (effects (font (size 1.524 1.524)) hide)
    )
    (pin "1" (uuid e851a5b0-43e1-4985-ba56-bd9d41678352))
    (pin "2" (uuid f885215f-121c-452c-97ad-9905dc371c57))
    (instances
      (project "pbv3"
        (path "/dc50893b-31d3-4789-b901-e1bcb1f4629b/00000000-0000-0000-0000-00005cffab5b"
          (reference "C709") (unit 1)
        )
        (path "/dc50893b-31d3-4789-b901-e1bcb1f4629b/00000000-0000-0000-0000-000059efea3a"
          (reference "C8") (unit 1)
        )
      )
    )
  )

  (symbol (lib_id "pbv3-rescue:C") (at 194.31 125.73 0) (unit 1)
    (in_bom yes) (on_board yes) (dnp no)
    (uuid 00000000-0000-0000-0000-000059f010d3)
    (property "Reference" "C710" (at 194.945 123.19 0)
      (effects (font (size 1.27 1.27)) (justify left))
    )
    (property "Value" "22uF" (at 194.945 128.27 0)
      (effects (font (size 1.27 1.27)) (justify left))
    )
    (property "Footprint" "Capacitor_SMD:C_0805_2012Metric" (at 195.2752 129.54 0)
      (effects (font (size 1.27 1.27)) hide)
    )
    (property "Datasheet" "" (at 194.31 125.73 0)
      (effects (font (size 1.27 1.27)))
    )
    (property "Part" "GRM219R61C226ME15L" (at 194.31 125.73 0)
      (effects (font (size 1.524 1.524)) hide)
    )
    (pin "1" (uuid 469917e8-5327-433c-acfc-b1c0428ab4fe))
    (pin "2" (uuid c75c3c9f-91ae-4c50-a4fc-dc37b44352e3))
    (instances
      (project "pbv3"
        (path "/dc50893b-31d3-4789-b901-e1bcb1f4629b/00000000-0000-0000-0000-00005cffab5b"
          (reference "C710") (unit 1)
        )
        (path "/dc50893b-31d3-4789-b901-e1bcb1f4629b/00000000-0000-0000-0000-000059efea3a"
          (reference "C10") (unit 1)
        )
      )
    )
  )

  (symbol (lib_id "pbv3-rescue:C") (at 123.19 116.84 0) (unit 1)
    (in_bom yes) (on_board yes) (dnp no)
    (uuid 00000000-0000-0000-0000-000059f010da)
    (property "Reference" "C707" (at 123.825 114.3 0)
      (effects (font (size 1.27 1.27)) (justify left))
    )
    (property "Value" "220nF" (at 123.825 119.38 0)
      (effects (font (size 1.27 1.27)) (justify left))
    )
    (property "Footprint" "Capacitor_SMD:C_0402_1005Metric" (at 124.1552 120.65 0)
      (effects (font (size 1.27 1.27)) hide)
    )
    (property "Datasheet" "" (at 123.19 116.84 0)
      (effects (font (size 1.27 1.27)))
    )
    (property "Part" "GRM155R61C224MA12D" (at 123.19 116.84 0)
      (effects (font (size 1.524 1.524)) hide)
    )
    (property "Comment" "Intendet CGA2B1X5R1C224K050BC, but sold out" (at 123.19 116.84 0)
      (effects (font (size 1.524 1.524)) hide)
    )
    (pin "1" (uuid 37313884-8750-4295-9e21-8b717091eda8))
    (pin "2" (uuid e64de5f4-ff91-40e3-952f-9e9eece738bc))
    (instances
      (project "pbv3"
        (path "/dc50893b-31d3-4789-b901-e1bcb1f4629b/00000000-0000-0000-0000-00005cffab5b"
          (reference "C707") (unit 1)
        )
        (path "/dc50893b-31d3-4789-b901-e1bcb1f4629b/00000000-0000-0000-0000-000059efea3a"
          (reference "C6") (unit 1)
        )
      )
    )
  )

  (symbol (lib_id "power:GND") (at 161.29 132.08 0) (unit 1)
    (in_bom yes) (on_board yes) (dnp no)
    (uuid 00000000-0000-0000-0000-000059f010f4)
    (property "Reference" "#PWR0707" (at 161.29 138.43 0)
      (effects (font (size 1.27 1.27)) hide)
    )
    (property "Value" "GND" (at 161.29 135.89 0)
      (effects (font (size 1.27 1.27)))
    )
    (property "Footprint" "" (at 161.29 132.08 0)
      (effects (font (size 1.27 1.27)))
    )
    (property "Datasheet" "" (at 161.29 132.08 0)
      (effects (font (size 1.27 1.27)))
    )
    (pin "1" (uuid 22cf5a0b-4302-4f94-87f4-aa9604050f8d))
    (instances
      (project "pbv3"
        (path "/dc50893b-31d3-4789-b901-e1bcb1f4629b/00000000-0000-0000-0000-00005cffab5b"
          (reference "#PWR0707") (unit 1)
        )
        (path "/dc50893b-31d3-4789-b901-e1bcb1f4629b/00000000-0000-0000-0000-000059efea3a"
          (reference "#PWR0207") (unit 1)
        )
      )
    )
  )

  (symbol (lib_id "power:GND") (at 167.64 132.08 0) (unit 1)
    (in_bom yes) (on_board yes) (dnp no)
    (uuid 00000000-0000-0000-0000-000059f01102)
    (property "Reference" "#PWR0708" (at 167.64 138.43 0)
      (effects (font (size 1.27 1.27)) hide)
    )
    (property "Value" "GND" (at 167.64 135.89 0)
      (effects (font (size 1.27 1.27)))
    )
    (property "Footprint" "" (at 167.64 132.08 0)
      (effects (font (size 1.27 1.27)))
    )
    (property "Datasheet" "" (at 167.64 132.08 0)
      (effects (font (size 1.27 1.27)))
    )
    (pin "1" (uuid 589497bd-293f-4e50-8048-7ac8f02dd43e))
    (instances
      (project "pbv3"
        (path "/dc50893b-31d3-4789-b901-e1bcb1f4629b/00000000-0000-0000-0000-00005cffab5b"
          (reference "#PWR0708") (unit 1)
        )
        (path "/dc50893b-31d3-4789-b901-e1bcb1f4629b/00000000-0000-0000-0000-000059efea3a"
          (reference "#PWR0208") (unit 1)
        )
      )
    )
  )

  (symbol (lib_id "power:GND") (at 194.31 132.08 0) (unit 1)
    (in_bom yes) (on_board yes) (dnp no)
    (uuid 00000000-0000-0000-0000-000059f01108)
    (property "Reference" "#PWR0709" (at 194.31 138.43 0)
      (effects (font (size 1.27 1.27)) hide)
    )
    (property "Value" "GND" (at 194.31 135.89 0)
      (effects (font (size 1.27 1.27)))
    )
    (property "Footprint" "" (at 194.31 132.08 0)
      (effects (font (size 1.27 1.27)))
    )
    (property "Datasheet" "" (at 194.31 132.08 0)
      (effects (font (size 1.27 1.27)))
    )
    (pin "1" (uuid 642d20ae-c5e0-48bd-b938-e5d0e34ee32b))
    (instances
      (project "pbv3"
        (path "/dc50893b-31d3-4789-b901-e1bcb1f4629b/00000000-0000-0000-0000-00005cffab5b"
          (reference "#PWR0709") (unit 1)
        )
        (path "/dc50893b-31d3-4789-b901-e1bcb1f4629b/00000000-0000-0000-0000-000059efea3a"
          (reference "#PWR0209") (unit 1)
        )
      )
    )
  )

  (symbol (lib_id "pbv3-rescue:R") (at 86.36 93.98 0) (unit 1)
    (in_bom yes) (on_board yes) (dnp no)
    (uuid 00000000-0000-0000-0000-000059f01147)
    (property "Reference" "R701" (at 88.392 93.98 90)
      (effects (font (size 1.27 1.27)))
    )
    (property "Value" "499k" (at 86.36 93.98 90)
      (effects (font (size 1.27 1.27)))
    )
    (property "Footprint" "Resistor_SMD:R_0201_0603Metric" (at 84.582 93.98 90)
      (effects (font (size 1.27 1.27)) hide)
    )
    (property "Datasheet" "" (at 86.36 93.98 0)
      (effects (font (size 1.27 1.27)))
    )
    (property "Part" "ERJ-1GNF4993C" (at 86.36 93.98 90)
      (effects (font (size 1.524 1.524)) hide)
    )
    (pin "1" (uuid 882165d7-0d20-4f07-a723-e7a32e170eef))
    (pin "2" (uuid 9fcbb68c-dde7-493f-8677-173c05b255d9))
    (instances
      (project "pbv3"
        (path "/dc50893b-31d3-4789-b901-e1bcb1f4629b/00000000-0000-0000-0000-00005cffab5b"
          (reference "R701") (unit 1)
        )
        (path "/dc50893b-31d3-4789-b901-e1bcb1f4629b/00000000-0000-0000-0000-000059efea3a"
          (reference "R1") (unit 1)
        )
      )
    )
  )

  (symbol (lib_id "pbv3-rescue:R") (at 86.36 104.14 0) (unit 1)
    (in_bom yes) (on_board yes) (dnp no)
    (uuid 00000000-0000-0000-0000-000059f0114e)
    (property "Reference" "R702" (at 88.392 104.14 90)
      (effects (font (size 1.27 1.27)))
    )
    (property "Value" "348k" (at 86.36 104.14 90)
      (effects (font (size 1.27 1.27)))
    )
    (property "Footprint" "Resistor_SMD:R_0201_0603Metric" (at 84.582 104.14 90)
      (effects (font (size 1.27 1.27)) hide)
    )
    (property "Datasheet" "" (at 86.36 104.14 0)
      (effects (font (size 1.27 1.27)))
    )
    (property "Part" "ERJ-1GNF3483C" (at 86.36 104.14 90)
      (effects (font (size 1.524 1.524)) hide)
    )
    (pin "1" (uuid d637952c-31cb-40c6-91ee-0bb2f9dd241b))
    (pin "2" (uuid 58d1691c-3401-4a2a-8559-08047ed60495))
    (instances
      (project "pbv3"
        (path "/dc50893b-31d3-4789-b901-e1bcb1f4629b/00000000-0000-0000-0000-00005cffab5b"
          (reference "R702") (unit 1)
        )
        (path "/dc50893b-31d3-4789-b901-e1bcb1f4629b/00000000-0000-0000-0000-000059efea3a"
          (reference "R2") (unit 1)
        )
      )
    )
  )

  (symbol (lib_id "pbv3-rescue:R") (at 97.79 80.01 270) (unit 1)
    (in_bom yes) (on_board yes) (dnp no)
    (uuid 00000000-0000-0000-0000-000059f01155)
    (property "Reference" "R705" (at 97.79 82.042 90)
      (effects (font (size 1.27 1.27)))
    )
    (property "Value" "130k" (at 97.79 80.01 90)
      (effects (font (size 1.27 1.27)))
    )
    (property "Footprint" "Resistor_SMD:R_0201_0603Metric" (at 97.79 78.232 90)
      (effects (font (size 1.27 1.27)) hide)
    )
    (property "Datasheet" "" (at 97.79 80.01 0)
      (effects (font (size 1.27 1.27)))
    )
    (property "Part" "ERJ-1GNJ134C" (at 97.79 80.01 90)
      (effects (font (size 1.524 1.524)) hide)
    )
    (pin "1" (uuid 5be3fcf0-46cd-4786-b369-3cea9f1e6915))
    (pin "2" (uuid ff73c9f7-4483-4325-aba1-882906f0fa69))
    (instances
      (project "pbv3"
        (path "/dc50893b-31d3-4789-b901-e1bcb1f4629b/00000000-0000-0000-0000-00005cffab5b"
          (reference "R705") (unit 1)
        )
        (path "/dc50893b-31d3-4789-b901-e1bcb1f4629b/00000000-0000-0000-0000-000059efea3a"
          (reference "R3") (unit 1)
        )
      )
    )
  )

  (symbol (lib_id "pbv3-rescue:C") (at 100.33 100.33 0) (unit 1)
    (in_bom yes) (on_board yes) (dnp no)
    (uuid 00000000-0000-0000-0000-000059f0115c)
    (property "Reference" "C703" (at 100.965 97.79 0)
      (effects (font (size 1.27 1.27)) (justify left))
    )
    (property "Value" "220nF" (at 100.965 102.87 0)
      (effects (font (size 1.27 1.27)) (justify left))
    )
    (property "Footprint" "Capacitor_SMD:C_0402_1005Metric" (at 101.2952 104.14 0)
      (effects (font (size 1.27 1.27)) hide)
    )
    (property "Datasheet" "" (at 100.33 100.33 0)
      (effects (font (size 1.27 1.27)))
    )
    (property "Part" "GRM155R61C224MA12D" (at 100.33 100.33 0)
      (effects (font (size 1.524 1.524)) hide)
    )
    (property "Comment" "Intended CGA2B1X5R1C224K050BC, but was sold out" (at 100.33 100.33 0)
      (effects (font (size 1.524 1.524)) hide)
    )
    (pin "1" (uuid 5c2ddb99-0ddd-465d-bed9-1c251ec639fa))
    (pin "2" (uuid 581bd609-cfed-47bd-81f1-e850bfe8f1d2))
    (instances
      (project "pbv3"
        (path "/dc50893b-31d3-4789-b901-e1bcb1f4629b/00000000-0000-0000-0000-00005cffab5b"
          (reference "C703") (unit 1)
        )
        (path "/dc50893b-31d3-4789-b901-e1bcb1f4629b/00000000-0000-0000-0000-000059efea3a"
          (reference "C3") (unit 1)
        )
      )
    )
  )

  (symbol (lib_id "power:GND") (at 154.94 101.6 0) (unit 1)
    (in_bom yes) (on_board yes) (dnp no)
    (uuid 00000000-0000-0000-0000-000059f01163)
    (property "Reference" "#PWR0705" (at 154.94 107.95 0)
      (effects (font (size 1.27 1.27)) hide)
    )
    (property "Value" "GND" (at 154.94 105.41 0)
      (effects (font (size 1.27 1.27)))
    )
    (property "Footprint" "" (at 154.94 101.6 0)
      (effects (font (size 1.27 1.27)))
    )
    (property "Datasheet" "" (at 154.94 101.6 0)
      (effects (font (size 1.27 1.27)))
    )
    (pin "1" (uuid af659c25-274b-45fc-b030-497f57dfe147))
    (instances
      (project "pbv3"
        (path "/dc50893b-31d3-4789-b901-e1bcb1f4629b/00000000-0000-0000-0000-00005cffab5b"
          (reference "#PWR0705") (unit 1)
        )
        (path "/dc50893b-31d3-4789-b901-e1bcb1f4629b/00000000-0000-0000-0000-000059efea3a"
          (reference "#PWR0205") (unit 1)
        )
      )
    )
  )

  (symbol (lib_id "power:GND") (at 158.75 91.44 0) (unit 1)
    (in_bom yes) (on_board yes) (dnp no)
    (uuid 00000000-0000-0000-0000-000059f01171)
    (property "Reference" "#PWR0706" (at 158.75 97.79 0)
      (effects (font (size 1.27 1.27)) hide)
    )
    (property "Value" "GND" (at 158.75 95.25 0)
      (effects (font (size 1.27 1.27)))
    )
    (property "Footprint" "" (at 158.75 91.44 0)
      (effects (font (size 1.27 1.27)))
    )
    (property "Datasheet" "" (at 158.75 91.44 0)
      (effects (font (size 1.27 1.27)))
    )
    (pin "1" (uuid aa674e63-2fbf-422c-b96d-8d397615fb17))
    (instances
      (project "pbv3"
        (path "/dc50893b-31d3-4789-b901-e1bcb1f4629b/00000000-0000-0000-0000-00005cffab5b"
          (reference "#PWR0706") (unit 1)
        )
        (path "/dc50893b-31d3-4789-b901-e1bcb1f4629b/00000000-0000-0000-0000-000059efea3a"
          (reference "#PWR0206") (unit 1)
        )
      )
    )
  )

  (symbol (lib_id "power:GND") (at 104.14 113.03 0) (unit 1)
    (in_bom yes) (on_board yes) (dnp no)
    (uuid 00000000-0000-0000-0000-000059f01179)
    (property "Reference" "#PWR0703" (at 104.14 119.38 0)
      (effects (font (size 1.27 1.27)) hide)
    )
    (property "Value" "GND" (at 104.14 116.84 0)
      (effects (font (size 1.27 1.27)))
    )
    (property "Footprint" "" (at 104.14 113.03 0)
      (effects (font (size 1.27 1.27)))
    )
    (property "Datasheet" "" (at 104.14 113.03 0)
      (effects (font (size 1.27 1.27)))
    )
    (pin "1" (uuid 47b449cf-f719-48ae-957b-b0535fe635bf))
    (instances
      (project "pbv3"
        (path "/dc50893b-31d3-4789-b901-e1bcb1f4629b/00000000-0000-0000-0000-00005cffab5b"
          (reference "#PWR0703") (unit 1)
        )
        (path "/dc50893b-31d3-4789-b901-e1bcb1f4629b/00000000-0000-0000-0000-000059efea3a"
          (reference "#PWR0203") (unit 1)
        )
      )
    )
  )

  (symbol (lib_id "power:GND") (at 100.33 113.03 0) (unit 1)
    (in_bom yes) (on_board yes) (dnp no)
    (uuid 00000000-0000-0000-0000-000059f0118a)
    (property "Reference" "#PWR0702" (at 100.33 119.38 0)
      (effects (font (size 1.27 1.27)) hide)
    )
    (property "Value" "GND" (at 100.33 116.84 0)
      (effects (font (size 1.27 1.27)))
    )
    (property "Footprint" "" (at 100.33 113.03 0)
      (effects (font (size 1.27 1.27)))
    )
    (property "Datasheet" "" (at 100.33 113.03 0)
      (effects (font (size 1.27 1.27)))
    )
    (pin "1" (uuid 32d0f83c-4085-40fd-848b-7cf4838a4895))
    (instances
      (project "pbv3"
        (path "/dc50893b-31d3-4789-b901-e1bcb1f4629b/00000000-0000-0000-0000-00005cffab5b"
          (reference "#PWR0702") (unit 1)
        )
        (path "/dc50893b-31d3-4789-b901-e1bcb1f4629b/00000000-0000-0000-0000-000059efea3a"
          (reference "#PWR0202") (unit 1)
        )
      )
    )
  )

  (symbol (lib_id "power:GND") (at 111.76 63.5 270) (unit 1)
    (in_bom yes) (on_board yes) (dnp no)
    (uuid 00000000-0000-0000-0000-000059f011ae)
    (property "Reference" "#PWR0704" (at 105.41 63.5 0)
      (effects (font (size 1.27 1.27)) hide)
    )
    (property "Value" "GND" (at 107.95 63.5 0)
      (effects (font (size 1.27 1.27)))
    )
    (property "Footprint" "" (at 111.76 63.5 0)
      (effects (font (size 1.27 1.27)))
    )
    (property "Datasheet" "" (at 111.76 63.5 0)
      (effects (font (size 1.27 1.27)))
    )
    (pin "1" (uuid 833486ca-7736-4c68-9174-ad7ea336b67f))
    (instances
      (project "pbv3"
        (path "/dc50893b-31d3-4789-b901-e1bcb1f4629b/00000000-0000-0000-0000-00005cffab5b"
          (reference "#PWR0704") (unit 1)
        )
        (path "/dc50893b-31d3-4789-b901-e1bcb1f4629b/00000000-0000-0000-0000-000059efea3a"
          (reference "#PWR0204") (unit 1)
        )
      )
    )
  )

  (symbol (lib_id "pbv3:LREG") (at 219.71 71.12 0) (unit 1)
    (in_bom yes) (on_board yes) (dnp no)
    (uuid 00000000-0000-0000-0000-000059f011ba)
    (property "Reference" "U702" (at 219.71 63.5 0)
      (effects (font (size 1.524 1.524)))
    )
    (property "Value" "LINPOL12V" (at 219.71 80.01 0)
      (effects (font (size 1.524 1.524)))
    )
    (property "Footprint" "Package_DFN_QFN:DFN-8-1EP_2x2mm_P0.5mm_EP0.7x1.3mm" (at 220.98 69.85 90)
      (effects (font (size 6.604 6.604)) hide)
    )
    (property "Datasheet" "" (at 220.98 69.85 90)
      (effects (font (size 6.604 6.604)) hide)
    )
    (pin "1" (uuid 6a4bc668-5f4e-4186-b37b-5eaa10d491ba))
    (pin "2" (uuid b015c65f-406b-4a57-aee0-50a8dc22f188))
    (pin "3" (uuid 23b6b3a2-0ec2-422a-8c06-732e779774d4))
    (pin "4" (uuid 8d90c7cc-28e8-4343-8b12-4fcd7cc025df))
    (pin "5" (uuid 84be6aa0-9f8a-4486-ba56-d6d300ae0e28))
    (pin "6" (uuid 2375b28c-bfe9-4fb6-9ce9-c6b47fc6d2ca))
    (pin "7" (uuid 2dc52309-427e-4ccc-bea0-b10b1df03758))
    (pin "8" (uuid 514d91ef-5121-4346-9b32-b13496945041))
    (pin "9" (uuid e331473d-fb9b-4078-a5f3-833ed906d869))
    (instances
      (project "pbv3"
        (path "/dc50893b-31d3-4789-b901-e1bcb1f4629b/00000000-0000-0000-0000-00005cffab5b"
          (reference "U702") (unit 1)
        )
        (path "/dc50893b-31d3-4789-b901-e1bcb1f4629b/00000000-0000-0000-0000-000059efea3a"
          (reference "U2") (unit 1)
        )
      )
    )
  )

  (symbol (lib_id "power:GND") (at 240.03 92.71 0) (unit 1)
    (in_bom yes) (on_board yes) (dnp no)
    (uuid 00000000-0000-0000-0000-000059f011c3)
    (property "Reference" "#PWR0712" (at 240.03 99.06 0)
      (effects (font (size 1.27 1.27)) hide)
    )
    (property "Value" "GND" (at 240.03 96.52 0)
      (effects (font (size 1.27 1.27)))
    )
    (property "Footprint" "" (at 240.03 92.71 0)
      (effects (font (size 1.27 1.27)))
    )
    (property "Datasheet" "" (at 240.03 92.71 0)
      (effects (font (size 1.27 1.27)))
    )
    (pin "1" (uuid 9401c2ec-6cbf-417d-84b9-8770850dc7b2))
    (instances
      (project "pbv3"
        (path "/dc50893b-31d3-4789-b901-e1bcb1f4629b/00000000-0000-0000-0000-00005cffab5b"
          (reference "#PWR0712") (unit 1)
        )
        (path "/dc50893b-31d3-4789-b901-e1bcb1f4629b/00000000-0000-0000-0000-000059efea3a"
          (reference "#PWR0211") (unit 1)
        )
      )
    )
  )

  (symbol (lib_id "pbv3-rescue:C") (at 257.81 85.09 0) (unit 1)
    (in_bom yes) (on_board yes) (dnp no)
    (uuid 00000000-0000-0000-0000-000059f011d3)
    (property "Reference" "C712" (at 258.445 82.55 0)
      (effects (font (size 1.27 1.27)) (justify left))
    )
    (property "Value" "4.7uF" (at 258.445 87.63 0)
      (effects (font (size 1.27 1.27)) (justify left))
    )
    (property "Footprint" "Capacitor_SMD:C_0402_1005Metric" (at 258.7752 88.9 0)
      (effects (font (size 1.27 1.27)) hide)
    )
    (property "Datasheet" "" (at 257.81 85.09 0)
      (effects (font (size 1.27 1.27)))
    )
    (property "Part" "C0402C475M9PACTU" (at 257.81 85.09 0)
      (effects (font (size 1.524 1.524)) hide)
    )
    (pin "1" (uuid 7b835f41-a4ae-413c-9aa8-0345d755cada))
    (pin "2" (uuid 51c35612-239c-46f4-b749-f339b582bca5))
    (instances
      (project "pbv3"
        (path "/dc50893b-31d3-4789-b901-e1bcb1f4629b/00000000-0000-0000-0000-00005cffab5b"
          (reference "C712") (unit 1)
        )
        (path "/dc50893b-31d3-4789-b901-e1bcb1f4629b/00000000-0000-0000-0000-000059efea3a"
          (reference "C9") (unit 1)
        )
      )
    )
  )

  (symbol (lib_id "pbv3-rescue:R") (at 82.55 121.92 180) (unit 1)
    (in_bom yes) (on_board yes) (dnp no)
    (uuid 00000000-0000-0000-0000-000059f01d17)
    (property "Reference" "NTC701" (at 80.518 121.92 90)
      (effects (font (size 1.27 1.27)))
    )
    (property "Value" "10k/3435K" (at 82.55 121.92 90)
      (effects (font (size 1.27 1.27)))
    )
    (property "Footprint" "Resistor_SMD:R_0402_1005Metric" (at 84.328 121.92 90)
      (effects (font (size 1.27 1.27)) hide)
    )
    (property "Datasheet" "" (at 82.55 121.92 0)
      (effects (font (size 1.27 1.27)))
    )
    (property "Part" "ERT-J0EG103FM" (at 82.55 121.92 90)
      (effects (font (size 1.524 1.524)) hide)
    )
    (pin "1" (uuid b4288231-cf5a-4699-8692-bd3c1e92915a))
    (pin "2" (uuid 357f3f38-571d-411b-870b-d2de90c010ea))
    (instances
      (project "pbv3"
        (path "/dc50893b-31d3-4789-b901-e1bcb1f4629b/00000000-0000-0000-0000-00005cffab5b"
          (reference "NTC701") (unit 1)
        )
        (path "/dc50893b-31d3-4789-b901-e1bcb1f4629b/00000000-0000-0000-0000-000059efea3a"
          (reference "NTC1") (unit 1)
        )
      )
    )
  )

  (symbol (lib_id "pbv3-rescue:C") (at 119.38 54.61 0) (unit 1)
    (in_bom yes) (on_board yes) (dnp no)
    (uuid 00000000-0000-0000-0000-000059f4f093)
    (property "Reference" "C706" (at 120.015 52.07 0)
      (effects (font (size 1.27 1.27)) (justify left))
    )
    (property "Value" "100nF" (at 120.015 57.15 0)
      (effects (font (size 1.27 1.27)) (justify left))
    )
    (property "Footprint" "pbv3:SMD_0306_FR" (at 120.3452 58.42 0)
      (effects (font (size 1.27 1.27)) hide)
    )
    (property "Datasheet" "" (at 119.38 54.61 0)
      (effects (font (size 1.27 1.27)))
    )
    (property "Part" "TWK107 B7104MVHT" (at 119.38 54.61 0)
      (effects (font (size 1.524 1.524)) hide)
    )
    (pin "1" (uuid 6d5b22e2-3bd7-4461-b9c3-170ef4a0afd8))
    (pin "2" (uuid 3365d16b-cf28-4d73-bdfb-7189c36cf5d1))
    (instances
      (project "pbv3"
        (path "/dc50893b-31d3-4789-b901-e1bcb1f4629b/00000000-0000-0000-0000-00005cffab5b"
          (reference "C706") (unit 1)
        )
        (path "/dc50893b-31d3-4789-b901-e1bcb1f4629b/00000000-0000-0000-0000-000059efea3a"
          (reference "C11") (unit 1)
        )
      )
    )
  )

  (symbol (lib_id "pbv3-rescue:C") (at 243.84 85.09 0) (unit 1)
    (in_bom yes) (on_board yes) (dnp no)
    (uuid 00000000-0000-0000-0000-000059f76b63)
    (property "Reference" "C711" (at 244.475 82.55 0)
      (effects (font (size 1.27 1.27)) (justify left))
    )
    (property "Value" "10uF" (at 244.475 87.63 0)
      (effects (font (size 1.27 1.27)) (justify left))
    )
    (property "Footprint" "Capacitor_SMD:C_0402_1005Metric" (at 244.8052 88.9 0)
      (effects (font (size 1.27 1.27)) hide)
    )
    (property "Datasheet" "" (at 243.84 85.09 0)
      (effects (font (size 1.27 1.27)))
    )
    (property "Part" "GRM155R60J106ME47D" (at 243.84 85.09 0)
      (effects (font (size 1.524 1.524)) hide)
    )
    (pin "1" (uuid 48b25522-1a0b-44c2-87a3-176f8bbb9455))
    (pin "2" (uuid 82521023-fca4-4765-b8eb-26747626ff88))
    (instances
      (project "pbv3"
        (path "/dc50893b-31d3-4789-b901-e1bcb1f4629b/00000000-0000-0000-0000-00005cffab5b"
          (reference "C711") (unit 1)
        )
        (path "/dc50893b-31d3-4789-b901-e1bcb1f4629b/00000000-0000-0000-0000-000059efea3a"
          (reference "C28") (unit 1)
        )
      )
    )
  )

  (symbol (lib_id "pbv3-rescue:R") (at 243.84 74.93 180) (unit 1)
    (in_bom yes) (on_board yes) (dnp no)
    (uuid 00000000-0000-0000-0000-000059f77035)
    (property "Reference" "R708" (at 241.808 74.93 90)
      (effects (font (size 1.27 1.27)))
    )
    (property "Value" "300m" (at 243.84 74.93 90)
      (effects (font (size 1.27 1.27)))
    )
    (property "Footprint" "Resistor_SMD:R_0201_0603Metric" (at 245.618 74.93 90)
      (effects (font (size 1.27 1.27)) hide)
    )
    (property "Datasheet" "" (at 243.84 74.93 0)
      (effects (font (size 1.27 1.27)))
    )
    (property "Part" "UCR006YVPFLR300" (at 243.84 74.93 90)
      (effects (font (size 1.524 1.524)) hide)
    )
    (pin "1" (uuid 6f468701-74ef-4f73-9cc6-989210aaccf7))
    (pin "2" (uuid e5762204-9e07-48f8-b103-f84e0a819e65))
    (instances
      (project "pbv3"
        (path "/dc50893b-31d3-4789-b901-e1bcb1f4629b/00000000-0000-0000-0000-00005cffab5b"
          (reference "R708") (unit 1)
        )
        (path "/dc50893b-31d3-4789-b901-e1bcb1f4629b/00000000-0000-0000-0000-000059efea3a"
          (reference "R22") (unit 1)
        )
      )
    )
  )

  (symbol (lib_id "pbv3-rescue:R") (at 257.81 74.93 0) (unit 1)
    (in_bom yes) (on_board yes) (dnp no)
    (uuid 00000000-0000-0000-0000-000059f770a0)
    (property "Reference" "R709" (at 259.842 74.93 90)
      (effects (font (size 1.27 1.27)))
    )
    (property "Value" "300m" (at 257.81 74.93 90)
      (effects (font (size 1.27 1.27)))
    )
    (property "Footprint" "Resistor_SMD:R_0201_0603Metric" (at 256.032 74.93 90)
      (effects (font (size 1.27 1.27)) hide)
    )
    (property "Datasheet" "" (at 257.81 74.93 0)
      (effects (font (size 1.27 1.27)))
    )
    (property "Part" "UCR006YVPFLR300" (at 257.81 74.93 90)
      (effects (font (size 1.524 1.524)) hide)
    )
    (pin "1" (uuid 3efdd4a3-c021-476a-b9c0-c05b5f4b458f))
    (pin "2" (uuid e6200739-a290-4f1c-8a4b-c01b538e79f8))
    (instances
      (project "pbv3"
        (path "/dc50893b-31d3-4789-b901-e1bcb1f4629b/00000000-0000-0000-0000-00005cffab5b"
          (reference "R709") (unit 1)
        )
        (path "/dc50893b-31d3-4789-b901-e1bcb1f4629b/00000000-0000-0000-0000-000059efea3a"
          (reference "R23") (unit 1)
        )
      )
    )
  )

  (symbol (lib_id "pbv3-rescue:R") (at 203.2 78.74 180) (unit 1)
    (in_bom yes) (on_board yes) (dnp no)
    (uuid 00000000-0000-0000-0000-00005aac2f26)
    (property "Reference" "R706" (at 201.168 78.74 90)
      (effects (font (size 1.27 1.27)))
    )
    (property "Value" "14k" (at 203.2 78.74 90)
      (effects (font (size 1.27 1.27)))
    )
    (property "Footprint" "Resistor_SMD:R_0201_0603Metric" (at 204.978 78.74 90)
      (effects (font (size 1.27 1.27)) hide)
    )
    (property "Datasheet" "" (at 203.2 78.74 0)
      (effects (font (size 1.27 1.27)))
    )
    (property "Part" "ERJ-1GNF1402C" (at 203.2 78.74 90)
      (effects (font (size 1.524 1.524)) hide)
    )
    (pin "1" (uuid 3f00994b-99c9-4ca0-835d-a6fc3df540f3))
    (pin "2" (uuid 8067e148-74fb-48f7-89c2-0c30d67886a4))
    (instances
      (project "pbv3"
        (path "/dc50893b-31d3-4789-b901-e1bcb1f4629b/00000000-0000-0000-0000-00005cffab5b"
          (reference "R706") (unit 1)
        )
        (path "/dc50893b-31d3-4789-b901-e1bcb1f4629b/00000000-0000-0000-0000-000059efea3a"
          (reference "R4") (unit 1)
        )
      )
    )
  )

  (symbol (lib_id "power:GND") (at 203.2 85.09 0) (unit 1)
    (in_bom yes) (on_board yes) (dnp no)
    (uuid 00000000-0000-0000-0000-00005aac2fc7)
    (property "Reference" "#PWR0710" (at 203.2 91.44 0)
      (effects (font (size 1.27 1.27)) hide)
    )
    (property "Value" "GND" (at 203.2 88.9 0)
      (effects (font (size 1.27 1.27)))
    )
    (property "Footprint" "" (at 203.2 85.09 0)
      (effects (font (size 1.27 1.27)))
    )
    (property "Datasheet" "" (at 203.2 85.09 0)
      (effects (font (size 1.27 1.27)))
    )
    (pin "1" (uuid 3b63e46e-9a44-4741-a96e-c1c6dd8a6002))
    (instances
      (project "pbv3"
        (path "/dc50893b-31d3-4789-b901-e1bcb1f4629b/00000000-0000-0000-0000-00005cffab5b"
          (reference "#PWR0710") (unit 1)
        )
        (path "/dc50893b-31d3-4789-b901-e1bcb1f4629b/00000000-0000-0000-0000-000059efea3a"
          (reference "#PWR0210") (unit 1)
        )
      )
    )
  )

  (symbol (lib_id "pbv3-rescue:R") (at 90.17 74.93 180) (unit 1)
    (in_bom yes) (on_board yes) (dnp no)
    (uuid 00000000-0000-0000-0000-00005aac42e0)
    (property "Reference" "R703" (at 88.138 74.93 90)
      (effects (font (size 1.27 1.27)))
    )
    (property "Value" "30k" (at 90.17 74.93 90)
      (effects (font (size 1.27 1.27)))
    )
    (property "Footprint" "Resistor_SMD:R_0201_0603Metric" (at 91.948 74.93 90)
      (effects (font (size 1.27 1.27)) hide)
    )
    (property "Datasheet" "" (at 90.17 74.93 0)
      (effects (font (size 1.27 1.27)))
    )
    (property "Part" "ERJ-1GNF3002C" (at 90.17 74.93 90)
      (effects (font (size 1.524 1.524)) hide)
    )
    (pin "1" (uuid 53c5be92-c0c4-47d7-8633-7af8195c842b))
    (pin "2" (uuid 17f6d1cc-928e-464e-bd5a-7a2780c71bd3))
    (instances
      (project "pbv3"
        (path "/dc50893b-31d3-4789-b901-e1bcb1f4629b/00000000-0000-0000-0000-00005cffab5b"
          (reference "R703") (unit 1)
        )
        (path "/dc50893b-31d3-4789-b901-e1bcb1f4629b/00000000-0000-0000-0000-000059efea3a"
          (reference "R12") (unit 1)
        )
      )
    )
  )

  (symbol (lib_id "pbv3-rescue:R") (at 251.46 82.55 180) (unit 1)
    (in_bom yes) (on_board yes) (dnp no)
    (uuid 00000000-0000-0000-0000-00005b18f4c7)
    (property "Reference" "R707" (at 249.428 82.55 90)
      (effects (font (size 1.27 1.27)))
    )
    (property "Value" "1k" (at 251.46 82.55 90)
      (effects (font (size 1.27 1.27)))
    )
    (property "Footprint" "Resistor_SMD:R_0201_0603Metric" (at 253.238 82.55 90)
      (effects (font (size 1.27 1.27)) hide)
    )
    (property "Datasheet" "" (at 251.46 82.55 0)
      (effects (font (size 1.27 1.27)))
    )
    (property "Part" "ERJ-1GNJ102C" (at 251.46 82.55 90)
      (effects (font (size 1.524 1.524)) hide)
    )
    (pin "1" (uuid d0a4ad72-4127-47e8-92cd-43e6b934ba89))
    (pin "2" (uuid 52b8e218-a7cd-4fb2-83e6-4518df4190d5))
    (instances
      (project "pbv3"
        (path "/dc50893b-31d3-4789-b901-e1bcb1f4629b/00000000-0000-0000-0000-00005cffab5b"
          (reference "R707") (unit 1)
        )
        (path "/dc50893b-31d3-4789-b901-e1bcb1f4629b/00000000-0000-0000-0000-000059efea3a"
          (reference "R202") (unit 1)
        )
      )
    )
  )

  (symbol (lib_id "pbv3-rescue:R") (at 266.7 81.28 0) (unit 1)
    (in_bom yes) (on_board yes) (dnp no)
    (uuid 00000000-0000-0000-0000-00005b18f587)
    (property "Reference" "R710" (at 268.732 81.28 90)
      (effects (font (size 1.27 1.27)))
    )
    (property "Value" "3k" (at 266.7 81.28 90)
      (effects (font (size 1.27 1.27)))
    )
    (property "Footprint" "Resistor_SMD:R_0201_0603Metric" (at 264.922 81.28 90)
      (effects (font (size 1.27 1.27)) hide)
    )
    (property "Datasheet" "" (at 266.7 81.28 0)
      (effects (font (size 1.27 1.27)))
    )
    (property "Part" "RC0201FR-073KL" (at 266.7 81.28 90)
      (effects (font (size 1.524 1.524)) hide)
    )
    (pin "1" (uuid 0525c176-3a29-4644-b384-c37966d7948a))
    (pin "2" (uuid 53cd6fe7-9fad-4ab1-896d-8bc104fb96e0))
    (instances
      (project "pbv3"
        (path "/dc50893b-31d3-4789-b901-e1bcb1f4629b/00000000-0000-0000-0000-00005cffab5b"
          (reference "R710") (unit 1)
        )
        (path "/dc50893b-31d3-4789-b901-e1bcb1f4629b/00000000-0000-0000-0000-000059efea3a"
          (reference "R203") (unit 1)
        )
      )
    )
  )

  (symbol (lib_id "pbv3-rescue:R") (at 95.25 100.33 0) (unit 1)
    (in_bom yes) (on_board yes) (dnp no)
    (uuid 00000000-0000-0000-0000-00005b190eff)
    (property "Reference" "R704" (at 97.282 100.33 90)
      (effects (font (size 1.27 1.27)))
    )
    (property "Value" "3k" (at 95.25 100.33 90)
      (effects (font (size 1.27 1.27)))
    )
    (property "Footprint" "Resistor_SMD:R_0201_0603Metric" (at 93.472 100.33 90)
      (effects (font (size 1.27 1.27)) hide)
    )
    (property "Datasheet" "" (at 95.25 100.33 0)
      (effects (font (size 1.27 1.27)))
    )
    (property "Part" "RC0201FR-073KL" (at 95.25 100.33 90)
      (effects (font (size 1.524 1.524)) hide)
    )
    (pin "1" (uuid 4c1ebf08-4672-4223-bb4a-3ab36efa0501))
    (pin "2" (uuid 4db07c9f-36cf-4174-abe2-5a7dd4ed0a2f))
    (instances
      (project "pbv3"
        (path "/dc50893b-31d3-4789-b901-e1bcb1f4629b/00000000-0000-0000-0000-00005cffab5b"
          (reference "R704") (unit 1)
        )
        (path "/dc50893b-31d3-4789-b901-e1bcb1f4629b/00000000-0000-0000-0000-000059efea3a"
          (reference "R201") (unit 1)
        )
      )
    )
  )

  (symbol (lib_id "power:GND") (at 223.52 59.69 0) (unit 1)
    (in_bom yes) (on_board yes) (dnp no)
    (uuid 00000000-0000-0000-0000-00005c075536)
    (property "Reference" "#PWR0711" (at 223.52 66.04 0)
      (effects (font (size 1.27 1.27)) hide)
    )
    (property "Value" "GND" (at 223.52 63.5 0)
      (effects (font (size 1.27 1.27)))
    )
    (property "Footprint" "" (at 223.52 59.69 0)
      (effects (font (size 1.27 1.27)))
    )
    (property "Datasheet" "" (at 223.52 59.69 0)
      (effects (font (size 1.27 1.27)))
    )
    (pin "1" (uuid e411400f-f937-4acb-90e3-db8997a8ecfe))
    (instances
      (project "pbv3"
        (path "/dc50893b-31d3-4789-b901-e1bcb1f4629b/00000000-0000-0000-0000-00005cffab5b"
          (reference "#PWR0711") (unit 1)
        )
        (path "/dc50893b-31d3-4789-b901-e1bcb1f4629b/00000000-0000-0000-0000-000059efea3a"
          (reference "#PWR0107") (unit 1)
        )
      )
    )
  )

  (symbol (lib_id "pbv3-rescue:C") (at 90.17 54.61 0) (unit 1)
    (in_bom yes) (on_board yes) (dnp no)
    (uuid 0bb26ae8-9b9c-448a-a986-05867c201418)
    (property "Reference" "C32" (at 90.805 52.07 0)
      (effects (font (size 1.27 1.27)) (justify left))
    )
    (property "Value" "22uF" (at 90.805 57.15 0)
      (effects (font (size 1.27 1.27)) (justify left))
    )
    (property "Footprint" "Capacitor_SMD:C_0805_2012Metric" (at 91.1352 58.42 0)
      (effects (font (size 1.27 1.27)) hide)
    )
    (property "Datasheet" "" (at 90.17 54.61 0)
      (effects (font (size 1.27 1.27)))
    )
    (property "Part" "GRM21BR61E226ME44L" (at 90.17 54.61 0)
      (effects (font (size 1.524 1.524)) hide)
    )
    (property "Comment" "High demand item, decide and order soon (may be use CC0805MKX5R8BB226)" (at 90.17 54.61 0)
      (effects (font (size 1.524 1.524)) hide)
    )
    (pin "1" (uuid 79bcb133-de19-416c-99f3-128fc72d420c))
    (pin "2" (uuid 58dd6c0c-7450-44e6-8cfd-1baacf92f265))
    (instances
      (project "pbv3"
        (path "/dc50893b-31d3-4789-b901-e1bcb1f4629b/00000000-0000-0000-0000-00005cffab5b"
          (reference "C32") (unit 1)
        )
        (path "/dc50893b-31d3-4789-b901-e1bcb1f4629b/00000000-0000-0000-0000-000059efea3a"
          (reference "C33") (unit 1)
        )
      )
    )
  )
)
