G04 #@! TF.GenerationSoftware,KiCad,Pcbnew,7.0.2*
G04 #@! TF.CreationDate,2023-07-12T19:52:30+02:00*
G04 #@! TF.ProjectId,pbv3,70627633-2e6b-4696-9361-645f70636258,A*
G04 #@! TF.SameCoordinates,Original*
G04 #@! TF.FileFunction,Copper,L2,Inr*
G04 #@! TF.FilePolarity,Positive*
%FSLAX46Y46*%
G04 Gerber Fmt 4.6, Leading zero omitted, Abs format (unit mm)*
G04 Created by KiCad (PCBNEW 7.0.2) date 2023-07-12 19:52:30*
%MOMM*%
%LPD*%
G01*
G04 APERTURE LIST*
G04 #@! TA.AperFunction,ViaPad*
%ADD10C,0.350000*%
G04 #@! TD*
G04 #@! TA.AperFunction,Conductor*
%ADD11C,0.127000*%
G04 #@! TD*
G04 #@! TA.AperFunction,Conductor*
%ADD12C,0.500000*%
G04 #@! TD*
G04 #@! TA.AperFunction,Conductor*
%ADD13C,0.508000*%
G04 #@! TD*
G04 #@! TA.AperFunction,Conductor*
%ADD14C,1.000000*%
G04 #@! TD*
G04 #@! TA.AperFunction,Conductor*
%ADD15C,0.254000*%
G04 #@! TD*
G04 APERTURE END LIST*
D10*
X68990000Y-102090000D03*
X68790000Y-102440000D03*
X69590000Y-102440000D03*
X69790000Y-102090000D03*
X69990000Y-102440000D03*
X69390000Y-102090000D03*
X69190000Y-102440000D03*
X106925000Y-95463746D03*
X107975000Y-95813746D03*
X107975000Y-95113746D03*
X106925000Y-95813746D03*
X107275000Y-96163746D03*
X107625000Y-95113746D03*
X107625000Y-95813746D03*
X107275000Y-95113746D03*
X107975000Y-95463746D03*
X106925000Y-96163746D03*
X107975000Y-96163746D03*
X107625000Y-96163746D03*
X107625000Y-95463746D03*
X107275000Y-95813746D03*
X107275000Y-95463746D03*
X106925000Y-95113746D03*
X78430000Y-100720000D03*
X57254921Y-100808036D03*
X57574611Y-100623480D03*
X55141805Y-100685687D03*
X53594858Y-101886125D03*
X54609481Y-101828729D03*
X49531227Y-100885702D03*
X49179047Y-100897876D03*
X53804022Y-107549291D03*
X57590799Y-100973128D03*
X59463728Y-108158420D03*
X59835093Y-108504391D03*
X59476247Y-108516922D03*
X59800732Y-107780149D03*
X59450945Y-107792364D03*
X59818463Y-108142052D03*
X59669328Y-104448404D03*
X59703390Y-105151182D03*
X59687168Y-104800598D03*
X59719604Y-105500152D03*
X61434180Y-103695655D03*
X61623588Y-103388857D03*
X60874045Y-103415032D03*
X61084393Y-103707869D03*
X61254491Y-103401747D03*
X107040000Y-83490000D03*
X108190000Y-83490000D03*
X88890000Y-94880000D03*
X105740000Y-83490000D03*
X88894605Y-94530000D03*
X104690000Y-83490000D03*
X103560000Y-83490000D03*
X85383682Y-101960000D03*
X85383682Y-103285000D03*
X78989490Y-103740000D03*
X78989490Y-102415000D03*
X85730000Y-103480000D03*
X78680000Y-103940000D03*
X78680000Y-102590000D03*
X78655000Y-101265000D03*
X85705000Y-102190000D03*
X83830000Y-103940000D03*
X80430000Y-103965000D03*
X82960000Y-103555000D03*
X80880000Y-103590000D03*
X83830000Y-102815000D03*
X83380000Y-103190000D03*
X80430000Y-102840000D03*
X81330000Y-103215000D03*
X81330000Y-102090000D03*
X83380000Y-102065000D03*
X80880000Y-102465000D03*
X82960000Y-102430000D03*
X83830000Y-101690000D03*
X80430000Y-101715000D03*
X82960000Y-101305000D03*
X80880000Y-101340000D03*
X83380000Y-100915000D03*
X81330000Y-100940000D03*
X83830000Y-100540000D03*
X80430000Y-100565000D03*
X74455000Y-107440000D03*
X75530000Y-107440000D03*
X73380000Y-107440000D03*
X86680000Y-98940000D03*
X82960000Y-104790000D03*
X80890000Y-104825000D03*
X83390000Y-104425000D03*
X81340000Y-104450000D03*
X85390000Y-104650000D03*
X57271170Y-101159396D03*
X62837641Y-99329014D03*
X52548517Y-104691366D03*
X52920512Y-105028589D03*
X54677568Y-104627024D03*
X53665201Y-105723023D03*
X54027552Y-106070589D03*
X52598074Y-106110501D03*
X54727126Y-106046159D03*
X55427048Y-106031723D03*
X53317985Y-106095367D03*
X55401921Y-105312162D03*
X53292857Y-105375806D03*
X55377491Y-104612588D03*
X53268427Y-104676233D03*
X55353061Y-103913015D03*
X53243998Y-103976659D03*
X54628709Y-103227877D03*
X64643652Y-102908166D03*
X64630390Y-102528397D03*
X64616431Y-102128641D03*
X64657961Y-103317916D03*
X64709485Y-104506842D03*
X64696223Y-104127074D03*
X64681915Y-103717323D03*
X64723794Y-104916592D03*
X64756028Y-106126204D03*
X64742767Y-105746436D03*
X64728458Y-105336686D03*
X64800541Y-109406649D03*
X65200298Y-109392689D03*
X64001378Y-109444563D03*
X63211859Y-109472133D03*
X64401134Y-109430603D03*
X63611615Y-109458173D03*
X62423038Y-109519692D03*
X61633520Y-109547262D03*
X62822795Y-109505732D03*
X62033276Y-109533302D03*
X60844001Y-109574833D03*
X60054482Y-109602403D03*
X61243757Y-109560873D03*
X60454238Y-109588444D03*
X59254620Y-109620329D03*
X58465102Y-109647900D03*
X59654377Y-109606369D03*
X58864858Y-109633940D03*
X57665938Y-109685813D03*
X56876419Y-109713384D03*
X58065694Y-109671853D03*
X57276176Y-109699424D03*
X56126527Y-109729565D03*
X55337008Y-109757135D03*
X56526283Y-109715605D03*
X55736765Y-109743175D03*
X54567826Y-109794002D03*
X53778308Y-109821572D03*
X54967583Y-109780042D03*
X54178064Y-109807613D03*
X52959156Y-109860184D03*
X52169637Y-109887754D03*
X53358912Y-109846224D03*
X51339794Y-109906727D03*
X50550275Y-109934298D03*
X51739550Y-109892767D03*
X50950032Y-109920338D03*
X49760757Y-109961868D03*
X48971238Y-109989439D03*
X50160513Y-109947909D03*
X49370994Y-109975479D03*
X48145677Y-109557988D03*
X48118107Y-108768469D03*
X48159637Y-109957744D03*
X48132067Y-109168225D03*
X48549400Y-109944133D03*
X48089489Y-107948968D03*
X48061919Y-107159450D03*
X48103449Y-108348725D03*
X48075878Y-107559206D03*
X48023307Y-106340298D03*
X47995737Y-105550780D03*
X48037267Y-106740055D03*
X48009696Y-105950536D03*
X47956776Y-104721634D03*
X47929205Y-103932115D03*
X47970736Y-105121390D03*
X47943165Y-104331872D03*
X47908837Y-103062296D03*
X47881266Y-102272778D03*
X47922797Y-103462053D03*
X47895226Y-102672534D03*
X47832312Y-101443981D03*
X55064349Y-105674164D03*
X54002424Y-105351027D03*
X54364775Y-105698593D03*
X52572947Y-105390940D03*
X52945291Y-105738157D03*
X54701998Y-105326598D03*
X47818701Y-101054219D03*
X64057247Y-99296431D03*
X64846766Y-99268860D03*
X63657491Y-99310391D03*
X64447010Y-99282820D03*
X62447879Y-99342625D03*
X63237398Y-99315055D03*
X62048123Y-99356585D03*
X53615993Y-104313882D03*
X55015140Y-104265023D03*
X53953565Y-103951880D03*
X54315567Y-104289452D03*
X52524087Y-103991793D03*
X52896083Y-104329016D03*
X54653139Y-103927451D03*
X53640423Y-105013455D03*
X55039570Y-104964596D03*
X53977995Y-104651454D03*
X54339996Y-104989026D03*
X61218628Y-99385552D03*
X59209853Y-99455700D03*
X59999371Y-99428129D03*
X58810096Y-99469659D03*
X59599615Y-99442089D03*
X57241053Y-99524452D03*
X57640809Y-99510492D03*
X58030571Y-99496881D03*
X58430328Y-99482921D03*
X55662015Y-99579593D03*
X56061772Y-99565633D03*
X56451534Y-99552022D03*
X56851290Y-99538062D03*
X54052996Y-99635781D03*
X54452752Y-99621821D03*
X54842515Y-99608210D03*
X55242271Y-99594251D03*
X52484650Y-99710561D03*
X52884407Y-99696601D03*
X53274169Y-99682990D03*
X53673925Y-99669031D03*
X50904915Y-99745714D03*
X51304671Y-99731755D03*
X51694434Y-99718144D03*
X52094190Y-99704184D03*
X49325528Y-99790862D03*
X49725285Y-99776902D03*
X50115047Y-99763291D03*
X50514803Y-99749331D03*
X48565991Y-99817385D03*
X48965748Y-99803425D03*
X48176229Y-99830996D03*
X47790083Y-100234718D03*
X47776473Y-99844956D03*
X52569394Y-109873795D03*
X47804741Y-100654462D03*
X47846272Y-101843738D03*
X52499658Y-103292219D03*
X53219568Y-103277085D03*
X52871653Y-103629442D03*
X53591563Y-103614308D03*
X54990711Y-103565449D03*
X53929135Y-103252307D03*
X54291137Y-103589879D03*
X55328632Y-103213441D03*
X61618385Y-99371592D03*
X60828866Y-99399162D03*
X60429109Y-99413122D03*
X107840000Y-96823746D03*
X107490000Y-97173746D03*
X107490000Y-97873746D03*
X108190000Y-97173746D03*
X107840000Y-97523746D03*
X108190000Y-97873746D03*
X107130000Y-97533746D03*
X106790000Y-97173746D03*
X106790000Y-97873746D03*
X106440000Y-97523746D03*
X106440000Y-96823746D03*
X107140000Y-96823746D03*
X102455000Y-83490000D03*
X70300000Y-104410000D03*
X72675000Y-107080000D03*
X68690000Y-93840000D03*
X105540000Y-105050000D03*
X63774071Y-106230538D03*
X70490000Y-93840000D03*
X65421448Y-103261236D03*
X64054694Y-105670403D03*
X75190000Y-107800000D03*
X70130678Y-104110000D03*
X72290000Y-93840000D03*
X65380266Y-102081955D03*
X88890000Y-95580000D03*
X66435000Y-95125000D03*
X72150000Y-97350000D03*
X65393877Y-102471717D03*
X105180000Y-105300000D03*
X65473321Y-104460156D03*
X88890000Y-95230000D03*
X59997484Y-104961566D03*
X70940000Y-93840000D03*
X72230000Y-103240000D03*
X60019693Y-105311003D03*
X72580000Y-102890000D03*
X72160000Y-96530000D03*
X72590000Y-94140000D03*
X71840000Y-93840000D03*
X63747897Y-105480995D03*
X69590000Y-93840000D03*
X76830000Y-99470000D03*
X65720000Y-97170000D03*
X72890000Y-94440000D03*
X69950000Y-104410000D03*
X71750000Y-97000000D03*
X59985270Y-104611779D03*
X65720000Y-95960000D03*
X67800000Y-94120000D03*
X65241176Y-99245081D03*
X66890000Y-94790000D03*
X70500000Y-104110000D03*
X65407488Y-102861480D03*
X65720000Y-96380000D03*
X73750000Y-107080000D03*
X72540000Y-96960000D03*
X70040000Y-93840000D03*
X73360000Y-96970000D03*
X65980000Y-95460000D03*
X68240000Y-93840000D03*
X75890000Y-107800000D03*
X71880000Y-102890000D03*
X73040000Y-107800000D03*
X73840000Y-95390000D03*
X65740000Y-98400000D03*
X73240000Y-94790000D03*
X65740000Y-98000000D03*
X65720000Y-97570000D03*
X67345000Y-94455000D03*
X77270000Y-99870000D03*
X76480000Y-97110000D03*
X65459710Y-104070394D03*
X72970000Y-96540000D03*
X85750000Y-108590000D03*
X54990000Y-100990000D03*
X88360000Y-105680000D03*
X69750000Y-104110000D03*
X65519864Y-106079518D03*
X73540000Y-95090000D03*
X65506254Y-105689756D03*
X63760786Y-105850092D03*
X75875000Y-107080000D03*
X69140000Y-93840000D03*
X72930000Y-103240000D03*
X85910000Y-107640000D03*
X74115000Y-107800000D03*
X71390000Y-93840000D03*
X65492294Y-105290000D03*
X65487281Y-104859913D03*
X87200000Y-106100000D03*
X65720000Y-96780000D03*
X64066909Y-106020190D03*
X65445751Y-103670637D03*
X89850000Y-103930000D03*
X74800000Y-107080000D03*
X105920000Y-104930000D03*
X85383682Y-101510000D03*
X85383682Y-102835000D03*
X78989490Y-102840000D03*
X78989490Y-104190000D03*
X78989490Y-101515000D03*
X78680000Y-103040000D03*
X78655000Y-101715000D03*
X85705000Y-103065000D03*
X85705000Y-101740000D03*
X81330000Y-103590000D03*
X83380000Y-103565000D03*
X80880000Y-103965000D03*
X82960000Y-103930000D03*
X83830000Y-103190000D03*
X80430000Y-103215000D03*
X82960000Y-102805000D03*
X80880000Y-102840000D03*
X83830000Y-102065000D03*
X83380000Y-102440000D03*
X80430000Y-102090000D03*
X81330000Y-102465000D03*
X81330000Y-101340000D03*
X83380000Y-101315000D03*
X80880000Y-101715000D03*
X82960000Y-101680000D03*
X83830000Y-100915000D03*
X80430000Y-100940000D03*
X82960000Y-100530000D03*
X80880000Y-100565000D03*
X72680000Y-107440000D03*
X74805000Y-107440000D03*
X73755000Y-107440000D03*
X75880000Y-107440000D03*
X86260000Y-98950000D03*
X78670000Y-104360000D03*
X81340000Y-104825000D03*
X80440000Y-104450000D03*
X83390000Y-104800000D03*
X83820000Y-104425000D03*
X85703706Y-104393706D03*
X85390000Y-104150000D03*
X52957855Y-106097937D03*
X55076912Y-106033944D03*
X53677765Y-106082804D03*
X54377339Y-106058374D03*
X52932727Y-105378376D03*
X52585510Y-105750721D03*
X55051785Y-105314383D03*
X54014988Y-105710808D03*
X53652638Y-105363242D03*
X53305421Y-105735587D03*
X54714562Y-105686378D03*
X54352211Y-105338813D03*
X55414135Y-105661949D03*
X52908298Y-104678802D03*
X52560732Y-105041153D03*
X55027355Y-104614809D03*
X53990210Y-105001241D03*
X53628208Y-104663669D03*
X53280642Y-105026019D03*
X54689783Y-104976811D03*
X54327782Y-104639239D03*
X55389706Y-104962375D03*
X52883868Y-103979229D03*
X52536302Y-104341579D03*
X55002925Y-103915236D03*
X53965780Y-104301667D03*
X53603778Y-103964095D03*
X53256212Y-104326446D03*
X54665354Y-104277237D03*
X54303352Y-103939665D03*
X55365276Y-104262802D03*
X55340846Y-103563228D03*
X54278922Y-103240092D03*
X53941350Y-103602093D03*
X54978496Y-103215662D03*
X54640924Y-103577664D03*
X53231783Y-103626872D03*
X52511872Y-103642006D03*
X53579349Y-103264522D03*
X65019804Y-102504793D03*
X65047374Y-103294311D03*
X65006193Y-102115030D03*
X65033415Y-102894555D03*
X65085637Y-104103469D03*
X65113207Y-104892988D03*
X65071677Y-103703713D03*
X65099248Y-104493231D03*
X65132180Y-105722831D03*
X65159751Y-106512350D03*
X65118220Y-105323075D03*
X65145791Y-106112593D03*
X65186687Y-109002927D03*
X64776937Y-109017236D03*
X63598005Y-109068411D03*
X63977773Y-109055149D03*
X64387523Y-109040840D03*
X63188254Y-109082720D03*
X62019665Y-109143540D03*
X62399434Y-109130278D03*
X62809184Y-109115969D03*
X61609915Y-109157849D03*
X60440628Y-109198681D03*
X60820396Y-109185419D03*
X61230146Y-109171111D03*
X60030877Y-109212990D03*
X58851247Y-109244178D03*
X59231016Y-109230916D03*
X59640766Y-109216607D03*
X58441497Y-109258486D03*
X57262565Y-109309662D03*
X57642333Y-109296400D03*
X58052083Y-109282091D03*
X56852814Y-109323970D03*
X55723154Y-109353413D03*
X56102922Y-109340151D03*
X56512673Y-109325842D03*
X55313404Y-109367722D03*
X54164453Y-109417850D03*
X54544222Y-109404588D03*
X54953972Y-109390280D03*
X53754703Y-109432159D03*
X53345302Y-109456462D03*
X52146033Y-109498341D03*
X51725940Y-109503005D03*
X49357383Y-109585717D03*
X48947633Y-109600025D03*
X48521829Y-109154615D03*
X48535091Y-109534383D03*
X48507520Y-108744864D03*
X48465641Y-107545595D03*
X48478903Y-107925364D03*
X48493211Y-108335114D03*
X48451332Y-107135845D03*
X48399459Y-105936925D03*
X48412721Y-106316694D03*
X48427029Y-106726444D03*
X48385150Y-105527175D03*
X48332928Y-104318261D03*
X48346189Y-104698029D03*
X48360498Y-105107780D03*
X48318619Y-103908511D03*
X48284988Y-102658923D03*
X48298250Y-103038692D03*
X48312559Y-103448442D03*
X48270680Y-102249173D03*
X48221725Y-101420376D03*
X48236034Y-101830127D03*
X48194155Y-100630858D03*
X49748889Y-100166315D03*
X50538408Y-100138745D03*
X50128658Y-100153053D03*
X49339139Y-100180624D03*
X48989352Y-100192839D03*
X48579602Y-100207148D03*
X48199834Y-100220410D03*
X52555783Y-109484032D03*
X52935551Y-109470770D03*
X48208463Y-101040608D03*
X57663872Y-99884405D03*
X53696291Y-100022956D03*
X57254122Y-99898713D03*
X64079962Y-99660350D03*
X62061192Y-99730847D03*
X62470942Y-99716538D03*
X60851929Y-99773075D03*
X59232916Y-99829612D03*
X55265334Y-99968163D03*
X51327735Y-100105667D03*
X51295984Y-109603581D03*
X64869480Y-99632779D03*
X52906772Y-100050526D03*
X58823166Y-99843921D03*
X49740136Y-109657913D03*
X62850711Y-99703276D03*
X56464603Y-99926284D03*
X54855584Y-99982472D03*
X59612685Y-99816351D03*
X52497022Y-100064835D03*
X52117253Y-100078097D03*
X64459730Y-99647088D03*
X50149886Y-109643604D03*
X54475816Y-99995734D03*
X55675085Y-99953855D03*
X56874354Y-99911975D03*
X56084835Y-99939546D03*
X53286541Y-100037264D03*
X58453391Y-99856834D03*
X50917984Y-100119976D03*
X50529655Y-109630342D03*
X60022435Y-99802042D03*
X63260461Y-99688967D03*
X54066065Y-100010043D03*
X50939405Y-109616033D03*
X51707503Y-100092406D03*
X60442179Y-99787384D03*
X58043641Y-99871143D03*
X61641448Y-99745505D03*
X63670211Y-99674659D03*
X61231698Y-99759813D03*
X52859438Y-103279655D03*
X108190000Y-96810000D03*
X107490000Y-96810000D03*
X107490000Y-97510000D03*
X108190000Y-97510000D03*
X107840000Y-97160000D03*
X107840000Y-97860000D03*
X107130000Y-97870000D03*
X107130000Y-97170000D03*
X106440000Y-97860000D03*
X106440000Y-97160000D03*
X106790000Y-97510000D03*
X106790000Y-96810000D03*
X89540000Y-104210000D03*
X105250000Y-83490000D03*
X60335088Y-105460087D03*
X55585285Y-101823638D03*
X61615070Y-104004530D03*
X72540000Y-96590000D03*
X60915517Y-104036966D03*
X65263891Y-99609000D03*
X73340000Y-97390000D03*
X105210000Y-105700000D03*
X56366776Y-101566207D03*
X75175000Y-107080000D03*
X58348648Y-103017925D03*
X73340000Y-96590000D03*
X72930000Y-102890000D03*
X59402990Y-105702765D03*
X71740000Y-97390000D03*
X60121473Y-107939052D03*
X59148298Y-108324186D03*
X72540000Y-97390000D03*
X72940000Y-96990000D03*
X106300000Y-83490000D03*
X103015000Y-83490000D03*
X54964615Y-101815294D03*
X61415572Y-103061404D03*
X59340500Y-104301231D03*
X60302652Y-104760534D03*
X63445299Y-106042156D03*
X108750000Y-83490000D03*
X74465000Y-107800000D03*
X105950000Y-105330000D03*
X104120000Y-83490000D03*
X72580000Y-103240000D03*
X52385489Y-101885346D03*
X74100000Y-107080000D03*
X64358223Y-105479694D03*
X72940000Y-97790000D03*
X59132076Y-107973603D03*
X61064988Y-103077626D03*
X64374437Y-105828663D03*
X59115862Y-107624633D03*
X63463138Y-106394350D03*
X71340000Y-96990000D03*
X73025000Y-107080000D03*
X73390000Y-107800000D03*
X60712794Y-103095465D03*
X71880000Y-103240000D03*
X60318874Y-105111117D03*
X51206208Y-101926528D03*
X72540000Y-98190000D03*
X51633091Y-103262444D03*
X60284813Y-104408340D03*
X61266100Y-104020743D03*
X72410000Y-98540000D03*
X71740000Y-96590000D03*
X105570000Y-105450000D03*
X59290264Y-102474732D03*
X53255657Y-101874972D03*
X63429077Y-105691572D03*
X60105259Y-107590083D03*
X59358339Y-104653425D03*
X60137695Y-108289636D03*
X59390775Y-105352978D03*
X72140000Y-96990000D03*
X75540000Y-107800000D03*
X56130000Y-103095402D03*
X73340000Y-98190000D03*
X59374561Y-105004008D03*
X64390659Y-106179247D03*
X56975707Y-101524931D03*
X50565487Y-103349756D03*
X72230000Y-102890000D03*
X63412863Y-105342603D03*
X49990790Y-102079038D03*
X72140000Y-97790000D03*
X54840000Y-101315000D03*
X61764541Y-103045190D03*
X107600000Y-83490000D03*
X75590000Y-98690000D03*
X74060000Y-96610000D03*
X75580000Y-98340000D03*
X74290000Y-96890000D03*
X76390000Y-103140000D03*
X66290000Y-106590000D03*
X76690000Y-102980000D03*
X66650000Y-106600000D03*
X75990000Y-101175000D03*
X76850000Y-103460990D03*
X74140000Y-101290000D03*
X77520000Y-104660000D03*
X69210000Y-104960000D03*
X79025797Y-97584499D03*
X57299606Y-108507881D03*
X56995378Y-108678602D03*
X78730000Y-97390000D03*
X84201171Y-108288901D03*
X108175000Y-91763746D03*
X107480000Y-91763746D03*
X72680000Y-101240000D03*
X84583515Y-108391968D03*
X72010000Y-101260000D03*
X84070000Y-107940000D03*
X107135000Y-91765000D03*
X72360000Y-101260000D03*
X71660000Y-101260000D03*
X84452344Y-108043067D03*
X107830000Y-91765000D03*
X81020000Y-97870000D03*
X77070000Y-108210000D03*
X77100000Y-108720000D03*
X80580000Y-98220000D03*
X81610000Y-98010000D03*
X76610000Y-107960000D03*
X81243710Y-98340596D03*
X76510000Y-108360000D03*
X76250000Y-108840000D03*
X81660000Y-97490000D03*
X76010000Y-108580000D03*
X81320000Y-97400000D03*
X77530000Y-107960000D03*
X82180000Y-97370000D03*
X77620000Y-108620000D03*
X82060000Y-97050000D03*
X82710000Y-97380000D03*
X78060000Y-107960000D03*
X78040000Y-108310000D03*
X82720000Y-97030000D03*
X78790000Y-108030000D03*
X83240000Y-97400000D03*
X78660000Y-108360000D03*
X83240000Y-97050000D03*
X83750000Y-97530000D03*
X79250000Y-108280000D03*
X83760000Y-97180000D03*
X79550000Y-107990000D03*
X79710000Y-108540000D03*
X84190000Y-97820000D03*
X79420000Y-108760000D03*
X84330000Y-97490000D03*
X80130000Y-108860000D03*
X84690000Y-97970000D03*
X79870000Y-109100000D03*
X84850000Y-97660000D03*
X84960000Y-98420000D03*
X80560000Y-109160000D03*
X85290000Y-98290000D03*
X80920000Y-109170000D03*
X50471735Y-107255407D03*
X76240000Y-102350000D03*
X50459870Y-106915614D03*
X74958297Y-101721703D03*
X49994038Y-107506076D03*
X76560000Y-101860000D03*
X49978195Y-107162575D03*
X75140000Y-101180000D03*
X55314343Y-108498418D03*
X54111643Y-101745019D03*
X54320690Y-101427530D03*
X55511521Y-108880511D03*
X54062467Y-101196401D03*
X55131054Y-108873785D03*
X54956145Y-108449631D03*
X53891999Y-101472519D03*
X78240000Y-98050000D03*
X49900493Y-108666006D03*
X49558039Y-108598112D03*
X49558039Y-108598112D03*
X77970000Y-97800000D03*
X55401292Y-101352124D03*
X74765000Y-98740000D03*
X74400000Y-98730000D03*
X55713206Y-101188786D03*
X57385172Y-106373594D03*
X57993309Y-106882681D03*
X57622129Y-101606812D03*
X57972679Y-101709991D03*
X74690000Y-102220000D03*
X74920000Y-102480000D03*
X57929538Y-101331525D03*
X75150000Y-102220000D03*
X58254229Y-101460271D03*
X75270000Y-102540000D03*
X72340000Y-105440000D03*
X72760000Y-105420000D03*
X74440000Y-104614994D03*
X87461530Y-102170479D03*
X87180000Y-105260000D03*
X78267718Y-105103788D03*
X74740000Y-104890000D03*
X77907960Y-105099016D03*
X87790000Y-102089994D03*
X51741830Y-108936054D03*
X79400000Y-97220000D03*
X79130000Y-96980000D03*
X51392635Y-108984321D03*
X88140000Y-104880000D03*
X103010000Y-94210000D03*
X87630000Y-104400000D03*
X102310000Y-94210000D03*
X101960000Y-94210000D03*
X88480000Y-104980000D03*
X102660000Y-94210000D03*
X87870000Y-104660000D03*
X88200000Y-104180000D03*
X103010000Y-93700000D03*
X88450000Y-104430000D03*
X102310000Y-93700000D03*
X102660000Y-93700000D03*
X101960000Y-93700000D03*
X87915000Y-103965000D03*
X88780000Y-104490000D03*
X75991210Y-103540000D03*
X87718671Y-101583649D03*
X88050000Y-101480000D03*
X86560000Y-104750000D03*
X76390000Y-103790000D03*
X98865000Y-91710000D03*
X99714998Y-91710000D03*
X98680000Y-104365000D03*
X94822400Y-107151907D03*
X95203400Y-107151907D03*
X108545299Y-100620953D03*
X108543400Y-100260653D03*
X108543399Y-100980653D03*
X95573400Y-93516907D03*
X95192400Y-93516907D03*
X99080000Y-104365000D03*
X107066000Y-87846000D03*
X106700000Y-108580000D03*
X106740000Y-88360000D03*
X107060000Y-108580000D03*
X108161392Y-92268640D03*
X107461392Y-92268640D03*
X85205920Y-108356934D03*
X84990000Y-108030000D03*
X107815000Y-92265000D03*
X107115000Y-92265000D03*
X85382902Y-108035737D03*
X85215000Y-107715000D03*
X88655426Y-103683000D03*
X103155584Y-92660000D03*
X88305426Y-103640000D03*
X103860000Y-92660000D03*
X103510000Y-92660000D03*
X89010000Y-103680000D03*
X102805584Y-92660000D03*
X89360000Y-103680000D03*
X88655426Y-103206000D03*
X103155584Y-92150000D03*
X103860000Y-92150000D03*
X88305426Y-103120000D03*
X89010000Y-103170000D03*
X103510000Y-92150000D03*
X102805584Y-92150000D03*
X89360000Y-103170000D03*
X89030000Y-102660000D03*
X87470000Y-101060000D03*
X108040000Y-91058746D03*
X86490000Y-98215000D03*
X107340000Y-91058746D03*
X86165000Y-98340000D03*
X107690000Y-91065000D03*
X86475000Y-97855000D03*
X86150000Y-97980000D03*
X106990000Y-91065000D03*
D11*
X107173093Y-95723400D02*
X107173092Y-96093400D01*
X74280000Y-102420169D02*
X78159331Y-106299500D01*
D12*
X86283155Y-107170000D02*
X92305000Y-107170000D01*
X92305000Y-107170000D02*
X103210000Y-96265000D01*
D11*
X74589561Y-100927206D02*
X74589561Y-101419843D01*
D12*
X77959480Y-106749480D02*
X79881169Y-106749480D01*
X73450000Y-102240000D02*
X77959480Y-106749480D01*
D11*
X102915000Y-95315000D02*
X106776254Y-95315000D01*
X86299500Y-106329500D02*
X86660000Y-106690000D01*
D12*
X85863155Y-106750000D02*
X86283155Y-107170000D01*
D11*
X74589561Y-101419843D02*
X74280000Y-101729404D01*
X74280000Y-101729404D02*
X74280000Y-102420169D01*
X78430000Y-100720000D02*
X74796767Y-100720000D01*
X74796767Y-100720000D02*
X74589561Y-100927206D01*
D12*
X79881689Y-106750000D02*
X85863155Y-106750000D01*
X103210000Y-96265000D02*
X103215000Y-96265000D01*
D11*
X86660000Y-106690000D02*
X91540000Y-106690000D01*
D12*
X103666254Y-95813746D02*
X107625000Y-95813746D01*
D11*
X91540000Y-106690000D02*
X102915000Y-95315000D01*
X106776254Y-95315000D02*
X106925000Y-95463746D01*
D12*
X79881169Y-106749480D02*
X79881689Y-106750000D01*
X103215000Y-96265000D02*
X103666254Y-95813746D01*
X70075386Y-102240000D02*
X73450000Y-102240000D01*
D11*
X86299500Y-106299500D02*
X86299500Y-106329500D01*
X78159331Y-106299500D02*
X86299500Y-106299500D01*
X88290000Y-105565000D02*
X88315000Y-105540000D01*
D13*
X83430680Y-108999320D02*
X81812360Y-107381000D01*
D11*
X89705000Y-104150000D02*
X89705000Y-104835000D01*
X88315000Y-105635000D02*
X88315000Y-105540000D01*
X88290000Y-105690000D02*
X88290000Y-105565000D01*
D13*
X85386416Y-108999320D02*
X85937326Y-108448410D01*
X81812360Y-107381000D02*
X79620320Y-107381000D01*
X75777487Y-107440000D02*
X75530000Y-107440000D01*
D14*
X102361590Y-108448410D02*
X101208410Y-108448410D01*
D13*
X83430680Y-108999320D02*
X85386416Y-108999320D01*
X75940000Y-107380000D02*
X79620000Y-107380000D01*
D11*
X89705000Y-104835000D02*
X89000000Y-105540000D01*
X88360000Y-105680000D02*
X88315000Y-105635000D01*
D13*
X75880000Y-107440000D02*
X75940000Y-107380000D01*
X79620320Y-107381000D02*
X79619660Y-107380340D01*
D11*
X89000000Y-105540000D02*
X88315000Y-105540000D01*
D14*
X105280000Y-105530000D02*
X102361590Y-108448410D01*
D13*
X102455000Y-83490000D02*
X108750000Y-83490000D01*
D14*
X86070000Y-108448410D02*
X101208410Y-108448410D01*
X106020000Y-105160000D02*
X105650000Y-105160000D01*
X105650000Y-105160000D02*
X105280000Y-105530000D01*
D11*
X74290000Y-96890000D02*
X74290000Y-96840000D01*
X75590000Y-98690000D02*
X75590000Y-98350000D01*
X75590000Y-98350000D02*
X75580000Y-98340000D01*
X74290000Y-96840000D02*
X74060000Y-96610000D01*
X66290000Y-106590000D02*
X66640000Y-106590000D01*
X76690000Y-102980000D02*
X76550000Y-102980000D01*
X76550000Y-102980000D02*
X76390000Y-103140000D01*
X66640000Y-106590000D02*
X66650000Y-106600000D01*
X77170000Y-103140990D02*
X76850000Y-103460990D01*
X68790000Y-104960000D02*
X68370000Y-104540000D01*
X76505000Y-101175000D02*
X77170000Y-101840000D01*
X71240000Y-101690000D02*
X73740000Y-101690000D01*
X68370000Y-101750000D02*
X68580000Y-101540000D01*
X77520000Y-104660000D02*
X77520000Y-104130990D01*
X68580000Y-101540000D02*
X71090000Y-101540000D01*
X77170000Y-101840000D02*
X77170000Y-103140990D01*
X73740000Y-101690000D02*
X74140000Y-101290000D01*
X68370000Y-104540000D02*
X68370000Y-101750000D01*
X75990000Y-101175000D02*
X76505000Y-101175000D01*
X69210000Y-104960000D02*
X68790000Y-104960000D01*
X71090000Y-101540000D02*
X71240000Y-101690000D01*
X77520000Y-104130990D02*
X76850000Y-103460990D01*
X79025797Y-97584499D02*
X78924499Y-97584499D01*
X57034656Y-108657218D02*
X57256489Y-108419331D01*
X56994680Y-108658614D02*
X57034656Y-108657218D01*
X78924499Y-97584499D02*
X78730000Y-97390000D01*
X84452344Y-108043067D02*
X84452344Y-108260797D01*
X84201171Y-108288901D02*
X84201171Y-108071171D01*
X84070000Y-107940000D02*
X84349277Y-107940000D01*
X84452344Y-108260797D02*
X84583515Y-108391968D01*
X108180000Y-91770000D02*
X107140000Y-91770000D01*
X84229275Y-108260797D02*
X84201171Y-108288901D01*
X84201171Y-108071171D02*
X84070000Y-107940000D01*
X72660000Y-101260000D02*
X72680000Y-101240000D01*
X71660000Y-101260000D02*
X72660000Y-101260000D01*
X84452344Y-108260797D02*
X84229275Y-108260797D01*
X84349277Y-107940000D02*
X84452344Y-108043067D01*
X80930000Y-97870000D02*
X80580000Y-98220000D01*
X81020000Y-97870000D02*
X80930000Y-97870000D01*
X77070000Y-108690000D02*
X77100000Y-108720000D01*
X77070000Y-108210000D02*
X77070000Y-108690000D01*
X81574306Y-98010000D02*
X81243710Y-98340596D01*
X81610000Y-98010000D02*
X81574306Y-98010000D01*
X76510000Y-108360000D02*
X76510000Y-108060000D01*
X76510000Y-108060000D02*
X76610000Y-107960000D01*
X76250000Y-108840000D02*
X76250000Y-108820000D01*
X76250000Y-108820000D02*
X76010000Y-108580000D01*
X81570000Y-97400000D02*
X81660000Y-97490000D01*
X81320000Y-97400000D02*
X81570000Y-97400000D01*
X82060000Y-97250000D02*
X82180000Y-97370000D01*
X77620000Y-108050000D02*
X77530000Y-107960000D01*
X77620000Y-108620000D02*
X77620000Y-108050000D01*
X82060000Y-97050000D02*
X82060000Y-97250000D01*
X78040000Y-107980000D02*
X78060000Y-107960000D01*
X78040000Y-108310000D02*
X78040000Y-107980000D01*
X82710000Y-97040000D02*
X82720000Y-97030000D01*
X82710000Y-97380000D02*
X82710000Y-97040000D01*
X78660000Y-108160000D02*
X78790000Y-108030000D01*
X78660000Y-108360000D02*
X78660000Y-108160000D01*
X83240000Y-97050000D02*
X83240000Y-97400000D01*
X83760000Y-97520000D02*
X83750000Y-97530000D01*
X79250000Y-108280000D02*
X79260000Y-108280000D01*
X79260000Y-108280000D02*
X79550000Y-107990000D01*
X83760000Y-97180000D02*
X83760000Y-97520000D01*
X79420000Y-108760000D02*
X79490000Y-108760000D01*
X79490000Y-108760000D02*
X79710000Y-108540000D01*
X84190000Y-97820000D02*
X84190000Y-97630000D01*
X84190000Y-97630000D02*
X84330000Y-97490000D01*
X80110000Y-108860000D02*
X79870000Y-109100000D01*
X80130000Y-108860000D02*
X80110000Y-108860000D01*
X85090000Y-98290000D02*
X84960000Y-98420000D01*
X80920000Y-109170000D02*
X80570000Y-109170000D01*
X85290000Y-98290000D02*
X85090000Y-98290000D01*
X75231703Y-101721703D02*
X74958297Y-101721703D01*
X75860000Y-102350000D02*
X75231703Y-101721703D01*
X76240000Y-102350000D02*
X75860000Y-102350000D01*
X50451748Y-107256105D02*
X50439882Y-106916312D01*
X75820000Y-101860000D02*
X76560000Y-101860000D01*
X75140000Y-101180000D02*
X75820000Y-101860000D01*
X49994038Y-107506076D02*
X49982172Y-107166283D01*
X49982172Y-107166283D02*
X49978195Y-107162575D01*
X55504366Y-108675618D02*
X55314343Y-108498418D01*
X54275701Y-101472519D02*
X54320690Y-101427530D01*
X55121632Y-108603949D02*
X54956145Y-108449631D01*
X54111643Y-101245577D02*
X54062467Y-101196401D01*
X55511521Y-108880511D02*
X55504366Y-108675618D01*
X54310696Y-101427879D02*
X54062467Y-101196401D01*
X54320690Y-101427530D02*
X54310696Y-101427879D01*
X53891999Y-101472519D02*
X54275701Y-101472519D01*
X55131054Y-108873785D02*
X55490835Y-108861221D01*
X55250983Y-108439335D02*
X55314343Y-108498418D01*
X53891999Y-101472519D02*
X54113832Y-101234632D01*
X54111643Y-101745019D02*
X54111643Y-101245577D01*
X54956145Y-108449631D02*
X55250983Y-108439335D01*
X53891999Y-101472519D02*
X53894442Y-101542476D01*
X55131054Y-108873785D02*
X55121632Y-108603949D01*
X53894442Y-101542476D02*
X54111643Y-101745019D01*
X78220000Y-98050000D02*
X77970000Y-97800000D01*
X49640579Y-108675083D02*
X49558039Y-108598112D01*
X78240000Y-98050000D02*
X78220000Y-98050000D01*
X49900493Y-108666006D02*
X49640579Y-108675083D01*
X74410000Y-98740000D02*
X74400000Y-98730000D01*
X55566264Y-101346363D02*
X55713206Y-101188786D01*
X74765000Y-98740000D02*
X74410000Y-98740000D01*
X55401292Y-101352124D02*
X55566264Y-101346363D01*
X57993309Y-106882681D02*
X57933346Y-106884775D01*
X57933346Y-106884775D02*
X57385172Y-106373594D01*
X58254229Y-101460271D02*
X57768670Y-101460271D01*
X57768670Y-101460271D02*
X57622129Y-101606812D01*
X57674535Y-101604982D02*
X57775219Y-101497011D01*
X74920000Y-102480000D02*
X74920000Y-102450000D01*
X74920000Y-102450000D02*
X74690000Y-102220000D01*
X57972679Y-101709991D02*
X57971637Y-101680174D01*
X57775219Y-101497011D02*
X57929538Y-101331525D01*
X57971637Y-101680174D02*
X57775219Y-101497011D01*
X74950000Y-102220000D02*
X75270000Y-102540000D01*
X57622129Y-101606812D02*
X57674535Y-101604982D01*
X75150000Y-102220000D02*
X74690000Y-102220000D01*
X74920000Y-102480000D02*
X75210000Y-102480000D01*
X75150000Y-102220000D02*
X75150000Y-102420000D01*
X58254229Y-101460271D02*
X58203907Y-101462029D01*
X75150000Y-102420000D02*
X75270000Y-102540000D01*
X58203907Y-101462029D02*
X57972679Y-101709991D01*
X74690000Y-102220000D02*
X74950000Y-102220000D01*
X78267718Y-105103788D02*
X78442717Y-105278787D01*
X87442019Y-102189990D02*
X87461530Y-102170479D01*
X87564519Y-102170479D02*
X87461530Y-102170479D01*
X86969500Y-105049500D02*
X87180000Y-105260000D01*
X86120000Y-104680000D02*
X86120000Y-104460000D01*
X86120000Y-104363966D02*
X86286760Y-104197206D01*
X86286760Y-103336760D02*
X87433531Y-102189990D01*
X72340000Y-105440000D02*
X72685996Y-105440000D01*
X87433531Y-102189990D02*
X87442019Y-102189990D01*
X72685996Y-105440000D02*
X73162998Y-104962998D01*
X86969500Y-104580379D02*
X86666104Y-104276983D01*
X86666104Y-104276983D02*
X86206983Y-104276983D01*
X73597002Y-104962998D02*
X73162998Y-104962998D01*
X74440000Y-104614994D02*
X74715006Y-104890000D01*
X74715006Y-104890000D02*
X74740000Y-104890000D01*
X74265001Y-104789993D02*
X74440000Y-104614994D01*
X87610000Y-102124998D02*
X87564519Y-102170479D01*
X86286760Y-104197206D02*
X86206983Y-104276983D01*
X73597002Y-104962998D02*
X74091996Y-104962998D01*
X74091996Y-104962998D02*
X74265001Y-104789993D01*
X77912732Y-105103788D02*
X77907960Y-105099016D01*
X86969500Y-104580379D02*
X86969500Y-105049500D01*
X86120000Y-104460000D02*
X86120000Y-104363966D01*
X78267718Y-105103788D02*
X77912732Y-105103788D01*
X85521213Y-105278787D02*
X86120000Y-104680000D01*
X78442717Y-105278787D02*
X85521213Y-105278787D01*
X86286760Y-103336760D02*
X86286760Y-104197206D01*
X79370000Y-97220000D02*
X79130000Y-96980000D01*
X79400000Y-97220000D02*
X79370000Y-97220000D01*
X51707059Y-108973341D02*
X51741830Y-108936054D01*
X51392635Y-108984321D02*
X51707059Y-108973341D01*
X88480000Y-104980000D02*
X88230000Y-104980000D01*
X87640000Y-104390000D02*
X87650000Y-104390000D01*
X103010000Y-94210000D02*
X101960000Y-94210000D01*
X87650000Y-104390000D02*
X88140000Y-104880000D01*
X88002644Y-104077356D02*
X88415288Y-104490000D01*
X88415288Y-104490000D02*
X88780000Y-104490000D01*
X103010000Y-93720000D02*
X101960000Y-93720000D01*
X87813649Y-101583649D02*
X87718671Y-101583649D01*
X87930000Y-101700000D02*
X87813649Y-101583649D01*
X88270000Y-101700000D02*
X88370000Y-101800000D01*
X87255000Y-103215942D02*
X87300471Y-103170471D01*
X86085501Y-105655501D02*
X86535501Y-105655501D01*
X86535501Y-105655501D02*
X87545501Y-105655501D01*
X87600000Y-105100879D02*
X87230000Y-104730879D01*
X87300471Y-103170471D02*
X88000471Y-102470471D01*
X87230000Y-103240942D02*
X87300471Y-103170471D01*
X87600000Y-105601002D02*
X87600000Y-105100879D01*
X88370000Y-101800000D02*
X88370000Y-102100942D01*
X86524490Y-104761688D02*
X86524490Y-105644490D01*
X87545501Y-105655501D02*
X87600000Y-105601002D01*
X76390000Y-104170944D02*
X76390000Y-104137487D01*
X87822320Y-101480000D02*
X87718671Y-101583649D01*
X76390000Y-103938790D02*
X75991210Y-103540000D01*
X88050000Y-101480000D02*
X87822320Y-101480000D01*
X86524490Y-105644490D02*
X86535501Y-105655501D01*
X76390000Y-104137487D02*
X76390000Y-103938790D01*
X86085501Y-105655501D02*
X77874557Y-105655501D01*
X76390000Y-104137487D02*
X76390000Y-104037487D01*
X76390000Y-104037487D02*
X76390000Y-103790000D01*
X77874557Y-105655501D02*
X76390000Y-104170944D01*
X88370000Y-102100942D02*
X88000471Y-102470471D01*
X87230000Y-104730879D02*
X87230000Y-103240942D01*
X87930000Y-101700000D02*
X88270000Y-101700000D01*
D15*
X99266600Y-92111600D02*
X99014999Y-91859999D01*
X99014999Y-91859999D02*
X98865000Y-91710000D01*
X99266600Y-92158398D02*
X99564999Y-91859999D01*
X99564999Y-91859999D02*
X99714998Y-91710000D01*
X99266600Y-92411600D02*
X99266600Y-92111600D01*
X99266600Y-92411600D02*
X99266600Y-92158398D01*
D13*
X94822400Y-107151907D02*
X95203400Y-107151907D01*
X95192400Y-93516907D02*
X95573400Y-93516907D01*
D15*
X108540000Y-100307200D02*
X108955000Y-99892200D01*
X100040000Y-104365000D02*
X103740000Y-100665000D01*
X98161293Y-93516907D02*
X99266600Y-92411600D01*
X108955000Y-99892200D02*
X108955000Y-90780000D01*
X108545299Y-100620953D02*
X108540000Y-100615654D01*
X108955000Y-90780000D02*
X108090000Y-89915000D01*
D13*
X108540000Y-100665000D02*
X108540000Y-100307200D01*
D15*
X99080000Y-104365000D02*
X98680000Y-104365000D01*
D13*
X108540000Y-100656599D02*
X108540000Y-101015000D01*
D15*
X97990307Y-104365000D02*
X95203400Y-107151907D01*
X103740000Y-100665000D02*
X108540000Y-100665000D01*
X99080000Y-104365000D02*
X100040000Y-104365000D01*
X108090000Y-89915000D02*
X101509998Y-89915000D01*
X108540000Y-100615654D02*
X108540000Y-100307200D01*
X98680000Y-104365000D02*
X97990307Y-104365000D01*
X101509998Y-89915000D02*
X99714998Y-91710000D01*
X95192400Y-93516907D02*
X98161293Y-93516907D01*
X109950000Y-90400000D02*
X107910000Y-88360000D01*
X109950000Y-105690000D02*
X109950000Y-90400000D01*
X107060000Y-108580000D02*
X106700000Y-108580000D01*
X107910000Y-88360000D02*
X106740000Y-88360000D01*
X107060000Y-108580000D02*
X109950000Y-105690000D01*
D13*
X106740000Y-88172000D02*
X106740000Y-88360000D01*
X107066000Y-87846000D02*
X106740000Y-88172000D01*
D11*
X85215000Y-107715000D02*
X85205920Y-107724080D01*
X85382902Y-108035737D02*
X85382902Y-108179952D01*
X85205920Y-108245920D02*
X85205920Y-108356934D01*
X85215000Y-107715000D02*
X84990000Y-107940000D01*
X84990000Y-108030000D02*
X85205920Y-108245920D01*
X85215000Y-107867835D02*
X85382902Y-108035737D01*
X85205920Y-107724080D02*
X85205920Y-108356934D01*
X85215000Y-107715000D02*
X85215000Y-107867835D01*
X108161392Y-92254894D02*
X107125106Y-92254894D01*
X84990000Y-107940000D02*
X84990000Y-108030000D01*
X85382902Y-108179952D02*
X85205920Y-108356934D01*
X103860000Y-92660000D02*
X102805584Y-92660000D01*
X88305426Y-103683000D02*
X89357000Y-103683000D01*
X89357000Y-103683000D02*
X89360000Y-103680000D01*
X89357000Y-103206000D02*
X89360000Y-103203000D01*
X88305426Y-103120000D02*
X88400000Y-103120000D01*
X88486000Y-103206000D02*
X89357000Y-103206000D01*
X102805584Y-92150000D02*
X103860000Y-92150000D01*
X88400000Y-103120000D02*
X88486000Y-103206000D01*
X87560000Y-100970000D02*
X88056896Y-100970000D01*
X89030000Y-101943104D02*
X89030000Y-102660000D01*
X87470000Y-101060000D02*
X87560000Y-100970000D01*
X88056896Y-100970000D02*
X89030000Y-101943104D01*
X86165000Y-98175000D02*
X86165000Y-97995000D01*
X86490000Y-98215000D02*
X86490000Y-97870000D01*
X86165000Y-97995000D02*
X86150000Y-97980000D01*
X86165000Y-98175000D02*
X86165000Y-98340000D01*
X86490000Y-97870000D02*
X86475000Y-97855000D01*
X86490000Y-98215000D02*
X86205000Y-98215000D01*
X86350000Y-97980000D02*
X86475000Y-97855000D01*
X86150000Y-97980000D02*
X86350000Y-97980000D01*
X86205000Y-98215000D02*
X86165000Y-98175000D01*
X108040000Y-91065000D02*
X106990000Y-91065000D01*
G04 #@! TA.AperFunction,Conductor*
G36*
X89090908Y-93555702D02*
G01*
X89157804Y-93579475D01*
X89201229Y-93635642D01*
X89209843Y-93684254D01*
X89104999Y-98490000D01*
X89105000Y-98490000D01*
X90154197Y-98490000D01*
X90222318Y-98510002D01*
X90268811Y-98563658D01*
X90280197Y-98615803D01*
X90287652Y-103372246D01*
X90292338Y-106362327D01*
X90292355Y-106372803D01*
X90272460Y-106440955D01*
X90218877Y-106487531D01*
X90166355Y-106499000D01*
X86791305Y-106499000D01*
X86723184Y-106478998D01*
X86702210Y-106462095D01*
X86508009Y-106267894D01*
X86484112Y-106224655D01*
X86471098Y-106208336D01*
X86456089Y-106184450D01*
X86452670Y-106177351D01*
X86452668Y-106177349D01*
X86446512Y-106172440D01*
X86426558Y-106152486D01*
X86421649Y-106146330D01*
X86414546Y-106142909D01*
X86390665Y-106127903D01*
X86384503Y-106122989D01*
X86376821Y-106121235D01*
X86350189Y-106111916D01*
X86343096Y-106108500D01*
X86343095Y-106108500D01*
X86321021Y-106108500D01*
X78290635Y-106108500D01*
X78222514Y-106088498D01*
X78201540Y-106071595D01*
X78191541Y-106061596D01*
X78157515Y-105999284D01*
X78162580Y-105928469D01*
X78205127Y-105871633D01*
X78271647Y-105846822D01*
X78280636Y-105846501D01*
X86063980Y-105846501D01*
X86513980Y-105846501D01*
X86517697Y-105846501D01*
X86531803Y-105847292D01*
X86557436Y-105850181D01*
X86557436Y-105850180D01*
X86563608Y-105850876D01*
X86589362Y-105846501D01*
X87491640Y-105846501D01*
X87517393Y-105850876D01*
X87523565Y-105850180D01*
X87523566Y-105850181D01*
X87549198Y-105847292D01*
X87563305Y-105846501D01*
X87567020Y-105846501D01*
X87567022Y-105846501D01*
X87570644Y-105845673D01*
X87584577Y-105843306D01*
X87610207Y-105840419D01*
X87610208Y-105840417D01*
X87616386Y-105839722D01*
X87625640Y-105835889D01*
X87630500Y-105832012D01*
X87630504Y-105832012D01*
X87650680Y-105815920D01*
X87662198Y-105807750D01*
X87665341Y-105805776D01*
X87667970Y-105803146D01*
X87678503Y-105793732D01*
X87698671Y-105777650D01*
X87698672Y-105777647D01*
X87711732Y-105767233D01*
X87722146Y-105754173D01*
X87722149Y-105754172D01*
X87738231Y-105734004D01*
X87747645Y-105723471D01*
X87750275Y-105720842D01*
X87752249Y-105717699D01*
X87760419Y-105706181D01*
X87776511Y-105686005D01*
X87776511Y-105686001D01*
X87780388Y-105681141D01*
X87784221Y-105671887D01*
X87784916Y-105665709D01*
X87784918Y-105665708D01*
X87787805Y-105640078D01*
X87790172Y-105626145D01*
X87791000Y-105622523D01*
X87791000Y-105618805D01*
X87791792Y-105604699D01*
X87791863Y-105604063D01*
X87794680Y-105579067D01*
X87794679Y-105579064D01*
X87795374Y-105572897D01*
X87791000Y-105547143D01*
X87791000Y-105252248D01*
X87811002Y-105184127D01*
X87864658Y-105137634D01*
X87934932Y-105127530D01*
X87964661Y-105140825D01*
X87965538Y-105138416D01*
X88086660Y-105182500D01*
X88204862Y-105182500D01*
X88272983Y-105202502D01*
X88285853Y-105211978D01*
X88326417Y-105246015D01*
X88426660Y-105282500D01*
X88426661Y-105282500D01*
X88533340Y-105282500D01*
X88633583Y-105246015D01*
X88657419Y-105226014D01*
X88715304Y-105177443D01*
X88768643Y-105085057D01*
X88787167Y-104980000D01*
X88777243Y-104923718D01*
X88785112Y-104853161D01*
X88829879Y-104798057D01*
X88858230Y-104783440D01*
X88933584Y-104756014D01*
X89015304Y-104687443D01*
X89068643Y-104595057D01*
X89087167Y-104490000D01*
X89068643Y-104384943D01*
X89015304Y-104292557D01*
X88979239Y-104262295D01*
X88916565Y-104209705D01*
X88917204Y-104208943D01*
X88884424Y-104184808D01*
X88859085Y-104118487D01*
X88873625Y-104048995D01*
X88923427Y-103998396D01*
X88984689Y-103982500D01*
X89063339Y-103982500D01*
X89141906Y-103953903D01*
X89212759Y-103949401D01*
X89228088Y-103953902D01*
X89306661Y-103982500D01*
X89413340Y-103982500D01*
X89513583Y-103946015D01*
X89535500Y-103927624D01*
X89595304Y-103877443D01*
X89648643Y-103785057D01*
X89667167Y-103680000D01*
X89648643Y-103574943D01*
X89598446Y-103487999D01*
X89581708Y-103419004D01*
X89598444Y-103362003D01*
X89648643Y-103275057D01*
X89667167Y-103170000D01*
X89648643Y-103064943D01*
X89595304Y-102972557D01*
X89595303Y-102972557D01*
X89513583Y-102903984D01*
X89406730Y-102865094D01*
X89349558Y-102823000D01*
X89324220Y-102756679D01*
X89325737Y-102724820D01*
X89337167Y-102660000D01*
X89318643Y-102554943D01*
X89265304Y-102462557D01*
X89263266Y-102459027D01*
X89226681Y-102404033D01*
X89221000Y-102366626D01*
X89221000Y-101996965D01*
X89225375Y-101971211D01*
X89223434Y-101953986D01*
X89221791Y-101939405D01*
X89221000Y-101925299D01*
X89221000Y-101921583D01*
X89220172Y-101917960D01*
X89217804Y-101904018D01*
X89216512Y-101892551D01*
X89214918Y-101878398D01*
X89214917Y-101878397D01*
X89214222Y-101872222D01*
X89210385Y-101862958D01*
X89190429Y-101837934D01*
X89182249Y-101826406D01*
X89180276Y-101823265D01*
X89179206Y-101822195D01*
X89177642Y-101820631D01*
X89168233Y-101810103D01*
X89166970Y-101808519D01*
X89152149Y-101789934D01*
X89152147Y-101789933D01*
X89148276Y-101785079D01*
X89126972Y-101769961D01*
X88230039Y-100873028D01*
X88214924Y-100851726D01*
X88210066Y-100847852D01*
X88210066Y-100847851D01*
X88189888Y-100831759D01*
X88179370Y-100822359D01*
X88176736Y-100819725D01*
X88173582Y-100817743D01*
X88162070Y-100809575D01*
X88141899Y-100793489D01*
X88141898Y-100793488D01*
X88137042Y-100789616D01*
X88127774Y-100785777D01*
X88103854Y-100783082D01*
X88095966Y-100782193D01*
X88082047Y-100779828D01*
X88078417Y-100779000D01*
X88078415Y-100779000D01*
X88074700Y-100779000D01*
X88060593Y-100778208D01*
X88055573Y-100777642D01*
X88028788Y-100774624D01*
X88003035Y-100779000D01*
X87613861Y-100779000D01*
X87572247Y-100771930D01*
X87559821Y-100767582D01*
X87546774Y-100766029D01*
X87523340Y-100757500D01*
X87523339Y-100757500D01*
X87416661Y-100757500D01*
X87316418Y-100793985D01*
X87234695Y-100862557D01*
X87181357Y-100954942D01*
X87162832Y-101060000D01*
X87181357Y-101165057D01*
X87234695Y-101257442D01*
X87316415Y-101326014D01*
X87331994Y-101331684D01*
X87349105Y-101337911D01*
X87406277Y-101380004D01*
X87431616Y-101446325D01*
X87430098Y-101478192D01*
X87411503Y-101583648D01*
X87430027Y-101688705D01*
X87436686Y-101700238D01*
X87453423Y-101769233D01*
X87430202Y-101836325D01*
X87374395Y-101880212D01*
X87370661Y-101881638D01*
X87307948Y-101904464D01*
X87226225Y-101973036D01*
X87172887Y-102065421D01*
X87155147Y-102166032D01*
X87123620Y-102229645D01*
X87120156Y-102233247D01*
X86653814Y-102699590D01*
X86189785Y-103163619D01*
X86168480Y-103178736D01*
X86148524Y-103203760D01*
X86139122Y-103214282D01*
X86136484Y-103216919D01*
X86134505Y-103220070D01*
X86126337Y-103231581D01*
X86106381Y-103256606D01*
X86102537Y-103265886D01*
X86098954Y-103297684D01*
X86096589Y-103311605D01*
X86095760Y-103315238D01*
X86095760Y-103318955D01*
X86094968Y-103333063D01*
X86091384Y-103364867D01*
X86095760Y-103390621D01*
X86095760Y-104060703D01*
X86075758Y-104128824D01*
X86049613Y-104157781D01*
X86033841Y-104180008D01*
X86023025Y-104190824D01*
X86001721Y-104205941D01*
X85981764Y-104230966D01*
X85972362Y-104241488D01*
X85969724Y-104244125D01*
X85967745Y-104247276D01*
X85959577Y-104258787D01*
X85939621Y-104283812D01*
X85935777Y-104293092D01*
X85932194Y-104324890D01*
X85929829Y-104338811D01*
X85929000Y-104342444D01*
X85929000Y-104346161D01*
X85928208Y-104360269D01*
X85924624Y-104392073D01*
X85929000Y-104417827D01*
X85929000Y-104548695D01*
X85908998Y-104616816D01*
X85892095Y-104637790D01*
X85479003Y-105050882D01*
X85416691Y-105084908D01*
X85389908Y-105087787D01*
X78677791Y-105087787D01*
X78609670Y-105067785D01*
X78563177Y-105014129D01*
X78560755Y-105006341D01*
X78503022Y-104906345D01*
X78421301Y-104837772D01*
X78321058Y-104801288D01*
X78321057Y-104801288D01*
X78214379Y-104801288D01*
X78182962Y-104812723D01*
X78137488Y-104829274D01*
X78066634Y-104833776D01*
X78051300Y-104829273D01*
X77961300Y-104796516D01*
X77961299Y-104796516D01*
X77953257Y-104796516D01*
X77885136Y-104776514D01*
X77838643Y-104722858D01*
X77832708Y-104681582D01*
X77831025Y-104681879D01*
X77820817Y-104623986D01*
X77808643Y-104554943D01*
X77755304Y-104462557D01*
X77755303Y-104462556D01*
X77753267Y-104459029D01*
X77716681Y-104404037D01*
X77710999Y-104366631D01*
X77710999Y-104184854D01*
X77715375Y-104159100D01*
X77714358Y-104150073D01*
X77711965Y-104128824D01*
X77711792Y-104127288D01*
X77711000Y-104113183D01*
X77711000Y-104109469D01*
X77710173Y-104105847D01*
X77707804Y-104091904D01*
X77704222Y-104060108D01*
X77700385Y-104050844D01*
X77680429Y-104025820D01*
X77672249Y-104014292D01*
X77670276Y-104011151D01*
X77670275Y-104011150D01*
X77667642Y-104008517D01*
X77658233Y-103997989D01*
X77642149Y-103977820D01*
X77642147Y-103977819D01*
X77638276Y-103972965D01*
X77616972Y-103957847D01*
X77209209Y-103550084D01*
X77175183Y-103487772D01*
X77180248Y-103416957D01*
X77209207Y-103371896D01*
X77266971Y-103314132D01*
X77288274Y-103299017D01*
X77292146Y-103294161D01*
X77292149Y-103294160D01*
X77308237Y-103273986D01*
X77317645Y-103263459D01*
X77320275Y-103260830D01*
X77322249Y-103257687D01*
X77330419Y-103246169D01*
X77346511Y-103225993D01*
X77346511Y-103225989D01*
X77350388Y-103221129D01*
X77354221Y-103211875D01*
X77354916Y-103205697D01*
X77354918Y-103205696D01*
X77357805Y-103180066D01*
X77360172Y-103166133D01*
X77361000Y-103162511D01*
X77361000Y-103158793D01*
X77361792Y-103144685D01*
X77363066Y-103133380D01*
X77364680Y-103119055D01*
X77364679Y-103119053D01*
X77365375Y-103112881D01*
X77361000Y-103087128D01*
X77361000Y-101893861D01*
X77365375Y-101868107D01*
X77362886Y-101846017D01*
X77361791Y-101836301D01*
X77361000Y-101822195D01*
X77361000Y-101818479D01*
X77360172Y-101814856D01*
X77357804Y-101800914D01*
X77354222Y-101769118D01*
X77350385Y-101759854D01*
X77330429Y-101734830D01*
X77322249Y-101723302D01*
X77320276Y-101720161D01*
X77319730Y-101719615D01*
X77317642Y-101717527D01*
X77308233Y-101706999D01*
X77292149Y-101686830D01*
X77292147Y-101686829D01*
X77288276Y-101681975D01*
X77266972Y-101666857D01*
X76726210Y-101126095D01*
X76692184Y-101063783D01*
X76697249Y-100992968D01*
X76739796Y-100936132D01*
X76806316Y-100911321D01*
X76815305Y-100911000D01*
X78141157Y-100911000D01*
X78209278Y-100931002D01*
X78222148Y-100940478D01*
X78276417Y-100986015D01*
X78376660Y-101022500D01*
X78376661Y-101022500D01*
X78483340Y-101022500D01*
X78583583Y-100986015D01*
X78614994Y-100959658D01*
X78665304Y-100917443D01*
X78718643Y-100825057D01*
X78737167Y-100720000D01*
X78718643Y-100614943D01*
X78665304Y-100522557D01*
X78665303Y-100522557D01*
X78583583Y-100453984D01*
X78483340Y-100417500D01*
X78483339Y-100417500D01*
X78376661Y-100417500D01*
X78276418Y-100453985D01*
X78222147Y-100499523D01*
X78157106Y-100527987D01*
X78141157Y-100529000D01*
X74850627Y-100529000D01*
X74824874Y-100524624D01*
X74793067Y-100528208D01*
X74778962Y-100529000D01*
X74775246Y-100529000D01*
X74771617Y-100529828D01*
X74757706Y-100532190D01*
X74725901Y-100535774D01*
X74716614Y-100539621D01*
X74691587Y-100559578D01*
X74680089Y-100567737D01*
X74676929Y-100569723D01*
X74674293Y-100572359D01*
X74663771Y-100581761D01*
X74638740Y-100601723D01*
X74623625Y-100623026D01*
X74492584Y-100754066D01*
X74471281Y-100769182D01*
X74451325Y-100794206D01*
X74441923Y-100804728D01*
X74439285Y-100807365D01*
X74437306Y-100810516D01*
X74429138Y-100822027D01*
X74409182Y-100847052D01*
X74405338Y-100856332D01*
X74401755Y-100888130D01*
X74399389Y-100902054D01*
X74397350Y-100910989D01*
X74362693Y-100972952D01*
X74300039Y-101006342D01*
X74231415Y-101001358D01*
X74193339Y-100987500D01*
X74086661Y-100987500D01*
X73986418Y-101023985D01*
X73904695Y-101092557D01*
X73851357Y-101184942D01*
X73831800Y-101295858D01*
X73800273Y-101359470D01*
X73796810Y-101363073D01*
X73697790Y-101462095D01*
X73635478Y-101496120D01*
X73608694Y-101499000D01*
X73091660Y-101499000D01*
X73023539Y-101478998D01*
X72977046Y-101425342D01*
X72966942Y-101355068D01*
X72967574Y-101351121D01*
X72987167Y-101240000D01*
X72982141Y-101211498D01*
X72968643Y-101134943D01*
X72915304Y-101042557D01*
X72891401Y-101022500D01*
X72833583Y-100973984D01*
X72733340Y-100937500D01*
X72733339Y-100937500D01*
X72626661Y-100937500D01*
X72535621Y-100970636D01*
X72464767Y-100975139D01*
X72449441Y-100970639D01*
X72413339Y-100957500D01*
X72306661Y-100957500D01*
X72306660Y-100957500D01*
X72228095Y-100986095D01*
X72157242Y-100990598D01*
X72141908Y-100986096D01*
X72063339Y-100957500D01*
X71956661Y-100957500D01*
X71956660Y-100957500D01*
X71878095Y-100986095D01*
X71807242Y-100990598D01*
X71791908Y-100986096D01*
X71713339Y-100957500D01*
X71606661Y-100957500D01*
X71506418Y-100993985D01*
X71424695Y-101062557D01*
X71371357Y-101154942D01*
X71351409Y-101268071D01*
X71319881Y-101331684D01*
X71258967Y-101368153D01*
X71199285Y-101369032D01*
X71185011Y-101365774D01*
X71160878Y-101355777D01*
X71136958Y-101353082D01*
X71129070Y-101352193D01*
X71115151Y-101349828D01*
X71111521Y-101349000D01*
X71111519Y-101349000D01*
X71107804Y-101349000D01*
X71093697Y-101348208D01*
X71088677Y-101347642D01*
X71061892Y-101344624D01*
X71036139Y-101349000D01*
X68633861Y-101349000D01*
X68608107Y-101344624D01*
X68580481Y-101347737D01*
X68576302Y-101348208D01*
X68562196Y-101349000D01*
X68558478Y-101349000D01*
X68554845Y-101349829D01*
X68540924Y-101352194D01*
X68509126Y-101355777D01*
X68499846Y-101359621D01*
X68474821Y-101379577D01*
X68463310Y-101387745D01*
X68460159Y-101389724D01*
X68457522Y-101392362D01*
X68447000Y-101401764D01*
X68421975Y-101421721D01*
X68406858Y-101443025D01*
X68273025Y-101576858D01*
X68251721Y-101591975D01*
X68231764Y-101617000D01*
X68222362Y-101627522D01*
X68219724Y-101630159D01*
X68217745Y-101633310D01*
X68209577Y-101644821D01*
X68189621Y-101669846D01*
X68185777Y-101679126D01*
X68182194Y-101710924D01*
X68179829Y-101724845D01*
X68179000Y-101728478D01*
X68179000Y-101732195D01*
X68178208Y-101746303D01*
X68174624Y-101778107D01*
X68179000Y-101803861D01*
X68179000Y-104486141D01*
X68174625Y-104511895D01*
X68175320Y-104518064D01*
X68175320Y-104518065D01*
X68177235Y-104535057D01*
X68178208Y-104543697D01*
X68179000Y-104557803D01*
X68179000Y-104561521D01*
X68179828Y-104565151D01*
X68182194Y-104579073D01*
X68185777Y-104610878D01*
X68189616Y-104620146D01*
X68193488Y-104625002D01*
X68193489Y-104625003D01*
X68209575Y-104645174D01*
X68217743Y-104656686D01*
X68219725Y-104659840D01*
X68222359Y-104662474D01*
X68231759Y-104672992D01*
X68247851Y-104693170D01*
X68247852Y-104693170D01*
X68251726Y-104698028D01*
X68273028Y-104713143D01*
X68616857Y-105056972D01*
X68631975Y-105078276D01*
X68636829Y-105082147D01*
X68636830Y-105082149D01*
X68656999Y-105098233D01*
X68667527Y-105107642D01*
X68670160Y-105110275D01*
X68673311Y-105112255D01*
X68684835Y-105120432D01*
X68709861Y-105140390D01*
X68719113Y-105144222D01*
X68725292Y-105144918D01*
X68725294Y-105144919D01*
X68750929Y-105147807D01*
X68764853Y-105150172D01*
X68768479Y-105151000D01*
X68772195Y-105151000D01*
X68786300Y-105151792D01*
X68811935Y-105154680D01*
X68811935Y-105154679D01*
X68818107Y-105155375D01*
X68843860Y-105151000D01*
X68921157Y-105151000D01*
X68989278Y-105171002D01*
X69002148Y-105180478D01*
X69056417Y-105226015D01*
X69156660Y-105262500D01*
X69156661Y-105262500D01*
X69263340Y-105262500D01*
X69363583Y-105226015D01*
X69374909Y-105216510D01*
X69445304Y-105157443D01*
X69498643Y-105065057D01*
X69517167Y-104960000D01*
X69498643Y-104854943D01*
X69445304Y-104762557D01*
X69415192Y-104737290D01*
X69363583Y-104693984D01*
X69263340Y-104657500D01*
X69263339Y-104657500D01*
X69156661Y-104657500D01*
X69056415Y-104693986D01*
X69002226Y-104739455D01*
X68937185Y-104767919D01*
X68867081Y-104756700D01*
X68832142Y-104732027D01*
X68597905Y-104497790D01*
X68563879Y-104435478D01*
X68561000Y-104408695D01*
X68561000Y-102948500D01*
X68581002Y-102880379D01*
X68634658Y-102833886D01*
X68687000Y-102822500D01*
X70110633Y-102822500D01*
X70114000Y-102822500D01*
X70142164Y-102819472D01*
X70194506Y-102808086D01*
X70253111Y-102778751D01*
X70306767Y-102732258D01*
X70343321Y-102675377D01*
X70396975Y-102628887D01*
X70449318Y-102617500D01*
X73241445Y-102617500D01*
X73309566Y-102637502D01*
X73330539Y-102654404D01*
X75496490Y-104820356D01*
X77655621Y-106979487D01*
X77672007Y-106999664D01*
X77677903Y-107008688D01*
X77702948Y-107028182D01*
X77714651Y-107038518D01*
X77714663Y-107038530D01*
X77731653Y-107050661D01*
X77735822Y-107053769D01*
X77777325Y-107086072D01*
X77777326Y-107086072D01*
X77783677Y-107091015D01*
X77791389Y-107093310D01*
X77791391Y-107093312D01*
X77841832Y-107108328D01*
X77846711Y-107109891D01*
X77896486Y-107126980D01*
X77896488Y-107126980D01*
X77904099Y-107129593D01*
X77912138Y-107129260D01*
X77912140Y-107129261D01*
X77964674Y-107127087D01*
X77969880Y-107126980D01*
X79796158Y-107126980D01*
X79799275Y-107127500D01*
X79808333Y-107127500D01*
X79826272Y-107130114D01*
X79834348Y-107129779D01*
X79834349Y-107129780D01*
X79886866Y-107127608D01*
X79892074Y-107127500D01*
X85654599Y-107127500D01*
X85722720Y-107147502D01*
X85743695Y-107164405D01*
X85979299Y-107400010D01*
X85995684Y-107420187D01*
X86001578Y-107429209D01*
X86026619Y-107448699D01*
X86038323Y-107459035D01*
X86038338Y-107459050D01*
X86055328Y-107471181D01*
X86059497Y-107474289D01*
X86101000Y-107506592D01*
X86101001Y-107506592D01*
X86107352Y-107511535D01*
X86115064Y-107513830D01*
X86115066Y-107513832D01*
X86165507Y-107528848D01*
X86170386Y-107530411D01*
X86220161Y-107547500D01*
X86220163Y-107547500D01*
X86227774Y-107550113D01*
X86235813Y-107549780D01*
X86235815Y-107549781D01*
X86288349Y-107547607D01*
X86293555Y-107547500D01*
X90168393Y-107547500D01*
X90236514Y-107567502D01*
X90283007Y-107621158D01*
X90294393Y-107673303D01*
X90296793Y-109205063D01*
X90276898Y-109273215D01*
X90223315Y-109319791D01*
X90171489Y-109331258D01*
X88728847Y-109339229D01*
X88727013Y-109338922D01*
X88679253Y-109339503D01*
X88645590Y-109339689D01*
X88644301Y-109339928D01*
X81333209Y-109428894D01*
X81264850Y-109409722D01*
X81217708Y-109356636D01*
X81206750Y-109286490D01*
X81207590Y-109281023D01*
X81208641Y-109275059D01*
X81208643Y-109275057D01*
X81227167Y-109170000D01*
X81208643Y-109064943D01*
X81155304Y-108972557D01*
X81122531Y-108945057D01*
X81073583Y-108903984D01*
X80973340Y-108867500D01*
X80973339Y-108867500D01*
X80866661Y-108867500D01*
X80866660Y-108867500D01*
X80796832Y-108892915D01*
X80725979Y-108897418D01*
X80710644Y-108892916D01*
X80694717Y-108887119D01*
X80613339Y-108857500D01*
X80542453Y-108857500D01*
X80474332Y-108837498D01*
X80427839Y-108783842D01*
X80419099Y-108755732D01*
X80365304Y-108662557D01*
X80283583Y-108593984D01*
X80183340Y-108557500D01*
X80183339Y-108557500D01*
X80125980Y-108557500D01*
X80057859Y-108537498D01*
X80011366Y-108483842D01*
X80001894Y-108453380D01*
X80000349Y-108444618D01*
X79998643Y-108434943D01*
X79945304Y-108342557D01*
X79945303Y-108342555D01*
X79858183Y-108269452D01*
X79818856Y-108210343D01*
X79817730Y-108139355D01*
X79830054Y-108109933D01*
X79838643Y-108095057D01*
X79857167Y-107990000D01*
X79848351Y-107940000D01*
X83762832Y-107940000D01*
X83781357Y-108045057D01*
X83834695Y-108137442D01*
X83853896Y-108153554D01*
X83893223Y-108212664D01*
X83896991Y-108271952D01*
X83894003Y-108288898D01*
X83912528Y-108393959D01*
X83965866Y-108486343D01*
X84047587Y-108554916D01*
X84147831Y-108591401D01*
X84147832Y-108591401D01*
X84260909Y-108591401D01*
X84324008Y-108587389D01*
X84377243Y-108613772D01*
X84429931Y-108657983D01*
X84530175Y-108694468D01*
X84530176Y-108694468D01*
X84636855Y-108694468D01*
X84737098Y-108657983D01*
X84788391Y-108614943D01*
X84818819Y-108589411D01*
X84818819Y-108589410D01*
X84834601Y-108576168D01*
X84899642Y-108547703D01*
X84969747Y-108558920D01*
X84996584Y-108576167D01*
X85052336Y-108622949D01*
X85152580Y-108659434D01*
X85152581Y-108659434D01*
X85259260Y-108659434D01*
X85359503Y-108622949D01*
X85389102Y-108598112D01*
X85441224Y-108554377D01*
X85494563Y-108461991D01*
X85512480Y-108360375D01*
X85544007Y-108296763D01*
X85555576Y-108285733D01*
X85618206Y-108233180D01*
X85634061Y-108205718D01*
X85671545Y-108140794D01*
X85690069Y-108035737D01*
X85671545Y-107930680D01*
X85618206Y-107838294D01*
X85589244Y-107813992D01*
X85566136Y-107794602D01*
X85526809Y-107735492D01*
X85523041Y-107719959D01*
X85522167Y-107715000D01*
X85503643Y-107609943D01*
X85450304Y-107517557D01*
X85440329Y-107509187D01*
X85368583Y-107448984D01*
X85268340Y-107412500D01*
X85268339Y-107412500D01*
X85161661Y-107412500D01*
X85061418Y-107448985D01*
X84979695Y-107517557D01*
X84926357Y-107609942D01*
X84916133Y-107667927D01*
X84884606Y-107731540D01*
X84838621Y-107762135D01*
X84794374Y-107799262D01*
X84729333Y-107827726D01*
X84659228Y-107816507D01*
X84632393Y-107799260D01*
X84605926Y-107777051D01*
X84505684Y-107740567D01*
X84505683Y-107740567D01*
X84399005Y-107740567D01*
X84392628Y-107740567D01*
X84329493Y-107744575D01*
X84276269Y-107718194D01*
X84223583Y-107673984D01*
X84123340Y-107637500D01*
X84123339Y-107637500D01*
X84016661Y-107637500D01*
X83916418Y-107673985D01*
X83834695Y-107742557D01*
X83781357Y-107834942D01*
X83762832Y-107940000D01*
X79848351Y-107940000D01*
X79838643Y-107884943D01*
X79785304Y-107792557D01*
X79766825Y-107777051D01*
X79703583Y-107723984D01*
X79603340Y-107687500D01*
X79603339Y-107687500D01*
X79496661Y-107687500D01*
X79396418Y-107723985D01*
X79314696Y-107792557D01*
X79267572Y-107874178D01*
X79216189Y-107923171D01*
X79146475Y-107936606D01*
X79080564Y-107910219D01*
X79049334Y-107874177D01*
X79025304Y-107832557D01*
X78943583Y-107763984D01*
X78843340Y-107727500D01*
X78843339Y-107727500D01*
X78736661Y-107727500D01*
X78636418Y-107763985D01*
X78554695Y-107832557D01*
X78554325Y-107833200D01*
X78502941Y-107882192D01*
X78433227Y-107895626D01*
X78367316Y-107869238D01*
X78336087Y-107833196D01*
X78321873Y-107808576D01*
X78295304Y-107762557D01*
X78279989Y-107749706D01*
X78213583Y-107693984D01*
X78113340Y-107657500D01*
X78113339Y-107657500D01*
X78006661Y-107657500D01*
X77906417Y-107693985D01*
X77875989Y-107719517D01*
X77810948Y-107747980D01*
X77740843Y-107736760D01*
X77714009Y-107719515D01*
X77683583Y-107693984D01*
X77583340Y-107657500D01*
X77583339Y-107657500D01*
X77476661Y-107657500D01*
X77376418Y-107693985D01*
X77294695Y-107762557D01*
X77247386Y-107844500D01*
X77196003Y-107893493D01*
X77138267Y-107907500D01*
X77001733Y-107907500D01*
X76933612Y-107887498D01*
X76892614Y-107844500D01*
X76845304Y-107762557D01*
X76763583Y-107693984D01*
X76663340Y-107657500D01*
X76663339Y-107657500D01*
X76556661Y-107657500D01*
X76456418Y-107693985D01*
X76374695Y-107762557D01*
X76321357Y-107854942D01*
X76302832Y-107960000D01*
X76315675Y-108032837D01*
X76316797Y-108068818D01*
X76315168Y-108083280D01*
X76287667Y-108148734D01*
X76275612Y-108160969D01*
X76236017Y-108229548D01*
X76184634Y-108278541D01*
X76114920Y-108291976D01*
X76083806Y-108284949D01*
X76063339Y-108277500D01*
X75956661Y-108277500D01*
X75856418Y-108313985D01*
X75774695Y-108382557D01*
X75721357Y-108474942D01*
X75702832Y-108580000D01*
X75721357Y-108685057D01*
X75774695Y-108777442D01*
X75856414Y-108846013D01*
X75856415Y-108846013D01*
X75856416Y-108846014D01*
X75881532Y-108855155D01*
X75938703Y-108897249D01*
X75954207Y-108932673D01*
X76014695Y-109037442D01*
X76096416Y-109106015D01*
X76196660Y-109142500D01*
X76196661Y-109142500D01*
X76303340Y-109142500D01*
X76403583Y-109106015D01*
X76423410Y-109089378D01*
X76485304Y-109037443D01*
X76538643Y-108945057D01*
X76557167Y-108840000D01*
X76546488Y-108779435D01*
X76554357Y-108708876D01*
X76599125Y-108653773D01*
X76627394Y-108639185D01*
X76628279Y-108638863D01*
X76699126Y-108634311D01*
X76761191Y-108668786D01*
X76794765Y-108731342D01*
X76795540Y-108735355D01*
X76811357Y-108825057D01*
X76864695Y-108917442D01*
X76946416Y-108986015D01*
X77046660Y-109022500D01*
X77046661Y-109022500D01*
X77153340Y-109022500D01*
X77253584Y-108986014D01*
X77345367Y-108909000D01*
X77410407Y-108880535D01*
X77469451Y-108887118D01*
X77566661Y-108922500D01*
X77566662Y-108922500D01*
X77673340Y-108922500D01*
X77773583Y-108886015D01*
X77795648Y-108867500D01*
X77855304Y-108817443D01*
X77908643Y-108725057D01*
X77910130Y-108716621D01*
X77941656Y-108653009D01*
X78002569Y-108616539D01*
X78034216Y-108612500D01*
X78093340Y-108612500D01*
X78193583Y-108576015D01*
X78241464Y-108535838D01*
X78306505Y-108507373D01*
X78376610Y-108518590D01*
X78406131Y-108545002D01*
X78407676Y-108543162D01*
X78506416Y-108626015D01*
X78606660Y-108662500D01*
X78606661Y-108662500D01*
X78713340Y-108662500D01*
X78813583Y-108626015D01*
X78912324Y-108543162D01*
X78913231Y-108544243D01*
X78941679Y-108517116D01*
X79011392Y-108503677D01*
X79077305Y-108530061D01*
X79080413Y-108532586D01*
X79087859Y-108538834D01*
X79127185Y-108597944D01*
X79130953Y-108657234D01*
X79112832Y-108759999D01*
X79131357Y-108865057D01*
X79184695Y-108957442D01*
X79266416Y-109026015D01*
X79366660Y-109062500D01*
X79450494Y-109062500D01*
X79518615Y-109082502D01*
X79565108Y-109136158D01*
X79574579Y-109166619D01*
X79575176Y-109170000D01*
X79581357Y-109205057D01*
X79614308Y-109262131D01*
X79631045Y-109331126D01*
X79607824Y-109398218D01*
X79552016Y-109442105D01*
X79506721Y-109451121D01*
X70237358Y-109563918D01*
X70231347Y-109563003D01*
X70189638Y-109564465D01*
X70186771Y-109564533D01*
X70158364Y-109564881D01*
X70154243Y-109565708D01*
X64811304Y-109753172D01*
X64742524Y-109735570D01*
X64706508Y-109703408D01*
X64680067Y-109668559D01*
X48058723Y-110301667D01*
X47989890Y-110284272D01*
X47941389Y-110232425D01*
X47927999Y-110180029D01*
X47887466Y-108984321D01*
X51085467Y-108984321D01*
X51103992Y-109089378D01*
X51157330Y-109181763D01*
X51239051Y-109250336D01*
X51339295Y-109286821D01*
X51339296Y-109286821D01*
X51445974Y-109286821D01*
X51546219Y-109250335D01*
X51546220Y-109250333D01*
X51561974Y-109244600D01*
X51608362Y-109224297D01*
X51667411Y-109230882D01*
X51688490Y-109238554D01*
X51688491Y-109238554D01*
X51795170Y-109238554D01*
X51895413Y-109202069D01*
X51919611Y-109181764D01*
X51977134Y-109133497D01*
X52030473Y-109041111D01*
X52048997Y-108936054D01*
X52030473Y-108830997D01*
X51977134Y-108738611D01*
X51960981Y-108725057D01*
X51895413Y-108670038D01*
X51795170Y-108633554D01*
X51795169Y-108633554D01*
X51688491Y-108633554D01*
X51572491Y-108675774D01*
X51526089Y-108696078D01*
X51467054Y-108689493D01*
X51445974Y-108681821D01*
X51339296Y-108681821D01*
X51239053Y-108718306D01*
X51157330Y-108786878D01*
X51103992Y-108879263D01*
X51085467Y-108984321D01*
X47887466Y-108984321D01*
X47874374Y-108598112D01*
X49250871Y-108598112D01*
X49269396Y-108703169D01*
X49322734Y-108795554D01*
X49404455Y-108864127D01*
X49504699Y-108900612D01*
X49504700Y-108900612D01*
X49611376Y-108900612D01*
X49611378Y-108900612D01*
X49611436Y-108900590D01*
X49682287Y-108896084D01*
X49735525Y-108922468D01*
X49746910Y-108932021D01*
X49847153Y-108968506D01*
X49847154Y-108968506D01*
X49953833Y-108968506D01*
X50054076Y-108932021D01*
X50081511Y-108909000D01*
X50135797Y-108863449D01*
X50189136Y-108771063D01*
X50207660Y-108666006D01*
X50189136Y-108560949D01*
X50135797Y-108468563D01*
X50113235Y-108449631D01*
X54648977Y-108449631D01*
X54667502Y-108554688D01*
X54720839Y-108647073D01*
X54789701Y-108704854D01*
X54829027Y-108763963D01*
X54832796Y-108823255D01*
X54823886Y-108873784D01*
X54842411Y-108978842D01*
X54895749Y-109071227D01*
X54977470Y-109139800D01*
X55077714Y-109176285D01*
X55077715Y-109176285D01*
X55184393Y-109176285D01*
X55268952Y-109145507D01*
X55339805Y-109141005D01*
X55355140Y-109145507D01*
X55357937Y-109146525D01*
X55458182Y-109183011D01*
X55458183Y-109183011D01*
X55564861Y-109183011D01*
X55665104Y-109146526D01*
X55705763Y-109112409D01*
X55746825Y-109077954D01*
X55800164Y-108985568D01*
X55818688Y-108880511D01*
X55800164Y-108775454D01*
X55746825Y-108683068D01*
X55741503Y-108678602D01*
X56688210Y-108678602D01*
X56706735Y-108783659D01*
X56760073Y-108876044D01*
X56841794Y-108944617D01*
X56942038Y-108981102D01*
X56942039Y-108981102D01*
X57048718Y-108981102D01*
X57148961Y-108944617D01*
X57230682Y-108876045D01*
X57232221Y-108873380D01*
X57283604Y-108824387D01*
X57341340Y-108810381D01*
X57352946Y-108810381D01*
X57453189Y-108773896D01*
X57475776Y-108754943D01*
X57534910Y-108705324D01*
X57588249Y-108612938D01*
X57606773Y-108507881D01*
X57588249Y-108402824D01*
X57534910Y-108310438D01*
X57524557Y-108301751D01*
X57453189Y-108241865D01*
X57352946Y-108205381D01*
X57352945Y-108205381D01*
X57246267Y-108205381D01*
X57146024Y-108241866D01*
X57064302Y-108310437D01*
X57063568Y-108311708D01*
X57062762Y-108313104D01*
X57011381Y-108362096D01*
X56953645Y-108376102D01*
X56942039Y-108376102D01*
X56841796Y-108412587D01*
X56760073Y-108481159D01*
X56706735Y-108573544D01*
X56688210Y-108678602D01*
X55741503Y-108678602D01*
X55728339Y-108667556D01*
X55689013Y-108608445D01*
X55687419Y-108601458D01*
X55681847Y-108589230D01*
X55677803Y-108584507D01*
X55661025Y-108564912D01*
X55652454Y-108553684D01*
X55642399Y-108538857D01*
X55645453Y-108536785D01*
X55621497Y-108496330D01*
X55619526Y-108487165D01*
X55602986Y-108393361D01*
X55599257Y-108386903D01*
X55549647Y-108300975D01*
X55467926Y-108232402D01*
X55367683Y-108195918D01*
X55367682Y-108195918D01*
X55261004Y-108195918D01*
X55234077Y-108205718D01*
X55163223Y-108210220D01*
X55109993Y-108183838D01*
X55109728Y-108183615D01*
X55009485Y-108147131D01*
X55009484Y-108147131D01*
X54902806Y-108147131D01*
X54802563Y-108183616D01*
X54720840Y-108252188D01*
X54667502Y-108344573D01*
X54648977Y-108449631D01*
X50113235Y-108449631D01*
X50054076Y-108399990D01*
X49953833Y-108363506D01*
X49953832Y-108363506D01*
X49847154Y-108363506D01*
X49847152Y-108363506D01*
X49847089Y-108363529D01*
X49776235Y-108368031D01*
X49723006Y-108341649D01*
X49711622Y-108332096D01*
X49611379Y-108295612D01*
X49611378Y-108295612D01*
X49504700Y-108295612D01*
X49404457Y-108332097D01*
X49322734Y-108400669D01*
X49269396Y-108493054D01*
X49250871Y-108598112D01*
X47874374Y-108598112D01*
X47825711Y-107162575D01*
X49671027Y-107162575D01*
X49689552Y-107267633D01*
X49699606Y-107285048D01*
X49716343Y-107354043D01*
X49708988Y-107379094D01*
X49709253Y-107379141D01*
X49686870Y-107506076D01*
X49705395Y-107611133D01*
X49758733Y-107703518D01*
X49840454Y-107772091D01*
X49940698Y-107808576D01*
X49940699Y-107808576D01*
X50047378Y-107808576D01*
X50147621Y-107772091D01*
X50174298Y-107749706D01*
X50229342Y-107703519D01*
X50278779Y-107617890D01*
X50330159Y-107568899D01*
X50399873Y-107555462D01*
X50410697Y-107557907D01*
X50418396Y-107557907D01*
X50525075Y-107557907D01*
X50625318Y-107521422D01*
X50639899Y-107509187D01*
X50707039Y-107452850D01*
X50760378Y-107360464D01*
X50778902Y-107255407D01*
X50760378Y-107150350D01*
X50753383Y-107138235D01*
X50736645Y-107069241D01*
X50744913Y-107041084D01*
X50748512Y-107020672D01*
X50748513Y-107020671D01*
X50767037Y-106915614D01*
X50748513Y-106810557D01*
X50695174Y-106718171D01*
X50685368Y-106709943D01*
X50613453Y-106649598D01*
X50513210Y-106613114D01*
X50513209Y-106613114D01*
X50406531Y-106613114D01*
X50306288Y-106649599D01*
X50224566Y-106718171D01*
X50176207Y-106801930D01*
X50124823Y-106850923D01*
X50055110Y-106864358D01*
X50036146Y-106860075D01*
X50031534Y-106860075D01*
X49924856Y-106860075D01*
X49824613Y-106896560D01*
X49742890Y-106965132D01*
X49689552Y-107057517D01*
X49671027Y-107162575D01*
X47825711Y-107162575D01*
X47823031Y-107083502D01*
X47824158Y-107061889D01*
X47825606Y-107051459D01*
X47825608Y-107051457D01*
X47823601Y-107042093D01*
X47821473Y-107024792D01*
X47816215Y-107007613D01*
X47814096Y-106997717D01*
X47814094Y-106997715D01*
X47810413Y-106991845D01*
X47805791Y-106986701D01*
X47796868Y-106981946D01*
X47778712Y-106970162D01*
X47765461Y-106959842D01*
X47724006Y-106902204D01*
X47716961Y-106864930D01*
X47716941Y-106864358D01*
X47699414Y-106373594D01*
X57078004Y-106373594D01*
X57096529Y-106478651D01*
X57149867Y-106571036D01*
X57231588Y-106639609D01*
X57331832Y-106676094D01*
X57331833Y-106676094D01*
X57379871Y-106676094D01*
X57447992Y-106696096D01*
X57465801Y-106709941D01*
X57548912Y-106787443D01*
X57662215Y-106893100D01*
X57698394Y-106954187D01*
X57700369Y-106963370D01*
X57704666Y-106987738D01*
X57758004Y-107080123D01*
X57839725Y-107148696D01*
X57939969Y-107185181D01*
X57939970Y-107185181D01*
X58046649Y-107185181D01*
X58146892Y-107148696D01*
X58169658Y-107129593D01*
X58228613Y-107080124D01*
X58281952Y-106987738D01*
X58300476Y-106882681D01*
X58281952Y-106777624D01*
X58228613Y-106685238D01*
X58217716Y-106676094D01*
X58146892Y-106616665D01*
X58073628Y-106590000D01*
X65982832Y-106590000D01*
X66001357Y-106695057D01*
X66054695Y-106787442D01*
X66136416Y-106856015D01*
X66236660Y-106892500D01*
X66236661Y-106892500D01*
X66343337Y-106892500D01*
X66343339Y-106892500D01*
X66413170Y-106867083D01*
X66484019Y-106862581D01*
X66499355Y-106867084D01*
X66596660Y-106902500D01*
X66596661Y-106902500D01*
X66703340Y-106902500D01*
X66803583Y-106866015D01*
X66842442Y-106833408D01*
X66885304Y-106797443D01*
X66938643Y-106705057D01*
X66957167Y-106600000D01*
X66938643Y-106494943D01*
X66885304Y-106402557D01*
X66876659Y-106395303D01*
X66803583Y-106333984D01*
X66703340Y-106297500D01*
X66703339Y-106297500D01*
X66596661Y-106297500D01*
X66596660Y-106297500D01*
X66526832Y-106322915D01*
X66455979Y-106327418D01*
X66440644Y-106322916D01*
X66440641Y-106322915D01*
X66343339Y-106287500D01*
X66236661Y-106287500D01*
X66136418Y-106323985D01*
X66054695Y-106392557D01*
X66001357Y-106484942D01*
X65982832Y-106590000D01*
X58073628Y-106590000D01*
X58046649Y-106580181D01*
X58046648Y-106580181D01*
X57939970Y-106580181D01*
X57936402Y-106580181D01*
X57868281Y-106560179D01*
X57850470Y-106546332D01*
X57728506Y-106432599D01*
X57692327Y-106371512D01*
X57690352Y-106362327D01*
X57673815Y-106268537D01*
X57620476Y-106176151D01*
X57605504Y-106163588D01*
X57538755Y-106107578D01*
X57438512Y-106071094D01*
X57438511Y-106071094D01*
X57331833Y-106071094D01*
X57231590Y-106107579D01*
X57149867Y-106176151D01*
X57096529Y-106268536D01*
X57078004Y-106373594D01*
X47699414Y-106373594D01*
X47666071Y-105440000D01*
X72032832Y-105440000D01*
X72051357Y-105545057D01*
X72070992Y-105579067D01*
X72104696Y-105637443D01*
X72116021Y-105646946D01*
X72186416Y-105706015D01*
X72286660Y-105742500D01*
X72286661Y-105742500D01*
X72393339Y-105742500D01*
X72493584Y-105706014D01*
X72493584Y-105706013D01*
X72514461Y-105698415D01*
X72514603Y-105698807D01*
X72553650Y-105681717D01*
X72612701Y-105688302D01*
X72706660Y-105722500D01*
X72706661Y-105722500D01*
X72813340Y-105722500D01*
X72913583Y-105686015D01*
X72937784Y-105665708D01*
X72995304Y-105617443D01*
X73048643Y-105525057D01*
X73067167Y-105420000D01*
X73064908Y-105407188D01*
X73072775Y-105336630D01*
X73099895Y-105296214D01*
X73205208Y-105190902D01*
X73267522Y-105156877D01*
X73294304Y-105153998D01*
X73575481Y-105153998D01*
X74038135Y-105153998D01*
X74063888Y-105158373D01*
X74070060Y-105157677D01*
X74070061Y-105157678D01*
X74095693Y-105154789D01*
X74109800Y-105153998D01*
X74113515Y-105153998D01*
X74113517Y-105153998D01*
X74117139Y-105153170D01*
X74131072Y-105150803D01*
X74156702Y-105147916D01*
X74156703Y-105147914D01*
X74162881Y-105147219D01*
X74172135Y-105143386D01*
X74176995Y-105139509D01*
X74176999Y-105139509D01*
X74197175Y-105123417D01*
X74208693Y-105115247D01*
X74211836Y-105113273D01*
X74214465Y-105110643D01*
X74224998Y-105101229D01*
X74245166Y-105085147D01*
X74245167Y-105085143D01*
X74250025Y-105081270D01*
X74265139Y-105059969D01*
X74290844Y-105034264D01*
X74353156Y-105000238D01*
X74423971Y-105005303D01*
X74480807Y-105047850D01*
X74489058Y-105060359D01*
X74504694Y-105087442D01*
X74586416Y-105156015D01*
X74686660Y-105192500D01*
X74686661Y-105192500D01*
X74793340Y-105192500D01*
X74893583Y-105156015D01*
X74907637Y-105144222D01*
X74975304Y-105087443D01*
X75028643Y-104995057D01*
X75047167Y-104890000D01*
X75028643Y-104784943D01*
X74975304Y-104692557D01*
X74965659Y-104684464D01*
X74893583Y-104623984D01*
X74807180Y-104592537D01*
X74750008Y-104550443D01*
X74740510Y-104528740D01*
X74739752Y-104529178D01*
X74675304Y-104417551D01*
X74593583Y-104348978D01*
X74493340Y-104312494D01*
X74493339Y-104312494D01*
X74386661Y-104312494D01*
X74286418Y-104348979D01*
X74204695Y-104417551D01*
X74151357Y-104509936D01*
X74131800Y-104620852D01*
X74100273Y-104684464D01*
X74096811Y-104688066D01*
X74049787Y-104735092D01*
X73987476Y-104769118D01*
X73960690Y-104771998D01*
X73216858Y-104771998D01*
X73191105Y-104767622D01*
X73159298Y-104771206D01*
X73145193Y-104771998D01*
X73141477Y-104771998D01*
X73137848Y-104772826D01*
X73123938Y-104775188D01*
X73092121Y-104778773D01*
X73082851Y-104782613D01*
X73057823Y-104802572D01*
X73046316Y-104810737D01*
X73043157Y-104812722D01*
X73040518Y-104815361D01*
X73029997Y-104824762D01*
X73004975Y-104844717D01*
X72989858Y-104866021D01*
X72775286Y-105080595D01*
X72726557Y-105107203D01*
X72727539Y-105109901D01*
X72585541Y-105161584D01*
X72585397Y-105161190D01*
X72546333Y-105178283D01*
X72487298Y-105171698D01*
X72467783Y-105164595D01*
X72393339Y-105137500D01*
X72286661Y-105137500D01*
X72186418Y-105173985D01*
X72104695Y-105242557D01*
X72051357Y-105334942D01*
X72032832Y-105440000D01*
X47666071Y-105440000D01*
X47577537Y-102961059D01*
X47595094Y-102892275D01*
X47618982Y-102863080D01*
X47623395Y-102859091D01*
X47623399Y-102859090D01*
X47627923Y-102850541D01*
X47639997Y-102831915D01*
X47640887Y-102830776D01*
X47645943Y-102824306D01*
X47645942Y-102824301D01*
X47648133Y-102817559D01*
X47649109Y-102810521D01*
X47649112Y-102810518D01*
X47647085Y-102801071D01*
X47644361Y-102779048D01*
X47635537Y-102526511D01*
X47598708Y-101472519D01*
X53584831Y-101472519D01*
X53603356Y-101577576D01*
X53656694Y-101669961D01*
X53738413Y-101738532D01*
X53738414Y-101738532D01*
X53738415Y-101738533D01*
X53739424Y-101738900D01*
X53796595Y-101780994D01*
X53820416Y-101835422D01*
X53823000Y-101850076D01*
X53876338Y-101942461D01*
X53958059Y-102011034D01*
X54058303Y-102047519D01*
X54058304Y-102047519D01*
X54164983Y-102047519D01*
X54265226Y-102011034D01*
X54281993Y-101996965D01*
X54346947Y-101942462D01*
X54400286Y-101850076D01*
X54412073Y-101783225D01*
X54443598Y-101719615D01*
X54458711Y-101709562D01*
X54457254Y-101707825D01*
X54480040Y-101688706D01*
X54555994Y-101624973D01*
X54559941Y-101618138D01*
X54579853Y-101583648D01*
X54609333Y-101532587D01*
X54627857Y-101427530D01*
X54614561Y-101352124D01*
X55094124Y-101352124D01*
X55112649Y-101457181D01*
X55165987Y-101549566D01*
X55247708Y-101618139D01*
X55347952Y-101654624D01*
X55347953Y-101654624D01*
X55454632Y-101654624D01*
X55554875Y-101618139D01*
X55568374Y-101606812D01*
X57314961Y-101606812D01*
X57333486Y-101711869D01*
X57386824Y-101804254D01*
X57468545Y-101872827D01*
X57568789Y-101909312D01*
X57693753Y-101909312D01*
X57761874Y-101929314D01*
X57774745Y-101938791D01*
X57819095Y-101976006D01*
X57919339Y-102012491D01*
X57919340Y-102012491D01*
X58026019Y-102012491D01*
X58126262Y-101976006D01*
X58166239Y-101942461D01*
X58207983Y-101907434D01*
X58261322Y-101815048D01*
X58261322Y-101815045D01*
X58264299Y-101809890D01*
X58315681Y-101760896D01*
X58330315Y-101754491D01*
X58407813Y-101726285D01*
X58489533Y-101657714D01*
X58542872Y-101565328D01*
X58561396Y-101460271D01*
X58542872Y-101355214D01*
X58489533Y-101262828D01*
X58470749Y-101247066D01*
X58407812Y-101194255D01*
X58307569Y-101157771D01*
X58307568Y-101157771D01*
X58238933Y-101157771D01*
X58170812Y-101137769D01*
X58157946Y-101128296D01*
X58083122Y-101065511D01*
X58083120Y-101065509D01*
X57982878Y-101029025D01*
X57982877Y-101029025D01*
X57876199Y-101029025D01*
X57775956Y-101065510D01*
X57694233Y-101134082D01*
X57629786Y-101245709D01*
X57626911Y-101244049D01*
X57612263Y-101273593D01*
X57562813Y-101306487D01*
X57468547Y-101340797D01*
X57386824Y-101409369D01*
X57333486Y-101501754D01*
X57314961Y-101606812D01*
X55568374Y-101606812D01*
X55586056Y-101591975D01*
X55636596Y-101549567D01*
X55636596Y-101549566D01*
X55653616Y-101535285D01*
X55653697Y-101535382D01*
X55685254Y-101505293D01*
X55742991Y-101491286D01*
X55766546Y-101491286D01*
X55866789Y-101454801D01*
X55882802Y-101441364D01*
X55948510Y-101386229D01*
X56001849Y-101293843D01*
X56020373Y-101188786D01*
X56001849Y-101083729D01*
X55948510Y-100991343D01*
X55935373Y-100980320D01*
X55866789Y-100922770D01*
X55766546Y-100886286D01*
X55766545Y-100886286D01*
X55659867Y-100886286D01*
X55559622Y-100922772D01*
X55460881Y-101005624D01*
X55460800Y-101005527D01*
X55429245Y-101035616D01*
X55371507Y-101049624D01*
X55347953Y-101049624D01*
X55247710Y-101086109D01*
X55165987Y-101154681D01*
X55112649Y-101247066D01*
X55094124Y-101352124D01*
X54614561Y-101352124D01*
X54609333Y-101322473D01*
X54555994Y-101230087D01*
X54536806Y-101213986D01*
X54474272Y-101161514D01*
X54412730Y-101139115D01*
X54355558Y-101097021D01*
X54346704Y-101083713D01*
X54336195Y-101065511D01*
X54297771Y-100998958D01*
X54291846Y-100993986D01*
X54216050Y-100930385D01*
X54115807Y-100893901D01*
X54115806Y-100893901D01*
X54009128Y-100893901D01*
X53908885Y-100930386D01*
X53827162Y-100998958D01*
X53773824Y-101091343D01*
X53764104Y-101146468D01*
X53732576Y-101210081D01*
X53721010Y-101221109D01*
X53656695Y-101275075D01*
X53603356Y-101367461D01*
X53584831Y-101472519D01*
X47598708Y-101472519D01*
X47535197Y-99654925D01*
X47552808Y-99586150D01*
X47604807Y-99537812D01*
X47656823Y-99524601D01*
X65318114Y-98922373D01*
X65344287Y-98924215D01*
X65346046Y-98924525D01*
X65346048Y-98924526D01*
X65359157Y-98922214D01*
X65376751Y-98920374D01*
X65379230Y-98920289D01*
X65393899Y-98916088D01*
X65400172Y-98914983D01*
X65400173Y-98914981D01*
X65407458Y-98910775D01*
X65413711Y-98905155D01*
X65413711Y-98905154D01*
X65413713Y-98905154D01*
X65416715Y-98899517D01*
X65431393Y-98877775D01*
X65435500Y-98872882D01*
X65435500Y-98872879D01*
X65438376Y-98864976D01*
X65439554Y-98856651D01*
X65439554Y-98856649D01*
X65438231Y-98850399D01*
X65435499Y-98824317D01*
X65435499Y-98730000D01*
X74092832Y-98730000D01*
X74111357Y-98835057D01*
X74164695Y-98927442D01*
X74246416Y-98996015D01*
X74346660Y-99032500D01*
X74346661Y-99032500D01*
X74453339Y-99032500D01*
X74525669Y-99006173D01*
X74596522Y-99001671D01*
X74611845Y-99006170D01*
X74711661Y-99042500D01*
X74818340Y-99042500D01*
X74918583Y-99006015D01*
X74934689Y-98992500D01*
X75000304Y-98937443D01*
X75053643Y-98845057D01*
X75058236Y-98819004D01*
X75089762Y-98755392D01*
X75150675Y-98718922D01*
X75221636Y-98721173D01*
X75280115Y-98761432D01*
X75291441Y-98777883D01*
X75354695Y-98887442D01*
X75436416Y-98956015D01*
X75536660Y-98992500D01*
X75536661Y-98992500D01*
X75643340Y-98992500D01*
X75743583Y-98956015D01*
X75765717Y-98937442D01*
X75825304Y-98887443D01*
X75878643Y-98795057D01*
X75897167Y-98690000D01*
X75878643Y-98584943D01*
X75869634Y-98569339D01*
X75852896Y-98500347D01*
X75867909Y-98449218D01*
X75868800Y-98444169D01*
X75887167Y-98340000D01*
X75868643Y-98234943D01*
X75815304Y-98142557D01*
X75791401Y-98122500D01*
X75733583Y-98073984D01*
X75633340Y-98037500D01*
X75633339Y-98037500D01*
X75526661Y-98037500D01*
X75426418Y-98073985D01*
X75344695Y-98142557D01*
X75291357Y-98234942D01*
X75272832Y-98340000D01*
X75291357Y-98445057D01*
X75300365Y-98460660D01*
X75317103Y-98529656D01*
X75302088Y-98580794D01*
X75296763Y-98610996D01*
X75265235Y-98674609D01*
X75204321Y-98711078D01*
X75133360Y-98708825D01*
X75074882Y-98668565D01*
X75063558Y-98652116D01*
X75000304Y-98542557D01*
X74918583Y-98473984D01*
X74818340Y-98437500D01*
X74818339Y-98437500D01*
X74711661Y-98437500D01*
X74711660Y-98437500D01*
X74639332Y-98463825D01*
X74568479Y-98468328D01*
X74553144Y-98463825D01*
X74453340Y-98427500D01*
X74453339Y-98427500D01*
X74346661Y-98427500D01*
X74246418Y-98463985D01*
X74164695Y-98532557D01*
X74111357Y-98624942D01*
X74092832Y-98730000D01*
X65435499Y-98730000D01*
X65435499Y-97800000D01*
X77662832Y-97800000D01*
X77681357Y-97905057D01*
X77709605Y-97953985D01*
X77734696Y-97997443D01*
X77816416Y-98066014D01*
X77879077Y-98088820D01*
X77936247Y-98130913D01*
X77945102Y-98144222D01*
X77951356Y-98155055D01*
X77951357Y-98155057D01*
X78001246Y-98241468D01*
X78004696Y-98247443D01*
X78086416Y-98316015D01*
X78186660Y-98352500D01*
X78186661Y-98352500D01*
X78293340Y-98352500D01*
X78393583Y-98316015D01*
X78431557Y-98284151D01*
X78475304Y-98247443D01*
X78491148Y-98220000D01*
X80272832Y-98220000D01*
X80291357Y-98325057D01*
X80344695Y-98417442D01*
X80426416Y-98486015D01*
X80526660Y-98522500D01*
X80526661Y-98522500D01*
X80633340Y-98522500D01*
X80733582Y-98486015D01*
X80733582Y-98486014D01*
X80733584Y-98486014D01*
X80783454Y-98444168D01*
X80848492Y-98415704D01*
X80918597Y-98426921D01*
X80971509Y-98474258D01*
X80973563Y-98477690D01*
X81008405Y-98538038D01*
X81090126Y-98606611D01*
X81190370Y-98643096D01*
X81190371Y-98643096D01*
X81297050Y-98643096D01*
X81397293Y-98606611D01*
X81428060Y-98580794D01*
X81479014Y-98538039D01*
X81532353Y-98445653D01*
X81537472Y-98416620D01*
X81568999Y-98353008D01*
X81629913Y-98316539D01*
X81661558Y-98312500D01*
X81663340Y-98312500D01*
X81763583Y-98276015D01*
X81791615Y-98252493D01*
X81845304Y-98207443D01*
X81898643Y-98115057D01*
X81917167Y-98010000D01*
X81898643Y-97904943D01*
X81865823Y-97848098D01*
X81849086Y-97779104D01*
X81872306Y-97712012D01*
X81893955Y-97688575D01*
X81912327Y-97673160D01*
X81913436Y-97674482D01*
X81941123Y-97648081D01*
X82010836Y-97634642D01*
X82041957Y-97641670D01*
X82126661Y-97672500D01*
X82233340Y-97672500D01*
X82333580Y-97636016D01*
X82333581Y-97636015D01*
X82333584Y-97636014D01*
X82358051Y-97615483D01*
X82423086Y-97587020D01*
X82493191Y-97598236D01*
X82520031Y-97615484D01*
X82556416Y-97646015D01*
X82656660Y-97682500D01*
X82656661Y-97682500D01*
X82763340Y-97682500D01*
X82863582Y-97646015D01*
X82863582Y-97646014D01*
X82863584Y-97646014D01*
X82882090Y-97630485D01*
X82947129Y-97602020D01*
X83017234Y-97613236D01*
X83044074Y-97630485D01*
X83086416Y-97666015D01*
X83186660Y-97702500D01*
X83186661Y-97702500D01*
X83293339Y-97702500D01*
X83365007Y-97676414D01*
X83435860Y-97671912D01*
X83497900Y-97706430D01*
X83512472Y-97725577D01*
X83596416Y-97796015D01*
X83696660Y-97832500D01*
X83779310Y-97832500D01*
X83847431Y-97852502D01*
X83893924Y-97906158D01*
X83897984Y-97919215D01*
X83954695Y-98017442D01*
X84036416Y-98086015D01*
X84136660Y-98122500D01*
X84136661Y-98122500D01*
X84243337Y-98122500D01*
X84243339Y-98122500D01*
X84297204Y-98102894D01*
X84368052Y-98098391D01*
X84430093Y-98132909D01*
X84449414Y-98158295D01*
X84454695Y-98167443D01*
X84492763Y-98199385D01*
X84536416Y-98236014D01*
X84576945Y-98250765D01*
X84634117Y-98292859D01*
X84659456Y-98359180D01*
X84657938Y-98391046D01*
X84652832Y-98419999D01*
X84671357Y-98525057D01*
X84724695Y-98617442D01*
X84806416Y-98686015D01*
X84906660Y-98722500D01*
X84906661Y-98722500D01*
X85013340Y-98722500D01*
X85113583Y-98686015D01*
X85189900Y-98621978D01*
X85254941Y-98593514D01*
X85270891Y-98592500D01*
X85343340Y-98592500D01*
X85443583Y-98556015D01*
X85475860Y-98528931D01*
X85525304Y-98487443D01*
X85578643Y-98395057D01*
X85597167Y-98290000D01*
X85578643Y-98184943D01*
X85568539Y-98167443D01*
X85525304Y-98092557D01*
X85443583Y-98023984D01*
X85343340Y-97987500D01*
X85343339Y-97987500D01*
X85236661Y-97987500D01*
X85228454Y-97987500D01*
X85202911Y-97980000D01*
X85842832Y-97980000D01*
X85851218Y-98027561D01*
X85853119Y-98051265D01*
X85849744Y-98284151D01*
X85848835Y-98287086D01*
X85849502Y-98300871D01*
X85849387Y-98308789D01*
X85849387Y-98308800D01*
X85849337Y-98312283D01*
X85849671Y-98315749D01*
X85849672Y-98315758D01*
X85850570Y-98325057D01*
X85852151Y-98341430D01*
X85852865Y-98344833D01*
X85852866Y-98344836D01*
X85864322Y-98399398D01*
X85872917Y-98425548D01*
X85876357Y-98445058D01*
X85929695Y-98537442D01*
X86011416Y-98606015D01*
X86111660Y-98642500D01*
X86111661Y-98642500D01*
X86218340Y-98642500D01*
X86318582Y-98606015D01*
X86318582Y-98606014D01*
X86318584Y-98606014D01*
X86323395Y-98601976D01*
X86388436Y-98573513D01*
X86404385Y-98572500D01*
X86532631Y-98572500D01*
X86536000Y-98572500D01*
X86564166Y-98569472D01*
X86615677Y-98558266D01*
X86674280Y-98528931D01*
X86727084Y-98483176D01*
X86767448Y-98420370D01*
X86787133Y-98353331D01*
X86792500Y-98316000D01*
X86792500Y-98252492D01*
X86794414Y-98230613D01*
X86797167Y-98214999D01*
X86794414Y-98199385D01*
X86792500Y-98177506D01*
X86792500Y-97877368D01*
X86792500Y-97877367D01*
X86792500Y-97874000D01*
X86789472Y-97845834D01*
X86778266Y-97794323D01*
X86775995Y-97789787D01*
X86764579Y-97755255D01*
X86763642Y-97749940D01*
X86710304Y-97657557D01*
X86628583Y-97588984D01*
X86528340Y-97552500D01*
X86528339Y-97552500D01*
X86421661Y-97552500D01*
X86421660Y-97552500D01*
X86315170Y-97591258D01*
X86257523Y-97616487D01*
X86241574Y-97617500D01*
X86112216Y-97617500D01*
X86108983Y-97617835D01*
X86108977Y-97617836D01*
X86088230Y-97619990D01*
X86088219Y-97619991D01*
X86084990Y-97620327D01*
X86081804Y-97620995D01*
X86081797Y-97620997D01*
X86035120Y-97630797D01*
X85977037Y-97659086D01*
X85933588Y-97695646D01*
X85925543Y-97701102D01*
X85882304Y-97766288D01*
X85861649Y-97833038D01*
X85855743Y-97870279D01*
X85855312Y-97899954D01*
X85853411Y-97920001D01*
X85842832Y-97980000D01*
X85202911Y-97980000D01*
X85160333Y-97967498D01*
X85113840Y-97913842D01*
X85103736Y-97843568D01*
X85119335Y-97798500D01*
X85133850Y-97773358D01*
X85138643Y-97765057D01*
X85157167Y-97660000D01*
X85138643Y-97554943D01*
X85085304Y-97462557D01*
X85085303Y-97462557D01*
X85003583Y-97393984D01*
X84903340Y-97357500D01*
X84903339Y-97357500D01*
X84796661Y-97357500D01*
X84735811Y-97379647D01*
X84664958Y-97384149D01*
X84602918Y-97349630D01*
X84583598Y-97324244D01*
X84566681Y-97294943D01*
X84565304Y-97292557D01*
X84556229Y-97284942D01*
X84483583Y-97223984D01*
X84383340Y-97187500D01*
X84383339Y-97187500D01*
X84276661Y-97187500D01*
X84252376Y-97196339D01*
X84222148Y-97207341D01*
X84151294Y-97211843D01*
X84089254Y-97177324D01*
X84055725Y-97114744D01*
X84054968Y-97110817D01*
X84048643Y-97074943D01*
X83995304Y-96982557D01*
X83992257Y-96980000D01*
X83913583Y-96913984D01*
X83813340Y-96877500D01*
X83813339Y-96877500D01*
X83706661Y-96877500D01*
X83706660Y-96877500D01*
X83626729Y-96906592D01*
X83555875Y-96911095D01*
X83493835Y-96876576D01*
X83475998Y-96853139D01*
X83393583Y-96783984D01*
X83293340Y-96747500D01*
X83293339Y-96747500D01*
X83186661Y-96747500D01*
X83086415Y-96783986D01*
X83072907Y-96795321D01*
X83007866Y-96823785D01*
X82937762Y-96812566D01*
X82910927Y-96795320D01*
X82873583Y-96763984D01*
X82773340Y-96727500D01*
X82773339Y-96727500D01*
X82666661Y-96727500D01*
X82566418Y-96763985D01*
X82566416Y-96763986D01*
X82566417Y-96763986D01*
X82484696Y-96832557D01*
X82484695Y-96832557D01*
X82467677Y-96846838D01*
X82466590Y-96845543D01*
X82438796Y-96872040D01*
X82369081Y-96885469D01*
X82303172Y-96859076D01*
X82300079Y-96856563D01*
X82213583Y-96783984D01*
X82113340Y-96747500D01*
X82113339Y-96747500D01*
X82006661Y-96747500D01*
X81906418Y-96783985D01*
X81824695Y-96852557D01*
X81771357Y-96944942D01*
X81748975Y-97071879D01*
X81747435Y-97071607D01*
X81743135Y-97110177D01*
X81698369Y-97165282D01*
X81630917Y-97187436D01*
X81626917Y-97187500D01*
X81584444Y-97187500D01*
X81584444Y-97182889D01*
X81555725Y-97184690D01*
X81502599Y-97158332D01*
X81473583Y-97133984D01*
X81373340Y-97097500D01*
X81373339Y-97097500D01*
X81266661Y-97097500D01*
X81166418Y-97133985D01*
X81084695Y-97202557D01*
X81031357Y-97294942D01*
X81012832Y-97400001D01*
X81019442Y-97437488D01*
X81011572Y-97508047D01*
X80966804Y-97563150D01*
X80938451Y-97577767D01*
X80866418Y-97603985D01*
X80784695Y-97672557D01*
X80731356Y-97764943D01*
X80731065Y-97766598D01*
X80699534Y-97830209D01*
X80696077Y-97833806D01*
X80649291Y-97880594D01*
X80586980Y-97914620D01*
X80560194Y-97917500D01*
X80526661Y-97917500D01*
X80426418Y-97953985D01*
X80344695Y-98022557D01*
X80291357Y-98114942D01*
X80272832Y-98220000D01*
X78491148Y-98220000D01*
X78528643Y-98155057D01*
X78547167Y-98050000D01*
X78528643Y-97944943D01*
X78487684Y-97874000D01*
X78477832Y-97856935D01*
X78461094Y-97787939D01*
X78484315Y-97720848D01*
X78540122Y-97676961D01*
X78610797Y-97670212D01*
X78630042Y-97675532D01*
X78676661Y-97692500D01*
X78676662Y-97692500D01*
X78697538Y-97700098D01*
X78697001Y-97701571D01*
X78734228Y-97712502D01*
X78775226Y-97755500D01*
X78790492Y-97781941D01*
X78872213Y-97850514D01*
X78972457Y-97886999D01*
X78972458Y-97886999D01*
X79079137Y-97886999D01*
X79179380Y-97850514D01*
X79200207Y-97833038D01*
X79261101Y-97781942D01*
X79314440Y-97689556D01*
X79325536Y-97626621D01*
X79357064Y-97563008D01*
X79417978Y-97526539D01*
X79449623Y-97522500D01*
X79453340Y-97522500D01*
X79553583Y-97486015D01*
X79581539Y-97462557D01*
X79635304Y-97417443D01*
X79688643Y-97325057D01*
X79707167Y-97220000D01*
X79688643Y-97114943D01*
X79635304Y-97022557D01*
X79553584Y-96953986D01*
X79553583Y-96953985D01*
X79483613Y-96928518D01*
X79426442Y-96886424D01*
X79417589Y-96873117D01*
X79365304Y-96782557D01*
X79283583Y-96713984D01*
X79183340Y-96677500D01*
X79183339Y-96677500D01*
X79076661Y-96677500D01*
X78976418Y-96713985D01*
X78894695Y-96782557D01*
X78841357Y-96874942D01*
X78822237Y-96983379D01*
X78790710Y-97046992D01*
X78729796Y-97083461D01*
X78698151Y-97087500D01*
X78676661Y-97087500D01*
X78576418Y-97123985D01*
X78494695Y-97192557D01*
X78441357Y-97284942D01*
X78422832Y-97390000D01*
X78441357Y-97495059D01*
X78492167Y-97583065D01*
X78508905Y-97652060D01*
X78485684Y-97719152D01*
X78429877Y-97763039D01*
X78359202Y-97769787D01*
X78339965Y-97764470D01*
X78336032Y-97763039D01*
X78330932Y-97761182D01*
X78273759Y-97719095D01*
X78264897Y-97705777D01*
X78258643Y-97694945D01*
X78258643Y-97694943D01*
X78205304Y-97602557D01*
X78204664Y-97602020D01*
X78123583Y-97533984D01*
X78023340Y-97497500D01*
X78023339Y-97497500D01*
X77916661Y-97497500D01*
X77816418Y-97533985D01*
X77734695Y-97602557D01*
X77681357Y-97694942D01*
X77662832Y-97800000D01*
X65435499Y-97800000D01*
X65435499Y-96610000D01*
X73752832Y-96610000D01*
X73771357Y-96715057D01*
X73824694Y-96807442D01*
X73883235Y-96856563D01*
X73906416Y-96876014D01*
X73917079Y-96879895D01*
X73974249Y-96921988D01*
X73998070Y-96976416D01*
X74001357Y-96995057D01*
X74054695Y-97087442D01*
X74136416Y-97156015D01*
X74236660Y-97192500D01*
X74236661Y-97192500D01*
X74343340Y-97192500D01*
X74443583Y-97156015D01*
X74454909Y-97146510D01*
X74525304Y-97087443D01*
X74578643Y-96995057D01*
X74597167Y-96890000D01*
X74578643Y-96784943D01*
X74525304Y-96692557D01*
X74443584Y-96623986D01*
X74443583Y-96623985D01*
X74432920Y-96620104D01*
X74375749Y-96578010D01*
X74351929Y-96523581D01*
X74348643Y-96504943D01*
X74295304Y-96412557D01*
X74295303Y-96412557D01*
X74213583Y-96343984D01*
X74113340Y-96307500D01*
X74113339Y-96307500D01*
X74006661Y-96307500D01*
X73906418Y-96343985D01*
X73824695Y-96412557D01*
X73771357Y-96504942D01*
X73752832Y-96610000D01*
X65435499Y-96610000D01*
X65435499Y-95602269D01*
X65455501Y-95534149D01*
X65487115Y-95500569D01*
X68031441Y-93639795D01*
X68098233Y-93615729D01*
X68105820Y-93615500D01*
X72408496Y-93615500D01*
X72476617Y-93635502D01*
X72496093Y-93650931D01*
X74350396Y-95444459D01*
X74354557Y-95448483D01*
X74364737Y-95461517D01*
X74386010Y-95479349D01*
X74392665Y-95485343D01*
X74404186Y-95496487D01*
X74412118Y-95501444D01*
X74423117Y-95505441D01*
X74434331Y-95506233D01*
X74434332Y-95506234D01*
X74434332Y-95506233D01*
X74434800Y-95506267D01*
X74468223Y-95501574D01*
X86364775Y-95495521D01*
X86384061Y-95498056D01*
X86389203Y-95497606D01*
X86389205Y-95497607D01*
X86407877Y-95495973D01*
X86418781Y-95495495D01*
X86423351Y-95495493D01*
X86423352Y-95495492D01*
X86431393Y-95495488D01*
X86443076Y-95492895D01*
X86443955Y-95492818D01*
X86453562Y-95488338D01*
X86461675Y-95481522D01*
X86461677Y-95481522D01*
X86462128Y-95480739D01*
X86482182Y-95454589D01*
X88011388Y-93925383D01*
X88026893Y-93913487D01*
X88030170Y-93909581D01*
X88030172Y-93909581D01*
X88042183Y-93895265D01*
X88049605Y-93887166D01*
X88052799Y-93883974D01*
X88052799Y-93883972D01*
X88058442Y-93878330D01*
X88064895Y-93868201D01*
X88065500Y-93867480D01*
X88069116Y-93857544D01*
X88070039Y-93847001D01*
X88069793Y-93846083D01*
X88065500Y-93813474D01*
X88065500Y-93631621D01*
X88085502Y-93563500D01*
X88139158Y-93517007D01*
X88198528Y-93505817D01*
X89090908Y-93555702D01*
G37*
G04 #@! TD.AperFunction*
G04 #@! TA.AperFunction,Conductor*
G36*
X108161843Y-94938952D02*
G01*
X108208336Y-94992608D01*
X108219717Y-95043874D01*
X108230265Y-96278974D01*
X108210846Y-96347263D01*
X108157589Y-96394212D01*
X108104270Y-96406050D01*
X106826000Y-96406050D01*
X106757879Y-96386048D01*
X106711386Y-96332392D01*
X106700000Y-96280050D01*
X106700000Y-95044950D01*
X106720002Y-94976829D01*
X106773658Y-94930336D01*
X106826000Y-94918950D01*
X108093722Y-94918950D01*
X108161843Y-94938952D01*
G37*
G04 #@! TD.AperFunction*
G04 #@! TA.AperFunction,Conductor*
G36*
X84160193Y-107860022D02*
G01*
X84426749Y-107891382D01*
X84491030Y-107918765D01*
X84527392Y-107968481D01*
X84642986Y-108257466D01*
X84649607Y-108327021D01*
X84617573Y-108389114D01*
X84557054Y-108424031D01*
X84513943Y-108426735D01*
X84189595Y-108390115D01*
X84125188Y-108363034D01*
X84085646Y-108305430D01*
X84082004Y-108291658D01*
X84024206Y-108007925D01*
X84030114Y-107938305D01*
X84072723Y-107882931D01*
X84138505Y-107859384D01*
X84160193Y-107860022D01*
G37*
G04 #@! TD.AperFunction*
G04 #@! TA.AperFunction,Conductor*
G36*
X85332911Y-107732589D02*
G01*
X85347298Y-107752773D01*
X85463971Y-107956950D01*
X85480141Y-108024922D01*
X85462638Y-108082268D01*
X85325990Y-108310015D01*
X85274619Y-108357374D01*
X85205800Y-108369441D01*
X85141381Y-108342386D01*
X85119670Y-108319550D01*
X84958177Y-108099332D01*
X84934406Y-108033630D01*
X84949930Y-107965507D01*
X84964017Y-107945313D01*
X85145490Y-107733594D01*
X85204063Y-107695506D01*
X85273931Y-107695131D01*
X85332911Y-107732589D01*
G37*
G04 #@! TD.AperFunction*
G04 #@! TA.AperFunction,Conductor*
G36*
X70182121Y-101860002D02*
G01*
X70228614Y-101913658D01*
X70240000Y-101966000D01*
X70240000Y-102564000D01*
X70219998Y-102632121D01*
X70166342Y-102678614D01*
X70114000Y-102690000D01*
X68687000Y-102690000D01*
X68618879Y-102669998D01*
X68572386Y-102616342D01*
X68561000Y-102564000D01*
X68561000Y-101966000D01*
X68581002Y-101897879D01*
X68634658Y-101851386D01*
X68687000Y-101840000D01*
X70114000Y-101840000D01*
X70182121Y-101860002D01*
G37*
G04 #@! TD.AperFunction*
G04 #@! TA.AperFunction,Conductor*
G36*
X54102778Y-101199764D02*
G01*
X54142092Y-101219691D01*
X54328408Y-101360687D01*
X54369987Y-101416838D01*
X54374608Y-101486555D01*
X54357887Y-101526619D01*
X54233196Y-101720582D01*
X54180386Y-101766330D01*
X54111226Y-101776263D01*
X54047674Y-101747230D01*
X54041209Y-101741209D01*
X53852030Y-101552030D01*
X53818545Y-101490707D01*
X53823529Y-101421015D01*
X53846390Y-101382696D01*
X53922926Y-101295227D01*
X53973949Y-101236916D01*
X54032909Y-101199426D01*
X54102778Y-101199764D01*
G37*
G04 #@! TD.AperFunction*
G04 #@! TA.AperFunction,Conductor*
G36*
X55319235Y-108424102D02*
G01*
X55319236Y-108424103D01*
X55384409Y-108449287D01*
X55420727Y-108494016D01*
X55544724Y-108752341D01*
X55555988Y-108821297D01*
X55528184Y-108885396D01*
X55470139Y-108924287D01*
X55432935Y-108930000D01*
X55170962Y-108930000D01*
X55103923Y-108910315D01*
X55058168Y-108857511D01*
X55052685Y-108843235D01*
X54965452Y-108566142D01*
X54964097Y-108496286D01*
X55000724Y-108436786D01*
X55063705Y-108406534D01*
X55094022Y-108405335D01*
X55319235Y-108424102D01*
G37*
G04 #@! TD.AperFunction*
G04 #@! TA.AperFunction,Conductor*
G36*
X57964664Y-101314061D02*
G01*
X58154571Y-101384724D01*
X58210537Y-101426552D01*
X58235005Y-101491997D01*
X58220207Y-101560282D01*
X58201478Y-101586081D01*
X58049434Y-101747069D01*
X57989092Y-101782292D01*
X57919286Y-101779300D01*
X57910438Y-101775902D01*
X57693588Y-101682966D01*
X57639723Y-101638465D01*
X57618468Y-101571906D01*
X57636572Y-101504423D01*
X57666472Y-101470983D01*
X57845464Y-101332265D01*
X57910509Y-101306758D01*
X57964664Y-101314061D01*
G37*
G04 #@! TD.AperFunction*
G04 #@! TA.AperFunction,Conductor*
G36*
X86603039Y-97769685D02*
G01*
X86648794Y-97822489D01*
X86660000Y-97874000D01*
X86660000Y-98316000D01*
X86640315Y-98383039D01*
X86587511Y-98428794D01*
X86536000Y-98440000D01*
X86105810Y-98440000D01*
X86038771Y-98420315D01*
X85993016Y-98367511D01*
X85981823Y-98314203D01*
X85988229Y-97872203D01*
X86008883Y-97805456D01*
X86062345Y-97760471D01*
X86112216Y-97750000D01*
X86536000Y-97750000D01*
X86603039Y-97769685D01*
G37*
G04 #@! TD.AperFunction*
G04 #@! TA.AperFunction,Conductor*
G36*
X75209038Y-102240372D02*
G01*
X75256471Y-102291673D01*
X75261371Y-102302911D01*
X75302622Y-102411931D01*
X75307937Y-102481598D01*
X75274742Y-102543079D01*
X75213578Y-102576854D01*
X75179893Y-102579630D01*
X74882547Y-102563411D01*
X74816680Y-102540104D01*
X74785632Y-102507630D01*
X74731300Y-102424838D01*
X74710977Y-102357993D01*
X74730019Y-102290768D01*
X74782383Y-102244510D01*
X74830968Y-102232871D01*
X75141398Y-102222858D01*
X75209038Y-102240372D01*
G37*
G04 #@! TD.AperFunction*
G04 #@! TA.AperFunction,Conductor*
G36*
X108332121Y-96635002D02*
G01*
X108378614Y-96688658D01*
X108390000Y-96741000D01*
X108390000Y-97914000D01*
X108369998Y-97982121D01*
X108316342Y-98028614D01*
X108264000Y-98040000D01*
X106316000Y-98040000D01*
X106247879Y-98019998D01*
X106201386Y-97966342D01*
X106190000Y-97914000D01*
X106190000Y-96741000D01*
X106210002Y-96672879D01*
X106263658Y-96626386D01*
X106316000Y-96615000D01*
X108264000Y-96615000D01*
X108332121Y-96635002D01*
G37*
G04 #@! TD.AperFunction*
M02*
