  0
SECTION
  2
HEADER
  9
$ANGBASE
  50
0.0
  9
$ANGDIR
  70
1
  9
$MEASUREMENT
  70
0
  0
ENDSEC
  0
SECTION
  2
TABLES
  0
TABLE
  2
LTYPE
  70
4
  0
LTYPE
  5
40F
  2
CONTINUOUS
  70
0
  3
Solid line
  72
65
  73
0
  40
0.0
  0
LTYPE
  5
410
  2
DASHDOT
 70
0
  3
Dash Dot ____ _ ____ _
 72
65
 73
4
 40
2.0
 49
1.25
 49
-0.25
 49
0.25
 49
-0.25
  0
LTYPE
  5
411
  2
DASHED
 70
0
  3
Dashed __ __ __ __ __
 72
65
 73
2
 40
0.75
 49
0.5
 49
-0.25
  0
LTYPE
  5
43B
  2
DOTTED
 70
0
  3
Dotted .  .  .  .
 72
65
 73
2
 40
0.2
 49
0.0
 49
-0.2
  0
ENDTAB
  0
TABLE
  2
STYLE
  70
4
  0
STYLE
  2
KICAD
  70
0
  40
0
  41
1
  42
1
  50
0
  71
0
  3
isocp.shx
  0
STYLE
  2
KICADB
  70
0
  40
0
  41
1
  42
1
  50
0
  71
0
  3
isocp.shx
  0
STYLE
  2
KICADI
  70
0
  40
0
  41
1
  42
1
  50
15
  71
0
  3
isocp.shx
  0
STYLE
  2
KICADBI
  70
0
  40
0
  41
1
  42
1
  50
15
  71
0
  3
isocp.shx
  0
ENDTAB
  0
TABLE
  2
LAYER
  70
1
  0
LAYER
  2
BLACK
  70
0
  62
7
  6
CONTINUOUS
  0
ENDTAB
  0
ENDSEC
  0
SECTION
  2
ENTITIES
0
LINE
8
BLACK
6
CONTINUOUS
10
4.38346
20
-3.24803
11
4.38209
21
-4.30276
0
LINE
8
BLACK
6
CONTINUOUS
10
3.49134
20
-4.30768
11
2.76339
21
-4.31654
0
LINE
8
BLACK
6
CONTINUOUS
10
1.88428
20
-4.34738
11
1.87976
21
-4.21419
0
LINE
8
BLACK
6
CONTINUOUS
10
3.46417
20
-3.27717
11
3.49409
21
-3.24724
0
LINE
8
BLACK
6
CONTINUOUS
10
2.57323
20
-3.75984
11
2.67874
21
-3.68268
0
LINE
8
BLACK
6
CONTINUOUS
10
2.85394
20
-3.68268
11
2.93071
21
-3.75693
0
LINE
8
BLACK
6
CONTINUOUS
10
1.87282
20
-4.04722
11
1.86822
21
-3.91559
0
LINE
8
BLACK
6
CONTINUOUS
10
3.40197
20
-3.75669
11
3.46417
21
-3.69449
0
LINE
8
BLACK
6
CONTINUOUS
10
2.57323
20
-3.89155
11
2.57323
21
-3.75984
0
LINE
8
BLACK
6
CONTINUOUS
10
1.87976
20
-4.21419
11
1.78127
21
-4.21779
0
LINE
8
BLACK
6
CONTINUOUS
10
1.86822
20
-3.91559
11
2.57323
21
-3.89155
0
LINE
8
BLACK
6
CONTINUOUS
10
2.76339
20
-4.31654
11
1.88428
21
-4.34738
0
LINE
8
BLACK
6
CONTINUOUS
10
3.49409
20
-3.24724
11
4.38346
21
-3.24803
0
LINE
8
BLACK
6
CONTINUOUS
10
2.93071
20
-3.75693
11
3.40197
21
-3.75669
0
LINE
8
BLACK
6
CONTINUOUS
10
3.46417
20
-3.69449
11
3.46417
21
-3.27717
0
LINE
8
BLACK
6
CONTINUOUS
10
4.38209
20
-4.30276
11
3.49134
21
-4.30768
0
LINE
8
BLACK
6
CONTINUOUS
10
1.78127
20
-4.21779
11
1.7754
21
-4.0508
0
LINE
8
BLACK
6
CONTINUOUS
10
2.67874
20
-3.68268
11
2.85394
21
-3.68268
0
LINE
8
BLACK
6
CONTINUOUS
10
1.7754
20
-4.0508
11
1.87282
21
-4.04722
  0
ENDSEC
  0
EOF
