M48
; DRILL file {KiCad 7.0.2} date Wed 12 Jul 2023 07:52:35 PM CEST
; FORMAT={-:-/ absolute / inch / decimal}
; #@! TF.CreationDate,2023-07-12T19:52:35+02:00
; #@! TF.GenerationSoftware,Kicad,Pcbnew,7.0.2
; #@! TF.FileFunction,Plated,3,4,Blind
FMAT,2
INCH
; #@! TA.AperFunction,Plated,Buried,ViaDrill
T1C0.0060
; #@! TA.AperFunction,Plated,Buried,ViaDrill
T2C0.0060
%
G90
G05
T1
X2.8299Y-4.0508
X2.8437Y-4.0646
X2.8575Y-4.0508
X2.8618Y-4.2441
X2.8713Y-4.0646
X2.8752Y-4.2299
X2.8888Y-4.2157
X2.9041Y-4.2441
X2.9175Y-4.2299
X2.9311Y-4.2157
X2.9455Y-4.2441
X2.9598Y-4.2299
X2.9734Y-4.2157
X3.0967Y-4.0222
X3.0976Y-4.0744
X3.1094Y-4.1185
X3.1098Y-4.0144
X3.1098Y-4.0665
X3.1665Y-3.9898
X3.1665Y-4.0341
X3.1665Y-4.0783
X3.1669Y-4.127
X3.1843Y-3.974
X3.1843Y-4.0193
X3.1843Y-4.0636
X3.1846Y-4.1122
X3.202Y-3.9593
X3.202Y-4.0045
X3.202Y-4.0488
X3.202Y-4.0931
X3.2661Y-3.9726
X3.2661Y-4.0179
X3.2661Y-4.0622
X3.2661Y-4.1108
X3.2827Y-3.9583
X3.2827Y-4.0035
X3.2827Y-4.0478
X3.2827Y-4.0921
X3.3Y-4.126
X3.3004Y-3.9888
X3.3004Y-4.0331
X3.3004Y-4.0774
X3.3616Y-4.0319
X3.3616Y-4.0841
X3.3742Y-3.9878
X3.3742Y-4.04
X3.3762Y-4.0943
X3.4126Y-3.8953
X3.5354Y-4.0949
X4.1906Y-3.8116
X4.1906Y-3.8392
X4.2043Y-3.8254
X4.2043Y-3.853
X4.2177Y-3.8396
X4.2181Y-3.8116
X4.2319Y-3.8254
X4.2319Y-3.853
X4.2457Y-3.8116
X4.2457Y-3.8392
X4.2594Y-3.8254
X4.2594Y-3.853
T2
X2.7929Y-3.8185
X2.8087Y-3.8028
X2.8087Y-3.8343
X2.8244Y-3.8185
X2.8244Y-3.85
X2.8402Y-3.8028
X2.8402Y-3.8343
X2.8402Y-3.8657
X2.8559Y-3.8185
X2.8559Y-3.85
X2.8717Y-3.8028
X2.8717Y-3.8343
X2.8717Y-3.8657
X2.8874Y-3.8185
X2.8874Y-3.85
T0
M30
