(export (version D)
  (design
    (source "/Users/theim/Work/ITk Strips/Powerboard/PBv3/powerboard_v3/barrel/pbv3.sch")
    (date "Wednesday, September 29, 2021 at 08:15:40 AM")
    (tool "Eeschema (5.1.9-0-10_14)")
    (sheet (number 1) (name /) (tstamps /)
      (title_block
        (title "Powerboard v3.1")
        (company LBNL)
        (rev)
        (date 2020-04-13)
        (source pbv3.sch)
        (comment (number 1) (value "Timon Heim"))
        (comment (number 2) (value ""))
        (comment (number 3) (value ""))
        (comment (number 4) (value ""))))
    (sheet (number 2) (name /Power/) (tstamps /59EFEA3A/)
      (title_block
        (title "Powerboard v3")
        (company LBNL)
        (rev B)
        (date 2019-05-15)
        (source pbv3_power.sch)
        (comment (number 1) (value "Timon Heim"))
        (comment (number 2) (value ""))
        (comment (number 3) (value ""))
        (comment (number 4) (value ""))))
    (sheet (number 3) (name /HV/) (tstamps /59F07AAA/)
      (title_block
        (title "Powerboard v3")
        (company LBNL)
        (rev B)
        (date 2019-05-15)
        (source hv.sch)
        (comment (number 1) (value "Timon Heim"))
        (comment (number 2) (value ""))
        (comment (number 3) (value ""))
        (comment (number 4) (value ""))))
    (sheet (number 4) (name /AMAC/) (tstamps /59F0798F/)
      (title_block
        (title "Powerboard v3.1")
        (company LBNL)
        (rev B)
        (date 2020-04-12)
        (source amac.sch)
        (comment (number 1) (value "Timon Heim"))
        (comment (number 2) (value ""))
        (comment (number 3) (value ""))
        (comment (number 4) (value "")))))
  (components
    (comp (ref J1)
      (value VIN)
      (footprint pbv3:pad)
      (libsource (lib pbv3) (part BondPad) (description ""))
      (sheetpath (names /) (tstamps /))
      (tstamp 59EEE934))
    (comp (ref J2)
      (value VIN_RTN)
      (footprint pbv3:pad)
      (libsource (lib pbv3) (part BondPad) (description ""))
      (sheetpath (names /) (tstamps /))
      (tstamp 59EEE968))
    (comp (ref J11)
      (value VOUT_X)
      (footprint pbv3:pad)
      (libsource (lib pbv3) (part BondPad) (description ""))
      (sheetpath (names /) (tstamps /))
      (tstamp 59EEFE53))
    (comp (ref J12)
      (value VOUT_Y)
      (footprint pbv3:pad)
      (libsource (lib pbv3) (part BondPad) (description ""))
      (sheetpath (names /) (tstamps /))
      (tstamp 59EEFEB2))
    (comp (ref J13)
      (value VOUT_RTN_X)
      (footprint pbv3:pad)
      (libsource (lib pbv3) (part BondPad) (description ""))
      (sheetpath (names /) (tstamps /))
      (tstamp 59EEFF0F))
    (comp (ref J14)
      (value VOUT_RTN_Y)
      (footprint pbv3:pad)
      (libsource (lib pbv3) (part BondPad) (description ""))
      (sheetpath (names /) (tstamps /))
      (tstamp 59EEFF8B))
    (comp (ref J3)
      (value OFin)
      (footprint pbv3:pad)
      (libsource (lib pbv3) (part BondPad) (description ""))
      (sheetpath (names /) (tstamps /))
      (tstamp 59F06B61))
    (comp (ref J10)
      (value HV_OUT)
      (footprint pbv3:pad)
      (libsource (lib pbv3) (part BondPad) (description ""))
      (sheetpath (names /) (tstamps /))
      (tstamp 59F0A45B))
    (comp (ref J16)
      (value HRSTBx)
      (footprint pbv3:pad)
      (libsource (lib pbv3) (part BondPad) (description ""))
      (sheetpath (names /) (tstamps /))
      (tstamp 59F2B21A))
    (comp (ref J17)
      (value LDx0EN)
      (footprint pbv3:pad)
      (libsource (lib pbv3) (part BondPad) (description ""))
      (sheetpath (names /) (tstamps /))
      (tstamp 59F2B4B6))
    (comp (ref J18)
      (value HREFx)
      (footprint pbv3:pad)
      (libsource (lib pbv3) (part BondPad) (description ""))
      (sheetpath (names /) (tstamps /))
      (tstamp 59F2B758))
    (comp (ref J19)
      (value NTCxP)
      (footprint pbv3:pad)
      (libsource (lib pbv3) (part BondPad) (description ""))
      (sheetpath (names /) (tstamps /))
      (tstamp 59F2CFAB))
    (comp (ref J20)
      (value NTCxN)
      (footprint pbv3:pad)
      (libsource (lib pbv3) (part BondPad) (description ""))
      (sheetpath (names /) (tstamps /))
      (tstamp 59F2D40A))
    (comp (ref J21)
      (value LDx1EN)
      (footprint pbv3:pad)
      (libsource (lib pbv3) (part BondPad) (description ""))
      (sheetpath (names /) (tstamps /))
      (tstamp 59F2D6A1))
    (comp (ref J15)
      (value SSSHx)
      (footprint pbv3:pad)
      (libsource (lib pbv3) (part BondPad) (description ""))
      (sheetpath (names /) (tstamps /))
      (tstamp 59F365AA))
    (comp (ref J24)
      (value CALx)
      (footprint pbv3:pad)
      (libsource (lib pbv3) (part BondPad) (description ""))
      (sheetpath (names /) (tstamps /))
      (tstamp 59F36857))
    (comp (ref J23)
      (value SHUNTx)
      (footprint pbv3:pad)
      (libsource (lib pbv3) (part BondPad) (description ""))
      (sheetpath (names /) (tstamps /))
      (tstamp 59F36B07))
    (comp (ref J22)
      (value LDx2EN)
      (footprint pbv3:pad)
      (libsource (lib pbv3) (part BondPad) (description ""))
      (sheetpath (names /) (tstamps /))
      (tstamp 59F36DB7))
    (comp (ref J30)
      (value HRSTBy)
      (footprint pbv3:pad)
      (libsource (lib pbv3) (part BondPad) (description ""))
      (sheetpath (names /) (tstamps /))
      (tstamp 59F3BEC5))
    (comp (ref J31)
      (value LDy0EN)
      (footprint pbv3:pad)
      (libsource (lib pbv3) (part BondPad) (description ""))
      (sheetpath (names /) (tstamps /))
      (tstamp 59F3BECB))
    (comp (ref J32)
      (value HREFy)
      (footprint pbv3:pad)
      (libsource (lib pbv3) (part BondPad) (description ""))
      (sheetpath (names /) (tstamps /))
      (tstamp 59F3BED1))
    (comp (ref J33)
      (value NTCyN)
      (footprint pbv3:pad)
      (libsource (lib pbv3) (part BondPad) (description ""))
      (sheetpath (names /) (tstamps /))
      (tstamp 59F3BED7))
    (comp (ref J34)
      (value NTCyP)
      (footprint pbv3:pad)
      (libsource (lib pbv3) (part BondPad) (description ""))
      (sheetpath (names /) (tstamps /))
      (tstamp 59F3BEDD))
    (comp (ref J35)
      (value LDy1EN)
      (footprint pbv3:pad)
      (libsource (lib pbv3) (part BondPad) (description ""))
      (sheetpath (names /) (tstamps /))
      (tstamp 59F3BEE3))
    (comp (ref J29)
      (value SSSHy)
      (footprint pbv3:pad)
      (libsource (lib pbv3) (part BondPad) (description ""))
      (sheetpath (names /) (tstamps /))
      (tstamp 59F3BEE9))
    (comp (ref J38)
      (value CAly)
      (footprint pbv3:pad)
      (libsource (lib pbv3) (part BondPad) (description ""))
      (sheetpath (names /) (tstamps /))
      (tstamp 59F3BEEF))
    (comp (ref J37)
      (value SHUNTy)
      (footprint pbv3:pad)
      (libsource (lib pbv3) (part BondPad) (description ""))
      (sheetpath (names /) (tstamps /))
      (tstamp 59F3BEF5))
    (comp (ref J36)
      (value LDy2EN)
      (footprint pbv3:pad)
      (libsource (lib pbv3) (part BondPad) (description ""))
      (sheetpath (names /) (tstamps /))
      (tstamp 59F3BEFB))
    (comp (ref J39)
      (value HVretY)
      (footprint pbv3:pad)
      (libsource (lib pbv3) (part BondPad) (description ""))
      (sheetpath (names /) (tstamps /))
      (tstamp 59F3FFE2))
    (comp (ref J25)
      (value HVretX)
      (footprint pbv3:pad)
      (libsource (lib pbv3) (part BondPad) (description ""))
      (sheetpath (names /) (tstamps /))
      (tstamp 59F402B6))
    (comp (ref J40)
      (value CMDoutP)
      (footprint pbv3:pad)
      (libsource (lib pbv3) (part BondPad) (description ""))
      (sheetpath (names /) (tstamps /))
      (tstamp 59F4095C))
    (comp (ref J41)
      (value CMDoutN)
      (footprint pbv3:pad)
      (libsource (lib pbv3) (part BondPad) (description ""))
      (sheetpath (names /) (tstamps /))
      (tstamp 59F40C45))
    (comp (ref J26)
      (value CMDinP)
      (footprint pbv3:pad)
      (libsource (lib pbv3) (part BondPad) (description ""))
      (sheetpath (names /) (tstamps /))
      (tstamp 59F41436))
    (comp (ref J27)
      (value CMDinN)
      (footprint pbv3:pad)
      (libsource (lib pbv3) (part BondPad) (description ""))
      (sheetpath (names /) (tstamps /))
      (tstamp 59F41709))
    (comp (ref J42)
      (value OFout)
      (footprint pbv3:pad)
      (libsource (lib pbv3) (part BondPad) (description ""))
      (sheetpath (names /) (tstamps /))
      (tstamp 59F422D1))
    (comp (ref J28)
      (value CAL)
      (footprint pbv3:pad)
      (libsource (lib pbv3) (part BondPad) (description ""))
      (sheetpath (names /) (tstamps /))
      (tstamp 59F425B4))
    (comp (ref J4)
      (value HV_IN)
      (footprint pbv3:pad)
      (libsource (lib pbv3) (part BondPad) (description ""))
      (sheetpath (names /) (tstamps /))
      (tstamp 59F0A7A4))
    (comp (ref J5)
      (value T1V4)
      (footprint pbv3:pad)
      (libsource (lib pbv3) (part BondPad) (description ""))
      (sheetpath (names /) (tstamps /))
      (tstamp 5AABF9E9))
    (comp (ref J6)
      (value T3V3)
      (footprint pbv3:pad)
      (libsource (lib pbv3) (part BondPad) (description ""))
      (sheetpath (names /) (tstamps /))
      (tstamp 5AABFC0C))
    (comp (ref C1)
      (value 10pF)
      (footprint Capacitors_SMD:C_0402)
      (libsource (lib Device) (part C) (description "Unpolarized capacitor"))
      (sheetpath (names /Power/) (tstamps /59EFEA3A/))
      (tstamp 59F0106D))
    (comp (ref C2)
      (value 22uF)
      (footprint Capacitors_SMD:C_0805)
      (libsource (lib Device) (part C) (description "Unpolarized capacitor"))
      (sheetpath (names /Power/) (tstamps /59EFEA3A/))
      (tstamp 59F01074))
    (comp (ref C4)
      (value 10uF)
      (footprint Capacitors_SMD:C_0805)
      (libsource (lib Device) (part C) (description "Unpolarized capacitor"))
      (sheetpath (names /Power/) (tstamps /59EFEA3A/))
      (tstamp 59F0107B))
    (comp (ref C5)
      (value 10uF)
      (footprint Capacitors_SMD:C_0805)
      (libsource (lib Device) (part C) (description "Unpolarized capacitor"))
      (sheetpath (names /Power/) (tstamps /59EFEA3A/))
      (tstamp 59F01082))
    (comp (ref L1)
      (value 12.3nH)
      (footprint pbv3:0806SQ-12N)
      (libsource (lib Device) (part L) (description Inductor))
      (sheetpath (names /Power/) (tstamps /59EFEA3A/))
      (tstamp 59F01089))
    (comp (ref L2)
      (value 545nH)
      (footprint pbv3:YaleCoil)
      (libsource (lib Device) (part L) (description Inductor))
      (sheetpath (names /Power/) (tstamps /59EFEA3A/))
      (tstamp 59F010B7))
    (comp (ref L3)
      (value 12.3nH)
      (footprint pbv3:0806SQ-12N)
      (libsource (lib Device) (part L) (description Inductor))
      (sheetpath (names /Power/) (tstamps /59EFEA3A/))
      (tstamp 59F010BE))
    (comp (ref C7)
      (value 10uF)
      (footprint Capacitors_SMD:C_0805)
      (libsource (lib Device) (part C) (description "Unpolarized capacitor"))
      (sheetpath (names /Power/) (tstamps /59EFEA3A/))
      (tstamp 59F010C5))
    (comp (ref C8)
      (value 10uF)
      (footprint Capacitors_SMD:C_0805)
      (libsource (lib Device) (part C) (description "Unpolarized capacitor"))
      (sheetpath (names /Power/) (tstamps /59EFEA3A/))
      (tstamp 59F010CC))
    (comp (ref C10)
      (value 22uF)
      (footprint Capacitors_SMD:C_0805)
      (libsource (lib Device) (part C) (description "Unpolarized capacitor"))
      (sheetpath (names /Power/) (tstamps /59EFEA3A/))
      (tstamp 59F010D3))
    (comp (ref C6)
      (value 220nF)
      (footprint Capacitors_SMD:C_0402)
      (libsource (lib Device) (part C) (description "Unpolarized capacitor"))
      (sheetpath (names /Power/) (tstamps /59EFEA3A/))
      (tstamp 59F010DA))
    (comp (ref R1)
      (value 499k)
      (footprint Resistors_SMD:R_0201)
      (libsource (lib Device) (part R) (description Resistor))
      (sheetpath (names /Power/) (tstamps /59EFEA3A/))
      (tstamp 59F01147))
    (comp (ref R2)
      (value 324k)
      (footprint Resistors_SMD:R_0201)
      (libsource (lib Device) (part R) (description Resistor))
      (sheetpath (names /Power/) (tstamps /59EFEA3A/))
      (tstamp 59F0114E))
    (comp (ref R3)
      (value 130k)
      (footprint Resistors_SMD:R_0201)
      (libsource (lib Device) (part R) (description Resistor))
      (sheetpath (names /Power/) (tstamps /59EFEA3A/))
      (tstamp 59F01155))
    (comp (ref C3)
      (value 220nF)
      (footprint Capacitors_SMD:C_0402)
      (libsource (lib Device) (part C) (description "Unpolarized capacitor"))
      (sheetpath (names /Power/) (tstamps /59EFEA3A/))
      (tstamp 59F0115C))
    (comp (ref U2)
      (value LINPOL12V)
      (footprint Housings_DFN_QFN:DFN-8_2x2mm_Pitch0.5mm)
      (libsource (lib pbv3) (part LREG) (description ""))
      (sheetpath (names /Power/) (tstamps /59EFEA3A/))
      (tstamp 59F011BA))
    (comp (ref C9)
      (value 4.7uF)
      (footprint Capacitors_SMD:C_0402)
      (libsource (lib Device) (part C) (description "Unpolarized capacitor"))
      (sheetpath (names /Power/) (tstamps /59EFEA3A/))
      (tstamp 59F011D3))
    (comp (ref NTC1)
      (value 10k)
      (footprint Resistors_SMD:R_0402)
      (libsource (lib Device) (part R) (description Resistor))
      (sheetpath (names /Power/) (tstamps /59EFEA3A/))
      (tstamp 59F01D17))
    (comp (ref U1)
      (value BPOL12V)
      (footprint Housings_DFN_QFN:QFN-32-1EP_5x5mm_Pitch0.5mm)
      (libsource (lib pbv3) (part bpol12v) (description "CERN BPOL12V DCDC converter"))
      (sheetpath (names /Power/) (tstamps /59EFEA3A/))
      (tstamp 59F01058))
    (comp (ref C11)
      (value 100nF)
      (footprint pbv3:SMD_0508)
      (libsource (lib Device) (part C) (description "Unpolarized capacitor"))
      (sheetpath (names /Power/) (tstamps /59EFEA3A/))
      (tstamp 59F4F093))
    (comp (ref C28)
      (value 10uF)
      (footprint Capacitors_SMD:C_0402)
      (libsource (lib Device) (part C) (description "Unpolarized capacitor"))
      (sheetpath (names /Power/) (tstamps /59EFEA3A/))
      (tstamp 59F76B63))
    (comp (ref R22)
      (value 300m)
      (footprint Resistors_SMD:R_0201)
      (libsource (lib Device) (part R) (description Resistor))
      (sheetpath (names /Power/) (tstamps /59EFEA3A/))
      (tstamp 59F77035))
    (comp (ref R23)
      (value 300m)
      (footprint Resistors_SMD:R_0201)
      (libsource (lib Device) (part R) (description Resistor))
      (sheetpath (names /Power/) (tstamps /59EFEA3A/))
      (tstamp 59F770A0))
    (comp (ref R4)
      (value 10k)
      (footprint Resistors_SMD:R_0201)
      (libsource (lib Device) (part R) (description Resistor))
      (sheetpath (names /Power/) (tstamps /59EFEA3A/))
      (tstamp 5AAC2F26))
    (comp (ref R12)
      (value 30k)
      (footprint Resistors_SMD:R_0201)
      (libsource (lib Device) (part R) (description Resistor))
      (sheetpath (names /Power/) (tstamps /59EFEA3A/))
      (tstamp 5AAC42E0))
    (comp (ref R24)
      (value 3k)
      (footprint Resistors_SMD:R_0201)
      (libsource (lib Device) (part R) (description Resistor))
      (sheetpath (names /Power/) (tstamps /59EFEA3A/))
      (tstamp 5B4010B7))
    (comp (ref R25)
      (value 3k)
      (footprint Resistors_SMD:R_0201)
      (libsource (lib Device) (part R) (description Resistor))
      (sheetpath (names /Power/) (tstamps /59EFEA3A/))
      (tstamp 5B401147))
    (comp (ref R26)
      (value 3k)
      (footprint Resistors_SMD:R_0201)
      (libsource (lib Device) (part R) (description Resistor))
      (sheetpath (names /Power/) (tstamps /59EFEA3A/))
      (tstamp 5B40179D))
    (comp (ref R14)
      (value 500)
      (footprint Resistors_SMD:R_0201)
      (libsource (lib Device) (part R) (description Resistor))
      (sheetpath (names /HV/) (tstamps /59F07AAA/))
      (tstamp 59F08275))
    (comp (ref C19)
      (value 1nF)
      (footprint Capacitors_SMD:C_0402)
      (libsource (lib Device) (part C) (description "Unpolarized capacitor"))
      (sheetpath (names /HV/) (tstamps /59F07AAA/))
      (tstamp 59F0827C))
    (comp (ref C20)
      (value 56nF/1kV)
      (footprint Capacitors_SMD:C_1210)
      (libsource (lib Device) (part C) (description "Unpolarized capacitor"))
      (sheetpath (names /HV/) (tstamps /59F07AAA/))
      (tstamp 59F08283))
    (comp (ref D1)
      (value BAT54-SDW)
      (footprint TO_SOT_Packages_SMD:SOT-363_SC-70-6)
      (libsource (lib pbv3) (part BAS70DW-04) (description "Quad diode"))
      (sheetpath (names /HV/) (tstamps /59F07AAA/))
      (tstamp 59F0828A))
    (comp (ref C22)
      (value 1uF)
      (footprint Capacitors_SMD:C_0603)
      (libsource (lib Device) (part C) (description "Unpolarized capacitor"))
      (sheetpath (names /HV/) (tstamps /59F07AAA/))
      (tstamp 59F08291))
    (comp (ref C23)
      (value 1uF)
      (footprint Capacitors_SMD:C_0603)
      (libsource (lib Device) (part C) (description "Unpolarized capacitor"))
      (sheetpath (names /HV/) (tstamps /59F07AAA/))
      (tstamp 59F08298))
    (comp (ref C24)
      (value 1uF)
      (footprint Capacitors_SMD:C_0603)
      (libsource (lib Device) (part C) (description "Unpolarized capacitor"))
      (sheetpath (names /HV/) (tstamps /59F07AAA/))
      (tstamp 59F0829F))
    (comp (ref C21)
      (value 56nF/1kV)
      (footprint Capacitors_SMD:C_1210)
      (libsource (lib Device) (part C) (description "Unpolarized capacitor"))
      (sheetpath (names /HV/) (tstamps /59F07AAA/))
      (tstamp 59F082A6))
    (comp (ref R15)
      (value 100)
      (footprint Resistors_SMD:R_0402)
      (libsource (lib Device) (part R) (description Resistor))
      (sheetpath (names /HV/) (tstamps /59F07AAA/))
      (tstamp 59F082D5))
    (comp (ref R16)
      (value 0)
      (footprint Resistors_SMD:R_0402)
      (libsource (lib Device) (part R) (description Resistor))
      (sheetpath (names /HV/) (tstamps /59F07AAA/))
      (tstamp 59F082DC))
    (comp (ref C25)
      (value 10nF)
      (footprint Capacitors_SMD:C_0402)
      (libsource (lib Device) (part C) (description "Unpolarized capacitor"))
      (sheetpath (names /HV/) (tstamps /59F07AAA/))
      (tstamp 59F082E3))
    (comp (ref Q1)
      (value HVmux)
      (footprint pbv3:HVmux)
      (libsource (lib Device) (part Q_NMOS_DGS) (description "N-MOSFET transistor, drain/gate/source"))
      (sheetpath (names /HV/) (tstamps /59F07AAA/))
      (tstamp 59F082EA))
    (comp (ref R17)
      (value 20k)
      (footprint Resistors_SMD:R_0402)
      (libsource (lib Device) (part R) (description Resistor))
      (sheetpath (names /HV/) (tstamps /59F07AAA/))
      (tstamp 59F082F1))
    (comp (ref D2)
      (value BZX84C4V7)
      (footprint Diodes_SMD:D_SOT-23_ANK)
      (libsource (lib Device) (part D_Zener) (description "Zener diode"))
      (sheetpath (names /HV/) (tstamps /59F07AAA/))
      (tstamp 59F082F8))
    (comp (ref R18)
      (value 5M)
      (footprint Resistors_SMD:R_0805)
      (libsource (lib Device) (part R) (description Resistor))
      (sheetpath (names /HV/) (tstamps /59F07AAA/))
      (tstamp 59F08314))
    (comp (ref R19)
      (value 5M)
      (footprint Resistors_SMD:R_0805)
      (libsource (lib Device) (part R) (description Resistor))
      (sheetpath (names /HV/) (tstamps /59F07AAA/))
      (tstamp 59F0831B))
    (comp (ref R20)
      (value 5k)
      (footprint Resistors_SMD:R_0805)
      (libsource (lib Device) (part R) (description Resistor))
      (sheetpath (names /HV/) (tstamps /59F07AAA/))
      (tstamp 59F08322))
    (comp (ref R21)
      (value 5k)
      (footprint Resistors_SMD:R_0805)
      (libsource (lib Device) (part R) (description Resistor))
      (sheetpath (names /HV/) (tstamps /59F07AAA/))
      (tstamp 59F08329))
    (comp (ref C26)
      (value 56nF/1kV)
      (footprint Capacitors_SMD:C_1210)
      (libsource (lib Device) (part C) (description "Unpolarized capacitor"))
      (sheetpath (names /HV/) (tstamps /59F07AAA/))
      (tstamp 59F08330))
    (comp (ref C27)
      (value 56nF/1kV)
      (footprint Capacitors_SMD:C_1210)
      (libsource (lib Device) (part C) (description "Unpolarized capacitor"))
      (sheetpath (names /HV/) (tstamps /59F07AAA/))
      (tstamp 59F08337))
    (comp (ref D3)
      (value GDZ5V1LP3-7)
      (footprint pbv3:D_0402)
      (datasheet ~)
      (libsource (lib Device) (part D_Zener) (description "Zener diode"))
      (sheetpath (names /HV/) (tstamps /59F07AAA/))
      (tstamp 5E97BF80))
    (comp (ref U3)
      (value AMACv2)
      (footprint pbv3:AMACv2)
      (libsource (lib pbv3) (part AMACv2) (description "AMACv2for ITk Strips"))
      (sheetpath (names /AMAC/) (tstamps /59F0798F/))
      (tstamp 59F0B0F9))
    (comp (ref R9)
      (value 14k)
      (footprint Resistors_SMD:R_0201)
      (libsource (lib Device) (part R) (description Resistor))
      (sheetpath (names /AMAC/) (tstamps /59F0798F/))
      (tstamp 59F0D491))
    (comp (ref R10)
      (value 1k)
      (footprint Resistors_SMD:R_0201)
      (libsource (lib Device) (part R) (description Resistor))
      (sheetpath (names /AMAC/) (tstamps /59F0798F/))
      (tstamp 59F0D4CA))
    (comp (ref R11)
      (value 1k)
      (footprint Resistors_SMD:R_0201)
      (libsource (lib Device) (part R) (description Resistor))
      (sheetpath (names /AMAC/) (tstamps /59F0798F/))
      (tstamp 59F0D821))
    (comp (ref C17)
      (value 10nF)
      (footprint Capacitors_SMD:C_0402)
      (libsource (lib Device) (part C) (description "Unpolarized capacitor"))
      (sheetpath (names /AMAC/) (tstamps /59F0798F/))
      (tstamp 59F0F7AD))
    (comp (ref R6)
      (value 70k)
      (footprint Resistors_SMD:R_0402)
      (libsource (lib Device) (part R) (description Resistor))
      (sheetpath (names /AMAC/) (tstamps /59F0798F/))
      (tstamp 59F10673))
    (comp (ref R7)
      (value 70k)
      (footprint Resistors_SMD:R_0402)
      (libsource (lib Device) (part R) (description Resistor))
      (sheetpath (names /AMAC/) (tstamps /59F0798F/))
      (tstamp 59F106AA))
    (comp (ref C13)
      (value 150pF)
      (footprint Capacitors_SMD:C_0402)
      (libsource (lib Device) (part C) (description "Unpolarized capacitor"))
      (sheetpath (names /AMAC/) (tstamps /59F0798F/))
      (tstamp 59F4CE9B))
    (comp (ref C14)
      (value 150pF)
      (footprint Capacitors_SMD:C_0402)
      (libsource (lib Device) (part C) (description "Unpolarized capacitor"))
      (sheetpath (names /AMAC/) (tstamps /59F0798F/))
      (tstamp 59F4CEE4))
    (comp (ref C18)
      (value 1nF)
      (footprint Capacitors_SMD:C_0402)
      (libsource (lib Device) (part C) (description "Unpolarized capacitor"))
      (sheetpath (names /AMAC/) (tstamps /59F0798F/))
      (tstamp 59F573B1))
    (comp (ref R13)
      (value 100k)
      (footprint Resistors_SMD:R_0201)
      (libsource (lib Device) (part R) (description Resistor))
      (sheetpath (names /AMAC/) (tstamps /59F0798F/))
      (tstamp 59F57760))
    (comp (ref R8)
      (value 1k)
      (footprint Resistors_SMD:R_0201)
      (libsource (lib Device) (part R) (description Resistor))
      (sheetpath (names /AMAC/) (tstamps /59F0798F/))
      (tstamp 59F579B7))
    (comp (ref R5)
      (value 1k)
      (footprint Resistors_SMD:R_0201)
      (libsource (lib Device) (part R) (description Resistor))
      (sheetpath (names /AMAC/) (tstamps /59F0798F/))
      (tstamp 59F7449B))
    (comp (ref C12)
      (value 10nF)
      (footprint Capacitors_SMD:C_0402)
      (libsource (lib Device) (part C) (description "Unpolarized capacitor"))
      (sheetpath (names /AMAC/) (tstamps /59F0798F/))
      (tstamp 59F6B083))
    (comp (ref R27)
      (value DNM)
      (footprint Resistors_SMD:R_0201)
      (libsource (lib Device) (part R) (description Resistor))
      (sheetpath (names /AMAC/) (tstamps /59F0798F/))
      (tstamp 5B71C736))
    (comp (ref C15)
      (value 1nF)
      (footprint Capacitors_SMD:C_0402)
      (datasheet ~)
      (libsource (lib Device) (part C) (description "Unpolarized capacitor"))
      (sheetpath (names /AMAC/) (tstamps /59F0798F/))
      (tstamp 5C015A86))
    (comp (ref R28)
      (value 1k)
      (footprint Resistors_SMD:R_0201)
      (datasheet ~)
      (libsource (lib Device) (part R) (description Resistor))
      (sheetpath (names /AMAC/) (tstamps /59F0798F/))
      (tstamp 5E946F60))
    (comp (ref R29)
      (value 100k)
      (footprint Resistors_SMD:R_0201)
      (libsource (lib Device) (part R) (description Resistor))
      (sheetpath (names /AMAC/) (tstamps /59F0798F/))
      (tstamp 5EBC6EC4)))
  (libparts
    (libpart (lib Device) (part C)
      (description "Unpolarized capacitor")
      (docs ~)
      (footprints
        (fp C_*))
      (fields
        (field (name Reference) C)
        (field (name Value) C))
      (pins
        (pin (num 1) (name ~) (type passive))
        (pin (num 2) (name ~) (type passive))))
    (libpart (lib Device) (part D_Zener)
      (description "Zener diode")
      (docs ~)
      (footprints
        (fp TO-???*)
        (fp *_Diode_*)
        (fp *SingleDiode*)
        (fp D_*))
      (fields
        (field (name Reference) D)
        (field (name Value) D_Zener))
      (pins
        (pin (num 1) (name K) (type passive))
        (pin (num 2) (name A) (type passive))))
    (libpart (lib Device) (part L)
      (description Inductor)
      (docs ~)
      (footprints
        (fp Choke_*)
        (fp *Coil*)
        (fp Inductor_*)
        (fp L_*))
      (fields
        (field (name Reference) L)
        (field (name Value) L))
      (pins
        (pin (num 1) (name 1) (type passive))
        (pin (num 2) (name 2) (type passive))))
    (libpart (lib Device) (part Q_NMOS_DGS)
      (description "N-MOSFET transistor, drain/gate/source")
      (docs ~)
      (fields
        (field (name Reference) Q)
        (field (name Value) Q_NMOS_DGS))
      (pins
        (pin (num 1) (name D) (type passive))
        (pin (num 2) (name G) (type input))
        (pin (num 3) (name S) (type passive))))
    (libpart (lib Device) (part R)
      (description Resistor)
      (docs ~)
      (footprints
        (fp R_*))
      (fields
        (field (name Reference) R)
        (field (name Value) R))
      (pins
        (pin (num 1) (name ~) (type passive))
        (pin (num 2) (name ~) (type passive))))
    (libpart (lib pbv3) (part AMACv2)
      (description "AMACv2for ITk Strips")
      (fields
        (field (name Reference) U)
        (field (name Value) AMACv2))
      (pins
        (pin (num 1) (name GND) (type input))
        (pin (num 2) (name GND) (type input))
        (pin (num 3) (name RO_PG) (type input))
        (pin (num 4) (name GND) (type input))
        (pin (num 5) (name REGOUT2) (type input))
        (pin (num 6) (name ID4) (type input))
        (pin (num 7) (name ID3) (type input))
        (pin (num 8) (name ID2) (type input))
        (pin (num 9) (name ID1) (type input))
        (pin (num 10) (name ID0) (type input))
        (pin (num 11) (name GND) (type input))
        (pin (num 12) (name BG900) (type input))
        (pin (num 13) (name GND) (type input))
        (pin (num 14) (name GPI) (type input))
        (pin (num 15) (name GND) (type input))
        (pin (num 16) (name LDx0EN) (type input))
        (pin (num 17) (name GND) (type input))
        (pin (num 18) (name HRSTBx) (type input))
        (pin (num 19) (name GND) (type input))
        (pin (num 20) (name SSSHx) (type input))
        (pin (num 21) (name GND) (type input))
        (pin (num 22) (name HREFx) (type input))
        (pin (num 23) (name GND) (type input))
        (pin (num 24) (name NTCxP) (type input))
        (pin (num 25) (name GND) (type input))
        (pin (num 26) (name NTCxN) (type input))
        (pin (num 27) (name GND) (type input))
        (pin (num 28) (name LDx1EN) (type input))
        (pin (num 29) (name GND) (type input))
        (pin (num 30) (name LDx2EN) (type input))
        (pin (num 31) (name GND) (type input))
        (pin (num 32) (name SHUNTx) (type input))
        (pin (num 33) (name GND) (type input))
        (pin (num 34) (name CALx) (type input))
        (pin (num 35) (name GND) (type input))
        (pin (num 36) (name OFin) (type input))
        (pin (num 37) (name GND) (type input))
        (pin (num 38) (name CAL) (type input))
        (pin (num 39) (name HVref1) (type input))
        (pin (num 40) (name HVret1) (type input))
        (pin (num 41) (name CMDinP) (type input))
        (pin (num 42) (name CMDinN) (type input))
        (pin (num 43) (name GND) (type input))
        (pin (num 44) (name CMDoutP) (type input))
        (pin (num 45) (name CMDoutN) (type input))
        (pin (num 46) (name GND) (type input))
        (pin (num 47) (name HVOSC0) (type input))
        (pin (num 48) (name GND) (type input))
        (pin (num 49) (name HVOSC1) (type input))
        (pin (num 50) (name GND) (type input))
        (pin (num 51) (name HVOSC2) (type input))
        (pin (num 52) (name GND) (type input))
        (pin (num 53) (name HVOSC3) (type input))
        (pin (num 54) (name GND) (type input))
        (pin (num 55) (name VDDHI) (type input))
        (pin (num 56) (name LAM) (type input))
        (pin (num 57) (name GND) (type input))
        (pin (num 58) (name HVret2) (type input))
        (pin (num 59) (name HVref2) (type input))
        (pin (num 60) (name RESETB) (type input))
        (pin (num 61) (name GND) (type input))
        (pin (num 62) (name OFout) (type input))
        (pin (num 63) (name GND) (type input))
        (pin (num 64) (name CALy) (type input))
        (pin (num 65) (name GND) (type input))
        (pin (num 66) (name SHUNTy) (type input))
        (pin (num 67) (name GND) (type input))
        (pin (num 68) (name LDy2EN) (type input))
        (pin (num 69) (name GND) (type input))
        (pin (num 70) (name LDy1EN) (type input))
        (pin (num 71) (name GND) (type input))
        (pin (num 72) (name NTCyP) (type input))
        (pin (num 73) (name GND) (type input))
        (pin (num 74) (name NTCyN) (type input))
        (pin (num 75) (name GND) (type input))
        (pin (num 76) (name HREFy) (type input))
        (pin (num 77) (name GND) (type input))
        (pin (num 78) (name LDy0EN) (type input))
        (pin (num 79) (name GND) (type input))
        (pin (num 80) (name HRSTBy) (type input))
        (pin (num 81) (name GND) (type input))
        (pin (num 82) (name SSSHy) (type input))
        (pin (num 83) (name GND) (type input))
        (pin (num 84) (name GPO1) (type input))
        (pin (num 85) (name GND) (type input))
        (pin (num 86) (name PTAT) (type input))
        (pin (num 87) (name GND) (type input))
        (pin (num 88) (name CLKOUT) (type input))
        (pin (num 89) (name GND) (type input))
        (pin (num 90) (name PGOOD) (type input))
        (pin (num 91) (name BG600) (type input))
        (pin (num 92) (name GND) (type input))
        (pin (num 93) (name REGOUT1) (type input))
        (pin (num 94) (name GPO2) (type input))
        (pin (num 95) (name GND) (type input))
        (pin (num 96) (name DCDCin) (type input))
        (pin (num 97) (name GND) (type input))
        (pin (num 98) (name GND) (type input))
        (pin (num 99) (name CUR10Vp) (type input))
        (pin (num 100) (name GND) (type input))
        (pin (num 101) (name CUR10Vn) (type input))
        (pin (num 102) (name GND) (type input))
        (pin (num 103) (name NTCPBn) (type input))
        (pin (num 104) (name GND) (type input))
        (pin (num 105) (name NTCPBp) (type input))
        (pin (num 106) (name GND) (type input))
        (pin (num 107) (name DCDCEN) (type input))
        (pin (num 108) (name GND) (type input))
        (pin (num 109) (name CUR1Vp) (type input))
        (pin (num 110) (name GND) (type input))
        (pin (num 111) (name CUR1Vn) (type input))
        (pin (num 112) (name GND) (type input))
        (pin (num 113) (name VDDLR2) (type input))
        (pin (num 114) (name GND) (type input))
        (pin (num 115) (name VDDLR1) (type input))
        (pin (num 116) (name GND) (type input))
        (pin (num 117) (name VDCDC2) (type input))
        (pin (num 118) (name GND) (type input))
        (pin (num 119) (name VDCDC1) (type input))
        (pin (num 120) (name GND) (type input))
        (pin (num 121) (name SUB) (type input))))
    (libpart (lib pbv3) (part BAS70DW-04)
      (description "Quad diode")
      (fields
        (field (name Reference) D)
        (field (name Value) BAS70DW-04))
      (pins
        (pin (num 1) (name ~) (type input))
        (pin (num 2) (name ~) (type input))
        (pin (num 3) (name ~) (type input))
        (pin (num 4) (name ~) (type input))
        (pin (num 5) (name ~) (type input))
        (pin (num 6) (name ~) (type input))))
    (libpart (lib pbv3) (part BondPad)
      (fields
        (field (name Reference) J)
        (field (name Value) BondPad))
      (pins
        (pin (num 1) (name ~) (type input))))
    (libpart (lib pbv3) (part LREG)
      (fields
        (field (name Reference) U)
        (field (name Value) LREG))
      (pins
        (pin (num 1) (name VIN) (type input))
        (pin (num 2) (name ~EN1V4) (type input))
        (pin (num 3) (name ~EN3V3) (type input))
        (pin (num 4) (name NC) (type NotConnected))
        (pin (num 5) (name NC) (type NotConnected))
        (pin (num 6) (name GND) (type input))
        (pin (num 7) (name 3V3) (type input))
        (pin (num 8) (name 1V4) (type input))
        (pin (num 9) (name TPAD) (type input))))
    (libpart (lib pbv3) (part bpol12v)
      (description "CERN BPOL12V DCDC converter")
      (fields
        (field (name Reference) U)
        (field (name Value) bpol12v))
      (pins
        (pin (num 1) (name RF) (type input))
        (pin (num 2) (name PGOOD) (type input))
        (pin (num 3) (name GND) (type input))
        (pin (num 4) (name VI) (type input))
        (pin (num 5) (name GND) (type input))
        (pin (num 6) (name V33DR) (type input))
        (pin (num 7) (name PGND) (type input))
        (pin (num 8) (name PGND) (type input))
        (pin (num 9) (name PGND) (type input))
        (pin (num 10) (name BOOTS) (type input))
        (pin (num 11) (name PHASE11) (type input))
        (pin (num 12) (name PHASE12) (type input))
        (pin (num 13) (name PHASE13) (type input))
        (pin (num 14) (name PHASE14) (type input))
        (pin (num 15) (name PHASE15) (type input))
        (pin (num 16) (name NC) (type NotConnected))
        (pin (num 17) (name PGND) (type input))
        (pin (num 18) (name PGND) (type input))
        (pin (num 19) (name PGND) (type input))
        (pin (num 20) (name GND) (type input))
        (pin (num 21) (name Bit2_VOUT) (type input))
        (pin (num 22) (name INV_ENABLE) (type input))
        (pin (num 23) (name Bit1_VOUT) (type input))
        (pin (num 24) (name VOUT) (type input))
        (pin (num 25) (name PTAT) (type input))
        (pin (num 26) (name PVIN) (type input))
        (pin (num 27) (name PVIN) (type input))
        (pin (num 28) (name PVIN) (type input))
        (pin (num 29) (name PVIN) (type input))
        (pin (num 30) (name VIN) (type input))
        (pin (num 31) (name BGP_EA) (type NotConnected))
        (pin (num 32) (name EN) (type input))
        (pin (num 33) (name PAD) (type input)))))
  (libraries
    (library (logical Device)
      (uri "/Library/Application Support/kicad/library/Device.lib"))
    (library (logical pbv3)
      (uri "/Users/theim/Work/ITk Strips/Powerboard/PBv3/powerboard_v3/pbv3.lib")))
  (nets
    (net (code 1) (name GND)
      (node (ref J2) (pin 1))
      (node (ref J13) (pin 1))
      (node (ref J14) (pin 1))
      (node (ref C19) (pin 2))
      (node (ref C21) (pin 2))
      (node (ref R10) (pin 2))
      (node (ref U3) (pin 98))
      (node (ref U3) (pin 97))
      (node (ref U3) (pin 95))
      (node (ref U3) (pin 92))
      (node (ref U3) (pin 9))
      (node (ref U3) (pin 89))
      (node (ref U3) (pin 87))
      (node (ref U3) (pin 85))
      (node (ref U3) (pin 83))
      (node (ref U3) (pin 81))
      (node (ref U3) (pin 8))
      (node (ref U3) (pin 79))
      (node (ref U3) (pin 77))
      (node (ref U3) (pin 75))
      (node (ref U3) (pin 73))
      (node (ref U3) (pin 71))
      (node (ref U3) (pin 7))
      (node (ref U3) (pin 69))
      (node (ref U3) (pin 67))
      (node (ref U3) (pin 65))
      (node (ref U3) (pin 63))
      (node (ref U3) (pin 61))
      (node (ref U3) (pin 6))
      (node (ref U3) (pin 57))
      (node (ref U3) (pin 54))
      (node (ref U3) (pin 52))
      (node (ref U3) (pin 50))
      (node (ref U3) (pin 48))
      (node (ref U3) (pin 46))
      (node (ref U3) (pin 43))
      (node (ref U3) (pin 4))
      (node (ref U3) (pin 37))
      (node (ref U3) (pin 35))
      (node (ref U3) (pin 33))
      (node (ref U3) (pin 31))
      (node (ref U3) (pin 29))
      (node (ref U3) (pin 27))
      (node (ref U3) (pin 25))
      (node (ref U3) (pin 23))
      (node (ref U3) (pin 21))
      (node (ref U3) (pin 2))
      (node (ref U3) (pin 19))
      (node (ref U3) (pin 17))
      (node (ref U3) (pin 15))
      (node (ref U3) (pin 13))
      (node (ref U3) (pin 121))
      (node (ref U3) (pin 120))
      (node (ref U3) (pin 118))
      (node (ref U3) (pin 116))
      (node (ref U3) (pin 114))
      (node (ref U3) (pin 112))
      (node (ref U3) (pin 110))
      (node (ref U3) (pin 11))
      (node (ref U3) (pin 108))
      (node (ref U3) (pin 106))
      (node (ref U3) (pin 104))
      (node (ref U3) (pin 102))
      (node (ref U3) (pin 100))
      (node (ref U3) (pin 10))
      (node (ref U3) (pin 1))
      (node (ref C18) (pin 2))
      (node (ref C12) (pin 2))
      (node (ref R19) (pin 2))
      (node (ref C15) (pin 2))
      (node (ref C26) (pin 2))
      (node (ref C27) (pin 2))
      (node (ref C1) (pin 2))
      (node (ref C2) (pin 2))
      (node (ref C4) (pin 2))
      (node (ref C5) (pin 2))
      (node (ref R29) (pin 1))
      (node (ref C7) (pin 2))
      (node (ref C8) (pin 2))
      (node (ref C10) (pin 2))
      (node (ref R2) (pin 2))
      (node (ref R3) (pin 2))
      (node (ref C3) (pin 2))
      (node (ref U2) (pin 6))
      (node (ref U2) (pin 9))
      (node (ref C9) (pin 2))
      (node (ref D3) (pin 2))
      (node (ref C17) (pin 1))
      (node (ref R26) (pin 2))
      (node (ref R25) (pin 2))
      (node (ref R24) (pin 2))
      (node (ref R4) (pin 1))
      (node (ref U1) (pin 17))
      (node (ref U1) (pin 18))
      (node (ref U1) (pin 19))
      (node (ref U1) (pin 20))
      (node (ref C28) (pin 2))
      (node (ref U1) (pin 3))
      (node (ref C11) (pin 2))
      (node (ref U1) (pin 33))
      (node (ref U1) (pin 9))
      (node (ref U1) (pin 5))
      (node (ref U1) (pin 8))
      (node (ref U1) (pin 7)))
    (net (code 2) (name /PTAT)
      (node (ref U1) (pin 25))
      (node (ref R13) (pin 1)))
    (net (code 3) (name /DCDCEN)
      (node (ref U1) (pin 32))
      (node (ref U3) (pin 107)))
    (net (code 4) (name /PGOOD)
      (node (ref R11) (pin 1))
      (node (ref U1) (pin 2))
      (node (ref R12) (pin 1)))
    (net (code 5) (name /NTCPBp)
      (node (ref U3) (pin 103))
      (node (ref NTC1) (pin 2)))
    (net (code 6) (name /NTCPBn)
      (node (ref U3) (pin 105))
      (node (ref NTC1) (pin 1)))
    (net (code 7) (name /GPO1)
      (node (ref R5) (pin 1))
      (node (ref U1) (pin 23)))
    (net (code 8) (name /GPO2)
      (node (ref R8) (pin 1))
      (node (ref U1) (pin 21)))
    (net (code 9) (name /HV/HV_IN)
      (node (ref Q1) (pin 3))
      (node (ref R17) (pin 2))
      (node (ref J4) (pin 1))
      (node (ref R16) (pin 1))
      (node (ref C25) (pin 2))
      (node (ref D2) (pin 2)))
    (net (code 10) (name /HV/HV_OUT)
      (node (ref R21) (pin 1))
      (node (ref J10) (pin 1))
      (node (ref C27) (pin 1)))
    (net (code 11) (name /HV/HVOSC)
      (node (ref R14) (pin 2))
      (node (ref U3) (pin 47)))
    (net (code 12) (name /AMAC/HRSTBx)
      (node (ref U3) (pin 18))
      (node (ref J16) (pin 1)))
    (net (code 13) (name /AMAC/LDx0EN)
      (node (ref J17) (pin 1))
      (node (ref U3) (pin 16)))
    (net (code 14) (name /AMAC/HREFx)
      (node (ref U3) (pin 22))
      (node (ref J18) (pin 1)))
    (net (code 15) (name /AMAC/NTCxP)
      (node (ref J19) (pin 1))
      (node (ref U3) (pin 24)))
    (net (code 16) (name /AMAC/NTCxN)
      (node (ref U3) (pin 26))
      (node (ref J20) (pin 1)))
    (net (code 17) (name /AMAC/LDx1EN)
      (node (ref J21) (pin 1))
      (node (ref U3) (pin 28)))
    (net (code 18) (name /AMAC/SSSHx)
      (node (ref J15) (pin 1))
      (node (ref U3) (pin 20)))
    (net (code 19) (name /AMAC/CALx)
      (node (ref U3) (pin 34))
      (node (ref J24) (pin 1)))
    (net (code 20) (name /AMAC/SHUNTx)
      (node (ref U3) (pin 32))
      (node (ref J23) (pin 1)))
    (net (code 21) (name /AMAC/LDx2EN)
      (node (ref U3) (pin 30))
      (node (ref J22) (pin 1)))
    (net (code 22) (name /AMAC/HRSTBy)
      (node (ref J30) (pin 1))
      (node (ref U3) (pin 80)))
    (net (code 23) (name /AMAC/LDy0EN)
      (node (ref J31) (pin 1))
      (node (ref U3) (pin 78)))
    (net (code 24) (name /AMAC/HREFy)
      (node (ref J32) (pin 1))
      (node (ref U3) (pin 76)))
    (net (code 25) (name /AMAC/NTCyN)
      (node (ref U3) (pin 74))
      (node (ref J33) (pin 1)))
    (net (code 26) (name /AMAC/NTCyP)
      (node (ref U3) (pin 72))
      (node (ref J34) (pin 1)))
    (net (code 27) (name /AMAC/LDy1EN)
      (node (ref J35) (pin 1))
      (node (ref U3) (pin 70)))
    (net (code 28) (name /AMAC/SSSHy)
      (node (ref J29) (pin 1))
      (node (ref U3) (pin 82)))
    (net (code 29) (name /AMAC/CALy)
      (node (ref U3) (pin 64))
      (node (ref J38) (pin 1)))
    (net (code 30) (name /AMAC/SHUNTy)
      (node (ref U3) (pin 66))
      (node (ref J37) (pin 1)))
    (net (code 31) (name /AMAC/LDy2EN)
      (node (ref J36) (pin 1))
      (node (ref U3) (pin 68)))
    (net (code 32) (name /AMAC/HVret2)
      (node (ref U3) (pin 58))
      (node (ref C17) (pin 2))
      (node (ref J39) (pin 1)))
    (net (code 33) (name /AMAC/HVret1)
      (node (ref U3) (pin 40))
      (node (ref J25) (pin 1)))
    (net (code 34) (name /AMAC/OFout)
      (node (ref U3) (pin 62))
      (node (ref J42) (pin 1)))
    (net (code 35) (name /AMAC/CAL)
      (node (ref C15) (pin 1))
      (node (ref J28) (pin 1))
      (node (ref U3) (pin 38)))
    (net (code 36) (name /AMAC/CMDoutP)
      (node (ref J40) (pin 1))
      (node (ref U3) (pin 44)))
    (net (code 37) (name /AMAC/CMDoutN)
      (node (ref U3) (pin 45))
      (node (ref J41) (pin 1)))
    (net (code 38) (name /AMAC/CMDinP)
      (node (ref J26) (pin 1))
      (node (ref C14) (pin 2)))
    (net (code 39) (name /AMAC/CMDinN)
      (node (ref J27) (pin 1))
      (node (ref C13) (pin 2)))
    (net (code 40) (name /OFin)
      (node (ref U2) (pin 3))
      (node (ref U2) (pin 2))
      (node (ref U3) (pin 36))
      (node (ref R4) (pin 2))
      (node (ref J3) (pin 1)))
    (net (code 41) (name /VOUT)
      (node (ref U3) (pin 111))
      (node (ref J11) (pin 1))
      (node (ref J12) (pin 1))
      (node (ref R12) (pin 2))
      (node (ref C10) (pin 1))
      (node (ref R28) (pin 2))
      (node (ref L3) (pin 2)))
    (net (code 42) (name /VCC1V4)
      (node (ref U2) (pin 8))
      (node (ref R24) (pin 1))
      (node (ref U3) (pin 113))
      (node (ref R22) (pin 2))
      (node (ref J5) (pin 1))
      (node (ref U3) (pin 56))
      (node (ref U3) (pin 115)))
    (net (code 43) (name /VCC3V3)
      (node (ref J6) (pin 1))
      (node (ref R25) (pin 1))
      (node (ref U2) (pin 7))
      (node (ref R23) (pin 1))
      (node (ref U3) (pin 55)))
    (net (code 44) (name /FVOUT)
      (node (ref U1) (pin 24))
      (node (ref R1) (pin 1))
      (node (ref C8) (pin 1))
      (node (ref C7) (pin 1))
      (node (ref L3) (pin 1))
      (node (ref L2) (pin 2))
      (node (ref U3) (pin 109)))
    (net (code 45) (name /FVIN)
      (node (ref L1) (pin 1))
      (node (ref C11) (pin 1))
      (node (ref U1) (pin 29))
      (node (ref U1) (pin 28))
      (node (ref U1) (pin 27))
      (node (ref C4) (pin 1))
      (node (ref C5) (pin 1))
      (node (ref U1) (pin 26))
      (node (ref U2) (pin 1))
      (node (ref R6) (pin 1))
      (node (ref U1) (pin 30)))
    (net (code 46) (name /VIN)
      (node (ref J1) (pin 1))
      (node (ref R7) (pin 1))
      (node (ref L1) (pin 2))
      (node (ref C2) (pin 1))
      (node (ref C1) (pin 1))
      (node (ref R9) (pin 1)))
    (net (code 47) (name "Net-(C6-Pad1)")
      (node (ref C6) (pin 1))
      (node (ref U1) (pin 10)))
    (net (code 48) (name "Net-(R3-Pad1)")
      (node (ref R3) (pin 1))
      (node (ref U1) (pin 1)))
    (net (code 49) (name "Net-(U1-Pad22)")
      (node (ref U1) (pin 22)))
    (net (code 50) (name "Net-(U2-Pad4)")
      (node (ref U2) (pin 4)))
    (net (code 51) (name "Net-(U2-Pad5)")
      (node (ref U2) (pin 5)))
    (net (code 52) (name "Net-(R1-Pad2)")
      (node (ref U1) (pin 4))
      (node (ref R1) (pin 2))
      (node (ref R2) (pin 1)))
    (net (code 53) (name "Net-(C6-Pad2)")
      (node (ref U1) (pin 15))
      (node (ref U1) (pin 14))
      (node (ref U1) (pin 13))
      (node (ref U1) (pin 12))
      (node (ref U1) (pin 11))
      (node (ref L2) (pin 1))
      (node (ref C6) (pin 2)))
    (net (code 54) (name "Net-(U1-Pad16)")
      (node (ref U1) (pin 16)))
    (net (code 55) (name "Net-(U1-Pad31)")
      (node (ref U1) (pin 31)))
    (net (code 56) (name "Net-(C28-Pad1)")
      (node (ref R22) (pin 1))
      (node (ref C28) (pin 1)))
    (net (code 57) (name "Net-(C9-Pad1)")
      (node (ref C9) (pin 1))
      (node (ref R23) (pin 2)))
    (net (code 58) (name "Net-(C3-Pad1)")
      (node (ref C3) (pin 1))
      (node (ref R26) (pin 1))
      (node (ref U1) (pin 6)))
    (net (code 59) (name "Net-(U3-Pad3)")
      (node (ref U3) (pin 3)))
    (net (code 60) (name "Net-(U3-Pad59)")
      (node (ref U3) (pin 59)))
    (net (code 61) (name "Net-(C12-Pad1)")
      (node (ref U3) (pin 39))
      (node (ref C12) (pin 1)))
    (net (code 62) (name "Net-(R5-Pad2)")
      (node (ref R5) (pin 2))
      (node (ref U3) (pin 84)))
    (net (code 63) (name "Net-(U3-Pad60)")
      (node (ref U3) (pin 60)))
    (net (code 64) (name "Net-(R6-Pad2)")
      (node (ref R6) (pin 2))
      (node (ref U3) (pin 101)))
    (net (code 65) (name "Net-(R28-Pad1)")
      (node (ref R28) (pin 1))
      (node (ref U3) (pin 117))
      (node (ref U3) (pin 119)))
    (net (code 66) (name "Net-(U3-Pad12)")
      (node (ref U3) (pin 12)))
    (net (code 67) (name "Net-(U3-Pad14)")
      (node (ref U3) (pin 14)))
    (net (code 68) (name /AMAC/CMDin*N)
      (node (ref R27) (pin 2))
      (node (ref C13) (pin 1))
      (node (ref U3) (pin 41)))
    (net (code 69) (name /AMAC/CMDin*P)
      (node (ref U3) (pin 42))
      (node (ref C14) (pin 1))
      (node (ref R27) (pin 1)))
    (net (code 70) (name "Net-(U3-Pad49)")
      (node (ref U3) (pin 49)))
    (net (code 71) (name "Net-(U3-Pad5)")
      (node (ref U3) (pin 5)))
    (net (code 72) (name "Net-(U3-Pad51)")
      (node (ref U3) (pin 51)))
    (net (code 73) (name "Net-(U3-Pad53)")
      (node (ref U3) (pin 53)))
    (net (code 74) (name "Net-(C18-Pad1)")
      (node (ref U3) (pin 86))
      (node (ref C18) (pin 1))
      (node (ref R13) (pin 2))
      (node (ref R29) (pin 2)))
    (net (code 75) (name "Net-(U3-Pad88)")
      (node (ref U3) (pin 88)))
    (net (code 76) (name "Net-(R11-Pad2)")
      (node (ref U3) (pin 90))
      (node (ref R11) (pin 2)))
    (net (code 77) (name "Net-(U3-Pad91)")
      (node (ref U3) (pin 91)))
    (net (code 78) (name "Net-(U3-Pad93)")
      (node (ref U3) (pin 93)))
    (net (code 79) (name "Net-(R8-Pad2)")
      (node (ref U3) (pin 94))
      (node (ref R8) (pin 2)))
    (net (code 80) (name "Net-(R7-Pad2)")
      (node (ref U3) (pin 99))
      (node (ref R7) (pin 2)))
    (net (code 81) (name "Net-(R10-Pad1)")
      (node (ref R10) (pin 1))
      (node (ref U3) (pin 96))
      (node (ref R9) (pin 2)))
    (net (code 82) (name "Net-(C19-Pad1)")
      (node (ref R14) (pin 1))
      (node (ref D3) (pin 1))
      (node (ref C20) (pin 2))
      (node (ref C19) (pin 1)))
    (net (code 83) (name "Net-(C25-Pad1)")
      (node (ref R15) (pin 1))
      (node (ref C25) (pin 1))
      (node (ref Q1) (pin 2))
      (node (ref R17) (pin 1))
      (node (ref D2) (pin 1)))
    (net (code 84) (name "Net-(C22-Pad1)")
      (node (ref D1) (pin 1))
      (node (ref C23) (pin 1))
      (node (ref C22) (pin 1))
      (node (ref D1) (pin 5)))
    (net (code 85) (name "Net-(C26-Pad1)")
      (node (ref R20) (pin 1))
      (node (ref R21) (pin 2))
      (node (ref C26) (pin 1)))
    (net (code 86) (name "Net-(Q1-Pad1)")
      (node (ref R18) (pin 1))
      (node (ref Q1) (pin 1))
      (node (ref R20) (pin 2)))
    (net (code 87) (name "Net-(C20-Pad1)")
      (node (ref C20) (pin 1))
      (node (ref D1) (pin 3))
      (node (ref C24) (pin 1)))
    (net (code 88) (name "Net-(C23-Pad2)")
      (node (ref C23) (pin 2))
      (node (ref R15) (pin 2))
      (node (ref D1) (pin 2)))
    (net (code 89) (name "Net-(C21-Pad1)")
      (node (ref C21) (pin 1))
      (node (ref C22) (pin 2))
      (node (ref D1) (pin 4))
      (node (ref R16) (pin 2)))
    (net (code 90) (name "Net-(R18-Pad2)")
      (node (ref R19) (pin 1))
      (node (ref R18) (pin 2)))
    (net (code 91) (name "Net-(C24-Pad2)")
      (node (ref C24) (pin 2))
      (node (ref D1) (pin 6)))))