(kicad_sch (version 20230121) (generator eeschema)

  (uuid 1eae0866-fb43-460e-ba70-4206816f3ae0)

  (paper "A4")

  (title_block
    (title "Powerboard v3")
    (date "2020-06-07")
    (rev "A")
    (company "Albert-Ludwigs-Universität Freiburg")
    (comment 1 "Dennis Sperlich")
  )

  (lib_symbols
    (symbol "Device:R" (pin_numbers hide) (pin_names (offset 0)) (in_bom yes) (on_board yes)
      (property "Reference" "R" (at 2.032 0 90)
        (effects (font (size 1.27 1.27)))
      )
      (property "Value" "R" (at 0 0 90)
        (effects (font (size 1.27 1.27)))
      )
      (property "Footprint" "" (at -1.778 0 90)
        (effects (font (size 1.27 1.27)) hide)
      )
      (property "Datasheet" "~" (at 0 0 0)
        (effects (font (size 1.27 1.27)) hide)
      )
      (property "ki_keywords" "R res resistor" (at 0 0 0)
        (effects (font (size 1.27 1.27)) hide)
      )
      (property "ki_description" "Resistor" (at 0 0 0)
        (effects (font (size 1.27 1.27)) hide)
      )
      (property "ki_fp_filters" "R_*" (at 0 0 0)
        (effects (font (size 1.27 1.27)) hide)
      )
      (symbol "R_0_1"
        (rectangle (start -1.016 -2.54) (end 1.016 2.54)
          (stroke (width 0.254) (type default))
          (fill (type none))
        )
      )
      (symbol "R_1_1"
        (pin passive line (at 0 3.81 270) (length 1.27)
          (name "~" (effects (font (size 1.27 1.27))))
          (number "1" (effects (font (size 1.27 1.27))))
        )
        (pin passive line (at 0 -3.81 90) (length 1.27)
          (name "~" (effects (font (size 1.27 1.27))))
          (number "2" (effects (font (size 1.27 1.27))))
        )
      )
    )
    (symbol "pbv3:BondPad" (pin_names (offset 1.016)) (in_bom yes) (on_board yes)
      (property "Reference" "J" (at 0 2.54 0)
        (effects (font (size 1.524 1.524)))
      )
      (property "Value" "BondPad" (at 0 -2.54 0)
        (effects (font (size 1.524 1.524)))
      )
      (property "Footprint" "" (at 0 0 0)
        (effects (font (size 1.524 1.524)) hide)
      )
      (property "Datasheet" "" (at 0 0 0)
        (effects (font (size 1.524 1.524)) hide)
      )
      (symbol "BondPad_0_1"
        (rectangle (start -1.27 1.27) (end 1.27 -1.27)
          (stroke (width 0) (type default))
          (fill (type background))
        )
      )
      (symbol "BondPad_1_1"
        (pin input line (at 6.35 0 180) (length 5.08)
          (name "~" (effects (font (size 1.27 1.27))))
          (number "1" (effects (font (size 1.27 1.27))))
        )
      )
    )
    (symbol "power:GND" (power) (pin_names (offset 0)) (in_bom yes) (on_board yes)
      (property "Reference" "#PWR" (at 0 -6.35 0)
        (effects (font (size 1.27 1.27)) hide)
      )
      (property "Value" "GND" (at 0 -3.81 0)
        (effects (font (size 1.27 1.27)))
      )
      (property "Footprint" "" (at 0 0 0)
        (effects (font (size 1.27 1.27)) hide)
      )
      (property "Datasheet" "" (at 0 0 0)
        (effects (font (size 1.27 1.27)) hide)
      )
      (property "ki_keywords" "power-flag" (at 0 0 0)
        (effects (font (size 1.27 1.27)) hide)
      )
      (property "ki_description" "Power symbol creates a global label with name \"GND\" , ground" (at 0 0 0)
        (effects (font (size 1.27 1.27)) hide)
      )
      (symbol "GND_0_1"
        (polyline
          (pts
            (xy 0 0)
            (xy 0 -1.27)
            (xy 1.27 -1.27)
            (xy 0 -2.54)
            (xy -1.27 -1.27)
            (xy 0 -1.27)
          )
          (stroke (width 0) (type default))
          (fill (type none))
        )
      )
      (symbol "GND_1_1"
        (pin power_in line (at 0 0 270) (length 0) hide
          (name "GND" (effects (font (size 1.27 1.27))))
          (number "1" (effects (font (size 1.27 1.27))))
        )
      )
    )
  )

  (junction (at 124.46 39.37) (diameter 0) (color 0 0 0 0)
    (uuid 0fa66da5-0371-4282-aa61-1dab22b21bd0)
  )
  (junction (at 50.8 49.53) (diameter 0) (color 0 0 0 0)
    (uuid 7d762afa-16da-4370-a601-da79b712e852)
  )
  (junction (at 49.53 57.15) (diameter 0) (color 0 0 0 0)
    (uuid a9abde18-ebc3-4002-b722-2bc86dd4a3d7)
  )
  (junction (at 107.95 43.18) (diameter 0) (color 0 0 0 0)
    (uuid aee17aa9-4063-4345-8a9e-06f60fdbf52e)
  )
  (junction (at 208.28 49.53) (diameter 0) (color 0 0 0 0)
    (uuid b42b3d16-0988-4f7b-ad3f-dfc376005ee3)
  )
  (junction (at 133.35 49.53) (diameter 0) (color 0 0 0 0)
    (uuid c69efd68-b8d0-497d-ae25-5b69017e5c77)
  )
  (junction (at 142.24 39.37) (diameter 0) (color 0 0 0 0)
    (uuid d9f9cd76-2103-4a02-8698-c124fe624175)
  )
  (junction (at 140.97 52.07) (diameter 0) (color 0 0 0 0)
    (uuid ee4ece16-ea5e-4429-865a-74aa915cfdb5)
  )

  (no_connect (at 240.03 128.27) (uuid 7b6ce823-e462-46b4-a6fd-c3a914d95298))
  (no_connect (at 240.03 149.86) (uuid ea7b464b-d0cf-4813-9723-6442e8bfdf5d))

  (wire (pts (xy 99.06 74.93) (xy 113.03 74.93))
    (stroke (width 0) (type default))
    (uuid 032983ee-e812-4071-a400-9e645fa62c9a)
  )
  (wire (pts (xy 240.03 120.65) (xy 243.84 120.65))
    (stroke (width 0) (type default))
    (uuid 0421db1b-df66-4562-8a25-b69ad8a2a1ec)
  )
  (wire (pts (xy 210.82 100.33) (xy 214.63 100.33))
    (stroke (width 0) (type default))
    (uuid 046caca7-6452-48ac-8484-8bb8ae5c5195)
  )
  (wire (pts (xy 133.35 54.61) (xy 133.35 49.53))
    (stroke (width 0) (type default))
    (uuid 04c1e606-7509-4a6b-a3ab-c23c6d39cab3)
  )
  (polyline (pts (xy 180.34 162.56) (xy 180.34 15.24))
    (stroke (width 0) (type default))
    (uuid 04ecab63-3ba3-4607-adfb-660554b07e19)
  )

  (wire (pts (xy 68.58 60.96) (xy 53.34 60.96))
    (stroke (width 0) (type default))
    (uuid 06a9ae71-e3c1-4cc3-b2e3-a63700a1b326)
  )
  (wire (pts (xy 49.53 57.15) (xy 49.53 64.77))
    (stroke (width 0) (type default))
    (uuid 0a6bdd72-9a6d-4fef-bc2b-7dbd4b0ca8f7)
  )
  (wire (pts (xy 210.82 110.49) (xy 214.63 110.49))
    (stroke (width 0) (type default))
    (uuid 0b1ccb02-cb5d-443c-8926-aa166e5cdf03)
  )
  (wire (pts (xy 203.2 59.69) (xy 214.63 59.69))
    (stroke (width 0) (type default))
    (uuid 0c063618-eac8-441c-8aa9-fa17b2f6c52c)
  )
  (wire (pts (xy 99.06 55.88) (xy 113.03 55.88))
    (stroke (width 0) (type default))
    (uuid 0d52fbf2-1bfa-42d9-ae91-95d10277d4e9)
  )
  (wire (pts (xy 107.95 39.37) (xy 107.95 43.18))
    (stroke (width 0) (type default))
    (uuid 0df5eab7-c1e3-4790-b3c7-36cd2cb464e6)
  )
  (wire (pts (xy 107.95 43.18) (xy 107.95 46.99))
    (stroke (width 0) (type default))
    (uuid 13f76433-d9fc-4f51-8436-5a1972596cce)
  )
  (wire (pts (xy 240.03 90.17) (xy 243.84 90.17))
    (stroke (width 0) (type default))
    (uuid 148def83-e840-40b3-b987-61484e549627)
  )
  (wire (pts (xy 240.03 52.07) (xy 250.19 52.07))
    (stroke (width 0) (type default))
    (uuid 15a931d1-3929-4b03-95b4-c140735d2b1a)
  )
  (polyline (pts (xy 281.94 15.24) (xy 281.94 162.56))
    (stroke (width 0) (type default))
    (uuid 166f624f-9d52-4171-9ced-5cb6bdd9c702)
  )

  (wire (pts (xy 66.04 135.89) (xy 66.04 146.05))
    (stroke (width 0) (type default))
    (uuid 179fd1ce-179f-48a3-aea8-329427a4adbe)
  )
  (polyline (pts (xy 180.34 15.24) (xy 281.94 15.24))
    (stroke (width 0) (type default))
    (uuid 185b6d6a-f17d-49d8-9711-8423ffb11006)
  )

  (wire (pts (xy 73.66 149.86) (xy 67.31 149.86))
    (stroke (width 0) (type default))
    (uuid 1d1d1180-d14e-439a-993b-59283a64ff30)
  )
  (wire (pts (xy 99.06 46.99) (xy 105.41 46.99))
    (stroke (width 0) (type default))
    (uuid 22fd0b99-335b-4814-8e02-dee040a2d596)
  )
  (wire (pts (xy 210.82 115.57) (xy 214.63 115.57))
    (stroke (width 0) (type default))
    (uuid 24fa128e-b9bf-4865-8068-d8f7f5245e9a)
  )
  (wire (pts (xy 46.99 57.15) (xy 49.53 57.15))
    (stroke (width 0) (type default))
    (uuid 26d34c7a-663c-44ce-bf5d-9011a0023f0c)
  )
  (wire (pts (xy 104.14 52.07) (xy 140.97 52.07))
    (stroke (width 0) (type default))
    (uuid 276430ee-7a5d-49cc-bfc8-a189d35f3f0c)
  )
  (wire (pts (xy 62.23 154.94) (xy 58.42 154.94))
    (stroke (width 0) (type default))
    (uuid 2939a6c2-7245-480d-be39-15e09247a117)
  )
  (wire (pts (xy 214.63 142.24) (xy 212.09 142.24))
    (stroke (width 0) (type default))
    (uuid 299e4937-4c28-477f-ad0b-a3034df93b47)
  )
  (wire (pts (xy 242.57 143.51) (xy 243.84 143.51))
    (stroke (width 0) (type default))
    (uuid 2c577a47-dd99-484d-98e7-a1a6118d18cf)
  )
  (polyline (pts (xy 15.24 15.24) (xy 177.8 15.24))
    (stroke (width 0) (type default))
    (uuid 2d6f9751-3136-4d28-8a9e-0cd9bb26a883)
  )

  (wire (pts (xy 240.03 62.23) (xy 250.19 62.23))
    (stroke (width 0) (type default))
    (uuid 3064363d-f6c5-452f-a8e1-931c68c1d1c5)
  )
  (wire (pts (xy 240.03 95.25) (xy 243.84 95.25))
    (stroke (width 0) (type default))
    (uuid 30c09179-27b1-46a1-8b7f-52075e174d5d)
  )
  (wire (pts (xy 240.03 139.7) (xy 242.57 139.7))
    (stroke (width 0) (type default))
    (uuid 315a378e-cf44-42c9-a926-d09acef28212)
  )
  (wire (pts (xy 73.66 161.29) (xy 62.23 161.29))
    (stroke (width 0) (type default))
    (uuid 3326710d-69e9-4099-a97d-86d21f9b321f)
  )
  (wire (pts (xy 210.82 95.25) (xy 214.63 95.25))
    (stroke (width 0) (type default))
    (uuid 34f49b81-03af-49c6-80ba-1d6c08956c69)
  )
  (wire (pts (xy 114.3 151.13) (xy 118.11 151.13))
    (stroke (width 0) (type default))
    (uuid 356c9e40-8bf3-4527-a8c1-85bc6b5ab01c)
  )
  (wire (pts (xy 212.09 138.43) (xy 210.82 138.43))
    (stroke (width 0) (type default))
    (uuid 38573ee9-02d4-4361-96f6-67e115767ba9)
  )
  (wire (pts (xy 140.97 54.61) (xy 140.97 52.07))
    (stroke (width 0) (type default))
    (uuid 38c8d13c-d60b-4203-9dc8-3ee086e34d77)
  )
  (wire (pts (xy 99.06 67.31) (xy 113.03 67.31))
    (stroke (width 0) (type default))
    (uuid 3dd68dde-fa6a-4678-8da5-bedcb21224da)
  )
  (wire (pts (xy 240.03 49.53) (xy 250.19 49.53))
    (stroke (width 0) (type default))
    (uuid 3f65c4bd-282c-46b6-be29-3255d65994f3)
  )
  (wire (pts (xy 210.82 90.17) (xy 214.63 90.17))
    (stroke (width 0) (type default))
    (uuid 3f680384-dde5-43fe-ae66-7e84ca7b2960)
  )
  (wire (pts (xy 210.82 120.65) (xy 214.63 120.65))
    (stroke (width 0) (type default))
    (uuid 42a2b2c3-5ebb-49d9-aedb-3a59eff4693b)
  )
  (wire (pts (xy 105.41 46.99) (xy 105.41 49.53))
    (stroke (width 0) (type default))
    (uuid 44356c0d-9b78-48f4-a3d4-ef05db46f5b0)
  )
  (wire (pts (xy 240.03 54.61) (xy 250.19 54.61))
    (stroke (width 0) (type default))
    (uuid 44e4199d-9a44-4390-be79-46db6e1a8ab7)
  )
  (wire (pts (xy 104.14 50.8) (xy 104.14 52.07))
    (stroke (width 0) (type default))
    (uuid 4e24b314-e05b-43cf-a94e-9cd9a7f098a1)
  )
  (wire (pts (xy 210.82 105.41) (xy 214.63 105.41))
    (stroke (width 0) (type default))
    (uuid 4fa580aa-b85d-4ae8-9378-5e7ebbe09297)
  )
  (wire (pts (xy 240.03 74.93) (xy 243.84 74.93))
    (stroke (width 0) (type default))
    (uuid 56459b18-45d7-4c0f-a105-5ccf602efeea)
  )
  (wire (pts (xy 187.96 133.35) (xy 214.63 133.35))
    (stroke (width 0) (type default))
    (uuid 57038053-edc6-4c25-96eb-1eb96c9030ec)
  )
  (wire (pts (xy 99.06 59.69) (xy 113.03 59.69))
    (stroke (width 0) (type default))
    (uuid 58384b45-46e8-4700-a9e2-ec2006ff86bc)
  )
  (wire (pts (xy 62.23 161.29) (xy 62.23 163.83))
    (stroke (width 0) (type default))
    (uuid 5a24153b-bbbe-445a-adb4-43d1faaeefb1)
  )
  (wire (pts (xy 208.28 49.53) (xy 208.28 38.1))
    (stroke (width 0) (type default))
    (uuid 5b02613f-efef-4dd0-85cc-be1c896d096d)
  )
  (wire (pts (xy 212.09 143.51) (xy 210.82 143.51))
    (stroke (width 0) (type default))
    (uuid 5d17f24e-8476-4ac5-9700-8c367183ed7f)
  )
  (wire (pts (xy 187.96 135.89) (xy 187.96 133.35))
    (stroke (width 0) (type default))
    (uuid 5d8d8bc3-0909-447a-ad63-1de268dd75be)
  )
  (polyline (pts (xy 281.94 162.56) (xy 180.34 162.56))
    (stroke (width 0) (type default))
    (uuid 60326336-7b2b-461c-98a1-dabb6c7f4270)
  )

  (wire (pts (xy 138.43 39.37) (xy 138.43 41.91))
    (stroke (width 0) (type default))
    (uuid 60e2be4a-af7b-4af4-afa0-88d123bc0a82)
  )
  (wire (pts (xy 68.58 74.93) (xy 53.34 74.93))
    (stroke (width 0) (type default))
    (uuid 6146eab9-fca2-4bb4-bc11-0a211214f1c3)
  )
  (wire (pts (xy 109.22 154.94) (xy 100.33 154.94))
    (stroke (width 0) (type default))
    (uuid 6500a9af-de45-4a95-a856-5049be5bcd22)
  )
  (polyline (pts (xy 175.26 195.58) (xy 15.24 195.58))
    (stroke (width 0) (type default))
    (uuid 6543b822-f58e-4dae-90e3-419252c93ac4)
  )

  (wire (pts (xy 133.35 49.53) (xy 208.28 49.53))
    (stroke (width 0) (type default))
    (uuid 6628d3d8-83d2-460d-98e6-b6b2da80b08c)
  )
  (wire (pts (xy 73.66 157.48) (xy 62.23 157.48))
    (stroke (width 0) (type default))
    (uuid 67a6b916-ca7a-41fc-ae72-435f634ad18a)
  )
  (wire (pts (xy 99.06 50.8) (xy 104.14 50.8))
    (stroke (width 0) (type default))
    (uuid 6b4371c5-3a90-4fb2-825e-41df9b3602a8)
  )
  (wire (pts (xy 142.24 39.37) (xy 138.43 39.37))
    (stroke (width 0) (type default))
    (uuid 6e958aa7-1db9-4b24-90a4-c8c3cae6a83e)
  )
  (polyline (pts (xy 175.26 116.84) (xy 175.26 195.58))
    (stroke (width 0) (type default))
    (uuid 701e1175-d532-4c5e-b013-c61641cdf82e)
  )

  (wire (pts (xy 210.82 128.27) (xy 214.63 128.27))
    (stroke (width 0) (type default))
    (uuid 71c001eb-8d0e-43ac-8ecd-70f2339bde42)
  )
  (wire (pts (xy 242.57 142.24) (xy 242.57 143.51))
    (stroke (width 0) (type default))
    (uuid 71ec2bcf-c838-4d93-88b9-769d3aedab35)
  )
  (wire (pts (xy 240.03 46.99) (xy 250.19 46.99))
    (stroke (width 0) (type default))
    (uuid 75ab8b51-2d15-471a-a9a4-eba49bbe99e8)
  )
  (wire (pts (xy 99.06 63.5) (xy 113.03 63.5))
    (stroke (width 0) (type default))
    (uuid 795cd1df-7fbd-43e5-b8c7-37253d4ed335)
  )
  (wire (pts (xy 142.24 39.37) (xy 142.24 43.18))
    (stroke (width 0) (type default))
    (uuid 79a4d627-c9cc-4d76-8b31-68992e42badf)
  )
  (wire (pts (xy 196.85 54.61) (xy 214.63 54.61))
    (stroke (width 0) (type default))
    (uuid 7bc87a0d-e6d4-4780-ab6c-05e332dd0dff)
  )
  (wire (pts (xy 124.46 35.56) (xy 124.46 39.37))
    (stroke (width 0) (type default))
    (uuid 7c289ea3-a8eb-4bf9-bc4d-6cc10ec3f1c3)
  )
  (wire (pts (xy 208.28 38.1) (xy 265.43 38.1))
    (stroke (width 0) (type default))
    (uuid 7d6d569a-7369-4b37-b54d-19f8e663e1c4)
  )
  (wire (pts (xy 203.2 66.04) (xy 214.63 66.04))
    (stroke (width 0) (type default))
    (uuid 7d74f531-c792-4beb-b3ab-45711ef608ce)
  )
  (wire (pts (xy 208.28 49.53) (xy 214.63 49.53))
    (stroke (width 0) (type default))
    (uuid 80c36662-4376-4d9a-a113-6e8b250b4f5b)
  )
  (wire (pts (xy 212.09 139.7) (xy 212.09 138.43))
    (stroke (width 0) (type default))
    (uuid 85945bde-65a4-464c-8df1-b3e98a224ac0)
  )
  (wire (pts (xy 107.95 46.99) (xy 214.63 46.99))
    (stroke (width 0) (type default))
    (uuid 85d017ce-00d8-4b9d-9318-d2d75da9809b)
  )
  (wire (pts (xy 240.03 59.69) (xy 250.19 59.69))
    (stroke (width 0) (type default))
    (uuid 88b16220-4c4f-42e7-aeb8-2abb4c1d64b0)
  )
  (wire (pts (xy 99.06 71.12) (xy 113.03 71.12))
    (stroke (width 0) (type default))
    (uuid 89ca5dbf-ffcd-4580-a3a6-e1aae7fb38ca)
  )
  (wire (pts (xy 99.06 43.18) (xy 107.95 43.18))
    (stroke (width 0) (type default))
    (uuid 89cc9ca6-9bb9-4622-9549-65a2508f1be8)
  )
  (wire (pts (xy 140.97 52.07) (xy 214.63 52.07))
    (stroke (width 0) (type default))
    (uuid 8e54e158-76fc-4c8e-a3c6-1da9e699dd0f)
  )
  (wire (pts (xy 107.95 39.37) (xy 124.46 39.37))
    (stroke (width 0) (type default))
    (uuid 90514dae-c258-49f0-8ea2-e8465b60870e)
  )
  (wire (pts (xy 240.03 57.15) (xy 250.19 57.15))
    (stroke (width 0) (type default))
    (uuid 9421d72d-6c35-45b9-bec5-28812acbfa17)
  )
  (wire (pts (xy 210.82 149.86) (xy 214.63 149.86))
    (stroke (width 0) (type default))
    (uuid 94f9fc1d-fa1f-467f-a677-015d995c241e)
  )
  (wire (pts (xy 50.8 40.64) (xy 50.8 43.18))
    (stroke (width 0) (type default))
    (uuid 97b2f2a2-5f01-4427-b6c0-4abfca18df4f)
  )
  (polyline (pts (xy 15.24 195.58) (xy 15.24 116.84))
    (stroke (width 0) (type default))
    (uuid 982fa09f-eeba-44d9-8ab2-78b2219a92ba)
  )

  (wire (pts (xy 210.82 85.09) (xy 214.63 85.09))
    (stroke (width 0) (type default))
    (uuid 9d08780f-41dd-4f44-a71d-1980e770a14f)
  )
  (wire (pts (xy 46.99 49.53) (xy 50.8 49.53))
    (stroke (width 0) (type default))
    (uuid 9d9de513-b0b8-4917-bc60-ace8437915b6)
  )
  (wire (pts (xy 265.43 149.86) (xy 240.03 149.86))
    (stroke (width 0) (type default))
    (uuid 9e9af72c-36cd-4137-88d9-d05214970ed2)
  )
  (wire (pts (xy 49.53 57.15) (xy 68.58 57.15))
    (stroke (width 0) (type default))
    (uuid a23c704e-cf1d-4079-ad48-e433a8ff6f02)
  )
  (wire (pts (xy 210.82 80.01) (xy 214.63 80.01))
    (stroke (width 0) (type default))
    (uuid a60cae8f-8184-4052-aafa-5c693f20018a)
  )
  (wire (pts (xy 240.03 85.09) (xy 243.84 85.09))
    (stroke (width 0) (type default))
    (uuid a7f29850-1cc4-46c1-b46d-ef6833aa6812)
  )
  (wire (pts (xy 240.03 80.01) (xy 243.84 80.01))
    (stroke (width 0) (type default))
    (uuid a9573b65-99e2-4b1d-bc11-425f3ef28790)
  )
  (wire (pts (xy 242.57 139.7) (xy 242.57 138.43))
    (stroke (width 0) (type default))
    (uuid aad3ecca-07e1-46b3-8d4e-5b051506e807)
  )
  (wire (pts (xy 265.43 38.1) (xy 265.43 149.86))
    (stroke (width 0) (type default))
    (uuid ab5eedbe-bf43-43a6-87ca-b41cff2974ef)
  )
  (wire (pts (xy 242.57 138.43) (xy 243.84 138.43))
    (stroke (width 0) (type default))
    (uuid ab731dfd-2dd4-498d-958c-3d160d8187a7)
  )
  (wire (pts (xy 240.03 100.33) (xy 243.84 100.33))
    (stroke (width 0) (type default))
    (uuid b13e8723-f8d8-4f28-9777-6c1ea174d677)
  )
  (wire (pts (xy 50.8 46.99) (xy 68.58 46.99))
    (stroke (width 0) (type default))
    (uuid b1b11244-2b27-47ec-9510-8d42301d7457)
  )
  (wire (pts (xy 187.96 135.89) (xy 66.04 135.89))
    (stroke (width 0) (type default))
    (uuid b2c625b6-ed7a-4a50-9105-173b384188fa)
  )
  (polyline (pts (xy 177.8 15.24) (xy 177.8 114.3))
    (stroke (width 0) (type default))
    (uuid b3f4024e-c845-4e84-a604-50ec3e25c806)
  )
  (polyline (pts (xy 15.24 116.84) (xy 175.26 116.84))
    (stroke (width 0) (type default))
    (uuid b54c8dc8-4d54-40c6-8cf3-b0d8930fbdd1)
  )

  (wire (pts (xy 212.09 142.24) (xy 212.09 143.51))
    (stroke (width 0) (type default))
    (uuid b8278e17-3eb3-4fd1-9f48-28b80be960d1)
  )
  (wire (pts (xy 214.63 153.67) (xy 203.2 153.67))
    (stroke (width 0) (type default))
    (uuid baa31255-dcaa-42e5-9813-ab408734d04d)
  )
  (wire (pts (xy 240.03 110.49) (xy 243.84 110.49))
    (stroke (width 0) (type default))
    (uuid bc3d4f5b-663c-4281-9d35-34f106289c36)
  )
  (wire (pts (xy 124.46 39.37) (xy 124.46 43.18))
    (stroke (width 0) (type default))
    (uuid bd03a794-c35b-42b3-a331-b23630dee108)
  )
  (polyline (pts (xy 15.24 114.3) (xy 15.24 15.24))
    (stroke (width 0) (type default))
    (uuid be5ec1ea-219c-4d90-a7fa-10877a9e34cd)
  )

  (wire (pts (xy 62.23 157.48) (xy 62.23 154.94))
    (stroke (width 0) (type default))
    (uuid c0c76d32-7e63-431c-a91f-d7e0377055a1)
  )
  (wire (pts (xy 142.24 35.56) (xy 142.24 39.37))
    (stroke (width 0) (type default))
    (uuid c417a097-3716-42e2-a277-85bd091132c6)
  )
  (wire (pts (xy 210.82 74.93) (xy 214.63 74.93))
    (stroke (width 0) (type default))
    (uuid c4a49376-0337-41b4-b572-6ebddf88df51)
  )
  (wire (pts (xy 46.99 40.64) (xy 50.8 40.64))
    (stroke (width 0) (type default))
    (uuid c7bc1157-d136-494e-a26b-e0c9397a0f48)
  )
  (wire (pts (xy 203.2 62.23) (xy 214.63 62.23))
    (stroke (width 0) (type default))
    (uuid c8daeb28-c525-4e55-a264-b6cb07a30f2d)
  )
  (wire (pts (xy 240.03 105.41) (xy 243.84 105.41))
    (stroke (width 0) (type default))
    (uuid cb30d182-7015-4e89-a57f-5cf0f91a6a00)
  )
  (wire (pts (xy 68.58 71.12) (xy 53.34 71.12))
    (stroke (width 0) (type default))
    (uuid ccc300cc-1b9f-42a0-aa7a-badea07fb048)
  )
  (wire (pts (xy 105.41 49.53) (xy 133.35 49.53))
    (stroke (width 0) (type default))
    (uuid d6a08934-0f05-4531-86f0-e5931f2293f7)
  )
  (wire (pts (xy 203.2 68.58) (xy 214.63 68.58))
    (stroke (width 0) (type default))
    (uuid d807ab4e-782e-412a-a12e-09a77b8c3305)
  )
  (wire (pts (xy 240.03 153.67) (xy 243.84 153.67))
    (stroke (width 0) (type default))
    (uuid dc433355-3ad7-4180-9e66-d99beece9b35)
  )
  (wire (pts (xy 67.31 149.86) (xy 67.31 152.4))
    (stroke (width 0) (type default))
    (uuid dc529472-5f5c-4aee-8587-2ceaebef495d)
  )
  (wire (pts (xy 66.04 146.05) (xy 73.66 146.05))
    (stroke (width 0) (type default))
    (uuid e05b7cfa-a126-4de7-a891-69e35c32483e)
  )
  (wire (pts (xy 50.8 49.53) (xy 50.8 50.8))
    (stroke (width 0) (type default))
    (uuid e0a3a04a-2f9e-4cce-bac0-1a7c08ef4522)
  )
  (wire (pts (xy 240.03 142.24) (xy 242.57 142.24))
    (stroke (width 0) (type default))
    (uuid e28785e6-23a6-4d97-8af1-f33c992f70f8)
  )
  (polyline (pts (xy 177.8 114.3) (xy 15.24 114.3))
    (stroke (width 0) (type default))
    (uuid ecbf66a8-16ff-4c97-a0be-9263bc18baed)
  )

  (wire (pts (xy 109.22 157.48) (xy 109.22 154.94))
    (stroke (width 0) (type default))
    (uuid f101ae28-4986-4bcf-8265-69b1e80f2543)
  )
  (wire (pts (xy 214.63 139.7) (xy 212.09 139.7))
    (stroke (width 0) (type default))
    (uuid f5bf0ae3-d365-4548-8580-8061d71f1037)
  )
  (wire (pts (xy 50.8 43.18) (xy 68.58 43.18))
    (stroke (width 0) (type default))
    (uuid fa5537e7-6338-4bb0-9e15-feffe54ef305)
  )
  (wire (pts (xy 240.03 115.57) (xy 243.84 115.57))
    (stroke (width 0) (type default))
    (uuid fbdefb4d-fd15-4873-9acd-9339d311048c)
  )
  (wire (pts (xy 100.33 151.13) (xy 106.68 151.13))
    (stroke (width 0) (type default))
    (uuid fc65146f-31de-4f3b-a678-0e5eb0846754)
  )
  (wire (pts (xy 50.8 46.99) (xy 50.8 49.53))
    (stroke (width 0) (type default))
    (uuid fc9167ff-04c2-4c93-8861-366b600933d2)
  )

  (text "AMAC" (at 182.88 24.13 0)
    (effects (font (size 6.604 6.604)) (justify left bottom))
    (uuid 0bf800eb-f2d5-423e-8b19-520ef2f4a155)
  )
  (text "POWER" (at 143.51 24.13 0)
    (effects (font (size 6.604 6.604)) (justify left bottom))
    (uuid 424542e9-c5bd-4a22-bf4c-0e377695a4de)
  )
  (text "10mOhm" (at 193.04 62.23 0)
    (effects (font (size 1.524 1.524)) (justify left bottom))
    (uuid 5774bdd1-8194-448a-aec7-dfa84546f3f4)
  )
  (text "HV" (at 161.29 125.73 0)
    (effects (font (size 6.604 6.604)) (justify left bottom))
    (uuid 597011a0-fe9f-4552-be03-d403f0404619)
  )
  (text "Fuse?" (at 48.26 35.56 0)
    (effects (font (size 1.524 1.524)) (justify left bottom))
    (uuid 5c90fc84-95ac-4548-bdd9-458023368f41)
  )
  (text "50mOhm" (at 193.04 68.58 0)
    (effects (font (size 1.524 1.524)) (justify left bottom))
    (uuid e3d78610-a48b-4b2a-9edf-1d7c13e98198)
  )

  (label "PGOOD" (at 113.03 71.12 0) (fields_autoplaced)
    (effects (font (size 1.524 1.524)) (justify left bottom))
    (uuid 15bada79-b471-4cea-a050-83b5702b8a21)
  )
  (label "VOUT" (at 110.49 39.37 0) (fields_autoplaced)
    (effects (font (size 1.524 1.524)) (justify left bottom))
    (uuid 2c203647-e05b-47b1-926f-f043cd026bbe)
  )
  (label "GPO2" (at 113.03 59.69 0) (fields_autoplaced)
    (effects (font (size 1.524 1.524)) (justify left bottom))
    (uuid 30c38d61-c40c-4343-b062-4ca436ed88b8)
  )
  (label "OFin" (at 203.2 153.67 0) (fields_autoplaced)
    (effects (font (size 1.524 1.524)) (justify left bottom))
    (uuid 35eab331-86c6-4cb6-9184-78f5a185c17a)
  )
  (label "PTAT" (at 250.19 52.07 0) (fields_autoplaced)
    (effects (font (size 1.524 1.524)) (justify left bottom))
    (uuid 3b914da7-fc6a-4a2c-ad66-6baadb933ad2)
  )
  (label "NTCPBp" (at 250.19 57.15 0) (fields_autoplaced)
    (effects (font (size 1.524 1.524)) (justify left bottom))
    (uuid 3f996ac3-594f-4e77-8f6c-6ec9cf4dda69)
  )
  (label "GPO2" (at 250.19 59.69 0) (fields_autoplaced)
    (effects (font (size 1.524 1.524)) (justify left bottom))
    (uuid 4c2fb79c-207e-4f92-8ea1-7543e9ed400d)
  )
  (label "FVIN" (at 113.03 67.31 0) (fields_autoplaced)
    (effects (font (size 1.524 1.524)) (justify left bottom))
    (uuid 4c85f529-4709-4480-8a51-c5d874b24f2d)
  )
  (label "FVOUT" (at 203.2 62.23 0) (fields_autoplaced)
    (effects (font (size 1.524 1.524)) (justify left bottom))
    (uuid 5eb84820-20c2-41bf-a1a2-820c66368a1f)
  )
  (label "GPO1" (at 113.03 55.88 0) (fields_autoplaced)
    (effects (font (size 1.524 1.524)) (justify left bottom))
    (uuid 712800d2-6d31-48fd-89fb-bd6a85b1e45c)
  )
  (label "VCC1V4" (at 209.55 38.1 0) (fields_autoplaced)
    (effects (font (size 1.524 1.524)) (justify left bottom))
    (uuid 7c15e983-d86d-4112-8b09-d22a0e2aa9db)
  )
  (label "NTCPBn" (at 53.34 74.93 0) (fields_autoplaced)
    (effects (font (size 1.524 1.524)) (justify left bottom))
    (uuid 8a876222-65de-4f3b-ac9d-be0db2df898e)
  )
  (label "GPO1" (at 250.19 62.23 0) (fields_autoplaced)
    (effects (font (size 1.524 1.524)) (justify left bottom))
    (uuid 98d9e41e-e58a-4a5d-93bd-e0f3498c6e85)
  )
  (label "PTAT" (at 113.03 74.93 0) (fields_autoplaced)
    (effects (font (size 1.524 1.524)) (justify left bottom))
    (uuid a33a0e4c-89ff-40ee-80e7-153a9b124f00)
  )
  (label "FVIN" (at 203.2 68.58 0) (fields_autoplaced)
    (effects (font (size 1.524 1.524)) (justify left bottom))
    (uuid c0062cd0-7f62-4c33-b7f4-9133416a4a47)
  )
  (label "NTCPBp" (at 53.34 71.12 0) (fields_autoplaced)
    (effects (font (size 1.524 1.524)) (justify left bottom))
    (uuid c224753b-c3cc-412e-b299-999953063464)
  )
  (label "PGOOD" (at 250.19 49.53 0) (fields_autoplaced)
    (effects (font (size 1.524 1.524)) (justify left bottom))
    (uuid c31baa4d-09c0-4c48-b93c-1c91a45d1149)
  )
  (label "OFin" (at 49.53 64.77 90) (fields_autoplaced)
    (effects (font (size 1.524 1.524)) (justify left bottom))
    (uuid c50735f4-6020-400c-a452-2ae81a0d9fc9)
  )
  (label "VOUT" (at 203.2 59.69 0) (fields_autoplaced)
    (effects (font (size 1.524 1.524)) (justify left bottom))
    (uuid d195bb34-6ea9-4505-9e6a-c33a00918675)
  )
  (label "FVOUT" (at 113.03 63.5 0) (fields_autoplaced)
    (effects (font (size 1.524 1.524)) (justify left bottom))
    (uuid e1360ab8-bfb8-4140-afa9-5baf0340aad3)
  )
  (label "DCDCEN" (at 250.19 46.99 0) (fields_autoplaced)
    (effects (font (size 1.524 1.524)) (justify left bottom))
    (uuid e49247ab-5c22-47ea-ad92-3fa9cf32a411)
  )
  (label "DCDCEN" (at 53.34 60.96 0) (fields_autoplaced)
    (effects (font (size 1.524 1.524)) (justify left bottom))
    (uuid e5ef0be7-b6ed-4eb9-bd74-bc9e15afb65c)
  )
  (label "VIN" (at 57.15 43.18 0) (fields_autoplaced)
    (effects (font (size 1.524 1.524)) (justify left bottom))
    (uuid e8cea180-3543-4ce6-acfb-619197762cfc)
  )
  (label "VIN" (at 203.2 66.04 0) (fields_autoplaced)
    (effects (font (size 1.524 1.524)) (justify left bottom))
    (uuid e90e04a4-2fa1-4750-af45-3d38f1d9d020)
  )
  (label "NTCPBn" (at 250.19 54.61 0) (fields_autoplaced)
    (effects (font (size 1.524 1.524)) (justify left bottom))
    (uuid f913e180-a2ac-4ba1-b1e8-0b08fcaa55fb)
  )

  (symbol (lib_id "pbv3:BondPad") (at 40.64 40.64 0) (unit 1)
    (in_bom yes) (on_board yes) (dnp no)
    (uuid 00000000-0000-0000-0000-000059eee934)
    (property "Reference" "J1" (at 40.64 38.1 0)
      (effects (font (size 1.524 1.524)))
    )
    (property "Value" "VIN" (at 40.64 43.18 0)
      (effects (font (size 1.524 1.524)))
    )
    (property "Footprint" "pbv3:pad" (at 40.64 40.64 0)
      (effects (font (size 1.524 1.524)) hide)
    )
    (property "Datasheet" "" (at 40.64 40.64 0)
      (effects (font (size 1.524 1.524)) hide)
    )
    (pin "1" (uuid 3211b09c-6674-4ce8-849f-e07950267257))
    (instances
      (project "pbv3"
        (path "/1eae0866-fb43-460e-ba70-4206816f3ae0"
          (reference "J1") (unit 1)
        )
      )
    )
  )

  (symbol (lib_id "pbv3:BondPad") (at 40.64 49.53 0) (unit 1)
    (in_bom yes) (on_board yes) (dnp no)
    (uuid 00000000-0000-0000-0000-000059eee968)
    (property "Reference" "J2" (at 40.64 46.99 0)
      (effects (font (size 1.524 1.524)))
    )
    (property "Value" "VIN_RTN" (at 40.64 52.07 0)
      (effects (font (size 1.524 1.524)))
    )
    (property "Footprint" "pbv3:pad" (at 40.64 49.53 0)
      (effects (font (size 1.524 1.524)) hide)
    )
    (property "Datasheet" "" (at 40.64 49.53 0)
      (effects (font (size 1.524 1.524)) hide)
    )
    (pin "1" (uuid f5e1ebc8-e3dd-4d10-871d-0f61e4c10e99))
    (instances
      (project "pbv3"
        (path "/1eae0866-fb43-460e-ba70-4206816f3ae0"
          (reference "J2") (unit 1)
        )
      )
    )
  )

  (symbol (lib_id "pbv3:BondPad") (at 130.81 35.56 180) (unit 1)
    (in_bom yes) (on_board yes) (dnp no)
    (uuid 00000000-0000-0000-0000-000059eefe53)
    (property "Reference" "J11" (at 130.81 38.1 0)
      (effects (font (size 1.524 1.524)))
    )
    (property "Value" "VOUT_X" (at 130.81 33.02 0)
      (effects (font (size 1.524 1.524)))
    )
    (property "Footprint" "pbv3:pad" (at 130.81 35.56 0)
      (effects (font (size 1.524 1.524)) hide)
    )
    (property "Datasheet" "" (at 130.81 35.56 0)
      (effects (font (size 1.524 1.524)) hide)
    )
    (pin "1" (uuid 6f95e64f-f82a-4e23-8499-332095730cc9))
    (instances
      (project "pbv3"
        (path "/1eae0866-fb43-460e-ba70-4206816f3ae0"
          (reference "J11") (unit 1)
        )
      )
    )
  )

  (symbol (lib_id "pbv3:BondPad") (at 130.81 43.18 180) (unit 1)
    (in_bom yes) (on_board yes) (dnp no)
    (uuid 00000000-0000-0000-0000-000059eefeb2)
    (property "Reference" "J12" (at 130.81 45.72 0)
      (effects (font (size 1.524 1.524)))
    )
    (property "Value" "VOUT_Y" (at 130.81 40.64 0)
      (effects (font (size 1.524 1.524)))
    )
    (property "Footprint" "pbv3:pad" (at 130.81 43.18 0)
      (effects (font (size 1.524 1.524)) hide)
    )
    (property "Datasheet" "" (at 130.81 43.18 0)
      (effects (font (size 1.524 1.524)) hide)
    )
    (pin "1" (uuid ea1e34af-c5a0-403d-acd8-e2bfb0aa4a62))
    (instances
      (project "pbv3"
        (path "/1eae0866-fb43-460e-ba70-4206816f3ae0"
          (reference "J12") (unit 1)
        )
      )
    )
  )

  (symbol (lib_id "pbv3:BondPad") (at 148.59 35.56 180) (unit 1)
    (in_bom yes) (on_board yes) (dnp no)
    (uuid 00000000-0000-0000-0000-000059eeff0f)
    (property "Reference" "J13" (at 148.59 38.1 0)
      (effects (font (size 1.524 1.524)))
    )
    (property "Value" "VOUT_RTN_X" (at 148.59 33.02 0)
      (effects (font (size 1.524 1.524)))
    )
    (property "Footprint" "pbv3:pad" (at 148.59 35.56 0)
      (effects (font (size 1.524 1.524)) hide)
    )
    (property "Datasheet" "" (at 148.59 35.56 0)
      (effects (font (size 1.524 1.524)) hide)
    )
    (pin "1" (uuid 00f765b7-370a-40df-8592-7d1b9ce8c805))
    (instances
      (project "pbv3"
        (path "/1eae0866-fb43-460e-ba70-4206816f3ae0"
          (reference "J13") (unit 1)
        )
      )
    )
  )

  (symbol (lib_id "pbv3:BondPad") (at 148.59 43.18 180) (unit 1)
    (in_bom yes) (on_board yes) (dnp no)
    (uuid 00000000-0000-0000-0000-000059eeff8b)
    (property "Reference" "J14" (at 148.59 45.72 0)
      (effects (font (size 1.524 1.524)))
    )
    (property "Value" "VOUT_RTN_Y" (at 148.59 40.64 0)
      (effects (font (size 1.524 1.524)))
    )
    (property "Footprint" "pbv3:pad" (at 148.59 43.18 0)
      (effects (font (size 1.524 1.524)) hide)
    )
    (property "Datasheet" "" (at 148.59 43.18 0)
      (effects (font (size 1.524 1.524)) hide)
    )
    (pin "1" (uuid 6b001a73-d513-4c67-b247-b48d114dab61))
    (instances
      (project "pbv3"
        (path "/1eae0866-fb43-460e-ba70-4206816f3ae0"
          (reference "J14") (unit 1)
        )
      )
    )
  )

  (symbol (lib_id "power:GND") (at 62.23 163.83 0) (unit 1)
    (in_bom yes) (on_board yes) (dnp no)
    (uuid 00000000-0000-0000-0000-000059ef94b5)
    (property "Reference" "#PWR0102" (at 62.23 170.18 0)
      (effects (font (size 1.27 1.27)) hide)
    )
    (property "Value" "GND" (at 62.23 167.64 0)
      (effects (font (size 1.27 1.27)))
    )
    (property "Footprint" "" (at 62.23 163.83 0)
      (effects (font (size 1.27 1.27)))
    )
    (property "Datasheet" "" (at 62.23 163.83 0)
      (effects (font (size 1.27 1.27)))
    )
    (pin "1" (uuid e9e2f053-e9f1-46de-9ac2-2c060c8cb4c6))
    (instances
      (project "pbv3"
        (path "/1eae0866-fb43-460e-ba70-4206816f3ae0"
          (reference "#PWR0102") (unit 1)
        )
      )
    )
  )

  (symbol (lib_id "power:GND") (at 138.43 41.91 0) (unit 1)
    (in_bom yes) (on_board yes) (dnp no)
    (uuid 00000000-0000-0000-0000-000059f05eaa)
    (property "Reference" "#PWR0105" (at 138.43 48.26 0)
      (effects (font (size 1.27 1.27)) hide)
    )
    (property "Value" "GND" (at 138.43 45.72 0)
      (effects (font (size 1.27 1.27)))
    )
    (property "Footprint" "" (at 138.43 41.91 0)
      (effects (font (size 1.27 1.27)))
    )
    (property "Datasheet" "" (at 138.43 41.91 0)
      (effects (font (size 1.27 1.27)))
    )
    (pin "1" (uuid 42ffd60b-c29c-44aa-bbb1-54ba70b2ce02))
    (instances
      (project "pbv3"
        (path "/1eae0866-fb43-460e-ba70-4206816f3ae0"
          (reference "#PWR0105") (unit 1)
        )
      )
    )
  )

  (symbol (lib_id "power:GND") (at 50.8 50.8 0) (unit 1)
    (in_bom yes) (on_board yes) (dnp no)
    (uuid 00000000-0000-0000-0000-000059f064e3)
    (property "Reference" "#PWR0101" (at 50.8 57.15 0)
      (effects (font (size 1.27 1.27)) hide)
    )
    (property "Value" "GND" (at 50.8 54.61 0)
      (effects (font (size 1.27 1.27)))
    )
    (property "Footprint" "" (at 50.8 50.8 0)
      (effects (font (size 1.27 1.27)))
    )
    (property "Datasheet" "" (at 50.8 50.8 0)
      (effects (font (size 1.27 1.27)))
    )
    (pin "1" (uuid de1fe7fc-cfa3-4ae9-84d8-9113cde8288f))
    (instances
      (project "pbv3"
        (path "/1eae0866-fb43-460e-ba70-4206816f3ae0"
          (reference "#PWR0101") (unit 1)
        )
      )
    )
  )

  (symbol (lib_id "pbv3:BondPad") (at 40.64 57.15 0) (unit 1)
    (in_bom yes) (on_board yes) (dnp no)
    (uuid 00000000-0000-0000-0000-000059f06b61)
    (property "Reference" "J3" (at 40.64 54.61 0)
      (effects (font (size 1.524 1.524)))
    )
    (property "Value" "OFin" (at 40.64 59.69 0)
      (effects (font (size 1.524 1.524)))
    )
    (property "Footprint" "pbv3:pad" (at 40.64 57.15 0)
      (effects (font (size 1.524 1.524)) hide)
    )
    (property "Datasheet" "" (at 40.64 57.15 0)
      (effects (font (size 1.524 1.524)) hide)
    )
    (pin "1" (uuid 96fa03f9-875a-44d9-a39f-15a38baff47c))
    (instances
      (project "pbv3"
        (path "/1eae0866-fb43-460e-ba70-4206816f3ae0"
          (reference "J3") (unit 1)
        )
      )
    )
  )

  (symbol (lib_id "pbv3:BondPad") (at 124.46 151.13 180) (unit 1)
    (in_bom yes) (on_board yes) (dnp no)
    (uuid 00000000-0000-0000-0000-000059f0a45b)
    (property "Reference" "J10" (at 124.46 153.67 0)
      (effects (font (size 1.524 1.524)))
    )
    (property "Value" "HV_OUT" (at 124.46 148.59 0)
      (effects (font (size 1.524 1.524)))
    )
    (property "Footprint" "pbv3:pad" (at 124.46 151.13 0)
      (effects (font (size 1.524 1.524)) hide)
    )
    (property "Datasheet" "" (at 124.46 151.13 0)
      (effects (font (size 1.524 1.524)) hide)
    )
    (pin "1" (uuid 3dcdda41-dce3-49f5-9d56-56530496bbdd))
    (instances
      (project "pbv3"
        (path "/1eae0866-fb43-460e-ba70-4206816f3ae0"
          (reference "J10") (unit 1)
        )
      )
    )
  )

  (symbol (lib_id "power:GND") (at 67.31 152.4 0) (unit 1)
    (in_bom yes) (on_board yes) (dnp no)
    (uuid 00000000-0000-0000-0000-000059f0a65e)
    (property "Reference" "#PWR0103" (at 67.31 158.75 0)
      (effects (font (size 1.27 1.27)) hide)
    )
    (property "Value" "GND" (at 67.31 156.21 0)
      (effects (font (size 1.27 1.27)))
    )
    (property "Footprint" "" (at 67.31 152.4 0)
      (effects (font (size 1.27 1.27)))
    )
    (property "Datasheet" "" (at 67.31 152.4 0)
      (effects (font (size 1.27 1.27)))
    )
    (pin "1" (uuid 451fb810-fed0-4887-b67e-643536757a3b))
    (instances
      (project "pbv3"
        (path "/1eae0866-fb43-460e-ba70-4206816f3ae0"
          (reference "#PWR0103") (unit 1)
        )
      )
    )
  )

  (symbol (lib_id "pbv3:BondPad") (at 52.07 154.94 0) (unit 1)
    (in_bom yes) (on_board yes) (dnp no)
    (uuid 00000000-0000-0000-0000-000059f0a7a4)
    (property "Reference" "J4" (at 52.07 152.4 0)
      (effects (font (size 1.524 1.524)))
    )
    (property "Value" "HV_IN" (at 52.07 157.48 0)
      (effects (font (size 1.524 1.524)))
    )
    (property "Footprint" "pbv3:pad" (at 52.07 154.94 0)
      (effects (font (size 1.524 1.524)) hide)
    )
    (property "Datasheet" "" (at 52.07 154.94 0)
      (effects (font (size 1.524 1.524)) hide)
    )
    (pin "1" (uuid 47a72668-bef8-4877-abd6-2b74ca42ec4d))
    (instances
      (project "pbv3"
        (path "/1eae0866-fb43-460e-ba70-4206816f3ae0"
          (reference "J4") (unit 1)
        )
      )
    )
  )

  (symbol (lib_id "power:GND") (at 196.85 54.61 0) (unit 1)
    (in_bom yes) (on_board yes) (dnp no)
    (uuid 00000000-0000-0000-0000-000059f2094a)
    (property "Reference" "#PWR0106" (at 196.85 60.96 0)
      (effects (font (size 1.27 1.27)) hide)
    )
    (property "Value" "GND" (at 196.85 58.42 0)
      (effects (font (size 1.27 1.27)))
    )
    (property "Footprint" "" (at 196.85 54.61 0)
      (effects (font (size 1.27 1.27)))
    )
    (property "Datasheet" "" (at 196.85 54.61 0)
      (effects (font (size 1.27 1.27)))
    )
    (pin "1" (uuid 7b9d337a-e989-470b-9d9f-9d56f346e8b1))
    (instances
      (project "pbv3"
        (path "/1eae0866-fb43-460e-ba70-4206816f3ae0"
          (reference "#PWR0106") (unit 1)
        )
      )
    )
  )

  (symbol (lib_id "pbv3:BondPad") (at 204.47 80.01 0) (unit 1)
    (in_bom yes) (on_board yes) (dnp no)
    (uuid 00000000-0000-0000-0000-000059f2b21a)
    (property "Reference" "J16" (at 204.47 77.47 0)
      (effects (font (size 1.524 1.524)))
    )
    (property "Value" "HRSTBx" (at 196.85 80.01 0)
      (effects (font (size 1.524 1.524)))
    )
    (property "Footprint" "pbv3:pad" (at 204.47 80.01 0)
      (effects (font (size 1.524 1.524)) hide)
    )
    (property "Datasheet" "" (at 204.47 80.01 0)
      (effects (font (size 1.524 1.524)) hide)
    )
    (pin "1" (uuid acce9e8d-1af5-4185-9b26-f4e12168abf6))
    (instances
      (project "pbv3"
        (path "/1eae0866-fb43-460e-ba70-4206816f3ae0"
          (reference "J16") (unit 1)
        )
      )
    )
  )

  (symbol (lib_id "pbv3:BondPad") (at 204.47 85.09 0) (unit 1)
    (in_bom yes) (on_board yes) (dnp no)
    (uuid 00000000-0000-0000-0000-000059f2b4b6)
    (property "Reference" "J17" (at 204.47 82.55 0)
      (effects (font (size 1.524 1.524)))
    )
    (property "Value" "LDx0EN" (at 196.85 85.09 0)
      (effects (font (size 1.524 1.524)))
    )
    (property "Footprint" "pbv3:pad" (at 204.47 85.09 0)
      (effects (font (size 1.524 1.524)) hide)
    )
    (property "Datasheet" "" (at 204.47 85.09 0)
      (effects (font (size 1.524 1.524)) hide)
    )
    (pin "1" (uuid a2809418-519f-466b-bb95-1ebd7f89570d))
    (instances
      (project "pbv3"
        (path "/1eae0866-fb43-460e-ba70-4206816f3ae0"
          (reference "J17") (unit 1)
        )
      )
    )
  )

  (symbol (lib_id "pbv3:BondPad") (at 204.47 90.17 0) (unit 1)
    (in_bom yes) (on_board yes) (dnp no)
    (uuid 00000000-0000-0000-0000-000059f2b758)
    (property "Reference" "J18" (at 204.47 87.63 0)
      (effects (font (size 1.524 1.524)))
    )
    (property "Value" "HREFx" (at 196.85 90.17 0)
      (effects (font (size 1.524 1.524)))
    )
    (property "Footprint" "pbv3:pad" (at 204.47 90.17 0)
      (effects (font (size 1.524 1.524)) hide)
    )
    (property "Datasheet" "" (at 204.47 90.17 0)
      (effects (font (size 1.524 1.524)) hide)
    )
    (pin "1" (uuid 27843a3d-5764-4e79-b42e-5f978e65e046))
    (instances
      (project "pbv3"
        (path "/1eae0866-fb43-460e-ba70-4206816f3ae0"
          (reference "J18") (unit 1)
        )
      )
    )
  )

  (symbol (lib_id "pbv3:BondPad") (at 204.47 95.25 0) (unit 1)
    (in_bom yes) (on_board yes) (dnp no)
    (uuid 00000000-0000-0000-0000-000059f2cfab)
    (property "Reference" "J19" (at 204.47 92.71 0)
      (effects (font (size 1.524 1.524)))
    )
    (property "Value" "NTCxP" (at 196.85 95.25 0)
      (effects (font (size 1.524 1.524)))
    )
    (property "Footprint" "pbv3:pad" (at 204.47 95.25 0)
      (effects (font (size 1.524 1.524)) hide)
    )
    (property "Datasheet" "" (at 204.47 95.25 0)
      (effects (font (size 1.524 1.524)) hide)
    )
    (pin "1" (uuid c995b93e-573e-41d8-a09c-9468e240752d))
    (instances
      (project "pbv3"
        (path "/1eae0866-fb43-460e-ba70-4206816f3ae0"
          (reference "J19") (unit 1)
        )
      )
    )
  )

  (symbol (lib_id "pbv3:BondPad") (at 204.47 100.33 0) (unit 1)
    (in_bom yes) (on_board yes) (dnp no)
    (uuid 00000000-0000-0000-0000-000059f2d40a)
    (property "Reference" "J20" (at 204.47 97.79 0)
      (effects (font (size 1.524 1.524)))
    )
    (property "Value" "NTCxN" (at 196.85 100.33 0)
      (effects (font (size 1.524 1.524)))
    )
    (property "Footprint" "pbv3:pad" (at 204.47 100.33 0)
      (effects (font (size 1.524 1.524)) hide)
    )
    (property "Datasheet" "" (at 204.47 100.33 0)
      (effects (font (size 1.524 1.524)) hide)
    )
    (pin "1" (uuid 896728ce-ec00-4188-ad34-5edf3ea11ac2))
    (instances
      (project "pbv3"
        (path "/1eae0866-fb43-460e-ba70-4206816f3ae0"
          (reference "J20") (unit 1)
        )
      )
    )
  )

  (symbol (lib_id "pbv3:BondPad") (at 204.47 105.41 0) (unit 1)
    (in_bom yes) (on_board yes) (dnp no)
    (uuid 00000000-0000-0000-0000-000059f2d6a1)
    (property "Reference" "J21" (at 204.47 102.87 0)
      (effects (font (size 1.524 1.524)))
    )
    (property "Value" "LDx1EN" (at 196.85 105.41 0)
      (effects (font (size 1.524 1.524)))
    )
    (property "Footprint" "pbv3:pad" (at 204.47 105.41 0)
      (effects (font (size 1.524 1.524)) hide)
    )
    (property "Datasheet" "" (at 204.47 105.41 0)
      (effects (font (size 1.524 1.524)) hide)
    )
    (pin "1" (uuid 921026b9-1e6a-4723-94a7-2f44d503e337))
    (instances
      (project "pbv3"
        (path "/1eae0866-fb43-460e-ba70-4206816f3ae0"
          (reference "J21") (unit 1)
        )
      )
    )
  )

  (symbol (lib_id "pbv3:BondPad") (at 204.47 74.93 0) (unit 1)
    (in_bom yes) (on_board yes) (dnp no)
    (uuid 00000000-0000-0000-0000-000059f365aa)
    (property "Reference" "J15" (at 204.47 72.39 0)
      (effects (font (size 1.524 1.524)))
    )
    (property "Value" "SSSHx" (at 196.85 74.93 0)
      (effects (font (size 1.524 1.524)))
    )
    (property "Footprint" "pbv3:pad" (at 204.47 74.93 0)
      (effects (font (size 1.524 1.524)) hide)
    )
    (property "Datasheet" "" (at 204.47 74.93 0)
      (effects (font (size 1.524 1.524)) hide)
    )
    (pin "1" (uuid 87b3e3c2-d810-460f-aa85-2f491d7473d9))
    (instances
      (project "pbv3"
        (path "/1eae0866-fb43-460e-ba70-4206816f3ae0"
          (reference "J15") (unit 1)
        )
      )
    )
  )

  (symbol (lib_id "pbv3:BondPad") (at 204.47 120.65 0) (unit 1)
    (in_bom yes) (on_board yes) (dnp no)
    (uuid 00000000-0000-0000-0000-000059f36857)
    (property "Reference" "J24" (at 204.47 118.11 0)
      (effects (font (size 1.524 1.524)))
    )
    (property "Value" "CALx" (at 196.85 120.65 0)
      (effects (font (size 1.524 1.524)))
    )
    (property "Footprint" "pbv3:pad" (at 204.47 120.65 0)
      (effects (font (size 1.524 1.524)) hide)
    )
    (property "Datasheet" "" (at 204.47 120.65 0)
      (effects (font (size 1.524 1.524)) hide)
    )
    (pin "1" (uuid 89c66475-1517-4b96-b25d-f49798bd815e))
    (instances
      (project "pbv3"
        (path "/1eae0866-fb43-460e-ba70-4206816f3ae0"
          (reference "J24") (unit 1)
        )
      )
    )
  )

  (symbol (lib_id "pbv3:BondPad") (at 204.47 115.57 0) (unit 1)
    (in_bom yes) (on_board yes) (dnp no)
    (uuid 00000000-0000-0000-0000-000059f36b07)
    (property "Reference" "J23" (at 204.47 113.03 0)
      (effects (font (size 1.524 1.524)))
    )
    (property "Value" "SHUNTx" (at 196.85 115.57 0)
      (effects (font (size 1.524 1.524)))
    )
    (property "Footprint" "pbv3:pad" (at 204.47 115.57 0)
      (effects (font (size 1.524 1.524)) hide)
    )
    (property "Datasheet" "" (at 204.47 115.57 0)
      (effects (font (size 1.524 1.524)) hide)
    )
    (pin "1" (uuid df143334-cefb-45f7-95b8-783d715fb488))
    (instances
      (project "pbv3"
        (path "/1eae0866-fb43-460e-ba70-4206816f3ae0"
          (reference "J23") (unit 1)
        )
      )
    )
  )

  (symbol (lib_id "pbv3:BondPad") (at 204.47 110.49 0) (unit 1)
    (in_bom yes) (on_board yes) (dnp no)
    (uuid 00000000-0000-0000-0000-000059f36db7)
    (property "Reference" "J22" (at 204.47 107.95 0)
      (effects (font (size 1.524 1.524)))
    )
    (property "Value" "LDx2EN" (at 196.85 110.49 0)
      (effects (font (size 1.524 1.524)))
    )
    (property "Footprint" "pbv3:pad" (at 204.47 110.49 0)
      (effects (font (size 1.524 1.524)) hide)
    )
    (property "Datasheet" "" (at 204.47 110.49 0)
      (effects (font (size 1.524 1.524)) hide)
    )
    (pin "1" (uuid faa791e3-1fc3-4bb3-a8ec-f4ec8941d5af))
    (instances
      (project "pbv3"
        (path "/1eae0866-fb43-460e-ba70-4206816f3ae0"
          (reference "J22") (unit 1)
        )
      )
    )
  )

  (symbol (lib_id "pbv3:BondPad") (at 250.19 80.01 0) (mirror y) (unit 1)
    (in_bom yes) (on_board yes) (dnp no)
    (uuid 00000000-0000-0000-0000-000059f3bec5)
    (property "Reference" "J30" (at 250.19 77.47 0)
      (effects (font (size 1.524 1.524)))
    )
    (property "Value" "HRSTBy" (at 257.81 80.01 0)
      (effects (font (size 1.524 1.524)))
    )
    (property "Footprint" "pbv3:pad" (at 250.19 80.01 0)
      (effects (font (size 1.524 1.524)) hide)
    )
    (property "Datasheet" "" (at 250.19 80.01 0)
      (effects (font (size 1.524 1.524)) hide)
    )
    (pin "1" (uuid 4c24222a-4e7e-434f-98b9-9f771246bab5))
    (instances
      (project "pbv3"
        (path "/1eae0866-fb43-460e-ba70-4206816f3ae0"
          (reference "J30") (unit 1)
        )
      )
    )
  )

  (symbol (lib_id "pbv3:BondPad") (at 250.19 85.09 0) (mirror y) (unit 1)
    (in_bom yes) (on_board yes) (dnp no)
    (uuid 00000000-0000-0000-0000-000059f3becb)
    (property "Reference" "J31" (at 250.19 82.55 0)
      (effects (font (size 1.524 1.524)))
    )
    (property "Value" "LDy0EN" (at 257.81 85.09 0)
      (effects (font (size 1.524 1.524)))
    )
    (property "Footprint" "pbv3:pad" (at 250.19 85.09 0)
      (effects (font (size 1.524 1.524)) hide)
    )
    (property "Datasheet" "" (at 250.19 85.09 0)
      (effects (font (size 1.524 1.524)) hide)
    )
    (pin "1" (uuid 284eb3e0-4af8-40aa-99f9-89408b002f30))
    (instances
      (project "pbv3"
        (path "/1eae0866-fb43-460e-ba70-4206816f3ae0"
          (reference "J31") (unit 1)
        )
      )
    )
  )

  (symbol (lib_id "pbv3:BondPad") (at 250.19 90.17 0) (mirror y) (unit 1)
    (in_bom yes) (on_board yes) (dnp no)
    (uuid 00000000-0000-0000-0000-000059f3bed1)
    (property "Reference" "J32" (at 250.19 87.63 0)
      (effects (font (size 1.524 1.524)))
    )
    (property "Value" "HREFy" (at 257.81 90.17 0)
      (effects (font (size 1.524 1.524)))
    )
    (property "Footprint" "pbv3:pad" (at 250.19 90.17 0)
      (effects (font (size 1.524 1.524)) hide)
    )
    (property "Datasheet" "" (at 250.19 90.17 0)
      (effects (font (size 1.524 1.524)) hide)
    )
    (pin "1" (uuid 105c56d1-30e6-4a56-976f-42759cb1f7f2))
    (instances
      (project "pbv3"
        (path "/1eae0866-fb43-460e-ba70-4206816f3ae0"
          (reference "J32") (unit 1)
        )
      )
    )
  )

  (symbol (lib_id "pbv3:BondPad") (at 250.19 95.25 0) (mirror y) (unit 1)
    (in_bom yes) (on_board yes) (dnp no)
    (uuid 00000000-0000-0000-0000-000059f3bed7)
    (property "Reference" "J33" (at 250.19 92.71 0)
      (effects (font (size 1.524 1.524)))
    )
    (property "Value" "NTCyN" (at 257.81 95.25 0)
      (effects (font (size 1.524 1.524)))
    )
    (property "Footprint" "pbv3:pad" (at 250.19 95.25 0)
      (effects (font (size 1.524 1.524)) hide)
    )
    (property "Datasheet" "" (at 250.19 95.25 0)
      (effects (font (size 1.524 1.524)) hide)
    )
    (pin "1" (uuid fe58da8d-70f0-4c3c-ba33-1942b951f5f5))
    (instances
      (project "pbv3"
        (path "/1eae0866-fb43-460e-ba70-4206816f3ae0"
          (reference "J33") (unit 1)
        )
      )
    )
  )

  (symbol (lib_id "pbv3:BondPad") (at 250.19 100.33 0) (mirror y) (unit 1)
    (in_bom yes) (on_board yes) (dnp no)
    (uuid 00000000-0000-0000-0000-000059f3bedd)
    (property "Reference" "J34" (at 250.19 97.79 0)
      (effects (font (size 1.524 1.524)))
    )
    (property "Value" "NTCyP" (at 257.81 100.33 0)
      (effects (font (size 1.524 1.524)))
    )
    (property "Footprint" "pbv3:pad" (at 250.19 100.33 0)
      (effects (font (size 1.524 1.524)) hide)
    )
    (property "Datasheet" "" (at 250.19 100.33 0)
      (effects (font (size 1.524 1.524)) hide)
    )
    (pin "1" (uuid 09a9096a-4f3e-4a77-8f4f-7c94f154ea2a))
    (instances
      (project "pbv3"
        (path "/1eae0866-fb43-460e-ba70-4206816f3ae0"
          (reference "J34") (unit 1)
        )
      )
    )
  )

  (symbol (lib_id "pbv3:BondPad") (at 250.19 105.41 0) (mirror y) (unit 1)
    (in_bom yes) (on_board yes) (dnp no)
    (uuid 00000000-0000-0000-0000-000059f3bee3)
    (property "Reference" "J35" (at 250.19 102.87 0)
      (effects (font (size 1.524 1.524)))
    )
    (property "Value" "LDy1EN" (at 257.81 105.41 0)
      (effects (font (size 1.524 1.524)))
    )
    (property "Footprint" "pbv3:pad" (at 250.19 105.41 0)
      (effects (font (size 1.524 1.524)) hide)
    )
    (property "Datasheet" "" (at 250.19 105.41 0)
      (effects (font (size 1.524 1.524)) hide)
    )
    (pin "1" (uuid 2fb045bf-18db-49ea-b1e6-b2c67e776cd6))
    (instances
      (project "pbv3"
        (path "/1eae0866-fb43-460e-ba70-4206816f3ae0"
          (reference "J35") (unit 1)
        )
      )
    )
  )

  (symbol (lib_id "pbv3:BondPad") (at 250.19 74.93 0) (mirror y) (unit 1)
    (in_bom yes) (on_board yes) (dnp no)
    (uuid 00000000-0000-0000-0000-000059f3bee9)
    (property "Reference" "J29" (at 250.19 72.39 0)
      (effects (font (size 1.524 1.524)))
    )
    (property "Value" "SSSHy" (at 257.81 74.93 0)
      (effects (font (size 1.524 1.524)))
    )
    (property "Footprint" "pbv3:pad" (at 250.19 74.93 0)
      (effects (font (size 1.524 1.524)) hide)
    )
    (property "Datasheet" "" (at 250.19 74.93 0)
      (effects (font (size 1.524 1.524)) hide)
    )
    (pin "1" (uuid 170d8656-8d88-4f68-ae50-d715d5713f68))
    (instances
      (project "pbv3"
        (path "/1eae0866-fb43-460e-ba70-4206816f3ae0"
          (reference "J29") (unit 1)
        )
      )
    )
  )

  (symbol (lib_id "pbv3:BondPad") (at 250.19 120.65 0) (mirror y) (unit 1)
    (in_bom yes) (on_board yes) (dnp no)
    (uuid 00000000-0000-0000-0000-000059f3beef)
    (property "Reference" "J38" (at 250.19 118.11 0)
      (effects (font (size 1.524 1.524)))
    )
    (property "Value" "CAly" (at 257.81 120.65 0)
      (effects (font (size 1.524 1.524)))
    )
    (property "Footprint" "pbv3:pad" (at 250.19 120.65 0)
      (effects (font (size 1.524 1.524)) hide)
    )
    (property "Datasheet" "" (at 250.19 120.65 0)
      (effects (font (size 1.524 1.524)) hide)
    )
    (pin "1" (uuid bdeff0b0-d3c0-4f4c-adfd-f5e15cc7775b))
    (instances
      (project "pbv3"
        (path "/1eae0866-fb43-460e-ba70-4206816f3ae0"
          (reference "J38") (unit 1)
        )
      )
    )
  )

  (symbol (lib_id "pbv3:BondPad") (at 250.19 115.57 0) (mirror y) (unit 1)
    (in_bom yes) (on_board yes) (dnp no)
    (uuid 00000000-0000-0000-0000-000059f3bef5)
    (property "Reference" "J37" (at 250.19 113.03 0)
      (effects (font (size 1.524 1.524)))
    )
    (property "Value" "SHUNTy" (at 257.81 115.57 0)
      (effects (font (size 1.524 1.524)))
    )
    (property "Footprint" "pbv3:pad" (at 250.19 115.57 0)
      (effects (font (size 1.524 1.524)) hide)
    )
    (property "Datasheet" "" (at 250.19 115.57 0)
      (effects (font (size 1.524 1.524)) hide)
    )
    (pin "1" (uuid a2e99dd8-974c-4aa4-bb86-49627c1cb630))
    (instances
      (project "pbv3"
        (path "/1eae0866-fb43-460e-ba70-4206816f3ae0"
          (reference "J37") (unit 1)
        )
      )
    )
  )

  (symbol (lib_id "pbv3:BondPad") (at 250.19 110.49 0) (mirror y) (unit 1)
    (in_bom yes) (on_board yes) (dnp no)
    (uuid 00000000-0000-0000-0000-000059f3befb)
    (property "Reference" "J36" (at 250.19 107.95 0)
      (effects (font (size 1.524 1.524)))
    )
    (property "Value" "LDy2EN" (at 257.81 110.49 0)
      (effects (font (size 1.524 1.524)))
    )
    (property "Footprint" "pbv3:pad" (at 250.19 110.49 0)
      (effects (font (size 1.524 1.524)) hide)
    )
    (property "Datasheet" "" (at 250.19 110.49 0)
      (effects (font (size 1.524 1.524)) hide)
    )
    (pin "1" (uuid 79547c10-11c6-48a7-9e24-a6fcd8f65742))
    (instances
      (project "pbv3"
        (path "/1eae0866-fb43-460e-ba70-4206816f3ae0"
          (reference "J36") (unit 1)
        )
      )
    )
  )

  (symbol (lib_id "power:GND") (at 109.22 157.48 0) (unit 1)
    (in_bom yes) (on_board yes) (dnp no)
    (uuid 00000000-0000-0000-0000-000059f3f88d)
    (property "Reference" "#PWR0104" (at 109.22 163.83 0)
      (effects (font (size 1.27 1.27)) hide)
    )
    (property "Value" "GND" (at 109.22 161.29 0)
      (effects (font (size 1.27 1.27)))
    )
    (property "Footprint" "" (at 109.22 157.48 0)
      (effects (font (size 1.27 1.27)))
    )
    (property "Datasheet" "" (at 109.22 157.48 0)
      (effects (font (size 1.27 1.27)))
    )
    (pin "1" (uuid 4cfbd9a6-3bc9-49cf-be35-1612dbd74676))
    (instances
      (project "pbv3"
        (path "/1eae0866-fb43-460e-ba70-4206816f3ae0"
          (reference "#PWR0104") (unit 1)
        )
      )
    )
  )

  (symbol (lib_id "pbv3:BondPad") (at 204.47 128.27 0) (unit 1)
    (in_bom yes) (on_board yes) (dnp no)
    (uuid 00000000-0000-0000-0000-000059f402b6)
    (property "Reference" "J25" (at 204.47 125.73 0)
      (effects (font (size 1.524 1.524)))
    )
    (property "Value" "HVretX" (at 196.85 128.27 0)
      (effects (font (size 1.524 1.524)))
    )
    (property "Footprint" "pbv3:pad" (at 204.47 128.27 0)
      (effects (font (size 1.524 1.524)) hide)
    )
    (property "Datasheet" "" (at 204.47 128.27 0)
      (effects (font (size 1.524 1.524)) hide)
    )
    (pin "1" (uuid 0333dac8-c743-412b-8e8c-89d8a46bf13d))
    (instances
      (project "pbv3"
        (path "/1eae0866-fb43-460e-ba70-4206816f3ae0"
          (reference "J25") (unit 1)
        )
      )
    )
  )

  (symbol (lib_id "pbv3:BondPad") (at 250.19 138.43 180) (unit 1)
    (in_bom yes) (on_board yes) (dnp no)
    (uuid 00000000-0000-0000-0000-000059f4095c)
    (property "Reference" "J40" (at 250.19 140.97 0)
      (effects (font (size 1.524 1.524)))
    )
    (property "Value" "CMDoutP" (at 257.81 138.43 0)
      (effects (font (size 1.524 1.524)))
    )
    (property "Footprint" "pbv3:pad" (at 250.19 138.43 0)
      (effects (font (size 1.524 1.524)) hide)
    )
    (property "Datasheet" "" (at 250.19 138.43 0)
      (effects (font (size 1.524 1.524)) hide)
    )
    (pin "1" (uuid 2c7e04da-8e33-4c49-8a9a-8bb64dab20a0))
    (instances
      (project "pbv3"
        (path "/1eae0866-fb43-460e-ba70-4206816f3ae0"
          (reference "J40") (unit 1)
        )
      )
    )
  )

  (symbol (lib_id "pbv3:BondPad") (at 250.19 143.51 180) (unit 1)
    (in_bom yes) (on_board yes) (dnp no)
    (uuid 00000000-0000-0000-0000-000059f40c45)
    (property "Reference" "J41" (at 250.19 146.05 0)
      (effects (font (size 1.524 1.524)))
    )
    (property "Value" "CMDoutN" (at 257.81 143.51 0)
      (effects (font (size 1.524 1.524)))
    )
    (property "Footprint" "pbv3:pad" (at 250.19 143.51 0)
      (effects (font (size 1.524 1.524)) hide)
    )
    (property "Datasheet" "" (at 250.19 143.51 0)
      (effects (font (size 1.524 1.524)) hide)
    )
    (pin "1" (uuid a8f9173b-ddbd-408a-a1bd-b054691d67d8))
    (instances
      (project "pbv3"
        (path "/1eae0866-fb43-460e-ba70-4206816f3ae0"
          (reference "J41") (unit 1)
        )
      )
    )
  )

  (symbol (lib_id "pbv3:BondPad") (at 204.47 138.43 0) (unit 1)
    (in_bom yes) (on_board yes) (dnp no)
    (uuid 00000000-0000-0000-0000-000059f41436)
    (property "Reference" "J26" (at 204.47 135.89 0)
      (effects (font (size 1.524 1.524)))
    )
    (property "Value" "CMDinP" (at 196.85 138.43 0)
      (effects (font (size 1.524 1.524)))
    )
    (property "Footprint" "pbv3:pad" (at 204.47 138.43 0)
      (effects (font (size 1.524 1.524)) hide)
    )
    (property "Datasheet" "" (at 204.47 138.43 0)
      (effects (font (size 1.524 1.524)) hide)
    )
    (pin "1" (uuid cf740ee0-5417-46e0-9260-b08ce255aaec))
    (instances
      (project "pbv3"
        (path "/1eae0866-fb43-460e-ba70-4206816f3ae0"
          (reference "J26") (unit 1)
        )
      )
    )
  )

  (symbol (lib_id "pbv3:BondPad") (at 204.47 143.51 0) (unit 1)
    (in_bom yes) (on_board yes) (dnp no)
    (uuid 00000000-0000-0000-0000-000059f41709)
    (property "Reference" "J27" (at 204.47 140.97 0)
      (effects (font (size 1.524 1.524)))
    )
    (property "Value" "CMDinN" (at 196.85 143.51 0)
      (effects (font (size 1.524 1.524)))
    )
    (property "Footprint" "pbv3:pad" (at 204.47 143.51 0)
      (effects (font (size 1.524 1.524)) hide)
    )
    (property "Datasheet" "" (at 204.47 143.51 0)
      (effects (font (size 1.524 1.524)) hide)
    )
    (pin "1" (uuid 8d2d06c3-f3f9-4ba0-a25d-ef3f4dad3b9c))
    (instances
      (project "pbv3"
        (path "/1eae0866-fb43-460e-ba70-4206816f3ae0"
          (reference "J27") (unit 1)
        )
      )
    )
  )

  (symbol (lib_id "pbv3:BondPad") (at 250.19 153.67 180) (unit 1)
    (in_bom yes) (on_board yes) (dnp no)
    (uuid 00000000-0000-0000-0000-000059f422d1)
    (property "Reference" "J42" (at 250.19 156.21 0)
      (effects (font (size 1.524 1.524)))
    )
    (property "Value" "OFout" (at 257.81 153.67 0)
      (effects (font (size 1.524 1.524)))
    )
    (property "Footprint" "pbv3:pad" (at 250.19 153.67 0)
      (effects (font (size 1.524 1.524)) hide)
    )
    (property "Datasheet" "" (at 250.19 153.67 0)
      (effects (font (size 1.524 1.524)) hide)
    )
    (pin "1" (uuid ef34c09e-65f0-4b13-841b-8f0b0585a46d))
    (instances
      (project "pbv3"
        (path "/1eae0866-fb43-460e-ba70-4206816f3ae0"
          (reference "J42") (unit 1)
        )
      )
    )
  )

  (symbol (lib_id "pbv3:BondPad") (at 204.47 149.86 0) (unit 1)
    (in_bom yes) (on_board yes) (dnp no)
    (uuid 00000000-0000-0000-0000-000059f425b4)
    (property "Reference" "J28" (at 204.47 147.32 0)
      (effects (font (size 1.524 1.524)))
    )
    (property "Value" "CAL" (at 196.85 149.86 0)
      (effects (font (size 1.524 1.524)))
    )
    (property "Footprint" "pbv3:pad" (at 204.47 149.86 0)
      (effects (font (size 1.524 1.524)) hide)
    )
    (property "Datasheet" "" (at 204.47 149.86 0)
      (effects (font (size 1.524 1.524)) hide)
    )
    (pin "1" (uuid 30cde441-a4b4-4a86-92b5-1140e5d06e66))
    (instances
      (project "pbv3"
        (path "/1eae0866-fb43-460e-ba70-4206816f3ae0"
          (reference "J28") (unit 1)
        )
      )
    )
  )

  (symbol (lib_id "pbv3:BondPad") (at 133.35 60.96 90) (unit 1)
    (in_bom yes) (on_board yes) (dnp no)
    (uuid 00000000-0000-0000-0000-00005aabf9e9)
    (property "Reference" "J5" (at 130.81 60.96 0)
      (effects (font (size 1.524 1.524)))
    )
    (property "Value" "T1V4" (at 135.89 60.96 0)
      (effects (font (size 1.524 1.524)))
    )
    (property "Footprint" "pbv3:pad" (at 133.35 60.96 0)
      (effects (font (size 1.524 1.524)) hide)
    )
    (property "Datasheet" "" (at 133.35 60.96 0)
      (effects (font (size 1.524 1.524)) hide)
    )
    (pin "1" (uuid 9cb0b927-8b32-48c5-89f4-3da08b99e68e))
    (instances
      (project "pbv3"
        (path "/1eae0866-fb43-460e-ba70-4206816f3ae0"
          (reference "J5") (unit 1)
        )
      )
    )
  )

  (symbol (lib_id "pbv3:BondPad") (at 140.97 60.96 90) (unit 1)
    (in_bom yes) (on_board yes) (dnp no)
    (uuid 00000000-0000-0000-0000-00005aabfc0c)
    (property "Reference" "J6" (at 138.43 60.96 0)
      (effects (font (size 1.524 1.524)))
    )
    (property "Value" "T3V3" (at 143.51 60.96 0)
      (effects (font (size 1.524 1.524)))
    )
    (property "Footprint" "pbv3:pad" (at 140.97 60.96 0)
      (effects (font (size 1.524 1.524)) hide)
    )
    (property "Datasheet" "" (at 140.97 60.96 0)
      (effects (font (size 1.524 1.524)) hide)
    )
    (pin "1" (uuid 78b92e3a-8baf-4e19-aa30-d98ae1eba404))
    (instances
      (project "pbv3"
        (path "/1eae0866-fb43-460e-ba70-4206816f3ae0"
          (reference "J6") (unit 1)
        )
      )
    )
  )

  (symbol (lib_id "Device:R") (at 110.49 151.13 270) (unit 1)
    (in_bom yes) (on_board yes) (dnp no)
    (uuid f0d67882-ac6a-4bd5-8030-9e0ae0be23aa)
    (property "Reference" "R16" (at 110.49 153.162 90)
      (effects (font (size 1.27 1.27)))
    )
    (property "Value" "100R" (at 110.49 151.13 90)
      (effects (font (size 1.27 1.27)))
    )
    (property "Footprint" "Resistor_SMD:R_0201_0603Metric" (at 110.49 149.352 90)
      (effects (font (size 1.27 1.27)) hide)
    )
    (property "Datasheet" "" (at 110.49 151.13 0)
      (effects (font (size 1.27 1.27)))
    )
    (property "Part" "ERJ-1GNJ101C" (at 110.49 151.13 0)
      (effects (font (size 1.27 1.27)) hide)
    )
    (pin "1" (uuid 6d301302-e20d-49ee-9560-293937e6da0b))
    (pin "2" (uuid 7f187514-1cbd-40d9-9e81-418ade0293bc))
    (instances
      (project "pbv3"
        (path "/1eae0866-fb43-460e-ba70-4206816f3ae0"
          (reference "R16") (unit 1)
        )
      )
    )
  )

  (sheet (at 68.58 40.64) (size 30.48 36.83) (fields_autoplaced)
    (stroke (width 0) (type solid))
    (fill (color 0 0 0 0.0000))
    (uuid 00000000-0000-0000-0000-000059efea3a)
    (property "Sheetname" "Power" (at 68.58 39.8014 0)
      (effects (font (size 1.524 1.524)) (justify left bottom))
    )
    (property "Sheetfile" "pbv3_power.kicad_sch" (at 68.58 78.1562 0)
      (effects (font (size 1.524 1.524)) (justify left top))
    )
    (pin "VOUT" input (at 99.06 43.18 0)
      (effects (font (size 1.524 1.524)) (justify right))
      (uuid 479097ab-e3d0-447b-aae4-7b0052552ef6)
    )
    (pin "VIN" input (at 68.58 43.18 180)
      (effects (font (size 1.524 1.524)) (justify left))
      (uuid 7842327e-24cc-4966-bbc6-008891e58a64)
    )
    (pin "VIN_RTN" input (at 68.58 46.99 180)
      (effects (font (size 1.524 1.524)) (justify left))
      (uuid cbb04d4e-2bbc-4354-bc50-1edc5f88068e)
    )
    (pin "PTAT" input (at 99.06 74.93 0)
      (effects (font (size 1.524 1.524)) (justify right))
      (uuid ba39f310-23c5-4a56-baa7-cf88b08d466d)
    )
    (pin "DCDCEN" input (at 68.58 60.96 180)
      (effects (font (size 1.524 1.524)) (justify left))
      (uuid fd7a9d01-6879-446c-ae2d-79a9c89ce315)
    )
    (pin "PGOOD" input (at 99.06 71.12 0)
      (effects (font (size 1.524 1.524)) (justify right))
      (uuid 21baf089-0668-4767-b44b-1272d0a61348)
    )
    (pin "FVOUT" input (at 99.06 63.5 0)
      (effects (font (size 1.524 1.524)) (justify right))
      (uuid bb78bcc8-2207-436d-85e8-1a293d8d6b70)
    )
    (pin "VCC3V3" input (at 99.06 50.8 0)
      (effects (font (size 1.524 1.524)) (justify right))
      (uuid 6d0c9227-9fa4-4fdd-a7a1-f5cf102ac4cd)
    )
    (pin "VCC1V4" input (at 99.06 46.99 0)
      (effects (font (size 1.524 1.524)) (justify right))
      (uuid cf6556fa-15b5-4ffd-9acb-fe480d703c43)
    )
    (pin "LREGEN" input (at 68.58 57.15 180)
      (effects (font (size 1.524 1.524)) (justify left))
      (uuid c62445a8-7b6c-4d38-ba5b-86ce798ed628)
    )
    (pin "NTCp" input (at 68.58 71.12 180)
      (effects (font (size 1.524 1.524)) (justify left))
      (uuid 25c3edd1-654a-424f-b192-1d4ebd3105bd)
    )
    (pin "NTCn" input (at 68.58 74.93 180)
      (effects (font (size 1.524 1.524)) (justify left))
      (uuid b047ff12-846b-410d-b3b4-1a9e4d17b65d)
    )
    (pin "FVIN" input (at 99.06 67.31 0)
      (effects (font (size 1.524 1.524)) (justify right))
      (uuid ee73db22-8c3f-4535-b1f1-24cf681a0352)
    )
    (pin "Bit1_VOUT" input (at 99.06 55.88 0)
      (effects (font (size 1.524 1.524)) (justify right))
      (uuid 4ca656fa-7191-4256-9c54-82e6a0cbb5b4)
    )
    (pin "Bit2_VOUT" input (at 99.06 59.69 0)
      (effects (font (size 1.524 1.524)) (justify right))
      (uuid 8530c92e-97a2-4d9a-a10d-0aec8d000091)
    )
    (instances
      (project "pbv3"
        (path "/1eae0866-fb43-460e-ba70-4206816f3ae0" (page "2"))
      )
    )
  )

  (sheet (at 214.63 44.45) (size 25.4 113.03) (fields_autoplaced)
    (stroke (width 0) (type solid))
    (fill (color 0 0 0 0.0000))
    (uuid 00000000-0000-0000-0000-000059f0798f)
    (property "Sheetname" "AMAC" (at 214.63 43.6114 0)
      (effects (font (size 1.524 1.524)) (justify left bottom))
    )
    (property "Sheetfile" "amac.kicad_sch" (at 214.63 158.1662 0)
      (effects (font (size 1.524 1.524)) (justify left top))
    )
    (pin "VDCDC" input (at 214.63 46.99 180)
      (effects (font (size 1.524 1.524)) (justify left))
      (uuid 92c33c20-8ebf-40f4-8eec-0574c9f8029b)
    )
    (pin "VLREG" input (at 214.63 49.53 180)
      (effects (font (size 1.524 1.524)) (justify left))
      (uuid d977a94d-6c9a-43b3-ae85-8020f05b746b)
    )
    (pin "GND" input (at 214.63 54.61 180)
      (effects (font (size 1.524 1.524)) (justify left))
      (uuid b4da0752-9255-4bac-97d9-905e5effd578)
    )
    (pin "CUR1Vp" input (at 214.63 59.69 180)
      (effects (font (size 1.524 1.524)) (justify left))
      (uuid f59167db-872b-4b99-80b8-512ed5d5cee0)
    )
    (pin "CUR1Vn" input (at 214.63 62.23 180)
      (effects (font (size 1.524 1.524)) (justify left))
      (uuid dc1b6b19-ccbc-4248-8ca8-8304abf46fd8)
    )
    (pin "DCDCEN" input (at 240.03 46.99 0)
      (effects (font (size 1.524 1.524)) (justify right))
      (uuid d18540cc-7c2f-43ec-944a-ac415cbaf3fd)
    )
    (pin "NTCPBn" input (at 240.03 54.61 0)
      (effects (font (size 1.524 1.524)) (justify right))
      (uuid 9bda1d5c-c299-49f4-8ecc-fbce1c1f38f7)
    )
    (pin "NTCPBp" input (at 240.03 57.15 0)
      (effects (font (size 1.524 1.524)) (justify right))
      (uuid 7b95f590-2273-4982-8124-36c87c237ff9)
    )
    (pin "CUR10Vn" input (at 214.63 68.58 180)
      (effects (font (size 1.524 1.524)) (justify left))
      (uuid 89cfe07c-b311-490b-a875-0a71de4bf2f3)
    )
    (pin "CUR10Vp" input (at 214.63 66.04 180)
      (effects (font (size 1.524 1.524)) (justify left))
      (uuid 7aa48356-0363-4881-a22e-060e5a1f9201)
    )
    (pin "PGOOD" input (at 240.03 49.53 0)
      (effects (font (size 1.524 1.524)) (justify right))
      (uuid db5b3db1-1522-4f64-8767-8904a5729aa9)
    )
    (pin "PTAT" input (at 240.03 52.07 0)
      (effects (font (size 1.524 1.524)) (justify right))
      (uuid 3f14e26b-7cdc-410d-b3d8-a1e1b508e5c6)
    )
    (pin "SSSHy" input (at 240.03 74.93 0)
      (effects (font (size 1.524 1.524)) (justify right))
      (uuid 5e066100-2ddd-4cf4-b70e-2e800bbbf810)
    )
    (pin "HRSTBy" input (at 240.03 80.01 0)
      (effects (font (size 1.524 1.524)) (justify right))
      (uuid 50613ac1-50d8-41b2-be0d-eeac7e93c1bf)
    )
    (pin "LDy0EN" input (at 240.03 85.09 0)
      (effects (font (size 1.524 1.524)) (justify right))
      (uuid eeaf5c2e-573f-4dd1-ac5b-fbfecd16bd55)
    )
    (pin "HREFy" input (at 240.03 90.17 0)
      (effects (font (size 1.524 1.524)) (justify right))
      (uuid 51ce36e4-ec15-4597-aa48-2cb2bb66cff9)
    )
    (pin "NTCyN" input (at 240.03 95.25 0)
      (effects (font (size 1.524 1.524)) (justify right))
      (uuid 15231d1a-4f4c-4d4c-8f35-26dfb618d04b)
    )
    (pin "NTCyP" input (at 240.03 100.33 0)
      (effects (font (size 1.524 1.524)) (justify right))
      (uuid 9feb89e8-a76d-45d5-8af6-f4e73565a5d4)
    )
    (pin "LDy1EN" input (at 240.03 105.41 0)
      (effects (font (size 1.524 1.524)) (justify right))
      (uuid 1ae72f91-4936-4acf-864c-826897b5085a)
    )
    (pin "LDy2EN" input (at 240.03 110.49 0)
      (effects (font (size 1.524 1.524)) (justify right))
      (uuid 7269c319-0767-4b85-898a-3b8bb1c1b467)
    )
    (pin "SHUNTy" input (at 240.03 115.57 0)
      (effects (font (size 1.524 1.524)) (justify right))
      (uuid 0b04b070-0d20-4a4e-8269-6ba14a597ba7)
    )
    (pin "CALy" input (at 240.03 120.65 0)
      (effects (font (size 1.524 1.524)) (justify right))
      (uuid aa11e936-cdab-420f-a78f-caa32c69260a)
    )
    (pin "OFout" input (at 240.03 153.67 0)
      (effects (font (size 1.524 1.524)) (justify right))
      (uuid 0967eaf7-3e4f-4a2f-9d90-7cb2691f23b6)
    )
    (pin "GPO2" input (at 240.03 59.69 0)
      (effects (font (size 1.524 1.524)) (justify right))
      (uuid d7a258e2-d08c-4fd4-b61c-45edb53abc36)
    )
    (pin "HVret1" input (at 214.63 128.27 180)
      (effects (font (size 1.524 1.524)) (justify left))
      (uuid 9389fcf1-09bd-481d-a4ef-9384a42d56e2)
    )
    (pin "CMDin_P" input (at 214.63 139.7 180)
      (effects (font (size 1.524 1.524)) (justify left))
      (uuid 96139d2d-c1bd-4d47-a0e0-6cd2e2c10003)
    )
    (pin "CMDin_N" input (at 214.63 142.24 180)
      (effects (font (size 1.524 1.524)) (justify left))
      (uuid a84d850c-55c4-4dbc-a068-1021420b8e3b)
    )
    (pin "CMDout_P" output (at 240.03 139.7 0)
      (effects (font (size 1.524 1.524)) (justify right))
      (uuid d7a292ee-143d-4a40-b486-e947e1002c69)
    )
    (pin "CMDout_N" input (at 240.03 142.24 0)
      (effects (font (size 1.524 1.524)) (justify right))
      (uuid 1b43b0f1-3603-4533-b8c5-30aff6cc5ebb)
    )
    (pin "HVOSC0" input (at 214.63 133.35 180)
      (effects (font (size 1.524 1.524)) (justify left))
      (uuid 1beb94ac-0980-4446-a15a-6f6028c2875b)
    )
    (pin "VDDHI" input (at 214.63 52.07 180)
      (effects (font (size 1.524 1.524)) (justify left))
      (uuid 0ccf3bde-866e-4231-b785-fc8e0833134f)
    )
    (pin "LAM" input (at 240.03 149.86 0)
      (effects (font (size 1.524 1.524)) (justify right))
      (uuid dde0a94d-9f7e-4c0d-b9bd-67d919096fa1)
    )
    (pin "HVret2" input (at 240.03 128.27 0)
      (effects (font (size 1.524 1.524)) (justify right))
      (uuid 4bbbd8c8-4e36-4cd9-a712-7bf873ec1ef3)
    )
    (pin "LDx0EN" input (at 214.63 85.09 180)
      (effects (font (size 1.524 1.524)) (justify left))
      (uuid 1a7f6efa-ef60-433d-acc0-6f9a9126bc57)
    )
    (pin "HRSTBx" input (at 214.63 80.01 180)
      (effects (font (size 1.524 1.524)) (justify left))
      (uuid 8a4bd203-982c-47eb-8d5f-c6411ccb82db)
    )
    (pin "SSSHx" input (at 214.63 74.93 180)
      (effects (font (size 1.524 1.524)) (justify left))
      (uuid 64785f4f-92fd-44e0-8e9a-2f3a123d3461)
    )
    (pin "HREFx" input (at 214.63 90.17 180)
      (effects (font (size 1.524 1.524)) (justify left))
      (uuid d700fab8-54ff-4598-b1ed-2da6ebf65439)
    )
    (pin "NTCxP" input (at 214.63 95.25 180)
      (effects (font (size 1.524 1.524)) (justify left))
      (uuid 5039f9ed-3687-480a-b451-438b92d2c07f)
    )
    (pin "NTCxN" input (at 214.63 100.33 180)
      (effects (font (size 1.524 1.524)) (justify left))
      (uuid 63e61c71-224b-4a45-a318-e6a3057bc573)
    )
    (pin "LDx1EN" input (at 214.63 105.41 180)
      (effects (font (size 1.524 1.524)) (justify left))
      (uuid e8a25d38-5aa4-4107-9d31-ac0ccc1ef2d4)
    )
    (pin "LDx2EN" input (at 214.63 110.49 180)
      (effects (font (size 1.524 1.524)) (justify left))
      (uuid 2b57e035-c5f2-4692-ba8d-3bdd0e309a9c)
    )
    (pin "SHUNTx" input (at 214.63 115.57 180)
      (effects (font (size 1.524 1.524)) (justify left))
      (uuid 2225601c-daae-46cb-9467-08f7096b4a9f)
    )
    (pin "CALx" input (at 214.63 120.65 180)
      (effects (font (size 1.524 1.524)) (justify left))
      (uuid 00705667-1998-4399-a5bf-af2ebfd82034)
    )
    (pin "OFin" input (at 214.63 153.67 180)
      (effects (font (size 1.524 1.524)) (justify left))
      (uuid 8f231690-1732-47a4-90a6-90695890cfcc)
    )
    (pin "CAL" input (at 214.63 149.86 180)
      (effects (font (size 1.524 1.524)) (justify left))
      (uuid 2e1ed5c9-c168-40c3-b373-b813fb2f506a)
    )
    (pin "GPO1" input (at 240.03 62.23 0)
      (effects (font (size 1.524 1.524)) (justify right))
      (uuid c344f906-0de8-44d1-959b-83d7cf9f3e3f)
    )
    (instances
      (project "pbv3"
        (path "/1eae0866-fb43-460e-ba70-4206816f3ae0" (page "4"))
      )
    )
  )

  (sheet (at 73.66 142.24) (size 26.67 25.4) (fields_autoplaced)
    (stroke (width 0) (type solid))
    (fill (color 0 0 0 0.0000))
    (uuid 00000000-0000-0000-0000-000059f07aaa)
    (property "Sheetname" "HV" (at 73.66 141.4014 0)
      (effects (font (size 1.524 1.524)) (justify left bottom))
    )
    (property "Sheetfile" "hv.kicad_sch" (at 73.66 168.3262 0)
      (effects (font (size 1.524 1.524)) (justify left top))
    )
    (pin "HVOSC" input (at 73.66 146.05 180)
      (effects (font (size 1.524 1.524)) (justify left))
      (uuid 4021e16a-2acc-4454-b438-9a04e709dc05)
    )
    (pin "GND" input (at 73.66 149.86 180)
      (effects (font (size 1.524 1.524)) (justify left))
      (uuid 4ef82331-263a-49b3-89d8-f243c422362c)
    )
    (pin "HV_IN" input (at 73.66 157.48 180)
      (effects (font (size 1.524 1.524)) (justify left))
      (uuid 7091bb98-3d83-4fd5-9549-d21d2af60000)
    )
    (pin "HV_IN_RTN" input (at 73.66 161.29 180)
      (effects (font (size 1.524 1.524)) (justify left))
      (uuid 80d45b27-f0cc-406a-8a03-c36bfa72de95)
    )
    (pin "HV_OUT_RTN" input (at 100.33 154.94 0)
      (effects (font (size 1.524 1.524)) (justify right))
      (uuid cb494a0b-0e55-4bc9-a95d-4b7a09ffc13b)
    )
    (pin "HV_OUT" input (at 100.33 151.13 0)
      (effects (font (size 1.524 1.524)) (justify right))
      (uuid 79487df3-ea74-43e2-bbfd-3ce433940212)
    )
    (instances
      (project "pbv3"
        (path "/1eae0866-fb43-460e-ba70-4206816f3ae0" (page "3"))
      )
    )
  )

  (sheet_instances
    (path "/" (page "1"))
  )
)
