{
  "board": {
    "3dviewports": [],
    "design_settings": {
      "defaults": {
        "board_outline_line_width": 0.15,
        "copper_line_width": 0.19999999999999998,
        "copper_text_italic": false,
        "copper_text_size_h": 1.5,
        "copper_text_size_v": 1.5,
        "copper_text_thickness": 0.3,
        "copper_text_upright": false,
        "courtyard_line_width": 0.049999999999999996,
        "dimension_precision": 4,
        "dimension_units": 3,
        "dimensions": {
          "arrow_length": 1270000,
          "extension_offset": 500000,
          "keep_text_aligned": true,
          "suppress_zeroes": false,
          "text_position": 0,
          "units_format": 1
        },
        "fab_line_width": 0.09999999999999999,
        "fab_text_italic": false,
        "fab_text_size_h": 1.0,
        "fab_text_size_v": 1.0,
        "fab_text_thickness": 0.15,
        "fab_text_upright": false,
        "other_line_width": 0.09999999999999999,
        "other_text_italic": false,
        "other_text_size_h": 1.0,
        "other_text_size_v": 1.0,
        "other_text_thickness": 0.15,
        "other_text_upright": false,
        "pads": {
          "drill": 0.0,
          "height": 1.6,
          "width": 0.9
        },
        "silk_line_width": 0.15,
        "silk_text_italic": false,
        "silk_text_size_h": 1.0,
        "silk_text_size_v": 1.0,
        "silk_text_thickness": 0.15,
        "silk_text_upright": false,
        "zones": {
          "45_degree_only": false,
          "min_clearance": 0.127
        }
      },
      "diff_pair_dimensions": [
        {
          "gap": 0.0,
          "via_gap": 0.0,
          "width": 0.0
        }
      ],
      "drc_exclusions": [
        "courtyards_overlap|87468092|104069999|00000000-0000-0000-0000-00005f3732e2|00000000-0000-0000-0000-00005f373381",
        "hole_clearance|74380000|105622854|16cff3e8-3080-4592-ae43-53c1cb829122|3ed9a403-ef9d-4586-b1ac-96680f7ee2d6",
        "hole_clearance|74880000|105622854|d583e5aa-df48-4517-a3ec-278f49235b4f|6d529d2a-9b70-4d27-bb8d-b58a72c79a5d",
        "hole_clearance|74880000|105940000|3ed9a403-ef9d-4586-b1ac-96680f7ee2d6|6d529d2a-9b70-4d27-bb8d-b58a72c79a5d",
        "hole_clearance|74926171|106640000|3c24ab61-861f-414b-bf23-eb9f1d4e8369|a79ef794-7d94-40c2-ad8b-60b70bdcbce3",
        "hole_clearance|74964499|106305501|4fb8e930-5b30-4677-9c00-1bb0f49844f8|6d529d2a-9b70-4d27-bb8d-b58a72c79a5d",
        "hole_clearance|75305000|106640000|87255772-8253-41d2-b95e-270e99dbf334|a79ef794-7d94-40c2-ad8b-60b70bdcbce3",
        "hole_clearance|75316738|106140000|6d529d2a-9b70-4d27-bb8d-b58a72c79a5d|87255772-8253-41d2-b95e-270e99dbf334",
        "hole_clearance|75684171|106140000|bec82dc0-4224-40f1-96ed-5fe31df64a8b|87255772-8253-41d2-b95e-270e99dbf334",
        "hole_clearance|81918542|101770032|63420c3c-6801-4759-a776-ff81ba2f37e9|e6d0f6f7-a433-4f2e-800a-52dc37d80119",
        "hole_clearance|82168542|102020032|00000000-0000-0000-0000-00005f3bf668|00000000-0000-0000-0000-00005f3bf667",
        "hole_clearance|85091500|100390000|00000000-0000-0000-0000-00005f3bfa18|00000000-0000-0000-0000-00005f3bfa17",
        "hole_clearance|85091500|100740000|2c9a93e9-8b91-4d1b-83ca-ab30c1015fe7|6f5f2808-7569-4f25-a31d-4cad79f12aa5",
        "hole_clearance|99030000|94990000|bf462a90-66cb-442d-b0cd-a4dac643f64b|00000000-0000-0000-0000-00005e31b1d4",
        "track_dangling|107450000|97493954|4a7114a3-2bb3-4cb4-b743-8cfc00b40467|00000000-0000-0000-0000-000000000000",
        "track_dangling|107460000|96731953|00000000-0000-0000-0000-00005c08f4b9|00000000-0000-0000-0000-000000000000",
        "track_dangling|107460000|97112954|00000000-0000-0000-0000-00005c08f4bf|00000000-0000-0000-0000-000000000000",
        "track_dangling|107470000|96350954|00000000-0000-0000-0000-00005c08f49b|00000000-0000-0000-0000-000000000000",
        "track_dangling|107480000|95341254|00000000-0000-0000-0000-00005c08f408|00000000-0000-0000-0000-000000000000",
        "track_dangling|107490000|94833254|4793bb92-bc24-454d-a22f-efa2e7fd5618|00000000-0000-0000-0000-000000000000"
      ],
      "meta": {
        "filename": "board_design_settings.json",
        "version": 2
      },
      "rule_severities": {
        "annular_width": "error",
        "clearance": "error",
        "connection_width": "warning",
        "copper_edge_clearance": "error",
        "copper_sliver": "warning",
        "courtyards_overlap": "error",
        "diff_pair_gap_out_of_range": "error",
        "diff_pair_uncoupled_length_too_long": "error",
        "drill_out_of_range": "error",
        "duplicate_footprints": "warning",
        "extra_footprint": "warning",
        "footprint": "error",
        "footprint_type_mismatch": "error",
        "hole_clearance": "error",
        "hole_near_hole": "error",
        "invalid_outline": "error",
        "isolated_copper": "warning",
        "item_on_disabled_layer": "error",
        "items_not_allowed": "error",
        "length_out_of_range": "error",
        "lib_footprint_issues": "warning",
        "lib_footprint_mismatch": "warning",
        "malformed_courtyard": "error",
        "microvia_drill_out_of_range": "error",
        "missing_courtyard": "ignore",
        "missing_footprint": "warning",
        "net_conflict": "warning",
        "npth_inside_courtyard": "ignore",
        "padstack": "error",
        "pth_inside_courtyard": "ignore",
        "shorting_items": "error",
        "silk_edge_clearance": "warning",
        "silk_over_copper": "warning",
        "silk_overlap": "warning",
        "skew_out_of_range": "error",
        "solder_mask_bridge": "error",
        "starved_thermal": "error",
        "text_height": "warning",
        "text_thickness": "warning",
        "through_hole_pad_without_hole": "error",
        "too_many_vias": "error",
        "track_dangling": "warning",
        "track_width": "error",
        "tracks_crossing": "error",
        "unconnected_items": "error",
        "unresolved_variable": "error",
        "via_dangling": "warning",
        "zones_intersect": "error"
      },
      "rule_severitieslegacy_courtyards_overlap": true,
      "rule_severitieslegacy_no_courtyard_defined": false,
      "rules": {
        "allow_blind_buried_vias": true,
        "allow_microvias": true,
        "max_error": 0.005,
        "min_clearance": 0.0,
        "min_connection": 0.0,
        "min_copper_edge_clearance": 0.075,
        "min_hole_clearance": 0.22,
        "min_hole_to_hole": 0.3,
        "min_microvia_diameter": 0.35,
        "min_microvia_drill": 0.09999999999999999,
        "min_resolved_spokes": 2,
        "min_silk_clearance": 0.0,
        "min_text_height": 0.7999999999999999,
        "min_text_thickness": 0.08,
        "min_through_hole_diameter": 0.09999999999999999,
        "min_track_width": 0.12,
        "min_via_annular_width": 0.049999999999999996,
        "min_via_diameter": 0.35,
        "solder_mask_to_copper_clearance": 0.0,
        "use_height_for_length_calcs": true
      },
      "teardrop_options": [
        {
          "td_allow_use_two_tracks": true,
          "td_curve_segcount": 5,
          "td_on_pad_in_zone": false,
          "td_onpadsmd": true,
          "td_onroundshapesonly": false,
          "td_ontrackend": false,
          "td_onviapad": true
        }
      ],
      "teardrop_parameters": [
        {
          "td_curve_segcount": 0,
          "td_height_ratio": 1.0,
          "td_length_ratio": 0.5,
          "td_maxheight": 2.0,
          "td_maxlen": 1.0,
          "td_target_name": "td_round_shape",
          "td_width_to_size_filter_ratio": 0.9
        },
        {
          "td_curve_segcount": 0,
          "td_height_ratio": 1.0,
          "td_length_ratio": 0.5,
          "td_maxheight": 2.0,
          "td_maxlen": 1.0,
          "td_target_name": "td_rect_shape",
          "td_width_to_size_filter_ratio": 0.9
        },
        {
          "td_curve_segcount": 0,
          "td_height_ratio": 1.0,
          "td_length_ratio": 0.5,
          "td_maxheight": 2.0,
          "td_maxlen": 1.0,
          "td_target_name": "td_track_end",
          "td_width_to_size_filter_ratio": 0.9
        }
      ],
      "track_widths": [
        0.0,
        0.254,
        0.508,
        1.0
      ],
      "via_dimensions": [
        {
          "diameter": 0.0,
          "drill": 0.0
        },
        {
          "diameter": 0.35,
          "drill": 0.152
        }
      ],
      "zones_allow_external_fillets": false,
      "zones_use_no_outline": true
    },
    "layer_presets": [],
    "viewports": []
  },
  "boards": [],
  "cvpcb": {
    "equivalence_files": []
  },
  "erc": {
    "erc_exclusions": [],
    "meta": {
      "version": 0
    },
    "pin_map": [
      [
        0,
        0,
        0,
        0,
        0,
        0,
        1,
        0,
        0,
        0,
        0,
        2
      ],
      [
        0,
        2,
        0,
        1,
        0,
        0,
        1,
        0,
        2,
        2,
        2,
        2
      ],
      [
        0,
        0,
        0,
        0,
        0,
        0,
        1,
        0,
        1,
        0,
        1,
        2
      ],
      [
        0,
        1,
        0,
        0,
        0,
        0,
        1,
        1,
        2,
        1,
        1,
        2
      ],
      [
        0,
        0,
        0,
        0,
        0,
        0,
        1,
        0,
        0,
        0,
        0,
        2
      ],
      [
        0,
        0,
        0,
        0,
        0,
        0,
        0,
        0,
        0,
        0,
        0,
        2
      ],
      [
        1,
        1,
        1,
        1,
        1,
        0,
        1,
        1,
        1,
        1,
        1,
        2
      ],
      [
        0,
        0,
        0,
        1,
        0,
        0,
        1,
        0,
        0,
        0,
        0,
        2
      ],
      [
        0,
        2,
        1,
        2,
        0,
        0,
        1,
        0,
        2,
        2,
        2,
        2
      ],
      [
        0,
        2,
        0,
        1,
        0,
        0,
        1,
        0,
        2,
        0,
        0,
        2
      ],
      [
        0,
        2,
        1,
        1,
        0,
        0,
        1,
        0,
        2,
        0,
        0,
        2
      ],
      [
        2,
        2,
        2,
        2,
        2,
        2,
        2,
        2,
        2,
        2,
        2,
        2
      ]
    ],
    "rule_severities": {
      "bus_definition_conflict": "error",
      "bus_entry_needed": "error",
      "bus_to_bus_conflict": "error",
      "bus_to_net_conflict": "error",
      "conflicting_netclasses": "error",
      "different_unit_footprint": "error",
      "different_unit_net": "error",
      "duplicate_reference": "error",
      "duplicate_sheet_names": "error",
      "endpoint_off_grid": "warning",
      "extra_units": "error",
      "global_label_dangling": "warning",
      "hier_label_mismatch": "error",
      "label_dangling": "error",
      "lib_symbol_issues": "warning",
      "missing_bidi_pin": "warning",
      "missing_input_pin": "warning",
      "missing_power_pin": "error",
      "missing_unit": "warning",
      "multiple_net_names": "warning",
      "net_not_bus_member": "warning",
      "no_connect_connected": "warning",
      "no_connect_dangling": "warning",
      "pin_not_connected": "error",
      "pin_not_driven": "error",
      "pin_to_pin": "warning",
      "power_pin_not_driven": "error",
      "similar_labels": "warning",
      "simulation_model_issue": "error",
      "unannotated": "error",
      "unit_value_mismatch": "error",
      "unresolved_variable": "error",
      "wire_dangling": "error"
    }
  },
  "libraries": {
    "pinned_footprint_libs": [],
    "pinned_symbol_libs": []
  },
  "meta": {
    "filename": "pbv3.kicad_pro",
    "version": 1
  },
  "net_settings": {
    "classes": [
      {
        "bus_width": 12,
        "clearance": 0.127,
        "diff_pair_gap": 0.127,
        "diff_pair_via_gap": 0.25,
        "diff_pair_width": 0.127,
        "line_style": 0,
        "microvia_diameter": 0.35,
        "microvia_drill": 0.15,
        "name": "Default",
        "pcb_color": "rgba(0, 0, 0, 0.000)",
        "schematic_color": "rgba(0, 0, 0, 0.000)",
        "track_width": 0.127,
        "via_diameter": 0.35,
        "via_drill": 0.1524,
        "wire_width": 6
      },
      {
        "bus_width": 12,
        "clearance": 0.254,
        "diff_pair_gap": 0.25,
        "diff_pair_via_gap": 0.25,
        "diff_pair_width": 0.2,
        "line_style": 0,
        "microvia_diameter": 0.35,
        "microvia_drill": 0.15,
        "name": "Wide",
        "pcb_color": "rgba(0, 0, 0, 0.000)",
        "schematic_color": "rgba(0, 0, 0, 0.000)",
        "track_width": 0.254,
        "via_diameter": 0.35,
        "via_drill": 0.1524,
        "wire_width": 6
      }
    ],
    "meta": {
      "version": 3
    },
    "net_colors": null,
    "netclass_assignments": null,
    "netclass_patterns": []
  },
  "pcbnew": {
    "last_paths": {
      "gencad": "",
      "idf": "",
      "netlist": "pbv3.net",
      "specctra_dsn": "",
      "step": "pbv3R2.step",
      "vrml": ""
    },
    "page_layout_descr_file": ""
  },
  "schematic": {
    "annotate_start_num": 0,
    "drawing": {
      "dashed_lines_dash_length_ratio": 12.0,
      "dashed_lines_gap_length_ratio": 3.0,
      "default_line_thickness": 6.0,
      "default_text_size": 60.0,
      "field_names": [],
      "intersheets_ref_own_page": false,
      "intersheets_ref_prefix": "",
      "intersheets_ref_short": false,
      "intersheets_ref_show": false,
      "intersheets_ref_suffix": "",
      "junction_size_choice": 3,
      "label_size_ratio": 0.25,
      "pin_symbol_size": 25.0,
      "text_offset_ratio": 0.08
    },
    "legacy_lib_dir": "",
    "legacy_lib_list": [],
    "meta": {
      "version": 1
    },
    "net_format_name": "Pcbnew",
    "ngspice": {
      "fix_include_paths": true,
      "fix_passive_vals": false,
      "meta": {
        "version": 0
      },
      "model_mode": 0,
      "workbook_filename": ""
    },
    "page_layout_descr_file": "",
    "plot_directory": "./",
    "spice_adjust_passive_values": false,
    "spice_current_sheet_as_root": false,
    "spice_external_command": "spice \"%I\"",
    "spice_model_current_sheet_as_root": true,
    "spice_save_all_currents": false,
    "spice_save_all_voltages": false,
    "subpart_first_id": 65,
    "subpart_id_separator": 0
  },
  "sheets": [
    [
      "1eae0866-fb43-460e-ba70-4206816f3ae0",
      ""
    ],
    [
      "00000000-0000-0000-0000-000059efea3a",
      "Power"
    ],
    [
      "00000000-0000-0000-0000-000059f07aaa",
      "HV"
    ],
    [
      "00000000-0000-0000-0000-000059f0798f",
      "AMAC"
    ]
  ],
  "text_variables": {}
}
