EESchema Schematic File Version 2
LIBS:pbv3R3-rescue
LIBS:power
LIBS:device
LIBS:transistors
LIBS:conn
LIBS:linear
LIBS:regul
LIBS:74xx
LIBS:cmos4000
LIBS:adc-dac
LIBS:memory
LIBS:xilinx
LIBS:microcontrollers
LIBS:dsp
LIBS:microchip
LIBS:analog_switches
LIBS:motorola
LIBS:texas
LIBS:intel
LIBS:audio
LIBS:interface
LIBS:digital-audio
LIBS:philips
LIBS:display
LIBS:cypress
LIBS:siliconi
LIBS:opto
LIBS:atmel
LIBS:contrib
LIBS:valves
LIBS:pbv3
LIBS:pbv3R3-cache
EELAYER 25 0
EELAYER END
$Descr A4 11693 8268
encoding utf-8
Sheet 2 9
Title "Powerboard v3"
Date "2017-10-23"
Rev "A"
Comp "LBNL"
Comment1 "Timon Heim"
Comment2 ""
Comment3 ""
Comment4 ""
$EndDescr
$Comp
L BondPad J101
U 1 1 5A04C40C
P 5150 1550
AR Path="/5A04BE4D/5A04C40C" Ref="J101"  Part="1" 
AR Path="/5A04BE50/5A04C40C" Ref="J25"  Part="1" 
F 0 "J101" H 5150 1650 60  0000 C CNN
F 1 "VOUT_X1" H 5150 1450 60  0000 C CNN
F 2 "pbv3:pad" H 5150 1550 60  0001 C CNN
F 3 "" H 5150 1550 60  0001 C CNN
	1    5150 1550
	-1   0    0    1   
$EndComp
$Comp
L BondPad J102
U 1 1 5A04C40E
P 5850 1550
AR Path="/5A04BE4D/5A04C40E" Ref="J102"  Part="1" 
AR Path="/5A04BE50/5A04C40E" Ref="J26"  Part="1" 
F 0 "J102" H 5850 1650 60  0000 C CNN
F 1 "VOUT_RTN_X1" H 5850 1450 60  0000 C CNN
F 2 "pbv3:pad" H 5850 1550 60  0001 C CNN
F 3 "" H 5850 1550 60  0001 C CNN
	1    5850 1550
	-1   0    0    1   
$EndComp
Wire Notes Line
	600  600  7000 600 
Wire Notes Line
	7000 4500 600  4500
Wire Notes Line
	600  4500 600  600 
Wire Wire Line
	4300 6200 4300 6100
Wire Notes Line
	600  4600 6900 4600
Wire Notes Line
	6900 4600 6900 7700
Wire Notes Line
	6900 7700 600  7700
Wire Notes Line
	600  7700 600  4600
Wire Notes Line
	7100 600  11100 600 
Wire Notes Line
	11100 600  11100 6400
Wire Notes Line
	11100 6400 7100 6400
Wire Notes Line
	7100 6400 7100 600 
Text Notes 7200 950  0    260  ~ 0
AMAC
$Sheet
S 2700 1600 1200 1450
U 5A04C410
F0 "Power" 60
F1 "pbv3_power1.sch" 60
F2 "VOUT" I R 3900 1700 60 
F3 "VIN" I L 2700 1700 60 
F4 "VIN_RTN" I L 2700 1850 60 
F5 "PTAT" I R 3900 2950 60 
F6 "DCDCEN" I L 2700 2400 60 
F7 "PGOOD" I R 3900 2800 60 
F8 "FVOUT" I R 3900 2500 60 
F9 "VCC3V3" I R 3900 2000 60 
F10 "VCC1V4" I R 3900 1850 60 
F11 "LREGEN" I L 2700 2250 60 
F12 "NTCp" I L 2700 2800 60 
F13 "NTCn" I L 2700 2950 60 
F14 "FVIN" I R 3900 2650 60 
F15 "Bit1_VOUT" I R 3900 2200 60 
F16 "Bit2_VOUT" I R 3900 2350 60 
$EndSheet
Wire Wire Line
	3900 1700 4250 1700
Wire Wire Line
	4250 1550 4250 1850
Wire Wire Line
	4250 1550 4900 1550
$Comp
L GND #PWR01
U 1 1 5A04C411
P 5450 1650
AR Path="/5A04BE4D/5A04C411" Ref="#PWR01"  Part="1" 
AR Path="/5A04BE50/5A04C411" Ref="#PWR28"  Part="1" 
F 0 "#PWR01" H 5450 1400 50  0001 C CNN
F 1 "GND" H 5450 1500 50  0000 C CNN
F 2 "" H 5450 1650 50  0000 C CNN
F 3 "" H 5450 1650 50  0000 C CNN
	1    5450 1650
	1    0    0    -1  
$EndComp
Wire Wire Line
	5600 1550 5450 1550
Wire Wire Line
	5450 1550 5450 1650
Wire Wire Line
	1850 1950 2000 1950
Wire Wire Line
	2000 1850 2000 2000
Wire Wire Line
	2000 1850 2700 1850
Wire Wire Line
	1850 1600 2000 1600
Wire Wire Line
	2000 1600 2000 1700
Wire Wire Line
	2000 1700 2700 1700
$Comp
L GND #PWR02
U 1 1 5A04C412
P 2000 2000
AR Path="/5A04BE4D/5A04C412" Ref="#PWR02"  Part="1" 
AR Path="/5A04BE50/5A04C412" Ref="#PWR24"  Part="1" 
F 0 "#PWR02" H 2000 1750 50  0001 C CNN
F 1 "GND" H 2000 1850 50  0000 C CNN
F 2 "" H 2000 2000 50  0000 C CNN
F 3 "" H 2000 2000 50  0000 C CNN
	1    2000 2000
	1    0    0    -1  
$EndComp
Connection ~ 2000 1950
Wire Wire Line
	1850 2250 2700 2250
$Sheet
S 2900 5600 1050 1000
U 5A04C414
F0 "HV" 60
F1 "hv1.sch" 60
F2 "HVOSC" I L 2900 5750 60 
F3 "GND" I L 2900 5900 60 
F4 "HV_IN" I L 2900 6200 60 
F5 "HV_IN_RTN" I L 2900 6350 60 
F6 "HV_OUT_RTN" I R 3950 6100 60 
F7 "HV_OUT" I R 3950 5950 60 
$EndSheet
Wire Notes Line
	7000 600  7000 4500
Text Notes 5650 950  0    260  ~ 0
POWER
Text Notes 6350 4950 0    260  ~ 0
HV
Wire Wire Line
	4300 6100 3950 6100
Wire Wire Line
	3950 5950 4650 5950
$Comp
L GND #PWR03
U 1 1 5A04C416
P 2650 6000
AR Path="/5A04BE4D/5A04C416" Ref="#PWR03"  Part="1" 
AR Path="/5A04BE50/5A04C416" Ref="#PWR26"  Part="1" 
F 0 "#PWR03" H 2650 5750 50  0001 C CNN
F 1 "GND" H 2650 5850 50  0000 C CNN
F 2 "" H 2650 6000 50  0000 C CNN
F 3 "" H 2650 6000 50  0000 C CNN
	1    2650 6000
	1    0    0    -1  
$EndComp
Wire Wire Line
	2900 5900 2650 5900
Wire Wire Line
	2650 5900 2650 6000
Wire Wire Line
	2900 6200 2450 6200
Wire Wire Line
	2900 6350 2450 6350
Wire Wire Line
	4250 1850 8450 1850
Connection ~ 4250 1700
Wire Wire Line
	3900 1850 4150 1850
Wire Wire Line
	4150 1850 4150 1950
Wire Wire Line
	4150 1950 8450 1950
Wire Wire Line
	3900 2000 4100 2000
Wire Wire Line
	4100 2000 4100 2050
Wire Wire Line
	4100 2050 8450 2050
$Comp
L GND #PWR04
U 1 1 5A04C417
P 7750 2150
AR Path="/5A04BE4D/5A04C417" Ref="#PWR04"  Part="1" 
AR Path="/5A04BE50/5A04C417" Ref="#PWR29"  Part="1" 
F 0 "#PWR04" H 7750 1900 50  0001 C CNN
F 1 "GND" H 7750 2000 50  0000 C CNN
F 2 "" H 7750 2150 50  0000 C CNN
F 3 "" H 7750 2150 50  0000 C CNN
	1    7750 2150
	1    0    0    -1  
$EndComp
Wire Wire Line
	7750 2150 8450 2150
Text Label 4350 1550 0    60   ~ 0
VOUT
Text Label 2250 1700 0    60   ~ 0
VIN
Wire Wire Line
	8000 2450 8450 2450
Wire Wire Line
	8000 2700 8450 2700
Text Label 8000 2450 0    60   ~ 0
FVOUT
Text Label 8000 2700 0    60   ~ 0
VIN
Wire Wire Line
	3900 2500 4450 2500
Wire Wire Line
	3900 2650 4450 2650
Wire Wire Line
	3900 2800 4450 2800
Wire Wire Line
	3900 2950 4450 2950
Text Label 4450 2500 0    60   ~ 0
FVOUT
Text Label 4450 2650 0    60   ~ 0
FVIN
Text Label 4450 2800 0    60   ~ 0
PGOOD
Text Label 4450 2950 0    60   ~ 0
PTAT
Wire Wire Line
	2700 2400 2100 2400
Wire Wire Line
	2700 2800 2100 2800
Wire Wire Line
	2700 2950 2100 2950
Text Label 2100 2400 0    60   ~ 0
DCDCEN
Text Label 2100 2800 0    60   ~ 0
NTCPBp
Text Label 2100 2950 0    60   ~ 0
NTCPBn
Wire Wire Line
	8000 2350 8450 2350
Wire Wire Line
	8000 2600 8450 2600
Text Label 8000 2350 0    60   ~ 0
VOUT
Text Label 8000 2600 0    60   ~ 0
FVIN
Wire Wire Line
	9450 1850 9850 1850
Wire Wire Line
	9450 1950 9850 1950
Wire Wire Line
	9450 2050 9850 2050
Wire Wire Line
	9450 2150 9850 2150
Wire Wire Line
	9450 2250 9850 2250
Text Label 9850 1850 0    60   ~ 0
DCDCEN
Text Label 9850 1950 0    60   ~ 0
PGOOD
Text Label 9850 2050 0    60   ~ 0
PTAT
Text Label 9850 2150 0    60   ~ 0
NTCPBn
Text Label 9850 2250 0    60   ~ 0
NTCPBp
Wire Wire Line
	7400 5350 2600 5350
Wire Wire Line
	2600 5350 2600 5750
Wire Wire Line
	2600 5750 2900 5750
$Comp
L BondPad J104
U 1 1 5A04C418
P 8050 3150
AR Path="/5A04BE4D/5A04C418" Ref="J104"  Part="1" 
AR Path="/5A04BE50/5A04C418" Ref="J28"  Part="1" 
F 0 "J104" H 8050 3250 60  0000 C CNN
F 1 "HRSTBx1" H 7750 3150 60  0000 C CNN
F 2 "pbv3:pad" H 8050 3150 60  0001 C CNN
F 3 "" H 8050 3150 60  0001 C CNN
	1    8050 3150
	1    0    0    -1  
$EndComp
$Comp
L BondPad J105
U 1 1 5A04C419
P 8050 3350
AR Path="/5A04BE4D/5A04C419" Ref="J105"  Part="1" 
AR Path="/5A04BE50/5A04C419" Ref="J29"  Part="1" 
F 0 "J105" H 8050 3450 60  0000 C CNN
F 1 "LDx0EN1" H 7750 3350 60  0000 C CNN
F 2 "pbv3:pad" H 8050 3350 60  0001 C CNN
F 3 "" H 8050 3350 60  0001 C CNN
	1    8050 3350
	1    0    0    -1  
$EndComp
$Comp
L BondPad J106
U 1 1 5A04C41A
P 8050 3550
AR Path="/5A04BE4D/5A04C41A" Ref="J106"  Part="1" 
AR Path="/5A04BE50/5A04C41A" Ref="J30"  Part="1" 
F 0 "J106" H 8050 3650 60  0000 C CNN
F 1 "HREFx1" H 7750 3550 60  0000 C CNN
F 2 "pbv3:pad" H 8050 3550 60  0001 C CNN
F 3 "" H 8050 3550 60  0001 C CNN
	1    8050 3550
	1    0    0    -1  
$EndComp
$Comp
L BondPad J107
U 1 1 5A04C41B
P 8050 3750
AR Path="/5A04BE4D/5A04C41B" Ref="J107"  Part="1" 
AR Path="/5A04BE50/5A04C41B" Ref="J31"  Part="1" 
F 0 "J107" H 8050 3850 60  0000 C CNN
F 1 "NTCxP1" H 7750 3750 60  0000 C CNN
F 2 "pbv3:pad" H 8050 3750 60  0001 C CNN
F 3 "" H 8050 3750 60  0001 C CNN
	1    8050 3750
	1    0    0    -1  
$EndComp
$Comp
L BondPad J108
U 1 1 5A04C41C
P 8050 3950
AR Path="/5A04BE4D/5A04C41C" Ref="J108"  Part="1" 
AR Path="/5A04BE50/5A04C41C" Ref="J32"  Part="1" 
F 0 "J108" H 8050 4050 60  0000 C CNN
F 1 "NTCxN1" H 7750 3950 60  0000 C CNN
F 2 "pbv3:pad" H 8050 3950 60  0001 C CNN
F 3 "" H 8050 3950 60  0001 C CNN
	1    8050 3950
	1    0    0    -1  
$EndComp
$Comp
L BondPad J109
U 1 1 5A04C41D
P 8050 4150
AR Path="/5A04BE4D/5A04C41D" Ref="J109"  Part="1" 
AR Path="/5A04BE50/5A04C41D" Ref="J33"  Part="1" 
F 0 "J109" H 8050 4250 60  0000 C CNN
F 1 "LDx1EN1" H 7750 4150 60  0000 C CNN
F 2 "pbv3:pad" H 8050 4150 60  0001 C CNN
F 3 "" H 8050 4150 60  0001 C CNN
	1    8050 4150
	1    0    0    -1  
$EndComp
$Comp
L BondPad J103
U 1 1 5A04C41E
P 8050 2950
AR Path="/5A04BE4D/5A04C41E" Ref="J103"  Part="1" 
AR Path="/5A04BE50/5A04C41E" Ref="J27"  Part="1" 
F 0 "J103" H 8050 3050 60  0000 C CNN
F 1 "SSSHx1" H 7750 2950 60  0000 C CNN
F 2 "pbv3:pad" H 8050 2950 60  0001 C CNN
F 3 "" H 8050 2950 60  0001 C CNN
	1    8050 2950
	1    0    0    -1  
$EndComp
$Comp
L BondPad J112
U 1 1 5A04C41F
P 8050 4750
AR Path="/5A04BE4D/5A04C41F" Ref="J112"  Part="1" 
AR Path="/5A04BE50/5A04C41F" Ref="J36"  Part="1" 
F 0 "J112" H 8050 4850 60  0000 C CNN
F 1 "CALx1" H 7750 4750 60  0000 C CNN
F 2 "pbv3:pad" H 8050 4750 60  0001 C CNN
F 3 "" H 8050 4750 60  0001 C CNN
	1    8050 4750
	1    0    0    -1  
$EndComp
$Comp
L BondPad J111
U 1 1 5A04C420
P 8050 4550
AR Path="/5A04BE4D/5A04C420" Ref="J111"  Part="1" 
AR Path="/5A04BE50/5A04C420" Ref="J35"  Part="1" 
F 0 "J111" H 8050 4650 60  0000 C CNN
F 1 "SHUNTx1" H 7750 4550 60  0000 C CNN
F 2 "pbv3:pad" H 8050 4550 60  0001 C CNN
F 3 "" H 8050 4550 60  0001 C CNN
	1    8050 4550
	1    0    0    -1  
$EndComp
$Comp
L BondPad J110
U 1 1 5A04C421
P 8050 4350
AR Path="/5A04BE4D/5A04C421" Ref="J110"  Part="1" 
AR Path="/5A04BE50/5A04C421" Ref="J34"  Part="1" 
F 0 "J110" H 8050 4450 60  0000 C CNN
F 1 "LDx2EN1" H 7750 4350 60  0000 C CNN
F 2 "pbv3:pad" H 8050 4350 60  0001 C CNN
F 3 "" H 8050 4350 60  0001 C CNN
	1    8050 4350
	1    0    0    -1  
$EndComp
$Comp
L BondPad J115
U 1 1 5A04C422
P 9850 3150
AR Path="/5A04BE4D/5A04C422" Ref="J115"  Part="1" 
AR Path="/5A04BE50/5A04C422" Ref="J39"  Part="1" 
F 0 "J115" H 9850 3250 60  0000 C CNN
F 1 "HRSTBy1" H 9550 3150 60  0000 C CNN
F 2 "pbv3:pad" H 9850 3150 60  0001 C CNN
F 3 "" H 9850 3150 60  0001 C CNN
	1    9850 3150
	-1   0    0    -1  
$EndComp
$Comp
L BondPad J116
U 1 1 5A04C423
P 9850 3350
AR Path="/5A04BE4D/5A04C423" Ref="J116"  Part="1" 
AR Path="/5A04BE50/5A04C423" Ref="J40"  Part="1" 
F 0 "J116" H 9850 3450 60  0000 C CNN
F 1 "LDy0EN1" H 9550 3350 60  0000 C CNN
F 2 "pbv3:pad" H 9850 3350 60  0001 C CNN
F 3 "" H 9850 3350 60  0001 C CNN
	1    9850 3350
	-1   0    0    -1  
$EndComp
$Comp
L BondPad J117
U 1 1 5A04C424
P 9850 3550
AR Path="/5A04BE4D/5A04C424" Ref="J117"  Part="1" 
AR Path="/5A04BE50/5A04C424" Ref="J41"  Part="1" 
F 0 "J117" H 9850 3650 60  0000 C CNN
F 1 "HREFy1" H 9550 3550 60  0000 C CNN
F 2 "pbv3:pad" H 9850 3550 60  0001 C CNN
F 3 "" H 9850 3550 60  0001 C CNN
	1    9850 3550
	-1   0    0    -1  
$EndComp
$Comp
L BondPad J118
U 1 1 5A04C425
P 9850 3750
AR Path="/5A04BE4D/5A04C425" Ref="J118"  Part="1" 
AR Path="/5A04BE50/5A04C425" Ref="J42"  Part="1" 
F 0 "J118" H 9850 3850 60  0000 C CNN
F 1 "NTCyN1" H 9550 3750 60  0000 C CNN
F 2 "pbv3:pad" H 9850 3750 60  0001 C CNN
F 3 "" H 9850 3750 60  0001 C CNN
	1    9850 3750
	-1   0    0    -1  
$EndComp
$Comp
L BondPad J119
U 1 1 5A04C426
P 9850 3950
AR Path="/5A04BE4D/5A04C426" Ref="J119"  Part="1" 
AR Path="/5A04BE50/5A04C426" Ref="J43"  Part="1" 
F 0 "J119" H 9850 4050 60  0000 C CNN
F 1 "NTCyP1" H 9550 3950 60  0000 C CNN
F 2 "pbv3:pad" H 9850 3950 60  0001 C CNN
F 3 "" H 9850 3950 60  0001 C CNN
	1    9850 3950
	-1   0    0    -1  
$EndComp
$Comp
L BondPad J120
U 1 1 5A04C427
P 9850 4150
AR Path="/5A04BE4D/5A04C427" Ref="J120"  Part="1" 
AR Path="/5A04BE50/5A04C427" Ref="J44"  Part="1" 
F 0 "J120" H 9850 4250 60  0000 C CNN
F 1 "LDy1EN1" H 9550 4150 60  0000 C CNN
F 2 "pbv3:pad" H 9850 4150 60  0001 C CNN
F 3 "" H 9850 4150 60  0001 C CNN
	1    9850 4150
	-1   0    0    -1  
$EndComp
$Comp
L BondPad J114
U 1 1 5A04C428
P 9850 2950
AR Path="/5A04BE4D/5A04C428" Ref="J114"  Part="1" 
AR Path="/5A04BE50/5A04C428" Ref="J38"  Part="1" 
F 0 "J114" H 9850 3050 60  0000 C CNN
F 1 "SSSHy1" H 9550 2950 60  0000 C CNN
F 2 "pbv3:pad" H 9850 2950 60  0001 C CNN
F 3 "" H 9850 2950 60  0001 C CNN
	1    9850 2950
	-1   0    0    -1  
$EndComp
$Comp
L BondPad J123
U 1 1 5A04C429
P 9850 4750
AR Path="/5A04BE4D/5A04C429" Ref="J123"  Part="1" 
AR Path="/5A04BE50/5A04C429" Ref="J47"  Part="1" 
F 0 "J123" H 9850 4850 60  0000 C CNN
F 1 "CAly1" H 9550 4750 60  0000 C CNN
F 2 "pbv3:pad" H 9850 4750 60  0001 C CNN
F 3 "" H 9850 4750 60  0001 C CNN
	1    9850 4750
	-1   0    0    -1  
$EndComp
$Comp
L BondPad J122
U 1 1 5A04C42A
P 9850 4550
AR Path="/5A04BE4D/5A04C42A" Ref="J122"  Part="1" 
AR Path="/5A04BE50/5A04C42A" Ref="J46"  Part="1" 
F 0 "J122" H 9850 4650 60  0000 C CNN
F 1 "SHUNTy1" H 9550 4550 60  0000 C CNN
F 2 "pbv3:pad" H 9850 4550 60  0001 C CNN
F 3 "" H 9850 4550 60  0001 C CNN
	1    9850 4550
	-1   0    0    -1  
$EndComp
$Comp
L BondPad J121
U 1 1 5A04C42B
P 9850 4350
AR Path="/5A04BE4D/5A04C42B" Ref="J121"  Part="1" 
AR Path="/5A04BE50/5A04C42B" Ref="J45"  Part="1" 
F 0 "J121" H 9850 4450 60  0000 C CNN
F 1 "LDy2EN1" H 9550 4350 60  0000 C CNN
F 2 "pbv3:pad" H 9850 4350 60  0001 C CNN
F 3 "" H 9850 4350 60  0001 C CNN
	1    9850 4350
	-1   0    0    -1  
$EndComp
$Comp
L BondPad J124
U 1 1 5A04C42C
P 9850 5050
AR Path="/5A04BE4D/5A04C42C" Ref="J124"  Part="1" 
AR Path="/5A04BE50/5A04C42C" Ref="J48"  Part="1" 
F 0 "J124" H 9850 5150 60  0000 C CNN
F 1 "HVretY1" H 9550 5050 60  0000 C CNN
F 2 "pbv3:pad" H 9850 5050 60  0001 C CNN
F 3 "" H 9850 5050 60  0001 C CNN
	1    9850 5050
	-1   0    0    1   
$EndComp
$Comp
L BondPad J113
U 1 1 5A04C42D
P 8050 5050
AR Path="/5A04BE4D/5A04C42D" Ref="J113"  Part="1" 
AR Path="/5A04BE50/5A04C42D" Ref="J37"  Part="1" 
F 0 "J113" H 8050 5150 60  0000 C CNN
F 1 "HVretX1" H 7750 5050 60  0000 C CNN
F 2 "pbv3:pad" H 8050 5050 60  0001 C CNN
F 3 "" H 8050 5050 60  0001 C CNN
	1    8050 5050
	1    0    0    -1  
$EndComp
Wire Wire Line
	7400 5350 7400 5250
Wire Wire Line
	7400 5250 8450 5250
NoConn ~ 9450 5900
Wire Wire Line
	8300 2950 8450 2950
Wire Wire Line
	8300 3150 8450 3150
Wire Wire Line
	8300 3350 8450 3350
Wire Wire Line
	8300 3550 8450 3550
Wire Wire Line
	8300 3750 8450 3750
Wire Wire Line
	8300 3950 8450 3950
Wire Wire Line
	8300 4150 8450 4150
Wire Wire Line
	9450 2950 9600 2950
Wire Wire Line
	9450 3150 9600 3150
Wire Wire Line
	9450 3350 9600 3350
Wire Wire Line
	9450 3550 9600 3550
Wire Wire Line
	9450 3750 9600 3750
Wire Wire Line
	9450 3950 9600 3950
Wire Wire Line
	9450 4150 9600 4150
Wire Wire Line
	9450 4350 9600 4350
Wire Wire Line
	9450 4550 9600 4550
Wire Wire Line
	9450 4750 9600 4750
Wire Wire Line
	9450 5050 9600 5050
Wire Wire Line
	9450 5500 9550 5500
Wire Wire Line
	9550 5500 9550 5450
Wire Wire Line
	9550 5450 9600 5450
Wire Wire Line
	9450 5600 9550 5600
Wire Wire Line
	9550 5600 9550 5650
Wire Wire Line
	9550 5650 9600 5650
Wire Wire Line
	8450 5500 8350 5500
Wire Wire Line
	8350 5500 8350 5450
Wire Wire Line
	8350 5450 8300 5450
Wire Wire Line
	8450 5600 8350 5600
Wire Wire Line
	8350 5600 8350 5650
Wire Wire Line
	8350 5650 8300 5650
Wire Wire Line
	8300 5900 8450 5900
Wire Wire Line
	9450 6050 9600 6050
Wire Wire Line
	8300 4350 8450 4350
Wire Wire Line
	8300 4550 8450 4550
Wire Wire Line
	8300 4750 8450 4750
Wire Wire Line
	8300 5050 8450 5050
Text Notes 1900 1400 0    60   ~ 0
Fuse?
Text Notes 7600 2700 0    60   ~ 0
50mOhm
Text Notes 7600 2450 0    60   ~ 0
10mOhm
Wire Wire Line
	8450 6050 8000 6050
Text Label 8000 6050 0    60   ~ 0
OFin
Wire Wire Line
	1950 2250 1950 2550
Connection ~ 1950 2250
Text Label 1950 2550 1    60   ~ 0
OFin
Wire Wire Line
	3900 2350 4450 2350
Wire Wire Line
	3900 2200 4450 2200
Text Label 4450 2350 0    60   ~ 0
GPO2
Text Label 4450 2200 0    60   ~ 0
GPO1
$Sheet
S 8450 1750 1000 4450
U 5A04C434
F0 "AMAC" 60
F1 "amac1.sch" 60
F2 "VDCDC" I L 8450 1850 60 
F3 "VLREG" I L 8450 1950 60 
F4 "GND" I L 8450 2150 60 
F5 "CUR1Vp" I L 8450 2350 60 
F6 "CUR1Vn" I L 8450 2450 60 
F7 "DCDCEN" I R 9450 1850 60 
F8 "NTCPBn" I R 9450 2150 60 
F9 "NTCPBp" I R 9450 2250 60 
F10 "CUR10Vn" I L 8450 2700 60 
F11 "CUR10Vp" I L 8450 2600 60 
F12 "PGOOD" I R 9450 1950 60 
F13 "PTAT" I R 9450 2050 60 
F14 "SSSHy" I R 9450 2950 60 
F15 "HRSTBy" I R 9450 3150 60 
F16 "LDy0EN" I R 9450 3350 60 
F17 "HREFy" I R 9450 3550 60 
F18 "NTCyN" I R 9450 3750 60 
F19 "NTCyP" I R 9450 3950 60 
F20 "LDy1EN" I R 9450 4150 60 
F21 "LDy2EN" I R 9450 4350 60 
F22 "SHUNTy" I R 9450 4550 60 
F23 "CALy" I R 9450 4750 60 
F24 "OFout" I R 9450 6050 60 
F25 "GPO2" I R 9450 2350 60 
F26 "HVret1" I L 8450 5050 60 
F27 "CMDinP" I L 8450 5500 60 
F28 "CMDinN" I L 8450 5600 60 
F29 "CMDoutP" I R 9450 5500 60 
F30 "CMDoutN" I R 9450 5600 60 
F31 "HVOSC0" I L 8450 5250 60 
F32 "VDDHI" I L 8450 2050 60 
F33 "LAM" I R 9450 5900 60 
F34 "HVret2" I R 9450 5050 60 
F35 "LDx0EN" I L 8450 3350 60 
F36 "HRSTBx" I L 8450 3150 60 
F37 "SSSHx" I L 8450 2950 60 
F38 "HREFx" I L 8450 3550 60 
F39 "NTCxP" I L 8450 3750 60 
F40 "NTCxN" I L 8450 3950 60 
F41 "LDx1EN" I L 8450 4150 60 
F42 "LDx2EN" I L 8450 4350 60 
F43 "SHUNTx" I L 8450 4550 60 
F44 "CALx" I L 8450 4750 60 
F45 "OFin" I L 8450 6050 60 
F46 "CAL" I L 8450 5900 60 
F47 "GPO1" I R 9450 2450 60 
$EndSheet
Wire Wire Line
	9450 2350 9850 2350
Wire Wire Line
	9450 2450 9850 2450
Text Label 9850 2450 0    60   ~ 0
GPO1
Text Label 9850 2350 0    60   ~ 0
GPO2
$Comp
L GND #PWR05
U 1 1 5A04C435
P 2450 6450
AR Path="/5A04BE4D/5A04C435" Ref="#PWR05"  Part="1" 
AR Path="/5A04BE50/5A04C435" Ref="#PWR25"  Part="1" 
F 0 "#PWR05" H 2450 6200 50  0001 C CNN
F 1 "GND" H 2450 6300 50  0000 C CNN
F 2 "" H 2450 6450 50  0000 C CNN
F 3 "" H 2450 6450 50  0000 C CNN
	1    2450 6450
	1    0    0    -1  
$EndComp
Wire Wire Line
	2450 6350 2450 6450
Wire Wire Line
	2450 6200 2450 6100
Wire Wire Line
	2450 6100 2300 6100
$Comp
L GND #PWR06
U 1 1 5A04C437
P 4300 6200
AR Path="/5A04BE4D/5A04C437" Ref="#PWR06"  Part="1" 
AR Path="/5A04BE50/5A04C437" Ref="#PWR27"  Part="1" 
F 0 "#PWR06" H 4300 5950 50  0001 C CNN
F 1 "GND" H 4300 6050 50  0000 C CNN
F 2 "" H 4300 6200 50  0000 C CNN
F 3 "" H 4300 6200 50  0000 C CNN
	1    4300 6200
	1    0    0    -1  
$EndComp
Text HLabel 1850 1600 0    60   Input ~ 0
VIN
Text HLabel 1850 1950 0    60   Input ~ 0
VIN_RTN
Text HLabel 1850 2250 0    60   Input ~ 0
OFin
Text HLabel 2300 6100 0    60   Input ~ 0
HVin
Text HLabel 4650 5950 2    60   Input ~ 0
HVout
Text HLabel 8300 5450 0    60   Input ~ 0
CMDinP
Text HLabel 8300 5650 0    60   Input ~ 0
CMDinN
Text HLabel 9600 5450 2    60   Input ~ 0
CMDoutP
Text HLabel 9600 5650 2    60   Input ~ 0
CMDoutN
Text HLabel 8300 5900 0    60   Input ~ 0
CAL
Text HLabel 9600 6050 2    60   Input ~ 0
OFout
$EndSCHEMATC
