EESchema Schematic File Version 2
LIBS:pbv3R3-rescue
LIBS:power
LIBS:device
LIBS:transistors
LIBS:conn
LIBS:linear
LIBS:regul
LIBS:74xx
LIBS:cmos4000
LIBS:adc-dac
LIBS:memory
LIBS:xilinx
LIBS:microcontrollers
LIBS:dsp
LIBS:microchip
LIBS:analog_switches
LIBS:motorola
LIBS:texas
LIBS:intel
LIBS:audio
LIBS:interface
LIBS:digital-audio
LIBS:philips
LIBS:display
LIBS:cypress
LIBS:siliconi
LIBS:opto
LIBS:atmel
LIBS:contrib
LIBS:valves
LIBS:pbv3
LIBS:pbv3R3-cache
EELAYER 25 0
EELAYER END
$Descr A4 11693 8268
encoding utf-8
Sheet 1 9
Title "Powerboard v3"
Date "2017-10-23"
Rev "A"
Comp "LBNL"
Comment1 "Timon Heim"
Comment2 ""
Comment3 ""
Comment4 ""
$EndDescr
$Sheet
S 2950 1900 1450 2500
U 5A04BE4D
F0 "lowPB" 60
F1 "lowPB.sch" 60
F2 "VIN" I L 2950 2150 60 
F3 "VIN_RTN" I L 2950 2350 60 
F4 "OFin" I L 2950 2550 60 
F5 "HVin" I L 2950 2800 60 
F6 "HVout" I L 2950 2950 60 
F7 "CMDinP" I L 2950 3250 60 
F8 "CMDinN" I L 2950 3400 60 
F9 "CMDoutP" I L 2950 3650 60 
F10 "CMDoutN" I L 2950 3800 60 
F11 "CAL" I L 2950 4050 60 
F12 "OFout" I L 2950 2650 60 
$EndSheet
$Sheet
S 5796 1904 854  2196
U 5A04BE50
F0 "upPB" 59
F1 "upPB.sch" 59
F2 "VIN" I R 6650 2150 60 
F3 "VIN_RTN" I R 6650 2350 60 
F4 "OFin" I R 6650 2550 60 
F5 "HVin" I R 6650 2800 60 
F6 "HVout" I R 6650 2950 60 
F7 "CMDinP" I R 6650 3250 60 
F8 "CMDinN" I R 6650 3400 60 
F9 "CMDoutP" I R 6650 3650 60 
F10 "CMDoutN" I R 6650 3800 60 
F11 "CAL" I R 6650 4050 60 
F12 "OFout" I R 6650 2650 60 
$EndSheet
$Comp
L BondPad J1
U 1 1 5A0741F4
P 1800 2150
F 0 "J1" H 1800 2250 60  0000 C CNN
F 1 "VIN" H 1800 2050 60  0000 C CNN
F 2 "pbv3:pad" H 1800 2150 60  0001 C CNN
F 3 "" H 1800 2150 60  0001 C CNN
	1    1800 2150
	1    0    0    -1  
$EndComp
$Comp
L BondPad J2
U 1 1 5A074843
P 2200 2350
F 0 "J2" H 2200 2450 60  0000 C CNN
F 1 "VIN_RTN" H 2200 2250 60  0000 C CNN
F 2 "pbv3:pad" H 2200 2350 60  0001 C CNN
F 3 "" H 2200 2350 60  0001 C CNN
	1    2200 2350
	1    0    0    -1  
$EndComp
$Comp
L BondPad J3
U 1 1 5A074940
P 1750 2550
F 0 "J3" H 1750 2650 60  0000 C CNN
F 1 "OFin" H 1750 2450 60  0000 C CNN
F 2 "pbv3:pad" H 1750 2550 60  0001 C CNN
F 3 "" H 1750 2550 60  0001 C CNN
	1    1750 2550
	1    0    0    -1  
$EndComp
$Comp
L BondPad J4
U 1 1 5A074A2E
P 2200 2800
F 0 "J4" H 2200 2900 60  0000 C CNN
F 1 "HVin" H 2200 2700 60  0000 C CNN
F 2 "pbv3:pad" H 2200 2800 60  0001 C CNN
F 3 "" H 2200 2800 60  0001 C CNN
	1    2200 2800
	1    0    0    -1  
$EndComp
$Comp
L BondPad J5
U 1 1 5A074B1B
P 1750 2950
F 0 "J5" H 1750 3050 60  0000 C CNN
F 1 "HVout1" H 1750 2850 60  0000 C CNN
F 2 "pbv3:pad" H 1750 2950 60  0001 C CNN
F 3 "" H 1750 2950 60  0001 C CNN
	1    1750 2950
	1    0    0    -1  
$EndComp
$Comp
L BondPad J6
U 1 1 5A074CDE
P 2200 3250
F 0 "J6" H 2200 3350 60  0000 C CNN
F 1 "CMDinP" H 2200 3150 60  0000 C CNN
F 2 "pbv3:pad" H 2200 3250 60  0001 C CNN
F 3 "" H 2200 3250 60  0001 C CNN
	1    2200 3250
	1    0    0    -1  
$EndComp
$Comp
L BondPad J7
U 1 1 5A074DCD
P 1750 3400
F 0 "J7" H 1750 3500 60  0000 C CNN
F 1 "CMDinN" H 1750 3300 60  0000 C CNN
F 2 "pbv3:pad" H 1750 3400 60  0001 C CNN
F 3 "" H 1750 3400 60  0001 C CNN
	1    1750 3400
	1    0    0    -1  
$EndComp
$Comp
L BondPad J8
U 1 1 5A074EBF
P 2200 3650
F 0 "J8" H 2200 3750 60  0000 C CNN
F 1 "CMDoutP" H 2200 3550 60  0000 C CNN
F 2 "pbv3:pad" H 2200 3650 60  0001 C CNN
F 3 "" H 2200 3650 60  0001 C CNN
	1    2200 3650
	1    0    0    -1  
$EndComp
$Comp
L BondPad J9
U 1 1 5A074FB4
P 1750 3800
F 0 "J9" H 1750 3900 60  0000 C CNN
F 1 "CMDoutN" H 1750 3700 60  0000 C CNN
F 2 "pbv3:pad" H 1750 3800 60  0001 C CNN
F 3 "" H 1750 3800 60  0001 C CNN
	1    1750 3800
	1    0    0    -1  
$EndComp
$Comp
L BondPad J10
U 1 1 5A07518D
P 2200 4050
F 0 "J10" H 2200 4150 60  0000 C CNN
F 1 "CAL" H 2200 3950 60  0000 C CNN
F 2 "pbv3:pad" H 2200 4050 60  0001 C CNN
F 3 "" H 2200 4050 60  0001 C CNN
	1    2200 4050
	1    0    0    -1  
$EndComp
$Comp
L BondPad J11
U 1 1 5A075288
P 7700 2650
F 0 "J11" H 7700 2750 60  0000 C CNN
F 1 "OFout" H 7700 2550 60  0000 C CNN
F 2 "pbv3:pad" H 7700 2650 60  0001 C CNN
F 3 "" H 7700 2650 60  0001 C CNN
	1    7700 2650
	-1   0    0    1   
$EndComp
$Comp
L BondPad J12
U 1 1 5A07538C
P 7700 2950
F 0 "J12" H 7700 3050 60  0000 C CNN
F 1 "HVout2" H 7700 2850 60  0000 C CNN
F 2 "pbv3:pad" H 7700 2950 60  0001 C CNN
F 3 "" H 7700 2950 60  0001 C CNN
	1    7700 2950
	-1   0    0    1   
$EndComp
Wire Wire Line
	2450 2350 6650 2350
Wire Wire Line
	2000 2550 2950 2550
Wire Wire Line
	2950 2650 4950 2650
Wire Wire Line
	4950 2650 4950 2550
Wire Wire Line
	4950 2550 6650 2550
Wire Wire Line
	2450 2800 6650 2800
Wire Wire Line
	2000 2950 2950 2950
Wire Wire Line
	2450 3250 6650 3250
Wire Wire Line
	2000 3400 6650 3400
Wire Wire Line
	2450 3650 6650 3650
Wire Wire Line
	2000 3800 6650 3800
Wire Wire Line
	2450 4050 6650 4050
Wire Wire Line
	2050 2150 6650 2150
Connection ~ 2950 2150
Wire Wire Line
	7450 2950 6650 2950
Wire Wire Line
	7450 2650 6650 2650
$EndSCHEMATC
