EESchema Schematic File Version 2
LIBS:power
LIBS:device
LIBS:transistors
LIBS:conn
LIBS:linear
LIBS:regul
LIBS:74xx
LIBS:cmos4000
LIBS:adc-dac
LIBS:memory
LIBS:xilinx
LIBS:microcontrollers
LIBS:dsp
LIBS:microchip
LIBS:analog_switches
LIBS:motorola
LIBS:texas
LIBS:intel
LIBS:audio
LIBS:interface
LIBS:digital-audio
LIBS:philips
LIBS:display
LIBS:cypress
LIBS:siliconi
LIBS:opto
LIBS:atmel
LIBS:contrib
LIBS:valves
LIBS:pbv3
LIBS:pbv3R3-cache
EELAYER 25 0
EELAYER END
$Descr A4 11693 8268
encoding utf-8
Sheet 7 9
Title "Powerboard v3"
Date "2017-10-23"
Rev "A"
Comp "LBNL"
Comment1 "Timon Heim"
Comment2 ""
Comment3 ""
Comment4 ""
$EndDescr
$Comp
L C C1
U 1 1 59F0106D
P 3050 2150
AR Path="/5A04BE4D/5A04C410/59F0106D" Ref="C1"  Part="1" 
AR Path="/5A04BE50/5A01DCE6/59F0106D" Ref="C1"  Part="1" 
F 0 "C1" H 3075 2250 50  0000 L CNN
F 1 "10pF" H 3075 2050 50  0000 L CNN
F 2 "Capacitors_SMD:C_0402_NoSilk" H 3088 2000 50  0001 C CNN
F 3 "" H 3050 2150 50  0000 C CNN
	1    3050 2150
	1    0    0    -1  
$EndComp
$Comp
L C C2
U 1 1 59F01074
P 3350 2150
AR Path="/5A04BE4D/5A04C410/59F01074" Ref="C2"  Part="1" 
AR Path="/5A04BE50/5A01DCE6/59F01074" Ref="C2"  Part="1" 
F 0 "C2" H 3375 2250 50  0000 L CNN
F 1 "22uF" H 3375 2050 50  0000 L CNN
F 2 "Capacitors_SMD:C_0805" H 3388 2000 50  0001 C CNN
F 3 "" H 3350 2150 50  0000 C CNN
	1    3350 2150
	1    0    0    -1  
$EndComp
$Comp
L C C4
U 1 1 59F0107B
P 4150 2150
AR Path="/5A04BE4D/5A04C410/59F0107B" Ref="C4"  Part="1" 
AR Path="/5A04BE50/5A01DCE6/59F0107B" Ref="C4"  Part="1" 
F 0 "C4" H 4175 2250 50  0000 L CNN
F 1 "10uF" H 4175 2050 50  0000 L CNN
F 2 "Capacitors_SMD:C_0805" H 4188 2000 50  0001 C CNN
F 3 "" H 4150 2150 50  0000 C CNN
	1    4150 2150
	1    0    0    -1  
$EndComp
$Comp
L C C5
U 1 1 59F01082
P 4450 2150
AR Path="/5A04BE4D/5A04C410/59F01082" Ref="C5"  Part="1" 
AR Path="/5A04BE50/5A01DCE6/59F01082" Ref="C5"  Part="1" 
F 0 "C5" H 4475 2250 50  0000 L CNN
F 1 "10uF" H 4475 2050 50  0000 L CNN
F 2 "Capacitors_SMD:C_0805" H 4488 2000 50  0001 C CNN
F 3 "" H 4450 2150 50  0000 C CNN
	1    4450 2150
	1    0    0    -1  
$EndComp
$Comp
L INDUCTOR_SMALL L1
U 1 1 59F01089
P 3750 2000
AR Path="/5A04BE4D/5A04C410/59F01089" Ref="L1"  Part="1" 
AR Path="/5A04BE50/5A01DCE6/59F01089" Ref="L1"  Part="1" 
F 0 "L1" H 3750 2100 50  0000 C CNN
F 1 "12.3nH" H 3750 1950 50  0000 C CNN
F 2 "pbv3:0806SQ-12N" H 3750 2000 50  0001 C CNN
F 3 "" H 3750 2000 50  0000 C CNN
	1    3750 2000
	1    0    0    -1  
$EndComp
$Comp
L GND #PWR07
U 1 1 59F010AF
P 2900 2350
AR Path="/5A04BE4D/5A04C410/59F010AF" Ref="#PWR07"  Part="1" 
AR Path="/5A04BE50/5A01DCE6/59F010AF" Ref="#PWR07"  Part="1" 
F 0 "#PWR07" H 2900 2100 50  0001 C CNN
F 1 "GND" H 2900 2200 50  0000 C CNN
F 2 "" H 2900 2350 50  0000 C CNN
F 3 "" H 2900 2350 50  0000 C CNN
	1    2900 2350
	1    0    0    -1  
$EndComp
$Comp
L INDUCTOR L2
U 1 1 59F010B7
P 5850 4800
AR Path="/5A04BE4D/5A04C410/59F010B7" Ref="L2"  Part="1" 
AR Path="/5A04BE50/5A01DCE6/59F010B7" Ref="L2"  Part="1" 
F 0 "L2" V 5800 4800 50  0000 C CNN
F 1 "250nH" V 5950 4800 50  0000 C CNN
F 2 "pbv3:YaleCoil" H 5850 4800 50  0001 C CNN
F 3 "" H 5850 4800 50  0000 C CNN
	1    5850 4800
	0    -1   -1   0   
$EndComp
$Comp
L INDUCTOR L3
U 1 1 59F010BE
P 7150 4800
AR Path="/5A04BE4D/5A04C410/59F010BE" Ref="L3"  Part="1" 
AR Path="/5A04BE50/5A01DCE6/59F010BE" Ref="L3"  Part="1" 
F 0 "L3" V 7100 4800 50  0000 C CNN
F 1 "12.3nH" V 7250 4800 50  0000 C CNN
F 2 "pbv3:0806SQ-12N" H 7150 4800 50  0001 C CNN
F 3 "" H 7150 4800 50  0000 C CNN
	1    7150 4800
	0    -1   -1   0   
$EndComp
$Comp
L C C7
U 1 1 59F010C5
P 6350 4950
AR Path="/5A04BE4D/5A04C410/59F010C5" Ref="C7"  Part="1" 
AR Path="/5A04BE50/5A01DCE6/59F010C5" Ref="C7"  Part="1" 
F 0 "C7" H 6375 5050 50  0000 L CNN
F 1 "10uF" H 6375 4850 50  0000 L CNN
F 2 "Capacitors_SMD:C_0805" H 6388 4800 50  0001 C CNN
F 3 "" H 6350 4950 50  0000 C CNN
	1    6350 4950
	1    0    0    -1  
$EndComp
$Comp
L C C8
U 1 1 59F010CC
P 6600 4950
AR Path="/5A04BE4D/5A04C410/59F010CC" Ref="C8"  Part="1" 
AR Path="/5A04BE50/5A01DCE6/59F010CC" Ref="C8"  Part="1" 
F 0 "C8" H 6625 5050 50  0000 L CNN
F 1 "10uF" H 6625 4850 50  0000 L CNN
F 2 "Capacitors_SMD:C_0805" H 6638 4800 50  0001 C CNN
F 3 "" H 6600 4950 50  0000 C CNN
	1    6600 4950
	1    0    0    -1  
$EndComp
$Comp
L C C10
U 1 1 59F010D3
P 7650 4950
AR Path="/5A04BE4D/5A04C410/59F010D3" Ref="C10"  Part="1" 
AR Path="/5A04BE50/5A01DCE6/59F010D3" Ref="C10"  Part="1" 
F 0 "C10" H 7675 5050 50  0000 L CNN
F 1 "22uF" H 7675 4850 50  0000 L CNN
F 2 "Capacitors_SMD:C_0805" H 7688 4800 50  0001 C CNN
F 3 "" H 7650 4950 50  0000 C CNN
	1    7650 4950
	1    0    0    -1  
$EndComp
$Comp
L C C6
U 1 1 59F010DA
P 4850 4600
AR Path="/5A04BE4D/5A04C410/59F010DA" Ref="C6"  Part="1" 
AR Path="/5A04BE50/5A01DCE6/59F010DA" Ref="C6"  Part="1" 
F 0 "C6" H 4875 4700 50  0000 L CNN
F 1 "220nF" H 4875 4500 50  0000 L CNN
F 2 "Capacitors_SMD:C_0402" H 4888 4450 50  0001 C CNN
F 3 "" H 4850 4600 50  0000 C CNN
	1    4850 4600
	1    0    0    -1  
$EndComp
$Comp
L GND #PWR08
U 1 1 59F010F4
P 6350 5200
AR Path="/5A04BE4D/5A04C410/59F010F4" Ref="#PWR08"  Part="1" 
AR Path="/5A04BE50/5A01DCE6/59F010F4" Ref="#PWR08"  Part="1" 
F 0 "#PWR08" H 6350 4950 50  0001 C CNN
F 1 "GND" H 6350 5050 50  0000 C CNN
F 2 "" H 6350 5200 50  0000 C CNN
F 3 "" H 6350 5200 50  0000 C CNN
	1    6350 5200
	1    0    0    -1  
$EndComp
$Comp
L GND #PWR09
U 1 1 59F01102
P 6600 5200
AR Path="/5A04BE4D/5A04C410/59F01102" Ref="#PWR09"  Part="1" 
AR Path="/5A04BE50/5A01DCE6/59F01102" Ref="#PWR09"  Part="1" 
F 0 "#PWR09" H 6600 4950 50  0001 C CNN
F 1 "GND" H 6600 5050 50  0000 C CNN
F 2 "" H 6600 5200 50  0000 C CNN
F 3 "" H 6600 5200 50  0000 C CNN
	1    6600 5200
	1    0    0    -1  
$EndComp
$Comp
L GND #PWR010
U 1 1 59F01108
P 7650 5200
AR Path="/5A04BE4D/5A04C410/59F01108" Ref="#PWR010"  Part="1" 
AR Path="/5A04BE50/5A01DCE6/59F01108" Ref="#PWR010"  Part="1" 
F 0 "#PWR010" H 7650 4950 50  0001 C CNN
F 1 "GND" H 7650 5050 50  0000 C CNN
F 2 "" H 7650 5200 50  0000 C CNN
F 3 "" H 7650 5200 50  0000 C CNN
	1    7650 5200
	1    0    0    -1  
$EndComp
$Comp
L R R1
U 1 1 59F01147
P 3550 3700
AR Path="/5A04BE4D/5A04C410/59F01147" Ref="R1"  Part="1" 
AR Path="/5A04BE50/5A01DCE6/59F01147" Ref="R1"  Part="1" 
F 0 "R1" V 3630 3700 50  0000 C CNN
F 1 "1M" V 3550 3700 50  0000 C CNN
F 2 "Resistors_SMD:R_0201" V 3480 3700 50  0001 C CNN
F 3 "" H 3550 3700 50  0000 C CNN
	1    3550 3700
	1    0    0    -1  
$EndComp
$Comp
L R R2
U 1 1 59F0114E
P 3550 4100
AR Path="/5A04BE4D/5A04C410/59F0114E" Ref="R2"  Part="1" 
AR Path="/5A04BE50/5A01DCE6/59F0114E" Ref="R2"  Part="1" 
F 0 "R2" V 3630 4100 50  0000 C CNN
F 1 "634k" V 3550 4100 50  0000 C CNN
F 2 "Resistors_SMD:R_0201" V 3480 4100 50  0001 C CNN
F 3 "" H 3550 4100 50  0000 C CNN
	1    3550 4100
	1    0    0    -1  
$EndComp
$Comp
L R R3
U 1 1 59F01155
P 4000 3150
AR Path="/5A04BE4D/5A04C410/59F01155" Ref="R3"  Part="1" 
AR Path="/5A04BE50/5A01DCE6/59F01155" Ref="R3"  Part="1" 
F 0 "R3" V 4080 3150 50  0000 C CNN
F 1 "130k" V 4000 3150 50  0000 C CNN
F 2 "Resistors_SMD:R_0201" V 3930 3150 50  0001 C CNN
F 3 "" H 4000 3150 50  0000 C CNN
	1    4000 3150
	0    1    1    0   
$EndComp
$Comp
L C C3
U 1 1 59F0115C
P 3950 3950
AR Path="/5A04BE4D/5A04C410/59F0115C" Ref="C3"  Part="1" 
AR Path="/5A04BE50/5A01DCE6/59F0115C" Ref="C3"  Part="1" 
F 0 "C3" H 3975 4050 50  0000 L CNN
F 1 "220nF" H 3975 3850 50  0000 L CNN
F 2 "Capacitors_SMD:C_0402" H 3988 3800 50  0001 C CNN
F 3 "" H 3950 3950 50  0000 C CNN
	1    3950 3950
	1    0    0    -1  
$EndComp
$Comp
L GND #PWR011
U 1 1 59F01163
P 6100 4000
AR Path="/5A04BE4D/5A04C410/59F01163" Ref="#PWR011"  Part="1" 
AR Path="/5A04BE50/5A01DCE6/59F01163" Ref="#PWR011"  Part="1" 
F 0 "#PWR011" H 6100 3750 50  0001 C CNN
F 1 "GND" H 6100 3850 50  0000 C CNN
F 2 "" H 6100 4000 50  0000 C CNN
F 3 "" H 6100 4000 50  0000 C CNN
	1    6100 4000
	1    0    0    -1  
$EndComp
$Comp
L GND #PWR012
U 1 1 59F01171
P 6250 3600
AR Path="/5A04BE4D/5A04C410/59F01171" Ref="#PWR012"  Part="1" 
AR Path="/5A04BE50/5A01DCE6/59F01171" Ref="#PWR012"  Part="1" 
F 0 "#PWR012" H 6250 3350 50  0001 C CNN
F 1 "GND" H 6250 3450 50  0000 C CNN
F 2 "" H 6250 3600 50  0000 C CNN
F 3 "" H 6250 3600 50  0000 C CNN
	1    6250 3600
	1    0    0    -1  
$EndComp
$Comp
L GND #PWR013
U 1 1 59F01179
P 4100 4450
AR Path="/5A04BE4D/5A04C410/59F01179" Ref="#PWR013"  Part="1" 
AR Path="/5A04BE50/5A01DCE6/59F01179" Ref="#PWR013"  Part="1" 
F 0 "#PWR013" H 4100 4200 50  0001 C CNN
F 1 "GND" H 4100 4300 50  0000 C CNN
F 2 "" H 4100 4450 50  0000 C CNN
F 3 "" H 4100 4450 50  0000 C CNN
	1    4100 4450
	1    0    0    -1  
$EndComp
$Comp
L GND #PWR014
U 1 1 59F0118A
P 3950 4450
AR Path="/5A04BE4D/5A04C410/59F0118A" Ref="#PWR014"  Part="1" 
AR Path="/5A04BE50/5A01DCE6/59F0118A" Ref="#PWR014"  Part="1" 
F 0 "#PWR014" H 3950 4200 50  0001 C CNN
F 1 "GND" H 3950 4300 50  0000 C CNN
F 2 "" H 3950 4450 50  0000 C CNN
F 3 "" H 3950 4450 50  0000 C CNN
	1    3950 4450
	1    0    0    -1  
$EndComp
Text Label 6100 3150 0    60   ~ 0
FVOUT
Text Label 3300 3450 0    60   ~ 0
FVOUT
$Comp
L GND #PWR015
U 1 1 59F011AE
P 4400 2500
AR Path="/5A04BE4D/5A04C410/59F011AE" Ref="#PWR015"  Part="1" 
AR Path="/5A04BE50/5A01DCE6/59F011AE" Ref="#PWR015"  Part="1" 
F 0 "#PWR015" H 4400 2250 50  0001 C CNN
F 1 "GND" H 4400 2350 50  0000 C CNN
F 2 "" H 4400 2500 50  0000 C CNN
F 3 "" H 4400 2500 50  0000 C CNN
	1    4400 2500
	0    1    1    0   
$EndComp
NoConn ~ 6000 3450
Text Notes 3000 5550 0    260  ~ 0
Shielded
$Comp
L LREG U2
U 1 1 59F011BA
P 8650 2800
AR Path="/5A04BE4D/5A04C410/59F011BA" Ref="U2"  Part="1" 
AR Path="/5A04BE50/5A01DCE6/59F011BA" Ref="U2"  Part="1" 
F 0 "U2" H 8650 3100 60  0000 C CNN
F 1 "LINPOL12V" H 8650 2450 60  0000 C CNN
F 2 "Housings_DFN_QFN:DFN-8_2x2mm_Pitch0.5mm" V 8700 2850 260 0001 C CNN
F 3 "" V 8700 2850 260 0001 C CNN
	1    8650 2800
	1    0    0    -1  
$EndComp
$Comp
L GND #PWR016
U 1 1 59F011C3
P 9450 2750
AR Path="/5A04BE4D/5A04C410/59F011C3" Ref="#PWR016"  Part="1" 
AR Path="/5A04BE50/5A01DCE6/59F011C3" Ref="#PWR016"  Part="1" 
F 0 "#PWR016" H 9450 2500 50  0001 C CNN
F 1 "GND" H 9450 2600 50  0000 C CNN
F 2 "" H 9450 2750 50  0000 C CNN
F 3 "" H 9450 2750 50  0000 C CNN
	1    9450 2750
	1    0    0    -1  
$EndComp
$Comp
L C C9
U 1 1 59F011D3
P 7350 3250
AR Path="/5A04BE4D/5A04C410/59F011D3" Ref="C9"  Part="1" 
AR Path="/5A04BE50/5A01DCE6/59F011D3" Ref="C9"  Part="1" 
F 0 "C9" H 7375 3350 50  0000 L CNN
F 1 "10uF" H 7375 3150 50  0000 L CNN
F 2 "Capacitors_SMD:C_0402" H 7388 3100 50  0001 C CNN
F 3 "" H 7350 3250 50  0000 C CNN
	1    7350 3250
	1    0    0    -1  
$EndComp
$Comp
L GND #PWR017
U 1 1 59F011DB
P 7350 3500
AR Path="/5A04BE4D/5A04C410/59F011DB" Ref="#PWR017"  Part="1" 
AR Path="/5A04BE50/5A01DCE6/59F011DB" Ref="#PWR017"  Part="1" 
F 0 "#PWR017" H 7350 3250 50  0001 C CNN
F 1 "GND" H 7350 3350 50  0000 C CNN
F 2 "" H 7350 3500 50  0000 C CNN
F 3 "" H 7350 3500 50  0000 C CNN
	1    7350 3500
	1    0    0    -1  
$EndComp
Text HLabel 7800 4800 2    60   Input ~ 0
VOUT
Text HLabel 2650 2000 0    60   Input ~ 0
VIN
Text HLabel 2650 2300 0    60   Input ~ 0
VIN_RTN
Text HLabel 5450 2550 1    60   Input ~ 0
PTAT
Text HLabel 4750 2400 0    60   Input ~ 0
DCDCEN
Text HLabel 3650 3250 0    60   Input ~ 0
PGOOD
$Comp
L R NTC1
U 1 1 59F01D17
P 3250 4800
AR Path="/5A04BE4D/5A04C410/59F01D17" Ref="NTC1"  Part="1" 
AR Path="/5A04BE50/5A01DCE6/59F01D17" Ref="NTC1"  Part="1" 
F 0 "NTC1" V 3330 4800 50  0000 C CNN
F 1 "10k" V 3250 4800 50  0000 C CNN
F 2 "Resistors_SMD:R_0402" V 3180 4800 50  0001 C CNN
F 3 "" H 3250 4800 50  0000 C CNN
	1    3250 4800
	-1   0    0    1   
$EndComp
Text HLabel 7800 4600 2    60   Input ~ 0
FVOUT
Wire Wire Line
	7800 2600 8150 2600
Wire Wire Line
	4450 2500 4400 2500
Wire Wire Line
	4450 2600 4450 2500
Connection ~ 3550 3900
Wire Wire Line
	3700 3900 3550 3900
Wire Wire Line
	3700 3450 3700 3900
Wire Wire Line
	4200 3450 3700 3450
Wire Wire Line
	3550 3450 3300 3450
Wire Wire Line
	3550 3550 3550 3450
Wire Wire Line
	3650 3250 4200 3250
Connection ~ 3800 3350
Wire Wire Line
	3850 3150 3800 3150
Wire Wire Line
	4200 3150 4150 3150
Connection ~ 3800 3550
Wire Wire Line
	4200 3350 3800 3350
Wire Wire Line
	3550 3850 3550 3950
Wire Wire Line
	3550 4350 3550 4250
Wire Wire Line
	3800 3150 3800 4350
Wire Wire Line
	3950 3650 3950 3800
Wire Wire Line
	4200 3650 3950 3650
Wire Wire Line
	3950 4100 3950 4450
Connection ~ 3800 4350
Connection ~ 3950 4350
Wire Wire Line
	3550 4350 3950 4350
Wire Wire Line
	3800 3550 4200 3550
Connection ~ 6750 4800
Wire Wire Line
	6750 3150 6000 3150
Wire Wire Line
	6750 4800 6750 3150
Connection ~ 4100 4400
Wire Wire Line
	4100 4400 4750 4400
Connection ~ 4100 3850
Wire Wire Line
	4200 3750 4100 3750
Wire Wire Line
	4100 3750 4100 4450
Wire Wire Line
	4200 3850 4100 3850
Wire Wire Line
	6250 3550 6250 3600
Wire Wire Line
	6000 3550 6250 3550
Connection ~ 6100 3750
Wire Wire Line
	6000 3650 6100 3650
Connection ~ 6100 3850
Wire Wire Line
	6000 3750 6100 3750
Wire Wire Line
	6100 3650 6100 4000
Wire Wire Line
	6100 3850 6000 3850
Wire Notes Line
	3000 2650 3000 5600
Wire Notes Line
	4050 2650 3000 2650
Wire Notes Line
	4050 1900 4050 2650
Wire Wire Line
	5450 2600 5450 2550
Wire Wire Line
	4750 2400 4750 2600
Wire Wire Line
	4950 2500 5350 2500
Wire Notes Line
	6800 1900 4050 1900
Wire Notes Line
	6800 5600 6800 1900
Wire Notes Line
	3000 5600 6800 5600
Connection ~ 7650 4800
Wire Wire Line
	7650 5100 7650 5200
Wire Wire Line
	6600 5200 6600 5100
Wire Wire Line
	6350 5200 6350 5100
Wire Wire Line
	7450 4800 7800 4800
Connection ~ 6600 4800
Connection ~ 6350 4800
Wire Wire Line
	6150 4800 6850 4800
Connection ~ 5350 4800
Wire Wire Line
	4850 4750 4850 4800
Wire Wire Line
	4850 4450 4850 4400
Connection ~ 5350 4450
Connection ~ 5250 4450
Wire Wire Line
	5250 4450 5250 4400
Connection ~ 5150 4450
Wire Wire Line
	5150 4450 5150 4400
Connection ~ 5050 4450
Wire Wire Line
	5050 4400 5050 4450
Wire Wire Line
	4850 4800 5550 4800
Wire Wire Line
	5350 4400 5350 4800
Wire Wire Line
	4950 4450 5350 4450
Wire Wire Line
	4950 4400 4950 4450
Connection ~ 2900 2300
Wire Wire Line
	2900 2350 2900 2300
Connection ~ 4150 2300
Connection ~ 3350 2300
Connection ~ 3050 2300
Wire Wire Line
	2650 2300 4700 2300
Connection ~ 5350 2500
Connection ~ 5250 2500
Wire Wire Line
	5350 2500 5350 2600
Connection ~ 5150 2500
Wire Wire Line
	5250 2500 5250 2600
Connection ~ 5050 2500
Wire Wire Line
	5150 2500 5150 2600
Connection ~ 4950 2500
Wire Wire Line
	5050 2600 5050 2500
Wire Wire Line
	4000 2000 7800 2000
Connection ~ 4950 2000
Wire Wire Line
	4950 2000 4950 2600
Connection ~ 4450 2000
Connection ~ 4150 2000
Connection ~ 3350 2000
Connection ~ 3050 2000
Wire Wire Line
	2650 2000 3500 2000
Wire Wire Line
	7800 4600 6750 4600
Connection ~ 6750 4600
Text HLabel 7250 2900 0    60   Input ~ 0
VCC3V3
Text HLabel 7250 2750 0    60   Input ~ 0
VCC1V4
Text HLabel 9550 3050 2    60   Input ~ 0
LREGEN
Text HLabel 2850 4600 0    60   Input ~ 0
NTCp
Text HLabel 2850 5000 0    60   Input ~ 0
NTCn
Wire Wire Line
	3250 4650 3250 4600
Wire Wire Line
	3250 4600 2850 4600
Wire Wire Line
	3250 4950 3250 5000
Wire Wire Line
	3250 5000 2850 5000
Text HLabel 4150 1750 1    60   Input ~ 0
FVIN
Wire Wire Line
	4150 2000 4150 1750
Text Notes 5600 5000 0    60   ~ 0
Custom coil
Text Notes 8300 3400 0    60   ~ 0
Packaged or bare die?
Text Notes 8300 3500 0    60   ~ 0
830um x 1500um die
Wire Wire Line
	9150 3050 9550 3050
Wire Wire Line
	9150 2900 9300 2900
Wire Wire Line
	9300 2900 9300 3050
Connection ~ 9300 3050
Wire Wire Line
	9150 2750 9450 2750
Wire Wire Line
	9250 2750 9250 2600
Wire Wire Line
	9250 2600 9150 2600
Connection ~ 9250 2750
Wire Wire Line
	7800 2000 7800 2600
Text Notes 9650 2950 0    60   ~ 0
External Pull-down?
Text Notes 8400 3600 0    60   ~ 0
QFN8 packaged
Text Notes 3100 1400 0    60   ~ 0
Need 50mOhm between VIN and FVIN to AMAC.
Text Notes 8150 4700 0    60   ~ 0
7mOhm in between
Text Notes 5550 2700 0    60   ~ 0
Crosscheck BPOL12V pinout
$Comp
L bpol12v U1
U 1 1 59F01058
P 5100 3500
AR Path="/5A04BE4D/5A04C410/59F01058" Ref="U1"  Part="1" 
AR Path="/5A04BE50/5A01DCE6/59F01058" Ref="U1"  Part="1" 
F 0 "U1" H 5100 3850 60  0000 C CNN
F 1 "BPOL12V" H 5100 3400 60  0000 C CNN
F 2 "Housings_DFN_QFN:QFN-32-1EP_5x5mm_Pitch0.5mm" H 5100 3500 60  0001 C CNN
F 3 "" H 5100 3500 60  0001 C CNN
	1    5100 3500
	1    0    0    -1  
$EndComp
Text HLabel 6150 3250 2    60   Input ~ 0
Bit1_VOUT
Text HLabel 6150 3350 2    60   Input ~ 0
Bit2_VOUT
Wire Wire Line
	6000 3250 6150 3250
Wire Wire Line
	6000 3350 6150 3350
$Comp
L C C11
U 1 1 59F4F093
P 4700 2150
AR Path="/5A04BE4D/5A04C410/59F4F093" Ref="C11"  Part="1" 
AR Path="/5A04BE50/5A01DCE6/59F4F093" Ref="C11"  Part="1" 
F 0 "C11" H 4725 2250 50  0000 L CNN
F 1 "100nF" H 4725 2050 50  0000 L CNN
F 2 "pbv3:SMD_0306" H 4738 2000 50  0001 C CNN
F 3 "" H 4700 2150 50  0000 C CNN
	1    4700 2150
	1    0    0    -1  
$EndComp
Connection ~ 4450 2300
Connection ~ 4700 2000
Text Notes 4650 1850 0    60   ~ 0
C11 reverse geometry cap.
$Comp
L C C28
U 1 1 59F76B63
P 7600 3250
AR Path="/5A04BE4D/5A04C410/59F76B63" Ref="C28"  Part="1" 
AR Path="/5A04BE50/5A01DCE6/59F76B63" Ref="C28"  Part="1" 
F 0 "C28" H 7625 3350 50  0000 L CNN
F 1 "4.7uF" H 7625 3150 50  0000 L CNN
F 2 "Capacitors_SMD:C_0402" H 7638 3100 50  0001 C CNN
F 3 "" H 7600 3250 50  0000 C CNN
	1    7600 3250
	1    0    0    -1  
$EndComp
$Comp
L R R22
U 1 1 59F77035
P 7900 2750
AR Path="/5A04BE4D/5A04C410/59F77035" Ref="R22"  Part="1" 
AR Path="/5A04BE50/5A01DCE6/59F77035" Ref="R22"  Part="1" 
F 0 "R22" V 7980 2750 50  0000 C CNN
F 1 "R" V 7900 2750 50  0000 C CNN
F 2 "Resistors_SMD:R_0201" V 7830 2750 50  0001 C CNN
F 3 "" H 7900 2750 50  0000 C CNN
	1    7900 2750
	0    1    1    0   
$EndComp
$Comp
L R R23
U 1 1 59F770A0
P 7900 2900
AR Path="/5A04BE4D/5A04C410/59F770A0" Ref="R23"  Part="1" 
AR Path="/5A04BE50/5A01DCE6/59F770A0" Ref="R23"  Part="1" 
F 0 "R23" V 7980 2900 50  0000 C CNN
F 1 "R" V 7900 2900 50  0000 C CNN
F 2 "Resistors_SMD:R_0201" V 7830 2900 50  0001 C CNN
F 3 "" H 7900 2900 50  0000 C CNN
	1    7900 2900
	0    1    1    0   
$EndComp
$Comp
L GND #PWR018
U 1 1 59F77485
P 7600 3500
AR Path="/5A04BE4D/5A04C410/59F77485" Ref="#PWR018"  Part="1" 
AR Path="/5A04BE50/5A01DCE6/59F77485" Ref="#PWR018"  Part="1" 
F 0 "#PWR018" H 7600 3250 50  0001 C CNN
F 1 "GND" H 7600 3350 50  0000 C CNN
F 2 "" H 7600 3500 50  0000 C CNN
F 3 "" H 7600 3500 50  0000 C CNN
	1    7600 3500
	1    0    0    -1  
$EndComp
Wire Wire Line
	8150 2750 8050 2750
Wire Wire Line
	8150 2900 8050 2900
Wire Wire Line
	7750 2900 7250 2900
Wire Wire Line
	7750 2750 7250 2750
Wire Wire Line
	7350 3100 7350 2750
Connection ~ 7350 2750
Wire Wire Line
	7350 3500 7350 3400
Wire Wire Line
	7600 3500 7600 3400
Wire Wire Line
	7600 3100 7600 2900
Connection ~ 7600 2900
Text Label 7850 2600 0    60   ~ 0
FVIN
$EndSCHEMATC
