EESchema Schematic File Version 4
EELAYER 30 0
EELAYER END
$Descr A4 11693 8268
encoding utf-8
Sheet 2 5
Title "Powerboard v3"
Date "2017-10-23"
Rev "A"
Comp "LBNL"
Comment1 "Timon Heim"
Comment2 ""
Comment3 ""
Comment4 ""
$EndDescr
$Comp
L Device:R R14
U 1 1 59F08275
P 3150 3500
AR Path="/59F07AAA/59F08275" Ref="R14"  Part="1" 
AR Path="/5CFFA990/59F08275" Ref="R501"  Part="1" 
F 0 "R14" V 3230 3500 50  0000 C CNN
F 1 "499R" V 3150 3500 50  0000 C CNN
F 2 "Resistor_SMD:R_0201_0603Metric" V 3080 3500 50  0001 C CNN
F 3 "" H 3150 3500 50  0000 C CNN
F 4 "ERJ-1GNF4990C" H 3150 3500 50  0001 C CNN "Part"
	1    3150 3500
	0    1    1    0   
$EndComp
$Comp
L Device:C C19
U 1 1 59F0827C
P 3500 3650
AR Path="/59F07AAA/59F0827C" Ref="C19"  Part="1" 
AR Path="/5CFFA990/59F0827C" Ref="C501"  Part="1" 
F 0 "C19" H 3525 3750 50  0000 L CNN
F 1 "1nF" H 3525 3550 50  0000 L CNN
F 2 "Capacitor_SMD:C_0402_1005Metric" H 3538 3500 50  0001 C CNN
F 3 "" H 3500 3650 50  0000 C CNN
F 4 "GRT1555C1H102JA02D" H 3500 3650 50  0001 C CNN "Part"
	1    3500 3650
	1    0    0    -1  
$EndComp
$Comp
L Device:C C20
U 1 1 59F08283
P 3850 3500
AR Path="/59F07AAA/59F08283" Ref="C20"  Part="1" 
AR Path="/5CFFA990/59F08283" Ref="C502"  Part="1" 
F 0 "C20" H 3875 3600 50  0000 L CNN
F 1 "68nF/1kV" H 3875 3400 50  0000 L CNN
F 2 "Capacitor_SMD:C_1210_3225Metric" H 3888 3350 50  0001 C CNN
F 3 "" H 3850 3500 50  0000 C CNN
F 4 "C1210C683KDRACTU" H 3850 3500 50  0001 C CNN "Part"
	1    3850 3500
	0    1    1    0   
$EndComp
$Comp
L pbv3:BAS70DW-04 D1
U 1 1 59F0828A
P 4600 4100
AR Path="/59F07AAA/59F0828A" Ref="D1"  Part="1" 
AR Path="/5CFFA990/59F0828A" Ref="D501"  Part="1" 
F 0 "D1" H 4600 4500 60  0000 C CNN
F 1 "BAT54SDW-7-F" H 4600 3600 60  0000 C CNN
F 2 "TO_SOT_Packages_SMD:SOT-363_SC-70-6" V 4600 4100 60  0001 C CNN
F 3 "" V 4600 4100 60  0001 C CNN
F 4 "BAT54SDW-7-F" H 4600 4100 50  0001 C CNN "Part"
	1    4600 4100
	0    1    1    0   
$EndComp
$Comp
L Device:C C22
U 1 1 59F08291
P 4400 4700
AR Path="/59F07AAA/59F08291" Ref="C22"  Part="1" 
AR Path="/5CFFA990/59F08291" Ref="C504"  Part="1" 
F 0 "C22" H 4425 4800 50  0000 L CNN
F 1 "1uF" H 4425 4600 50  0000 L CNN
F 2 "Capacitor_SMD:C_0603_1608Metric" H 4438 4550 50  0001 C CNN
F 3 "" H 4400 4700 50  0000 C CNN
F 4 "CC0603KRX5R8BB105" H 4400 4700 50  0001 C CNN "Part"
	1    4400 4700
	0    1    1    0   
$EndComp
$Comp
L Device:C C23
U 1 1 59F08298
P 4700 3500
AR Path="/59F07AAA/59F08298" Ref="C23"  Part="1" 
AR Path="/5CFFA990/59F08298" Ref="C505"  Part="1" 
F 0 "C23" H 4725 3600 50  0000 L CNN
F 1 "1uF" H 4725 3400 50  0000 L CNN
F 2 "Capacitor_SMD:C_0603_1608Metric" H 4738 3350 50  0001 C CNN
F 3 "" H 4700 3500 50  0000 C CNN
F 4 "CC0603KRX5R8BB105" H 4700 3500 50  0001 C CNN "Part"
	1    4700 3500
	0    1    1    0   
$EndComp
$Comp
L Device:C C24
U 1 1 59F0829F
P 5200 4100
AR Path="/59F07AAA/59F0829F" Ref="C24"  Part="1" 
AR Path="/5CFFA990/59F0829F" Ref="C506"  Part="1" 
F 0 "C24" H 5225 4200 50  0000 L CNN
F 1 "1uF" H 5225 4000 50  0000 L CNN
F 2 "Capacitor_SMD:C_0603_1608Metric" H 5238 3950 50  0001 C CNN
F 3 "" H 5200 4100 50  0000 C CNN
F 4 "CC0603KRX5R8BB105" H 5200 4100 50  0001 C CNN "Part"
	1    5200 4100
	1    0    0    -1  
$EndComp
$Comp
L Device:C C21
U 1 1 59F082A6
P 3850 4900
AR Path="/59F07AAA/59F082A6" Ref="C21"  Part="1" 
AR Path="/5CFFA990/59F082A6" Ref="C503"  Part="1" 
F 0 "C21" H 3875 5000 50  0000 L CNN
F 1 "68nF/1kV" H 3875 4800 50  0000 L CNN
F 2 "Capacitor_SMD:C_1210_3225Metric" H 3888 4750 50  0001 C CNN
F 3 "" H 3850 4900 50  0000 C CNN
F 4 "C1210C683KDRACTU" H 3850 4900 50  0001 C CNN "Part"
	1    3850 4900
	0    1    1    0   
$EndComp
Wire Wire Line
	3000 3500 2700 3500
Wire Wire Line
	3300 3500 3350 3500
Connection ~ 3500 3500
Wire Wire Line
	4000 3500 4250 3500
Wire Wire Line
	4250 3300 4250 3500
Wire Wire Line
	4850 3600 4850 3500
Wire Wire Line
	4250 4600 4250 4700
Wire Wire Line
	4550 4600 4550 4700
Wire Wire Line
	4250 4700 4150 4700
Wire Wire Line
	4150 4700 4150 4900
Wire Wire Line
	4000 4900 4150 4900
$Comp
L power:GND #PWR018
U 1 1 59F082B8
P 3500 3900
AR Path="/59F07AAA/59F082B8" Ref="#PWR018"  Part="1" 
AR Path="/5CFFA990/59F082B8" Ref="#PWR0502"  Part="1" 
F 0 "#PWR018" H 3500 3650 50  0001 C CNN
F 1 "GND" H 3500 3750 50  0000 C CNN
F 2 "" H 3500 3900 50  0000 C CNN
F 3 "" H 3500 3900 50  0000 C CNN
	1    3500 3900
	1    0    0    -1  
$EndComp
$Comp
L power:GND #PWR019
U 1 1 59F082BE
P 3450 4950
AR Path="/59F07AAA/59F082BE" Ref="#PWR019"  Part="1" 
AR Path="/5CFFA990/59F082BE" Ref="#PWR0501"  Part="1" 
F 0 "#PWR019" H 3450 4700 50  0001 C CNN
F 1 "GND" H 3450 4800 50  0000 C CNN
F 2 "" H 3450 4950 50  0000 C CNN
F 3 "" H 3450 4950 50  0000 C CNN
	1    3450 4950
	1    0    0    -1  
$EndComp
Wire Wire Line
	3500 3900 3500 3850
Wire Wire Line
	2700 4900 3450 4900
Wire Wire Line
	3450 4900 3450 4950
Wire Wire Line
	4850 4600 4850 4700
Wire Wire Line
	4850 4700 5200 4700
Wire Wire Line
	5200 4700 5200 4250
Wire Wire Line
	4550 3200 4550 3500
Connection ~ 4250 3500
Wire Wire Line
	4550 3200 5450 3200
Connection ~ 4550 3500
Connection ~ 4150 4900
$Comp
L Device:R R15
U 1 1 59F082D5
P 5700 3850
AR Path="/59F07AAA/59F082D5" Ref="R15"  Part="1" 
AR Path="/5CFFA990/59F082D5" Ref="R502"  Part="1" 
F 0 "R15" V 5780 3850 50  0000 C CNN
F 1 "100R" V 5700 3850 50  0000 C CNN
F 2 "Resistor_SMD:R_0201_0603Metric" V 5630 3850 50  0001 C CNN
F 3 "" H 5700 3850 50  0000 C CNN
F 4 "ERJ-1GNJ101C" H 5700 3850 50  0001 C CNN "Part"
	1    5700 3850
	0    1    1    0   
$EndComp
$Comp
L Device:C C25
U 1 1 59F082E3
P 6000 4050
AR Path="/59F07AAA/59F082E3" Ref="C25"  Part="1" 
AR Path="/5CFFA990/59F082E3" Ref="C507"  Part="1" 
F 0 "C25" H 6025 4150 50  0000 L CNN
F 1 "10nF" H 6025 3950 50  0000 L CNN
F 2 "Capacitor_SMD:C_0402_1005Metric" H 6038 3900 50  0001 C CNN
F 3 "" H 6000 4050 50  0000 C CNN
F 4 "CGA2B3X5R1V103K050BB" H 6000 4050 50  0001 C CNN "Part"
	1    6000 4050
	1    0    0    -1  
$EndComp
$Comp
L Device:Q_NMOS_DGS Q1
U 1 1 59F082EA
P 6800 3850
AR Path="/59F07AAA/59F082EA" Ref="Q1"  Part="1" 
AR Path="/5CFFA990/59F082EA" Ref="Q501"  Part="1" 
F 0 "Q1" H 7100 3900 50  0000 R CNN
F 1 "HVmux" H 6850 4050 50  0000 R CNN
F 2 "pbv3:HVmux" H 7000 3950 50  0001 C CNN
F 3 "" H 6800 3850 50  0000 C CNN
	1    6800 3850
	1    0    0    -1  
$EndComp
$Comp
L Device:R R17
U 1 1 59F082F1
P 6550 4050
AR Path="/59F07AAA/59F082F1" Ref="R17"  Part="1" 
AR Path="/5CFFA990/59F082F1" Ref="R504"  Part="1" 
F 0 "R17" V 6630 4050 50  0000 C CNN
F 1 "30k" V 6550 4050 50  0000 C CNN
F 2 "Resistor_SMD:R_0201_0603Metric" V 6480 4050 50  0001 C CNN
F 3 "" H 6550 4050 50  0000 C CNN
F 4 "ERJ-1GNF3002C" H 6550 4050 50  0001 C CNN "Part"
	1    6550 4050
	1    0    0    -1  
$EndComp
$Comp
L Device:D_Zener D2
U 1 1 59F082F8
P 6350 4050
AR Path="/59F07AAA/59F082F8" Ref="D2"  Part="1" 
AR Path="/5CFFA990/59F082F8" Ref="D502"  Part="1" 
F 0 "D2" H 6350 4150 50  0000 C CNN
F 1 "BZX84-C4V7,215 " H 6350 3950 50  0000 C CNN
F 2 "Diode_SMD:D_SOT-23_ANK" H 6350 4050 50  0001 C CNN
F 3 "" H 6350 4050 50  0000 C CNN
F 4 "BZX84-C4V7,215 " H 6350 4050 50  0001 C CNN "Part"
	1    6350 4050
	0    1    1    0   
$EndComp
Wire Wire Line
	5850 3850 6000 3850
Wire Wire Line
	6000 3850 6000 3900
Wire Wire Line
	6000 4250 6000 4200
Connection ~ 6000 4250
Connection ~ 6000 3850
Wire Wire Line
	6900 4050 6900 4250
Connection ~ 6900 4250
Wire Wire Line
	6550 4200 6550 4250
Connection ~ 6550 4250
Wire Wire Line
	6550 3900 6550 3850
Connection ~ 6550 3850
$Comp
L Device:R R18
U 1 1 59F08314
P 7300 2900
AR Path="/59F07AAA/59F08314" Ref="R18"  Part="1" 
AR Path="/5CFFA990/59F08314" Ref="R505"  Part="1" 
F 0 "R18" V 7380 2900 50  0000 C CNN
F 1 "4M7" V 7300 2900 50  0000 C CNN
F 2 "Resistor_SMD:R_0805_2012Metric" V 7230 2900 50  0001 C CNN
F 3 "" H 7300 2900 50  0000 C CNN
F 4 "RC0805FR-104M7L" H 7300 2900 50  0001 C CNN "Part"
	1    7300 2900
	1    0    0    -1  
$EndComp
$Comp
L Device:R R19
U 1 1 59F0831B
P 7300 3300
AR Path="/59F07AAA/59F0831B" Ref="R19"  Part="1" 
AR Path="/5CFFA990/59F0831B" Ref="R506"  Part="1" 
F 0 "R19" V 7380 3300 50  0000 C CNN
F 1 "4M7" V 7300 3300 50  0000 C CNN
F 2 "Resistor_SMD:R_0805_2012Metric" V 7230 3300 50  0001 C CNN
F 3 "" H 7300 3300 50  0000 C CNN
F 4 "RC0805FR-104M7L" H 7300 3300 50  0001 C CNN "Part"
	1    7300 3300
	1    0    0    -1  
$EndComp
$Comp
L Device:R R20
U 1 1 59F08322
P 7650 2700
AR Path="/59F07AAA/59F08322" Ref="R20"  Part="1" 
AR Path="/5CFFA990/59F08322" Ref="R507"  Part="1" 
F 0 "R20" V 7730 2700 50  0000 C CNN
F 1 "4k7" V 7650 2700 50  0000 C CNN
F 2 "Resistor_SMD:R_0805_2012Metric" V 7580 2700 50  0001 C CNN
F 3 "" H 7650 2700 50  0000 C CNN
F 4 "ERJ-6GEYJ472V " H 7650 2700 50  0001 C CNN "Part"
	1    7650 2700
	0    1    1    0   
$EndComp
$Comp
L Device:R R21
U 1 1 59F08329
P 8050 2700
AR Path="/59F07AAA/59F08329" Ref="R21"  Part="1" 
AR Path="/5CFFA990/59F08329" Ref="R508"  Part="1" 
F 0 "R21" V 8130 2700 50  0000 C CNN
F 1 "4k7" V 8050 2700 50  0000 C CNN
F 2 "Resistor_SMD:R_0805_2012Metric" V 7980 2700 50  0001 C CNN
F 3 "" H 8050 2700 50  0000 C CNN
F 4 "ERJ-6GEYJ472V " H 8050 2700 50  0001 C CNN "Part"
	1    8050 2700
	0    1    1    0   
$EndComp
$Comp
L Device:C C26
U 1 1 59F08330
P 7850 3100
AR Path="/59F07AAA/59F08330" Ref="C26"  Part="1" 
AR Path="/5CFFA990/59F08330" Ref="C508"  Part="1" 
F 0 "C26" H 7875 3200 50  0000 L CNN
F 1 "68nF/1kV" H 7875 3000 50  0000 L CNN
F 2 "Capacitor_SMD:C_1210_3225Metric" H 7888 2950 50  0001 C CNN
F 3 "" H 7850 3100 50  0000 C CNN
F 4 "C1210C683KDRACTU" H 7850 3100 50  0001 C CNN "Part"
	1    7850 3100
	1    0    0    -1  
$EndComp
$Comp
L Device:C C27
U 1 1 59F08337
P 8250 3100
AR Path="/59F07AAA/59F08337" Ref="C27"  Part="1" 
AR Path="/5CFFA990/59F08337" Ref="C509"  Part="1" 
F 0 "C27" H 8275 3200 50  0000 L CNN
F 1 "68nF/1kV" H 8275 3000 50  0000 L CNN
F 2 "Capacitor_SMD:C_1210_3225Metric" H 8288 2950 50  0001 C CNN
F 3 "" H 8250 3100 50  0000 C CNN
F 4 "C1210C683KDRACTU" H 8250 3100 50  0001 C CNN "Part"
	1    8250 3100
	1    0    0    -1  
$EndComp
Wire Wire Line
	6900 2700 6900 3650
Wire Wire Line
	6900 2700 7300 2700
Wire Wire Line
	7300 2750 7300 2700
Connection ~ 7300 2700
Wire Wire Line
	7300 3150 7300 3050
Wire Wire Line
	7300 3450 7300 3500
Wire Wire Line
	7200 3500 7300 3500
Wire Wire Line
	8250 3500 8250 3250
Wire Wire Line
	7850 3250 7850 3500
Connection ~ 7850 3500
Wire Wire Line
	7800 2700 7850 2700
Wire Wire Line
	7850 2950 7850 2700
Connection ~ 7850 2700
Wire Wire Line
	8250 2950 8250 2700
Wire Wire Line
	8200 2700 8250 2700
Connection ~ 8250 2700
Wire Wire Line
	7200 4500 7200 3500
Connection ~ 7300 3500
Text Label 2700 3500 0    60   ~ 0
HVOSC
Wire Wire Line
	5450 4900 5450 4250
Wire Wire Line
	5450 3200 5450 3850
Wire Wire Line
	5450 3850 5550 3850
Text Notes 2500 2550 0    260  ~ 0
HVmux + HV filter
Text HLabel 2700 3500 0    60   Input ~ 0
HVOSC
Text HLabel 2700 4900 0    60   Input ~ 0
GND
Connection ~ 3450 4900
Text HLabel 6900 4500 3    60   Input ~ 0
HV_IN
Text HLabel 7200 4500 3    60   Input ~ 0
HV_IN_RTN
Text HLabel 8450 3500 2    60   Input ~ 0
HV_OUT_RTN
Text HLabel 8450 2700 2    60   Input ~ 0
HV_OUT
Connection ~ 8250 3500
Connection ~ 4250 4700
Wire Wire Line
	3500 3500 3700 3500
Wire Wire Line
	4250 3500 4250 3600
Wire Wire Line
	4550 3500 4550 3600
Wire Wire Line
	4150 4900 5450 4900
Wire Wire Line
	6900 4250 6900 4500
Wire Wire Line
	6550 4250 6900 4250
Wire Wire Line
	6550 3850 6600 3850
Wire Wire Line
	7300 2700 7500 2700
Wire Wire Line
	7850 3500 8250 3500
Wire Wire Line
	7850 2700 7900 2700
Wire Wire Line
	8250 2700 8450 2700
Wire Wire Line
	7300 3500 7850 3500
Wire Wire Line
	3450 4900 3700 4900
Wire Wire Line
	8250 3500 8450 3500
Wire Wire Line
	4250 3300 5200 3300
Wire Wire Line
	5200 3300 5200 3950
Wire Wire Line
	4850 3500 5050 3500
Wire Wire Line
	5050 3500 5050 4800
Wire Wire Line
	5050 4800 4550 4800
Wire Wire Line
	4550 4800 4550 4700
Connection ~ 4850 3500
Connection ~ 4550 4700
Wire Wire Line
	6000 4250 6350 4250
Wire Wire Line
	6000 3850 6350 3850
Wire Wire Line
	6350 3900 6350 3850
Connection ~ 6350 3850
Wire Wire Line
	6350 3850 6550 3850
Wire Wire Line
	6350 4200 6350 4250
Connection ~ 6350 4250
Wire Wire Line
	6350 4250 6550 4250
Wire Wire Line
	5450 4250 6000 4250
$Comp
L Device:D_Zener D201
U 1 1 5EE14F2B
P 3350 3700
AR Path="/59F07AAA/5EE14F2B" Ref="D201"  Part="1" 
AR Path="/5CFFA990/5EE14F2B" Ref="D401"  Part="1" 
F 0 "D201" H 3350 3800 50  0000 C CNN
F 1 "GDZ5V1LP3-7" H 3350 3600 50  0000 C CNN
F 2 "Diode_SMD:D_0201_0603Metric" H 3350 3700 50  0001 C CNN
F 3 "" H 3350 3700 50  0000 C CNN
F 4 "GDZ5V1LP3-7" H 3350 3700 50  0001 C CNN "Part"
	1    3350 3700
	0    1    1    0   
$EndComp
Wire Wire Line
	3350 3550 3350 3500
Connection ~ 3350 3500
Wire Wire Line
	3350 3500 3500 3500
Wire Wire Line
	3350 3850 3500 3850
Connection ~ 3500 3850
Wire Wire Line
	3500 3850 3500 3800
$EndSCHEMATC
