(kicad_sch (version 20230121) (generator eeschema)

  (uuid 1ac5048d-b0c0-4de3-9895-a616185014c6)

  (paper "A4")

  (title_block
    (title "Powerboard v3")
    (date "2017-10-23")
    (rev "A")
    (company "LBNL")
    (comment 1 "Timon Heim")
  )

  (lib_symbols
    (symbol "pbv3-rescue:R" (pin_numbers hide) (pin_names (offset 0)) (in_bom yes) (on_board yes)
      (property "Reference" "R" (at 2.032 0 90)
        (effects (font (size 1.27 1.27)))
      )
      (property "Value" "R" (at 0 0 90)
        (effects (font (size 1.27 1.27)))
      )
      (property "Footprint" "" (at -1.778 0 90)
        (effects (font (size 1.27 1.27)) hide)
      )
      (property "Datasheet" "" (at 0 0 0)
        (effects (font (size 1.27 1.27)) hide)
      )
      (property "ki_fp_filters" "R_* R_*" (at 0 0 0)
        (effects (font (size 1.27 1.27)) hide)
      )
      (symbol "R_0_1"
        (rectangle (start -1.016 -2.54) (end 1.016 2.54)
          (stroke (width 0.254) (type default))
          (fill (type none))
        )
      )
      (symbol "R_1_1"
        (pin passive line (at 0 3.81 270) (length 1.27)
          (name "~" (effects (font (size 1.27 1.27))))
          (number "1" (effects (font (size 1.27 1.27))))
        )
        (pin passive line (at 0 -3.81 90) (length 1.27)
          (name "~" (effects (font (size 1.27 1.27))))
          (number "2" (effects (font (size 1.27 1.27))))
        )
      )
    )
    (symbol "pbv3:BondPad" (pin_names (offset 1.016)) (in_bom yes) (on_board yes)
      (property "Reference" "J" (at 0 2.54 0)
        (effects (font (size 1.524 1.524)))
      )
      (property "Value" "BondPad" (at 0 -2.54 0)
        (effects (font (size 1.524 1.524)))
      )
      (property "Footprint" "" (at 0 0 0)
        (effects (font (size 1.524 1.524)) hide)
      )
      (property "Datasheet" "" (at 0 0 0)
        (effects (font (size 1.524 1.524)) hide)
      )
      (symbol "BondPad_0_1"
        (rectangle (start -1.27 1.27) (end 1.27 -1.27)
          (stroke (width 0) (type default))
          (fill (type background))
        )
      )
      (symbol "BondPad_1_1"
        (pin input line (at 6.35 0 180) (length 5.08)
          (name "~" (effects (font (size 1.27 1.27))))
          (number "1" (effects (font (size 1.27 1.27))))
        )
      )
    )
    (symbol "power:GND" (power) (pin_names (offset 0)) (in_bom yes) (on_board yes)
      (property "Reference" "#PWR" (at 0 -6.35 0)
        (effects (font (size 1.27 1.27)) hide)
      )
      (property "Value" "GND" (at 0 -3.81 0)
        (effects (font (size 1.27 1.27)))
      )
      (property "Footprint" "" (at 0 0 0)
        (effects (font (size 1.27 1.27)) hide)
      )
      (property "Datasheet" "" (at 0 0 0)
        (effects (font (size 1.27 1.27)) hide)
      )
      (property "ki_keywords" "power-flag" (at 0 0 0)
        (effects (font (size 1.27 1.27)) hide)
      )
      (property "ki_description" "Power symbol creates a global label with name \"GND\" , ground" (at 0 0 0)
        (effects (font (size 1.27 1.27)) hide)
      )
      (symbol "GND_0_1"
        (polyline
          (pts
            (xy 0 0)
            (xy 0 -1.27)
            (xy 1.27 -1.27)
            (xy 0 -2.54)
            (xy -1.27 -1.27)
            (xy 0 -1.27)
          )
          (stroke (width 0) (type default))
          (fill (type none))
        )
      )
      (symbol "GND_1_1"
        (pin power_in line (at 0 0 270) (length 0) hide
          (name "GND" (effects (font (size 1.27 1.27))))
          (number "1" (effects (font (size 1.27 1.27))))
        )
      )
    )
  )

  (junction (at 132.08 48.26) (diameter 0) (color 0 0 0 0)
    (uuid 6a2f84fe-599a-47a5-8319-b6961e4270c3)
  )
  (junction (at 139.7 50.8) (diameter 0) (color 0 0 0 0)
    (uuid 7f8a124c-c09d-4a2c-975f-e670bbaf6364)
  )
  (junction (at 48.26 55.88) (diameter 0) (color 0 0 0 0)
    (uuid bbc76065-fe09-41b3-a12a-9ca9a984f826)
  )
  (junction (at 207.01 48.26) (diameter 0) (color 0 0 0 0)
    (uuid c3752db9-8655-48da-b411-52f8940b42c2)
  )
  (junction (at 106.68 41.91) (diameter 0) (color 0 0 0 0)
    (uuid efcf8b8e-b4a4-447f-9f1f-480ef2d2869e)
  )
  (junction (at 49.53 48.26) (diameter 0) (color 0 0 0 0)
    (uuid f7b86ad0-cb74-46a4-8553-a894b00ba83b)
  )

  (wire (pts (xy 238.76 140.97) (xy 241.3 140.97))
    (stroke (width 0) (type default))
    (uuid 023d8cea-d789-429b-b2a7-2b3d8a6c661a)
  )
  (wire (pts (xy 97.79 41.91) (xy 106.68 41.91))
    (stroke (width 0) (type default))
    (uuid 0361c1c5-3253-4acd-ac04-d193c4e2286f)
  )
  (wire (pts (xy 111.76 133.35) (xy 115.57 133.35))
    (stroke (width 0) (type default))
    (uuid 05833f95-a332-4068-a3f7-43f60934ea3b)
  )
  (wire (pts (xy 209.55 127) (xy 213.36 127))
    (stroke (width 0) (type default))
    (uuid 05c49b20-5f45-45aa-9b74-4b7ac54962f7)
  )
  (wire (pts (xy 209.55 119.38) (xy 213.36 119.38))
    (stroke (width 0) (type default))
    (uuid 074be833-2be7-408b-a8ae-697d795cc793)
  )
  (polyline (pts (xy 13.97 113.03) (xy 13.97 13.97))
    (stroke (width 0) (type default))
    (uuid 076ad53e-b710-432f-99b5-c1a4f3cc42e4)
  )
  (polyline (pts (xy 179.07 13.97) (xy 280.67 13.97))
    (stroke (width 0) (type default))
    (uuid 0d96970a-d3e2-4ce6-9930-126fc760d985)
  )

  (wire (pts (xy 213.36 138.43) (xy 210.82 138.43))
    (stroke (width 0) (type default))
    (uuid 0e5a2130-1116-4b3a-9921-8bad83f538a3)
  )
  (wire (pts (xy 67.31 73.66) (xy 52.07 73.66))
    (stroke (width 0) (type default))
    (uuid 0fa774f1-5ac8-434b-8280-305cbe9e2ec6)
  )
  (wire (pts (xy 209.55 83.82) (xy 213.36 83.82))
    (stroke (width 0) (type default))
    (uuid 11fdbfb3-4fc0-473f-88f4-43ccad8ba86a)
  )
  (wire (pts (xy 209.55 73.66) (xy 213.36 73.66))
    (stroke (width 0) (type default))
    (uuid 175e5ef8-c58e-4104-a379-3134fde50ba0)
  )
  (wire (pts (xy 139.7 50.8) (xy 213.36 50.8))
    (stroke (width 0) (type default))
    (uuid 186f87a2-698b-41b0-9485-f558bce88de1)
  )
  (wire (pts (xy 241.3 140.97) (xy 241.3 142.24))
    (stroke (width 0) (type default))
    (uuid 1a42e7fc-69bf-4637-bf41-fdbb51445236)
  )
  (wire (pts (xy 63.5 157.48) (xy 273.05 157.48))
    (stroke (width 0) (type default))
    (uuid 1b544a5b-a4d8-40c5-8e61-69f8b6e65739)
  )
  (wire (pts (xy 97.79 73.66) (xy 111.76 73.66))
    (stroke (width 0) (type default))
    (uuid 1bb1cfa0-d87c-4b71-91bb-edacb8d3e34e)
  )
  (wire (pts (xy 209.55 93.98) (xy 213.36 93.98))
    (stroke (width 0) (type default))
    (uuid 1bb4dba7-5252-494d-9267-d4abaa5fbf64)
  )
  (wire (pts (xy 238.76 50.8) (xy 248.92 50.8))
    (stroke (width 0) (type default))
    (uuid 1c125878-f3f7-4c6f-a12a-8f682e0b39ea)
  )
  (wire (pts (xy 238.76 58.42) (xy 248.92 58.42))
    (stroke (width 0) (type default))
    (uuid 1d786112-3dce-4fc6-bf8e-7469995e498a)
  )
  (wire (pts (xy 238.76 83.82) (xy 242.57 83.82))
    (stroke (width 0) (type default))
    (uuid 1e7f1721-c876-43b5-a65b-2005df14c582)
  )
  (wire (pts (xy 207.01 48.26) (xy 213.36 48.26))
    (stroke (width 0) (type default))
    (uuid 24fec2fa-284f-4f80-80d9-f625ae58aced)
  )
  (wire (pts (xy 210.82 138.43) (xy 210.82 137.16))
    (stroke (width 0) (type default))
    (uuid 26295f02-c0d1-48f1-a10f-68ad551349a4)
  )
  (wire (pts (xy 106.68 176.53) (xy 97.79 176.53))
    (stroke (width 0) (type default))
    (uuid 289ad934-e314-40c0-85cf-a54f3da9fed3)
  )
  (wire (pts (xy 49.53 39.37) (xy 49.53 41.91))
    (stroke (width 0) (type default))
    (uuid 28c42d69-09d4-42ae-87d9-1753699548f4)
  )
  (wire (pts (xy 106.68 41.91) (xy 106.68 45.72))
    (stroke (width 0) (type default))
    (uuid 28e1cfed-357a-4425-941d-69acbd416080)
  )
  (wire (pts (xy 209.55 104.14) (xy 213.36 104.14))
    (stroke (width 0) (type default))
    (uuid 2a84eef5-ef73-4c67-b97f-69c8cc05a448)
  )
  (wire (pts (xy 45.72 55.88) (xy 48.26 55.88))
    (stroke (width 0) (type default))
    (uuid 2b2f69ed-9338-4e8e-b145-85842b89952d)
  )
  (wire (pts (xy 67.31 69.85) (xy 52.07 69.85))
    (stroke (width 0) (type default))
    (uuid 2c8a66ca-4390-429b-a57b-2db841075c59)
  )
  (wire (pts (xy 199.39 142.24) (xy 210.82 142.24))
    (stroke (width 0) (type default))
    (uuid 305cf901-4992-4aab-9fd2-a6a1ca1453d8)
  )
  (wire (pts (xy 238.76 93.98) (xy 242.57 93.98))
    (stroke (width 0) (type default))
    (uuid 32fd3e5b-c310-49b5-a1ee-78413d12a937)
  )
  (wire (pts (xy 209.55 88.9) (xy 213.36 88.9))
    (stroke (width 0) (type default))
    (uuid 36e4075f-5169-42a6-8463-6ac1b4fe40b4)
  )
  (wire (pts (xy 140.97 38.1) (xy 137.16 38.1))
    (stroke (width 0) (type default))
    (uuid 3897a32f-a35e-4c89-986d-9425af141fb7)
  )
  (wire (pts (xy 54.61 179.07) (xy 71.12 179.07))
    (stroke (width 0) (type default))
    (uuid 38f2397b-dea0-4726-a4bd-2ea916e95575)
  )
  (wire (pts (xy 210.82 140.97) (xy 210.82 142.24))
    (stroke (width 0) (type default))
    (uuid 3d4d703f-76e0-4858-888a-b38932b2af76)
  )
  (wire (pts (xy 130.81 132.08) (xy 130.81 118.11))
    (stroke (width 0) (type default))
    (uuid 3fcb9235-9ad6-4d0d-a379-fe65e12c4fb8)
  )
  (polyline (pts (xy 176.53 13.97) (xy 176.53 113.03))
    (stroke (width 0) (type default))
    (uuid 411fe260-6962-4a42-bab6-fe9c8baa008e)
  )

  (wire (pts (xy 106.68 179.07) (xy 106.68 176.53))
    (stroke (width 0) (type default))
    (uuid 4537da7c-78cf-4942-af86-8e1277f4522d)
  )
  (wire (pts (xy 132.08 48.26) (xy 207.01 48.26))
    (stroke (width 0) (type default))
    (uuid 462bfc9b-f4ef-4869-9627-087bd334518f)
  )
  (wire (pts (xy 238.76 109.22) (xy 242.57 109.22))
    (stroke (width 0) (type default))
    (uuid 469b2776-b3b2-4a52-982c-27551f4fc452)
  )
  (polyline (pts (xy 280.67 161.29) (xy 179.07 161.29))
    (stroke (width 0) (type default))
    (uuid 47498872-59ee-4403-b24f-06604363ee13)
  )

  (wire (pts (xy 238.76 60.96) (xy 248.92 60.96))
    (stroke (width 0) (type default))
    (uuid 4840412b-9fda-4512-9708-e7ebd737cb7c)
  )
  (polyline (pts (xy 179.07 161.29) (xy 179.07 13.97))
    (stroke (width 0) (type default))
    (uuid 4d2a5731-b797-4da8-8884-fd04ad010b22)
  )

  (wire (pts (xy 140.97 34.29) (xy 140.97 38.1))
    (stroke (width 0) (type default))
    (uuid 4e9cc314-0c18-4c5b-bc5a-96f75f84cdbd)
  )
  (wire (pts (xy 106.68 139.7) (xy 106.68 137.16))
    (stroke (width 0) (type default))
    (uuid 50abb60a-2a8c-49b9-9039-dcc8b942ef5d)
  )
  (polyline (pts (xy 176.53 113.03) (xy 13.97 113.03))
    (stroke (width 0) (type default))
    (uuid 53e0f165-d254-495c-9662-dc35ac919304)
  )
  (polyline (pts (xy 13.97 194.31) (xy 13.97 115.57))
    (stroke (width 0) (type default))
    (uuid 54483c6a-5767-49e9-b9a3-d010ffe327c7)
  )

  (wire (pts (xy 59.69 137.16) (xy 55.88 137.16))
    (stroke (width 0) (type default))
    (uuid 54733d40-a075-48ae-8135-0be9869c75ef)
  )
  (wire (pts (xy 201.93 60.96) (xy 213.36 60.96))
    (stroke (width 0) (type default))
    (uuid 565abcbc-e5bd-4cac-8ce6-cbdcf2daeece)
  )
  (wire (pts (xy 130.81 132.08) (xy 213.36 132.08))
    (stroke (width 0) (type default))
    (uuid 57daf6af-e31d-4dd8-ad2f-adffca69e726)
  )
  (wire (pts (xy 201.93 64.77) (xy 213.36 64.77))
    (stroke (width 0) (type default))
    (uuid 5a98e898-d5e7-4d12-8cfc-75c6522d3491)
  )
  (wire (pts (xy 63.5 157.48) (xy 63.5 167.64))
    (stroke (width 0) (type default))
    (uuid 5c2c234a-0dc8-42b3-920f-8435a97a8343)
  )
  (wire (pts (xy 241.3 137.16) (xy 251.46 137.16))
    (stroke (width 0) (type default))
    (uuid 5d29da10-3b69-49fd-ada7-69e01eb7d655)
  )
  (wire (pts (xy 64.77 171.45) (xy 64.77 173.99))
    (stroke (width 0) (type default))
    (uuid 5db5b3b9-e7d7-4c18-97bb-7ee20565f942)
  )
  (wire (pts (xy 59.69 143.51) (xy 59.69 146.05))
    (stroke (width 0) (type default))
    (uuid 62cb1f7d-e0d1-4cd1-9290-531ee42193e9)
  )
  (wire (pts (xy 238.76 119.38) (xy 242.57 119.38))
    (stroke (width 0) (type default))
    (uuid 62f866c9-430d-4ab8-893c-5addc1a66991)
  )
  (wire (pts (xy 238.76 45.72) (xy 248.92 45.72))
    (stroke (width 0) (type default))
    (uuid 64054c47-fe7f-4f55-b895-ad0ea44c7c6a)
  )
  (wire (pts (xy 71.12 171.45) (xy 64.77 171.45))
    (stroke (width 0) (type default))
    (uuid 648b8468-7cba-4558-a6e1-24c7f25068c1)
  )
  (wire (pts (xy 49.53 41.91) (xy 67.31 41.91))
    (stroke (width 0) (type default))
    (uuid 6502b62b-b836-40a9-b311-c43079509039)
  )
  (wire (pts (xy 106.68 137.16) (xy 97.79 137.16))
    (stroke (width 0) (type default))
    (uuid 66e8f4d0-d812-409a-b8ba-dd622a329ea4)
  )
  (wire (pts (xy 63.5 118.11) (xy 63.5 128.27))
    (stroke (width 0) (type default))
    (uuid 684c5727-8201-416d-ab4c-1413948184fe)
  )
  (wire (pts (xy 102.87 50.8) (xy 139.7 50.8))
    (stroke (width 0) (type default))
    (uuid 6e427104-3d6d-4058-9a6d-b9637013876f)
  )
  (wire (pts (xy 201.93 58.42) (xy 213.36 58.42))
    (stroke (width 0) (type default))
    (uuid 6e4ddf32-5414-4069-b191-411b4f9a4e00)
  )
  (wire (pts (xy 49.53 45.72) (xy 67.31 45.72))
    (stroke (width 0) (type default))
    (uuid 6eda79c9-d145-4134-bf5a-424f4adb785c)
  )
  (wire (pts (xy 45.72 48.26) (xy 49.53 48.26))
    (stroke (width 0) (type default))
    (uuid 6f778e9d-c895-4d88-91b8-05c7b6169fcb)
  )
  (wire (pts (xy 130.81 118.11) (xy 63.5 118.11))
    (stroke (width 0) (type default))
    (uuid 7461bf66-a366-4c5e-93d3-4d50f740e60e)
  )
  (wire (pts (xy 97.79 69.85) (xy 111.76 69.85))
    (stroke (width 0) (type default))
    (uuid 7ce02593-25f1-44e6-9638-bf9eb526d23c)
  )
  (wire (pts (xy 71.12 132.08) (xy 64.77 132.08))
    (stroke (width 0) (type default))
    (uuid 7f088750-04ef-49c2-9c6b-a8c381692bfa)
  )
  (wire (pts (xy 71.12 139.7) (xy 59.69 139.7))
    (stroke (width 0) (type default))
    (uuid 7f8e45dc-badb-4836-a0e7-93baf76d8db5)
  )
  (wire (pts (xy 238.76 99.06) (xy 242.57 99.06))
    (stroke (width 0) (type default))
    (uuid 8266446d-78ad-4856-a3fc-dbcf634eaf02)
  )
  (wire (pts (xy 241.3 142.24) (xy 251.46 142.24))
    (stroke (width 0) (type default))
    (uuid 84eb1363-4d95-4a40-9aef-47f2333f56aa)
  )
  (wire (pts (xy 97.79 49.53) (xy 102.87 49.53))
    (stroke (width 0) (type default))
    (uuid 853b3baf-9f3c-4680-8e8e-ceec68dfe1d2)
  )
  (wire (pts (xy 264.16 36.83) (xy 264.16 148.59))
    (stroke (width 0) (type default))
    (uuid 867b3289-889a-4c46-b89f-3d6ca5a898da)
  )
  (wire (pts (xy 64.77 132.08) (xy 64.77 134.62))
    (stroke (width 0) (type default))
    (uuid 86b3ecc5-4919-498e-a5fc-2c1b3a23f15b)
  )
  (wire (pts (xy 213.36 140.97) (xy 210.82 140.97))
    (stroke (width 0) (type default))
    (uuid 8bcf88fe-ff96-4785-aa01-35a2461a1075)
  )
  (wire (pts (xy 106.68 45.72) (xy 213.36 45.72))
    (stroke (width 0) (type default))
    (uuid 8edd5739-0336-4190-afe7-505f5aa00688)
  )
  (wire (pts (xy 238.76 73.66) (xy 242.57 73.66))
    (stroke (width 0) (type default))
    (uuid 90336976-175f-4c2b-9177-d4fcff97337f)
  )
  (wire (pts (xy 71.12 143.51) (xy 59.69 143.51))
    (stroke (width 0) (type default))
    (uuid 915ea535-5e0d-43e5-b5e7-328475f0c92a)
  )
  (polyline (pts (xy 280.67 13.97) (xy 280.67 161.29))
    (stroke (width 0) (type default))
    (uuid 91aa030c-cd7a-4bf6-a3e6-bccd5e0d552c)
  )

  (wire (pts (xy 59.69 139.7) (xy 59.69 137.16))
    (stroke (width 0) (type default))
    (uuid 91c25e1f-778e-4a2e-ad36-4a84e146ab03)
  )
  (wire (pts (xy 241.3 138.43) (xy 241.3 137.16))
    (stroke (width 0) (type default))
    (uuid 937ecd00-709f-42d3-8c9b-5d4760baf216)
  )
  (wire (pts (xy 106.68 38.1) (xy 106.68 41.91))
    (stroke (width 0) (type default))
    (uuid 940d99f8-8550-4ac8-bc80-96bd0fe8a239)
  )
  (wire (pts (xy 241.3 152.4) (xy 238.76 152.4))
    (stroke (width 0) (type default))
    (uuid 944110f6-40bc-4984-bb64-2c3701229a5b)
  )
  (wire (pts (xy 104.14 45.72) (xy 104.14 48.26))
    (stroke (width 0) (type default))
    (uuid 950d0303-9a57-49df-af00-b964a7e23555)
  )
  (wire (pts (xy 209.55 78.74) (xy 213.36 78.74))
    (stroke (width 0) (type default))
    (uuid 95b70e13-80c1-482a-a202-a84c649e1c63)
  )
  (wire (pts (xy 102.87 49.53) (xy 102.87 50.8))
    (stroke (width 0) (type default))
    (uuid 964abe6f-d11d-4996-b33f-bf34ff0b2180)
  )
  (wire (pts (xy 71.12 182.88) (xy 59.69 182.88))
    (stroke (width 0) (type default))
    (uuid 97eb8583-c875-4863-9e86-1918649c84da)
  )
  (wire (pts (xy 97.79 172.72) (xy 104.14 172.72))
    (stroke (width 0) (type default))
    (uuid 99259dcc-cbc7-402d-975a-bcb5d85ebd09)
  )
  (wire (pts (xy 207.01 48.26) (xy 207.01 36.83))
    (stroke (width 0) (type default))
    (uuid 9e48427f-1a1a-448a-8122-d34090e1b0d3)
  )
  (wire (pts (xy 59.69 182.88) (xy 59.69 185.42))
    (stroke (width 0) (type default))
    (uuid a0ec291e-f871-4f9f-a2cf-313eef0be60c)
  )
  (wire (pts (xy 123.19 34.29) (xy 123.19 38.1))
    (stroke (width 0) (type default))
    (uuid a280b938-d69e-4216-9865-b637f15395c8)
  )
  (wire (pts (xy 264.16 148.59) (xy 238.76 148.59))
    (stroke (width 0) (type default))
    (uuid a37f0051-d713-4941-a961-7148ba74f3b2)
  )
  (wire (pts (xy 137.16 38.1) (xy 137.16 40.64))
    (stroke (width 0) (type default))
    (uuid a922b958-0255-4379-a576-b39891301a10)
  )
  (wire (pts (xy 238.76 78.74) (xy 242.57 78.74))
    (stroke (width 0) (type default))
    (uuid abc0b165-0397-4b09-8b46-0496644a350b)
  )
  (wire (pts (xy 48.26 55.88) (xy 48.26 63.5))
    (stroke (width 0) (type default))
    (uuid ac515ae2-d65a-4a82-9e0a-da1628e1db5a)
  )
  (wire (pts (xy 238.76 48.26) (xy 248.92 48.26))
    (stroke (width 0) (type default))
    (uuid aea734c7-e0cb-4774-8d68-2b2c56b38b83)
  )
  (wire (pts (xy 97.79 62.23) (xy 111.76 62.23))
    (stroke (width 0) (type default))
    (uuid af8b500f-7910-4662-800f-ae89b4cfe00c)
  )
  (wire (pts (xy 45.72 39.37) (xy 49.53 39.37))
    (stroke (width 0) (type default))
    (uuid b1326edf-5de4-40af-8ce6-b8ec62ceb889)
  )
  (wire (pts (xy 238.76 138.43) (xy 241.3 138.43))
    (stroke (width 0) (type default))
    (uuid b3fe7ca7-68d6-482a-8ea0-c1f1e489c7f2)
  )
  (wire (pts (xy 132.08 53.34) (xy 132.08 48.26))
    (stroke (width 0) (type default))
    (uuid b4ea40a5-abdc-4e6b-9a5a-c58e97f6bfa2)
  )
  (wire (pts (xy 273.05 133.35) (xy 273.05 157.48))
    (stroke (width 0) (type default))
    (uuid b6d20c07-ed5e-46ef-98e4-7c6dfc7a8244)
  )
  (polyline (pts (xy 173.99 194.31) (xy 13.97 194.31))
    (stroke (width 0) (type default))
    (uuid ba763b21-5c9e-4be0-9666-c1b9d633a6de)
  )

  (wire (pts (xy 97.79 54.61) (xy 111.76 54.61))
    (stroke (width 0) (type default))
    (uuid bb066fe2-74a8-453c-8d93-2362b4aeaf1f)
  )
  (wire (pts (xy 48.26 55.88) (xy 67.31 55.88))
    (stroke (width 0) (type default))
    (uuid bb73babd-00fe-4cbe-97f5-b4a4f31e46e5)
  )
  (wire (pts (xy 97.79 58.42) (xy 111.76 58.42))
    (stroke (width 0) (type default))
    (uuid be237ae1-caaf-493d-8eee-33886a1134dd)
  )
  (wire (pts (xy 106.68 38.1) (xy 123.19 38.1))
    (stroke (width 0) (type default))
    (uuid bf386271-3c33-47d5-a77b-3306e5af8f3c)
  )
  (wire (pts (xy 238.76 88.9) (xy 242.57 88.9))
    (stroke (width 0) (type default))
    (uuid c38d58c5-fe58-4522-9663-821370dda8b0)
  )
  (wire (pts (xy 97.79 133.35) (xy 104.14 133.35))
    (stroke (width 0) (type default))
    (uuid c3efec42-d126-46aa-a77d-8a34b2a75670)
  )
  (wire (pts (xy 111.76 172.72) (xy 115.57 172.72))
    (stroke (width 0) (type default))
    (uuid c54e34f0-762d-4672-b240-33d0f144171f)
  )
  (wire (pts (xy 209.55 109.22) (xy 213.36 109.22))
    (stroke (width 0) (type default))
    (uuid c5a58a35-76d7-438c-bf30-ae3c2870e466)
  )
  (wire (pts (xy 97.79 66.04) (xy 111.76 66.04))
    (stroke (width 0) (type default))
    (uuid c5d49754-20c5-4638-8ca2-3fa72d2cc5cd)
  )
  (wire (pts (xy 238.76 114.3) (xy 242.57 114.3))
    (stroke (width 0) (type default))
    (uuid c5f97e23-13a6-40c1-91b4-23d165928535)
  )
  (wire (pts (xy 238.76 133.35) (xy 273.05 133.35))
    (stroke (width 0) (type default))
    (uuid c62edcbe-8af6-4363-acd7-02c639df14d6)
  )
  (wire (pts (xy 199.39 146.05) (xy 213.36 146.05))
    (stroke (width 0) (type default))
    (uuid c6c91bfc-6249-42c2-b70b-693b7837c192)
  )
  (wire (pts (xy 213.36 149.86) (xy 201.93 149.86))
    (stroke (width 0) (type default))
    (uuid ca5a467b-0e68-4768-9f42-38cf25e17e48)
  )
  (wire (pts (xy 238.76 127) (xy 242.57 127))
    (stroke (width 0) (type default))
    (uuid d6e02332-a94a-43a1-af01-03917be18b98)
  )
  (wire (pts (xy 49.53 45.72) (xy 49.53 48.26))
    (stroke (width 0) (type default))
    (uuid d804375c-ae3c-483c-8a67-d9cf3b94fa93)
  )
  (polyline (pts (xy 13.97 13.97) (xy 176.53 13.97))
    (stroke (width 0) (type default))
    (uuid d8a45a70-5dc6-46f4-a9da-c3279a3375e3)
  )

  (wire (pts (xy 201.93 67.31) (xy 213.36 67.31))
    (stroke (width 0) (type default))
    (uuid d8c0e789-67a5-4efb-8d5d-4cc7fee8d39a)
  )
  (wire (pts (xy 49.53 48.26) (xy 49.53 49.53))
    (stroke (width 0) (type default))
    (uuid d96ed4d8-996a-44af-aec1-b27f14d1b5bf)
  )
  (polyline (pts (xy 173.99 115.57) (xy 173.99 194.31))
    (stroke (width 0) (type default))
    (uuid dace27d0-8cc5-4851-a3e5-ab37854f3f14)
  )

  (wire (pts (xy 199.39 137.16) (xy 210.82 137.16))
    (stroke (width 0) (type default))
    (uuid dc4a041d-7ee1-4e95-b8d0-b5c93ae3ba25)
  )
  (wire (pts (xy 139.7 53.34) (xy 139.7 50.8))
    (stroke (width 0) (type default))
    (uuid dd85529b-2839-40ad-83a0-8e972368c438)
  )
  (polyline (pts (xy 13.97 115.57) (xy 173.99 115.57))
    (stroke (width 0) (type default))
    (uuid de2df7e3-7a67-4ba5-8bc6-03e3251c9c76)
  )

  (wire (pts (xy 207.01 36.83) (xy 264.16 36.83))
    (stroke (width 0) (type default))
    (uuid decc622a-d77d-4c32-ae8e-c348c3a196a0)
  )
  (wire (pts (xy 238.76 104.14) (xy 242.57 104.14))
    (stroke (width 0) (type default))
    (uuid e18e3c9a-0b94-4e72-af57-06aa27d78e39)
  )
  (wire (pts (xy 63.5 167.64) (xy 71.12 167.64))
    (stroke (width 0) (type default))
    (uuid e3ab32a2-d24b-4fb6-8355-a8aa2f4d46d8)
  )
  (wire (pts (xy 209.55 99.06) (xy 213.36 99.06))
    (stroke (width 0) (type default))
    (uuid e6dadd21-e73d-42d1-9542-a4995ba06eb8)
  )
  (wire (pts (xy 67.31 59.69) (xy 52.07 59.69))
    (stroke (width 0) (type default))
    (uuid e753ca5f-3e02-4b40-99b2-ae1180ce0fe2)
  )
  (wire (pts (xy 238.76 53.34) (xy 248.92 53.34))
    (stroke (width 0) (type default))
    (uuid e7dfaf12-5663-403e-b5a3-586865df3607)
  )
  (wire (pts (xy 104.14 48.26) (xy 132.08 48.26))
    (stroke (width 0) (type default))
    (uuid ea8648d2-1374-40ba-9d2a-385f0d930e27)
  )
  (wire (pts (xy 97.79 45.72) (xy 104.14 45.72))
    (stroke (width 0) (type default))
    (uuid eb6944ab-de90-4d2b-a038-fe64fe22b09f)
  )
  (wire (pts (xy 63.5 128.27) (xy 71.12 128.27))
    (stroke (width 0) (type default))
    (uuid eea2bdde-d1ee-47ba-831d-f0ad0fedc89e)
  )
  (wire (pts (xy 209.55 114.3) (xy 213.36 114.3))
    (stroke (width 0) (type default))
    (uuid f03f2fca-86cc-402a-9659-87b101ef4e37)
  )
  (wire (pts (xy 238.76 55.88) (xy 248.92 55.88))
    (stroke (width 0) (type default))
    (uuid f0811ce2-416f-482e-bdde-1b2b6ecd9757)
  )
  (wire (pts (xy 195.58 53.34) (xy 213.36 53.34))
    (stroke (width 0) (type default))
    (uuid fdf1d7e1-935c-4f1f-a10f-c50433766e5c)
  )

  (text "AMAC" (at 181.61 22.86 0)
    (effects (font (size 6.604 6.604)) (justify left bottom))
    (uuid 025472fb-8a12-4fc4-aeeb-630a76079ae2)
  )
  (text "HV" (at 160.02 124.46 0)
    (effects (font (size 6.604 6.604)) (justify left bottom))
    (uuid 0a9cdeca-4cea-440c-8e36-6448fa4547a9)
  )
  (text "10mOhm" (at 191.77 60.96 0)
    (effects (font (size 1.524 1.524)) (justify left bottom))
    (uuid 6e842dbe-0a98-4a0e-8ad2-d5f068de3102)
  )
  (text "POWER" (at 142.24 22.86 0)
    (effects (font (size 6.604 6.604)) (justify left bottom))
    (uuid b56dc173-3b30-442a-9794-c4e6e1478fb3)
  )
  (text "50mOhm" (at 191.77 67.31 0)
    (effects (font (size 1.524 1.524)) (justify left bottom))
    (uuid cdf0a73c-2149-4713-a240-7d3f0dffbe2b)
  )
  (text "Fuse?" (at 46.99 34.29 0)
    (effects (font (size 1.524 1.524)) (justify left bottom))
    (uuid df2c23dc-fccc-44b2-bce4-4104f48202f7)
  )

  (label "CMDoutN" (at 242.57 142.24 0) (fields_autoplaced)
    (effects (font (size 1.524 1.524)) (justify left bottom))
    (uuid 0e7fd0e8-3197-4cfc-9259-ba123a68becd)
  )
  (label "NTCPBp" (at 248.92 55.88 0) (fields_autoplaced)
    (effects (font (size 1.524 1.524)) (justify left bottom))
    (uuid 0eecb7fc-17f3-4c60-860c-7ade0fdf45df)
  )
  (label "GPO1" (at 111.76 54.61 0) (fields_autoplaced)
    (effects (font (size 1.524 1.524)) (justify left bottom))
    (uuid 194ee46c-0360-45e4-b2f3-2edf6d743687)
  )
  (label "VIN" (at 55.88 41.91 0) (fields_autoplaced)
    (effects (font (size 1.524 1.524)) (justify left bottom))
    (uuid 2efefcea-bfe3-47a5-932e-aed72e975c04)
  )
  (label "VIN" (at 201.93 64.77 0) (fields_autoplaced)
    (effects (font (size 1.524 1.524)) (justify left bottom))
    (uuid 2f4d43f0-2c6f-40e4-b01b-d9f5f61213cf)
  )
  (label "NTCPBp" (at 52.07 69.85 0) (fields_autoplaced)
    (effects (font (size 1.524 1.524)) (justify left bottom))
    (uuid 32113010-c2c9-4f22-b5e0-c1af5e67bd15)
  )
  (label "FVOUT" (at 201.93 60.96 0) (fields_autoplaced)
    (effects (font (size 1.524 1.524)) (justify left bottom))
    (uuid 3698f65f-8ff4-4a7f-80c7-51a77cb25e3f)
  )
  (label "DCDCEN" (at 52.07 59.69 0) (fields_autoplaced)
    (effects (font (size 1.524 1.524)) (justify left bottom))
    (uuid 482efefe-4e01-40d2-baba-6ead4c2bce4d)
  )
  (label "VOUT" (at 109.22 38.1 0) (fields_autoplaced)
    (effects (font (size 1.524 1.524)) (justify left bottom))
    (uuid 4cb68c2f-3fc9-4f7e-8686-f08f2d96ca30)
  )
  (label "FVIN" (at 111.76 66.04 0) (fields_autoplaced)
    (effects (font (size 1.524 1.524)) (justify left bottom))
    (uuid 56fcd277-d0fa-4045-8c6c-403fa315d96d)
  )
  (label "HVin" (at 57.15 137.16 0) (fields_autoplaced)
    (effects (font (size 1.524 1.524)) (justify left bottom))
    (uuid 5ac3b4ac-c1f2-49dd-a705-0aeaa9bf311a)
  )
  (label "CMDinN" (at 200.66 142.24 0) (fields_autoplaced)
    (effects (font (size 1.524 1.524)) (justify left bottom))
    (uuid 5e642a33-6f07-4b5e-89a2-3290e5d10745)
  )
  (label "PTAT" (at 111.76 73.66 0) (fields_autoplaced)
    (effects (font (size 1.524 1.524)) (justify left bottom))
    (uuid 6ff95fbb-7122-49b5-b08e-8ceb838e6c98)
  )
  (label "OFin" (at 201.93 149.86 0) (fields_autoplaced)
    (effects (font (size 1.524 1.524)) (justify left bottom))
    (uuid 73273b70-a0b5-4c1b-ad41-f295dfa8f704)
  )
  (label "OFin" (at 48.26 63.5 90) (fields_autoplaced)
    (effects (font (size 1.524 1.524)) (justify left bottom))
    (uuid 73ed5c8a-efb1-44bb-9b2a-8a0c81ff0bbb)
  )
  (label "FVOUT" (at 111.76 62.23 0) (fields_autoplaced)
    (effects (font (size 1.524 1.524)) (justify left bottom))
    (uuid 81cfcd67-91cb-4d6b-bba8-0b4beeb24ea5)
  )
  (label "NTCPBn" (at 248.92 53.34 0) (fields_autoplaced)
    (effects (font (size 1.524 1.524)) (justify left bottom))
    (uuid 9950b7a2-ecbd-4572-b5f2-f48ab15dc337)
  )
  (label "GPO2" (at 248.92 58.42 0) (fields_autoplaced)
    (effects (font (size 1.524 1.524)) (justify left bottom))
    (uuid 9e8bdc3c-f366-4739-bc7e-b0fd4c25989e)
  )
  (label "PGOOD" (at 111.76 69.85 0) (fields_autoplaced)
    (effects (font (size 1.524 1.524)) (justify left bottom))
    (uuid ac997c2c-f3e9-40ef-a0bf-c72665c9d9cd)
  )
  (label "CMDinP" (at 200.66 137.16 0) (fields_autoplaced)
    (effects (font (size 1.524 1.524)) (justify left bottom))
    (uuid aca917d9-776d-4afb-82cc-63883a39f6a1)
  )
  (label "NTCPBn" (at 52.07 73.66 0) (fields_autoplaced)
    (effects (font (size 1.524 1.524)) (justify left bottom))
    (uuid b03f40eb-52ca-4ed1-add3-0f257d9af3a8)
  )
  (label "PGOOD" (at 248.92 48.26 0) (fields_autoplaced)
    (effects (font (size 1.524 1.524)) (justify left bottom))
    (uuid b16aaa51-ca86-46ba-b7b5-701f80930117)
  )
  (label "VCC1V4" (at 208.28 36.83 0) (fields_autoplaced)
    (effects (font (size 1.524 1.524)) (justify left bottom))
    (uuid b8eb7ade-ef7c-4901-a350-69ed21367ec9)
  )
  (label "PTAT" (at 248.92 50.8 0) (fields_autoplaced)
    (effects (font (size 1.524 1.524)) (justify left bottom))
    (uuid cf2c0cbe-939b-43de-9998-0251a6f567d1)
  )
  (label "CAL" (at 201.93 146.05 0) (fields_autoplaced)
    (effects (font (size 1.524 1.524)) (justify left bottom))
    (uuid d1ecf0f6-bc35-4a24-9d92-fadb9efa1ca5)
  )
  (label "GPO2" (at 111.76 58.42 0) (fields_autoplaced)
    (effects (font (size 1.524 1.524)) (justify left bottom))
    (uuid da8c8625-aafd-4cdd-8a69-a69db75bbf93)
  )
  (label "HVin" (at 54.61 179.07 0) (fields_autoplaced)
    (effects (font (size 1.524 1.524)) (justify left bottom))
    (uuid dbb8e926-8bd5-43eb-8b3e-de59f44ef5cf)
  )
  (label "VOUT" (at 201.93 58.42 0) (fields_autoplaced)
    (effects (font (size 1.524 1.524)) (justify left bottom))
    (uuid e64be00d-07ff-43e2-ad9c-02dce133c383)
  )
  (label "DCDCEN" (at 248.92 45.72 0) (fields_autoplaced)
    (effects (font (size 1.524 1.524)) (justify left bottom))
    (uuid ea815632-2522-456c-9c06-1698b52e8f45)
  )
  (label "FVIN" (at 201.93 67.31 0) (fields_autoplaced)
    (effects (font (size 1.524 1.524)) (justify left bottom))
    (uuid f29d2293-062b-4eb3-91db-e67b29d965e6)
  )
  (label "GPO1" (at 248.92 60.96 0) (fields_autoplaced)
    (effects (font (size 1.524 1.524)) (justify left bottom))
    (uuid fb7d1ac2-b85d-4606-abbb-d221b30c75c2)
  )
  (label "CMDoutP" (at 242.57 137.16 0) (fields_autoplaced)
    (effects (font (size 1.524 1.524)) (justify left bottom))
    (uuid fca5d173-5dea-41d1-8b8b-6b8873151d5c)
  )

  (symbol (lib_id "pbv3:BondPad") (at 39.37 39.37 0) (unit 1)
    (in_bom yes) (on_board yes) (dnp no)
    (uuid 00000000-0000-0000-0000-000059eee934)
    (property "Reference" "J1" (at 39.37 36.83 0)
      (effects (font (size 1.524 1.524)))
    )
    (property "Value" "VIN" (at 39.37 41.91 0)
      (effects (font (size 1.524 1.524)))
    )
    (property "Footprint" "pbv3:pad" (at 39.37 39.37 0)
      (effects (font (size 1.524 1.524)) hide)
    )
    (property "Datasheet" "" (at 39.37 39.37 0)
      (effects (font (size 1.524 1.524)) hide)
    )
    (pin "1" (uuid 6068f00f-35cd-42c7-92c6-9b55c65cf299))
    (instances
      (project "pbv3"
        (path "/1ac5048d-b0c0-4de3-9895-a616185014c6"
          (reference "J1") (unit 1)
        )
      )
    )
  )

  (symbol (lib_id "pbv3:BondPad") (at 39.37 48.26 0) (unit 1)
    (in_bom yes) (on_board yes) (dnp no)
    (uuid 00000000-0000-0000-0000-000059eee968)
    (property "Reference" "J2" (at 39.37 45.72 0)
      (effects (font (size 1.524 1.524)))
    )
    (property "Value" "VIN_RTN" (at 39.37 50.8 0)
      (effects (font (size 1.524 1.524)))
    )
    (property "Footprint" "pbv3:pad" (at 39.37 48.26 0)
      (effects (font (size 1.524 1.524)) hide)
    )
    (property "Datasheet" "" (at 39.37 48.26 0)
      (effects (font (size 1.524 1.524)) hide)
    )
    (pin "1" (uuid b787a987-66e6-4941-9613-9dcd276502c5))
    (instances
      (project "pbv3"
        (path "/1ac5048d-b0c0-4de3-9895-a616185014c6"
          (reference "J2") (unit 1)
        )
      )
    )
  )

  (symbol (lib_id "pbv3:BondPad") (at 129.54 34.29 180) (unit 1)
    (in_bom yes) (on_board yes) (dnp no)
    (uuid 00000000-0000-0000-0000-000059eefe53)
    (property "Reference" "J11" (at 129.54 36.83 0)
      (effects (font (size 1.524 1.524)))
    )
    (property "Value" "VOUT_X" (at 129.54 31.75 0)
      (effects (font (size 1.524 1.524)))
    )
    (property "Footprint" "pbv3:pad" (at 129.54 34.29 0)
      (effects (font (size 1.524 1.524)) hide)
    )
    (property "Datasheet" "" (at 129.54 34.29 0)
      (effects (font (size 1.524 1.524)) hide)
    )
    (pin "1" (uuid 6bcb2285-f627-4a14-9693-67ce64bd30a6))
    (instances
      (project "pbv3"
        (path "/1ac5048d-b0c0-4de3-9895-a616185014c6"
          (reference "J11") (unit 1)
        )
      )
    )
  )

  (symbol (lib_id "pbv3:BondPad") (at 147.32 34.29 180) (unit 1)
    (in_bom yes) (on_board yes) (dnp no)
    (uuid 00000000-0000-0000-0000-000059eeff0f)
    (property "Reference" "J13" (at 147.32 36.83 0)
      (effects (font (size 1.524 1.524)))
    )
    (property "Value" "VOUT_RTN_X" (at 147.32 31.75 0)
      (effects (font (size 1.524 1.524)))
    )
    (property "Footprint" "pbv3:pad" (at 147.32 34.29 0)
      (effects (font (size 1.524 1.524)) hide)
    )
    (property "Datasheet" "" (at 147.32 34.29 0)
      (effects (font (size 1.524 1.524)) hide)
    )
    (pin "1" (uuid 71d7e526-3058-428b-acca-cb9f48b029f2))
    (instances
      (project "pbv3"
        (path "/1ac5048d-b0c0-4de3-9895-a616185014c6"
          (reference "J13") (unit 1)
        )
      )
    )
  )

  (symbol (lib_id "power:GND") (at 59.69 146.05 0) (unit 1)
    (in_bom yes) (on_board yes) (dnp no)
    (uuid 00000000-0000-0000-0000-000059ef94b5)
    (property "Reference" "#PWR0102" (at 59.69 152.4 0)
      (effects (font (size 1.27 1.27)) hide)
    )
    (property "Value" "GND" (at 59.69 149.86 0)
      (effects (font (size 1.27 1.27)))
    )
    (property "Footprint" "" (at 59.69 146.05 0)
      (effects (font (size 1.27 1.27)))
    )
    (property "Datasheet" "" (at 59.69 146.05 0)
      (effects (font (size 1.27 1.27)))
    )
    (pin "1" (uuid c9e505c1-bbd2-4a86-8849-0cb3248b9811))
    (instances
      (project "pbv3"
        (path "/1ac5048d-b0c0-4de3-9895-a616185014c6"
          (reference "#PWR0102") (unit 1)
        )
      )
    )
  )

  (symbol (lib_id "power:GND") (at 137.16 40.64 0) (unit 1)
    (in_bom yes) (on_board yes) (dnp no)
    (uuid 00000000-0000-0000-0000-000059f05eaa)
    (property "Reference" "#PWR0105" (at 137.16 46.99 0)
      (effects (font (size 1.27 1.27)) hide)
    )
    (property "Value" "GND" (at 137.16 44.45 0)
      (effects (font (size 1.27 1.27)))
    )
    (property "Footprint" "" (at 137.16 40.64 0)
      (effects (font (size 1.27 1.27)))
    )
    (property "Datasheet" "" (at 137.16 40.64 0)
      (effects (font (size 1.27 1.27)))
    )
    (pin "1" (uuid a3611ec2-a55d-445b-bbe3-5beee1f0032b))
    (instances
      (project "pbv3"
        (path "/1ac5048d-b0c0-4de3-9895-a616185014c6"
          (reference "#PWR0105") (unit 1)
        )
      )
    )
  )

  (symbol (lib_id "power:GND") (at 49.53 49.53 0) (unit 1)
    (in_bom yes) (on_board yes) (dnp no)
    (uuid 00000000-0000-0000-0000-000059f064e3)
    (property "Reference" "#PWR0101" (at 49.53 55.88 0)
      (effects (font (size 1.27 1.27)) hide)
    )
    (property "Value" "GND" (at 49.53 53.34 0)
      (effects (font (size 1.27 1.27)))
    )
    (property "Footprint" "" (at 49.53 49.53 0)
      (effects (font (size 1.27 1.27)))
    )
    (property "Datasheet" "" (at 49.53 49.53 0)
      (effects (font (size 1.27 1.27)))
    )
    (pin "1" (uuid 6974f648-6aca-4227-bfa5-fc9c844c89f4))
    (instances
      (project "pbv3"
        (path "/1ac5048d-b0c0-4de3-9895-a616185014c6"
          (reference "#PWR0101") (unit 1)
        )
      )
    )
  )

  (symbol (lib_id "pbv3:BondPad") (at 39.37 55.88 0) (unit 1)
    (in_bom yes) (on_board yes) (dnp no)
    (uuid 00000000-0000-0000-0000-000059f06b61)
    (property "Reference" "J3" (at 39.37 53.34 0)
      (effects (font (size 1.524 1.524)))
    )
    (property "Value" "OFin" (at 39.37 58.42 0)
      (effects (font (size 1.524 1.524)))
    )
    (property "Footprint" "pbv3:pad" (at 39.37 55.88 0)
      (effects (font (size 1.524 1.524)) hide)
    )
    (property "Datasheet" "" (at 39.37 55.88 0)
      (effects (font (size 1.524 1.524)) hide)
    )
    (pin "1" (uuid df87d0eb-a52a-4e67-ad70-2fb3423d9cae))
    (instances
      (project "pbv3"
        (path "/1ac5048d-b0c0-4de3-9895-a616185014c6"
          (reference "J3") (unit 1)
        )
      )
    )
  )

  (symbol (lib_id "pbv3:BondPad") (at 121.92 133.35 180) (unit 1)
    (in_bom yes) (on_board yes) (dnp no)
    (uuid 00000000-0000-0000-0000-000059f0a45b)
    (property "Reference" "J10" (at 121.92 135.89 0)
      (effects (font (size 1.524 1.524)))
    )
    (property "Value" "HV_OUT" (at 121.92 130.81 0)
      (effects (font (size 1.524 1.524)))
    )
    (property "Footprint" "pbv3:pad" (at 121.92 133.35 0)
      (effects (font (size 1.524 1.524)) hide)
    )
    (property "Datasheet" "" (at 121.92 133.35 0)
      (effects (font (size 1.524 1.524)) hide)
    )
    (pin "1" (uuid a9a56920-095c-48b0-9870-cd6aed332d40))
    (instances
      (project "pbv3"
        (path "/1ac5048d-b0c0-4de3-9895-a616185014c6"
          (reference "J10") (unit 1)
        )
      )
    )
  )

  (symbol (lib_id "power:GND") (at 64.77 134.62 0) (unit 1)
    (in_bom yes) (on_board yes) (dnp no)
    (uuid 00000000-0000-0000-0000-000059f0a65e)
    (property "Reference" "#PWR0103" (at 64.77 140.97 0)
      (effects (font (size 1.27 1.27)) hide)
    )
    (property "Value" "GND" (at 64.77 138.43 0)
      (effects (font (size 1.27 1.27)))
    )
    (property "Footprint" "" (at 64.77 134.62 0)
      (effects (font (size 1.27 1.27)))
    )
    (property "Datasheet" "" (at 64.77 134.62 0)
      (effects (font (size 1.27 1.27)))
    )
    (pin "1" (uuid 643589b2-64d5-4900-b964-2ea0de4355f7))
    (instances
      (project "pbv3"
        (path "/1ac5048d-b0c0-4de3-9895-a616185014c6"
          (reference "#PWR0103") (unit 1)
        )
      )
    )
  )

  (symbol (lib_id "pbv3:BondPad") (at 49.53 137.16 0) (unit 1)
    (in_bom yes) (on_board yes) (dnp no)
    (uuid 00000000-0000-0000-0000-000059f0a7a4)
    (property "Reference" "J4" (at 49.53 134.62 0)
      (effects (font (size 1.524 1.524)))
    )
    (property "Value" "HV_IN" (at 49.53 139.7 0)
      (effects (font (size 1.524 1.524)))
    )
    (property "Footprint" "pbv3:pad" (at 49.53 137.16 0)
      (effects (font (size 1.524 1.524)) hide)
    )
    (property "Datasheet" "" (at 49.53 137.16 0)
      (effects (font (size 1.524 1.524)) hide)
    )
    (pin "1" (uuid 8b184cc1-0019-4440-9935-dc5d0372bced))
    (instances
      (project "pbv3"
        (path "/1ac5048d-b0c0-4de3-9895-a616185014c6"
          (reference "J4") (unit 1)
        )
      )
    )
  )

  (symbol (lib_id "power:GND") (at 195.58 53.34 0) (unit 1)
    (in_bom yes) (on_board yes) (dnp no)
    (uuid 00000000-0000-0000-0000-000059f2094a)
    (property "Reference" "#PWR0106" (at 195.58 59.69 0)
      (effects (font (size 1.27 1.27)) hide)
    )
    (property "Value" "GND" (at 195.58 57.15 0)
      (effects (font (size 1.27 1.27)))
    )
    (property "Footprint" "" (at 195.58 53.34 0)
      (effects (font (size 1.27 1.27)))
    )
    (property "Datasheet" "" (at 195.58 53.34 0)
      (effects (font (size 1.27 1.27)))
    )
    (pin "1" (uuid f980576e-e092-4264-a7de-a27f005fad3e))
    (instances
      (project "pbv3"
        (path "/1ac5048d-b0c0-4de3-9895-a616185014c6"
          (reference "#PWR0106") (unit 1)
        )
      )
    )
  )

  (symbol (lib_id "pbv3:BondPad") (at 203.2 78.74 0) (unit 1)
    (in_bom yes) (on_board yes) (dnp no)
    (uuid 00000000-0000-0000-0000-000059f2b21a)
    (property "Reference" "J16" (at 203.2 76.2 0)
      (effects (font (size 1.524 1.524)))
    )
    (property "Value" "HRSTBx" (at 195.58 78.74 0)
      (effects (font (size 1.524 1.524)))
    )
    (property "Footprint" "pbv3:pad" (at 203.2 78.74 0)
      (effects (font (size 1.524 1.524)) hide)
    )
    (property "Datasheet" "" (at 203.2 78.74 0)
      (effects (font (size 1.524 1.524)) hide)
    )
    (pin "1" (uuid a032c827-dbc3-47ce-8eea-ec161b68dc9c))
    (instances
      (project "pbv3"
        (path "/1ac5048d-b0c0-4de3-9895-a616185014c6"
          (reference "J16") (unit 1)
        )
      )
    )
  )

  (symbol (lib_id "pbv3:BondPad") (at 203.2 83.82 0) (unit 1)
    (in_bom yes) (on_board yes) (dnp no)
    (uuid 00000000-0000-0000-0000-000059f2b4b6)
    (property "Reference" "J17" (at 203.2 81.28 0)
      (effects (font (size 1.524 1.524)))
    )
    (property "Value" "LDx0EN" (at 195.58 83.82 0)
      (effects (font (size 1.524 1.524)))
    )
    (property "Footprint" "pbv3:pad" (at 203.2 83.82 0)
      (effects (font (size 1.524 1.524)) hide)
    )
    (property "Datasheet" "" (at 203.2 83.82 0)
      (effects (font (size 1.524 1.524)) hide)
    )
    (pin "1" (uuid 34e63271-e907-4e69-8256-f6956ee3489a))
    (instances
      (project "pbv3"
        (path "/1ac5048d-b0c0-4de3-9895-a616185014c6"
          (reference "J17") (unit 1)
        )
      )
    )
  )

  (symbol (lib_id "pbv3:BondPad") (at 203.2 88.9 0) (unit 1)
    (in_bom yes) (on_board yes) (dnp no)
    (uuid 00000000-0000-0000-0000-000059f2b758)
    (property "Reference" "J18" (at 203.2 86.36 0)
      (effects (font (size 1.524 1.524)))
    )
    (property "Value" "HREFx" (at 195.58 88.9 0)
      (effects (font (size 1.524 1.524)))
    )
    (property "Footprint" "pbv3:pad" (at 203.2 88.9 0)
      (effects (font (size 1.524 1.524)) hide)
    )
    (property "Datasheet" "" (at 203.2 88.9 0)
      (effects (font (size 1.524 1.524)) hide)
    )
    (pin "1" (uuid 9eddc447-fa03-49b2-8363-0a5da65b95a9))
    (instances
      (project "pbv3"
        (path "/1ac5048d-b0c0-4de3-9895-a616185014c6"
          (reference "J18") (unit 1)
        )
      )
    )
  )

  (symbol (lib_id "pbv3:BondPad") (at 203.2 93.98 0) (unit 1)
    (in_bom yes) (on_board yes) (dnp no)
    (uuid 00000000-0000-0000-0000-000059f2cfab)
    (property "Reference" "J19" (at 203.2 91.44 0)
      (effects (font (size 1.524 1.524)))
    )
    (property "Value" "NTCxP" (at 195.58 93.98 0)
      (effects (font (size 1.524 1.524)))
    )
    (property "Footprint" "pbv3:pad" (at 203.2 93.98 0)
      (effects (font (size 1.524 1.524)) hide)
    )
    (property "Datasheet" "" (at 203.2 93.98 0)
      (effects (font (size 1.524 1.524)) hide)
    )
    (pin "1" (uuid d8c81834-35d4-42b6-bb2d-1028f3e275ff))
    (instances
      (project "pbv3"
        (path "/1ac5048d-b0c0-4de3-9895-a616185014c6"
          (reference "J19") (unit 1)
        )
      )
    )
  )

  (symbol (lib_id "pbv3:BondPad") (at 203.2 99.06 0) (unit 1)
    (in_bom yes) (on_board yes) (dnp no)
    (uuid 00000000-0000-0000-0000-000059f2d40a)
    (property "Reference" "J20" (at 203.2 96.52 0)
      (effects (font (size 1.524 1.524)))
    )
    (property "Value" "NTCxN" (at 195.58 99.06 0)
      (effects (font (size 1.524 1.524)))
    )
    (property "Footprint" "pbv3:pad" (at 203.2 99.06 0)
      (effects (font (size 1.524 1.524)) hide)
    )
    (property "Datasheet" "" (at 203.2 99.06 0)
      (effects (font (size 1.524 1.524)) hide)
    )
    (pin "1" (uuid e712e5ad-ef6c-406e-ad24-a7827c0c69d5))
    (instances
      (project "pbv3"
        (path "/1ac5048d-b0c0-4de3-9895-a616185014c6"
          (reference "J20") (unit 1)
        )
      )
    )
  )

  (symbol (lib_id "pbv3:BondPad") (at 203.2 104.14 0) (unit 1)
    (in_bom yes) (on_board yes) (dnp no)
    (uuid 00000000-0000-0000-0000-000059f2d6a1)
    (property "Reference" "J21" (at 203.2 101.6 0)
      (effects (font (size 1.524 1.524)))
    )
    (property "Value" "LDx1EN" (at 195.58 104.14 0)
      (effects (font (size 1.524 1.524)))
    )
    (property "Footprint" "pbv3:pad" (at 203.2 104.14 0)
      (effects (font (size 1.524 1.524)) hide)
    )
    (property "Datasheet" "" (at 203.2 104.14 0)
      (effects (font (size 1.524 1.524)) hide)
    )
    (pin "1" (uuid bdfde0a9-030c-4934-bbda-047d7323e1c0))
    (instances
      (project "pbv3"
        (path "/1ac5048d-b0c0-4de3-9895-a616185014c6"
          (reference "J21") (unit 1)
        )
      )
    )
  )

  (symbol (lib_id "pbv3:BondPad") (at 203.2 73.66 0) (unit 1)
    (in_bom yes) (on_board yes) (dnp no)
    (uuid 00000000-0000-0000-0000-000059f365aa)
    (property "Reference" "J15" (at 203.2 71.12 0)
      (effects (font (size 1.524 1.524)))
    )
    (property "Value" "SSSHx" (at 195.58 73.66 0)
      (effects (font (size 1.524 1.524)))
    )
    (property "Footprint" "pbv3:pad" (at 203.2 73.66 0)
      (effects (font (size 1.524 1.524)) hide)
    )
    (property "Datasheet" "" (at 203.2 73.66 0)
      (effects (font (size 1.524 1.524)) hide)
    )
    (pin "1" (uuid c31daf95-927b-4552-823f-5ea1d859c94b))
    (instances
      (project "pbv3"
        (path "/1ac5048d-b0c0-4de3-9895-a616185014c6"
          (reference "J15") (unit 1)
        )
      )
    )
  )

  (symbol (lib_id "pbv3:BondPad") (at 203.2 119.38 0) (unit 1)
    (in_bom yes) (on_board yes) (dnp no)
    (uuid 00000000-0000-0000-0000-000059f36857)
    (property "Reference" "J24" (at 203.2 116.84 0)
      (effects (font (size 1.524 1.524)))
    )
    (property "Value" "CALx" (at 195.58 119.38 0)
      (effects (font (size 1.524 1.524)))
    )
    (property "Footprint" "pbv3:pad" (at 203.2 119.38 0)
      (effects (font (size 1.524 1.524)) hide)
    )
    (property "Datasheet" "" (at 203.2 119.38 0)
      (effects (font (size 1.524 1.524)) hide)
    )
    (pin "1" (uuid 6e22f2e4-1277-4a22-97f9-44118689f47b))
    (instances
      (project "pbv3"
        (path "/1ac5048d-b0c0-4de3-9895-a616185014c6"
          (reference "J24") (unit 1)
        )
      )
    )
  )

  (symbol (lib_id "pbv3:BondPad") (at 203.2 114.3 0) (unit 1)
    (in_bom yes) (on_board yes) (dnp no)
    (uuid 00000000-0000-0000-0000-000059f36b07)
    (property "Reference" "J23" (at 203.2 111.76 0)
      (effects (font (size 1.524 1.524)))
    )
    (property "Value" "SHUNTx" (at 195.58 114.3 0)
      (effects (font (size 1.524 1.524)))
    )
    (property "Footprint" "pbv3:pad" (at 203.2 114.3 0)
      (effects (font (size 1.524 1.524)) hide)
    )
    (property "Datasheet" "" (at 203.2 114.3 0)
      (effects (font (size 1.524 1.524)) hide)
    )
    (pin "1" (uuid b35f9b28-d6ca-45c5-b8ab-cde353a086a1))
    (instances
      (project "pbv3"
        (path "/1ac5048d-b0c0-4de3-9895-a616185014c6"
          (reference "J23") (unit 1)
        )
      )
    )
  )

  (symbol (lib_id "pbv3:BondPad") (at 203.2 109.22 0) (unit 1)
    (in_bom yes) (on_board yes) (dnp no)
    (uuid 00000000-0000-0000-0000-000059f36db7)
    (property "Reference" "J22" (at 203.2 106.68 0)
      (effects (font (size 1.524 1.524)))
    )
    (property "Value" "LDx2EN" (at 195.58 109.22 0)
      (effects (font (size 1.524 1.524)))
    )
    (property "Footprint" "pbv3:pad" (at 203.2 109.22 0)
      (effects (font (size 1.524 1.524)) hide)
    )
    (property "Datasheet" "" (at 203.2 109.22 0)
      (effects (font (size 1.524 1.524)) hide)
    )
    (pin "1" (uuid e616e65e-49e6-486b-8a7b-365544bdfaf7))
    (instances
      (project "pbv3"
        (path "/1ac5048d-b0c0-4de3-9895-a616185014c6"
          (reference "J22") (unit 1)
        )
      )
    )
  )

  (symbol (lib_id "pbv3:BondPad") (at 248.92 78.74 0) (mirror y) (unit 1)
    (in_bom yes) (on_board yes) (dnp no)
    (uuid 00000000-0000-0000-0000-000059f3bec5)
    (property "Reference" "J30" (at 248.92 76.2 0)
      (effects (font (size 1.524 1.524)))
    )
    (property "Value" "HRSTBy" (at 256.54 78.74 0)
      (effects (font (size 1.524 1.524)))
    )
    (property "Footprint" "pbv3:pad" (at 248.92 78.74 0)
      (effects (font (size 1.524 1.524)) hide)
    )
    (property "Datasheet" "" (at 248.92 78.74 0)
      (effects (font (size 1.524 1.524)) hide)
    )
    (pin "1" (uuid 95ffd8f8-e83b-4f14-ab45-f0793b62da14))
    (instances
      (project "pbv3"
        (path "/1ac5048d-b0c0-4de3-9895-a616185014c6"
          (reference "J30") (unit 1)
        )
      )
    )
  )

  (symbol (lib_id "pbv3:BondPad") (at 248.92 83.82 0) (mirror y) (unit 1)
    (in_bom yes) (on_board yes) (dnp no)
    (uuid 00000000-0000-0000-0000-000059f3becb)
    (property "Reference" "J31" (at 248.92 81.28 0)
      (effects (font (size 1.524 1.524)))
    )
    (property "Value" "LDy0EN" (at 256.54 83.82 0)
      (effects (font (size 1.524 1.524)))
    )
    (property "Footprint" "pbv3:pad" (at 248.92 83.82 0)
      (effects (font (size 1.524 1.524)) hide)
    )
    (property "Datasheet" "" (at 248.92 83.82 0)
      (effects (font (size 1.524 1.524)) hide)
    )
    (pin "1" (uuid 2d7940bb-860b-4f92-9fed-ccfd440e2c95))
    (instances
      (project "pbv3"
        (path "/1ac5048d-b0c0-4de3-9895-a616185014c6"
          (reference "J31") (unit 1)
        )
      )
    )
  )

  (symbol (lib_id "pbv3:BondPad") (at 248.92 88.9 0) (mirror y) (unit 1)
    (in_bom yes) (on_board yes) (dnp no)
    (uuid 00000000-0000-0000-0000-000059f3bed1)
    (property "Reference" "J32" (at 248.92 86.36 0)
      (effects (font (size 1.524 1.524)))
    )
    (property "Value" "HREFy" (at 256.54 88.9 0)
      (effects (font (size 1.524 1.524)))
    )
    (property "Footprint" "pbv3:pad" (at 248.92 88.9 0)
      (effects (font (size 1.524 1.524)) hide)
    )
    (property "Datasheet" "" (at 248.92 88.9 0)
      (effects (font (size 1.524 1.524)) hide)
    )
    (pin "1" (uuid 26c0d7e4-1377-4eb9-9347-d23aa0de3ee4))
    (instances
      (project "pbv3"
        (path "/1ac5048d-b0c0-4de3-9895-a616185014c6"
          (reference "J32") (unit 1)
        )
      )
    )
  )

  (symbol (lib_id "pbv3:BondPad") (at 248.92 93.98 0) (mirror y) (unit 1)
    (in_bom yes) (on_board yes) (dnp no)
    (uuid 00000000-0000-0000-0000-000059f3bed7)
    (property "Reference" "J33" (at 248.92 91.44 0)
      (effects (font (size 1.524 1.524)))
    )
    (property "Value" "NTCyN" (at 256.54 93.98 0)
      (effects (font (size 1.524 1.524)))
    )
    (property "Footprint" "pbv3:pad" (at 248.92 93.98 0)
      (effects (font (size 1.524 1.524)) hide)
    )
    (property "Datasheet" "" (at 248.92 93.98 0)
      (effects (font (size 1.524 1.524)) hide)
    )
    (pin "1" (uuid 5bfbdd92-9314-418d-a2c0-ee47db39c98e))
    (instances
      (project "pbv3"
        (path "/1ac5048d-b0c0-4de3-9895-a616185014c6"
          (reference "J33") (unit 1)
        )
      )
    )
  )

  (symbol (lib_id "pbv3:BondPad") (at 248.92 99.06 0) (mirror y) (unit 1)
    (in_bom yes) (on_board yes) (dnp no)
    (uuid 00000000-0000-0000-0000-000059f3bedd)
    (property "Reference" "J34" (at 248.92 96.52 0)
      (effects (font (size 1.524 1.524)))
    )
    (property "Value" "NTCyP" (at 256.54 99.06 0)
      (effects (font (size 1.524 1.524)))
    )
    (property "Footprint" "pbv3:pad" (at 248.92 99.06 0)
      (effects (font (size 1.524 1.524)) hide)
    )
    (property "Datasheet" "" (at 248.92 99.06 0)
      (effects (font (size 1.524 1.524)) hide)
    )
    (pin "1" (uuid f0a6a5ae-ac06-4ef7-aaf2-f695fbb49766))
    (instances
      (project "pbv3"
        (path "/1ac5048d-b0c0-4de3-9895-a616185014c6"
          (reference "J34") (unit 1)
        )
      )
    )
  )

  (symbol (lib_id "pbv3:BondPad") (at 248.92 104.14 0) (mirror y) (unit 1)
    (in_bom yes) (on_board yes) (dnp no)
    (uuid 00000000-0000-0000-0000-000059f3bee3)
    (property "Reference" "J35" (at 248.92 101.6 0)
      (effects (font (size 1.524 1.524)))
    )
    (property "Value" "LDy1EN" (at 256.54 104.14 0)
      (effects (font (size 1.524 1.524)))
    )
    (property "Footprint" "pbv3:pad" (at 248.92 104.14 0)
      (effects (font (size 1.524 1.524)) hide)
    )
    (property "Datasheet" "" (at 248.92 104.14 0)
      (effects (font (size 1.524 1.524)) hide)
    )
    (pin "1" (uuid 3029bddd-2356-4dd6-9033-0c0269794770))
    (instances
      (project "pbv3"
        (path "/1ac5048d-b0c0-4de3-9895-a616185014c6"
          (reference "J35") (unit 1)
        )
      )
    )
  )

  (symbol (lib_id "pbv3:BondPad") (at 248.92 73.66 0) (mirror y) (unit 1)
    (in_bom yes) (on_board yes) (dnp no)
    (uuid 00000000-0000-0000-0000-000059f3bee9)
    (property "Reference" "J29" (at 248.92 71.12 0)
      (effects (font (size 1.524 1.524)))
    )
    (property "Value" "SSSHy" (at 256.54 73.66 0)
      (effects (font (size 1.524 1.524)))
    )
    (property "Footprint" "pbv3:pad" (at 248.92 73.66 0)
      (effects (font (size 1.524 1.524)) hide)
    )
    (property "Datasheet" "" (at 248.92 73.66 0)
      (effects (font (size 1.524 1.524)) hide)
    )
    (pin "1" (uuid db7ca362-e74c-4699-8051-d5179cf960cf))
    (instances
      (project "pbv3"
        (path "/1ac5048d-b0c0-4de3-9895-a616185014c6"
          (reference "J29") (unit 1)
        )
      )
    )
  )

  (symbol (lib_id "pbv3:BondPad") (at 248.92 119.38 0) (mirror y) (unit 1)
    (in_bom yes) (on_board yes) (dnp no)
    (uuid 00000000-0000-0000-0000-000059f3beef)
    (property "Reference" "J38" (at 248.92 116.84 0)
      (effects (font (size 1.524 1.524)))
    )
    (property "Value" "CAly" (at 256.54 119.38 0)
      (effects (font (size 1.524 1.524)))
    )
    (property "Footprint" "pbv3:pad" (at 248.92 119.38 0)
      (effects (font (size 1.524 1.524)) hide)
    )
    (property "Datasheet" "" (at 248.92 119.38 0)
      (effects (font (size 1.524 1.524)) hide)
    )
    (pin "1" (uuid f2b1a436-6dbb-4aea-b6d2-3a01a5a1aadf))
    (instances
      (project "pbv3"
        (path "/1ac5048d-b0c0-4de3-9895-a616185014c6"
          (reference "J38") (unit 1)
        )
      )
    )
  )

  (symbol (lib_id "pbv3:BondPad") (at 248.92 114.3 0) (mirror y) (unit 1)
    (in_bom yes) (on_board yes) (dnp no)
    (uuid 00000000-0000-0000-0000-000059f3bef5)
    (property "Reference" "J37" (at 248.92 111.76 0)
      (effects (font (size 1.524 1.524)))
    )
    (property "Value" "SHUNTy" (at 256.54 114.3 0)
      (effects (font (size 1.524 1.524)))
    )
    (property "Footprint" "pbv3:pad" (at 248.92 114.3 0)
      (effects (font (size 1.524 1.524)) hide)
    )
    (property "Datasheet" "" (at 248.92 114.3 0)
      (effects (font (size 1.524 1.524)) hide)
    )
    (pin "1" (uuid 85006e30-d950-4ee6-90dd-a1b0b97ad914))
    (instances
      (project "pbv3"
        (path "/1ac5048d-b0c0-4de3-9895-a616185014c6"
          (reference "J37") (unit 1)
        )
      )
    )
  )

  (symbol (lib_id "pbv3:BondPad") (at 248.92 109.22 0) (mirror y) (unit 1)
    (in_bom yes) (on_board yes) (dnp no)
    (uuid 00000000-0000-0000-0000-000059f3befb)
    (property "Reference" "J36" (at 248.92 106.68 0)
      (effects (font (size 1.524 1.524)))
    )
    (property "Value" "LDy2EN" (at 256.54 109.22 0)
      (effects (font (size 1.524 1.524)))
    )
    (property "Footprint" "pbv3:pad" (at 248.92 109.22 0)
      (effects (font (size 1.524 1.524)) hide)
    )
    (property "Datasheet" "" (at 248.92 109.22 0)
      (effects (font (size 1.524 1.524)) hide)
    )
    (pin "1" (uuid 3332dc06-cb68-48b5-b329-999de6b08fa9))
    (instances
      (project "pbv3"
        (path "/1ac5048d-b0c0-4de3-9895-a616185014c6"
          (reference "J36") (unit 1)
        )
      )
    )
  )

  (symbol (lib_id "power:GND") (at 106.68 139.7 0) (unit 1)
    (in_bom yes) (on_board yes) (dnp no)
    (uuid 00000000-0000-0000-0000-000059f3f88d)
    (property "Reference" "#PWR0104" (at 106.68 146.05 0)
      (effects (font (size 1.27 1.27)) hide)
    )
    (property "Value" "GND" (at 106.68 143.51 0)
      (effects (font (size 1.27 1.27)))
    )
    (property "Footprint" "" (at 106.68 139.7 0)
      (effects (font (size 1.27 1.27)))
    )
    (property "Datasheet" "" (at 106.68 139.7 0)
      (effects (font (size 1.27 1.27)))
    )
    (pin "1" (uuid c3aa991f-dbfb-4213-89e8-1b7194d21059))
    (instances
      (project "pbv3"
        (path "/1ac5048d-b0c0-4de3-9895-a616185014c6"
          (reference "#PWR0104") (unit 1)
        )
      )
    )
  )

  (symbol (lib_id "pbv3:BondPad") (at 203.2 127 0) (unit 1)
    (in_bom yes) (on_board yes) (dnp no)
    (uuid 00000000-0000-0000-0000-000059f402b6)
    (property "Reference" "J25" (at 203.2 124.46 0)
      (effects (font (size 1.524 1.524)))
    )
    (property "Value" "HVretX" (at 195.58 127 0)
      (effects (font (size 1.524 1.524)))
    )
    (property "Footprint" "pbv3:pad" (at 203.2 127 0)
      (effects (font (size 1.524 1.524)) hide)
    )
    (property "Datasheet" "" (at 203.2 127 0)
      (effects (font (size 1.524 1.524)) hide)
    )
    (pin "1" (uuid 29fd90b5-9c6d-4ef1-86a3-e347a6f5cca9))
    (instances
      (project "pbv3"
        (path "/1ac5048d-b0c0-4de3-9895-a616185014c6"
          (reference "J25") (unit 1)
        )
      )
    )
  )

  (symbol (lib_id "pbv3:BondPad") (at 257.81 137.16 180) (unit 1)
    (in_bom yes) (on_board yes) (dnp no)
    (uuid 00000000-0000-0000-0000-000059f4095c)
    (property "Reference" "J40" (at 257.81 139.7 0)
      (effects (font (size 1.524 1.524)))
    )
    (property "Value" "CMDoutP" (at 265.43 137.16 0)
      (effects (font (size 1.524 1.524)))
    )
    (property "Footprint" "pbv3:pad" (at 257.81 137.16 0)
      (effects (font (size 1.524 1.524)) hide)
    )
    (property "Datasheet" "" (at 257.81 137.16 0)
      (effects (font (size 1.524 1.524)) hide)
    )
    (pin "1" (uuid 5cc5d7d3-f9c0-4436-a71d-e8a8c5574b3d))
    (instances
      (project "pbv3"
        (path "/1ac5048d-b0c0-4de3-9895-a616185014c6"
          (reference "J40") (unit 1)
        )
      )
    )
  )

  (symbol (lib_id "pbv3:BondPad") (at 257.81 142.24 180) (unit 1)
    (in_bom yes) (on_board yes) (dnp no)
    (uuid 00000000-0000-0000-0000-000059f40c45)
    (property "Reference" "J41" (at 257.81 144.78 0)
      (effects (font (size 1.524 1.524)))
    )
    (property "Value" "CMDoutN" (at 265.43 142.24 0)
      (effects (font (size 1.524 1.524)))
    )
    (property "Footprint" "pbv3:pad" (at 257.81 142.24 0)
      (effects (font (size 1.524 1.524)) hide)
    )
    (property "Datasheet" "" (at 257.81 142.24 0)
      (effects (font (size 1.524 1.524)) hide)
    )
    (pin "1" (uuid 6de08714-52ed-46e3-b443-b75d20de63c6))
    (instances
      (project "pbv3"
        (path "/1ac5048d-b0c0-4de3-9895-a616185014c6"
          (reference "J41") (unit 1)
        )
      )
    )
  )

  (symbol (lib_id "pbv3:BondPad") (at 193.04 137.16 0) (unit 1)
    (in_bom yes) (on_board yes) (dnp no)
    (uuid 00000000-0000-0000-0000-000059f41436)
    (property "Reference" "J26" (at 193.04 134.62 0)
      (effects (font (size 1.524 1.524)))
    )
    (property "Value" "CMDinP" (at 185.42 137.16 0)
      (effects (font (size 1.524 1.524)))
    )
    (property "Footprint" "pbv3:pad" (at 193.04 137.16 0)
      (effects (font (size 1.524 1.524)) hide)
    )
    (property "Datasheet" "" (at 193.04 137.16 0)
      (effects (font (size 1.524 1.524)) hide)
    )
    (pin "1" (uuid fc49b511-c388-4540-826a-ea5b6d6e23a3))
    (instances
      (project "pbv3"
        (path "/1ac5048d-b0c0-4de3-9895-a616185014c6"
          (reference "J26") (unit 1)
        )
      )
    )
  )

  (symbol (lib_id "pbv3:BondPad") (at 193.04 142.24 0) (unit 1)
    (in_bom yes) (on_board yes) (dnp no)
    (uuid 00000000-0000-0000-0000-000059f41709)
    (property "Reference" "J27" (at 193.04 139.7 0)
      (effects (font (size 1.524 1.524)))
    )
    (property "Value" "CMDinN" (at 185.42 142.24 0)
      (effects (font (size 1.524 1.524)))
    )
    (property "Footprint" "pbv3:pad" (at 193.04 142.24 0)
      (effects (font (size 1.524 1.524)) hide)
    )
    (property "Datasheet" "" (at 193.04 142.24 0)
      (effects (font (size 1.524 1.524)) hide)
    )
    (pin "1" (uuid 29bf9355-6967-40da-815d-48cd4ed8c32d))
    (instances
      (project "pbv3"
        (path "/1ac5048d-b0c0-4de3-9895-a616185014c6"
          (reference "J27") (unit 1)
        )
      )
    )
  )

  (symbol (lib_id "pbv3:BondPad") (at 193.04 146.05 0) (unit 1)
    (in_bom yes) (on_board yes) (dnp no)
    (uuid 00000000-0000-0000-0000-000059f425b4)
    (property "Reference" "J28" (at 193.04 143.51 0)
      (effects (font (size 1.524 1.524)))
    )
    (property "Value" "CAL" (at 185.42 146.05 0)
      (effects (font (size 1.524 1.524)))
    )
    (property "Footprint" "pbv3:pad" (at 193.04 146.05 0)
      (effects (font (size 1.524 1.524)) hide)
    )
    (property "Datasheet" "" (at 193.04 146.05 0)
      (effects (font (size 1.524 1.524)) hide)
    )
    (pin "1" (uuid 0d323cee-dab0-45eb-a25c-3729ac8a357e))
    (instances
      (project "pbv3"
        (path "/1ac5048d-b0c0-4de3-9895-a616185014c6"
          (reference "J28") (unit 1)
        )
      )
    )
  )

  (symbol (lib_id "pbv3:BondPad") (at 132.08 59.69 90) (unit 1)
    (in_bom yes) (on_board yes) (dnp no)
    (uuid 00000000-0000-0000-0000-00005aabf9e9)
    (property "Reference" "J5" (at 129.54 59.69 0)
      (effects (font (size 1.524 1.524)))
    )
    (property "Value" "T1V4" (at 134.62 59.69 0)
      (effects (font (size 1.524 1.524)))
    )
    (property "Footprint" "pbv3:pad" (at 132.08 59.69 0)
      (effects (font (size 1.524 1.524)) hide)
    )
    (property "Datasheet" "" (at 132.08 59.69 0)
      (effects (font (size 1.524 1.524)) hide)
    )
    (pin "1" (uuid 4cdce314-b38e-4d7c-be27-db1f58f3ef50))
    (instances
      (project "pbv3"
        (path "/1ac5048d-b0c0-4de3-9895-a616185014c6"
          (reference "J5") (unit 1)
        )
      )
    )
  )

  (symbol (lib_id "pbv3:BondPad") (at 139.7 59.69 90) (unit 1)
    (in_bom yes) (on_board yes) (dnp no)
    (uuid 00000000-0000-0000-0000-00005aabfc0c)
    (property "Reference" "J6" (at 137.16 59.69 0)
      (effects (font (size 1.524 1.524)))
    )
    (property "Value" "T3V3" (at 142.24 59.69 0)
      (effects (font (size 1.524 1.524)))
    )
    (property "Footprint" "pbv3:pad" (at 139.7 59.69 0)
      (effects (font (size 1.524 1.524)) hide)
    )
    (property "Datasheet" "" (at 139.7 59.69 0)
      (effects (font (size 1.524 1.524)) hide)
    )
    (pin "1" (uuid 1935c559-3bbb-4a9e-9646-290e52728bfd))
    (instances
      (project "pbv3"
        (path "/1ac5048d-b0c0-4de3-9895-a616185014c6"
          (reference "J6") (unit 1)
        )
      )
    )
  )

  (symbol (lib_id "pbv3:BondPad") (at 121.92 172.72 180) (unit 1)
    (in_bom yes) (on_board yes) (dnp no)
    (uuid 00000000-0000-0000-0000-00005cffa998)
    (property "Reference" "J101" (at 121.92 175.26 0)
      (effects (font (size 1.524 1.524)))
    )
    (property "Value" "HV_OUT2" (at 121.92 170.18 0)
      (effects (font (size 1.524 1.524)))
    )
    (property "Footprint" "pbv3:pad" (at 121.92 172.72 0)
      (effects (font (size 1.524 1.524)) hide)
    )
    (property "Datasheet" "" (at 121.92 172.72 0)
      (effects (font (size 1.524 1.524)) hide)
    )
    (pin "1" (uuid 221fffbd-5639-42eb-87e7-ea7048b94f6c))
    (instances
      (project "pbv3"
        (path "/1ac5048d-b0c0-4de3-9895-a616185014c6"
          (reference "J101") (unit 1)
        )
      )
    )
  )

  (symbol (lib_id "power:GND") (at 64.77 173.99 0) (unit 1)
    (in_bom yes) (on_board yes) (dnp no)
    (uuid 00000000-0000-0000-0000-00005cffa99e)
    (property "Reference" "#PWR0110" (at 64.77 180.34 0)
      (effects (font (size 1.27 1.27)) hide)
    )
    (property "Value" "GND" (at 64.77 177.8 0)
      (effects (font (size 1.27 1.27)))
    )
    (property "Footprint" "" (at 64.77 173.99 0)
      (effects (font (size 1.27 1.27)))
    )
    (property "Datasheet" "" (at 64.77 173.99 0)
      (effects (font (size 1.27 1.27)))
    )
    (pin "1" (uuid 46e9b278-33b6-418c-8648-6379e4cb51d2))
    (instances
      (project "pbv3"
        (path "/1ac5048d-b0c0-4de3-9895-a616185014c6"
          (reference "#PWR0110") (unit 1)
        )
      )
    )
  )

  (symbol (lib_id "pbv3:BondPad") (at 248.92 127 180) (unit 1)
    (in_bom yes) (on_board yes) (dnp no)
    (uuid 00000000-0000-0000-0000-00005cffaa2b)
    (property "Reference" "J127" (at 248.92 129.54 0)
      (effects (font (size 1.524 1.524)))
    )
    (property "Value" "HVretY2" (at 256.54 127 0)
      (effects (font (size 1.524 1.524)))
    )
    (property "Footprint" "pbv3:pad" (at 248.92 127 0)
      (effects (font (size 1.524 1.524)) hide)
    )
    (property "Datasheet" "" (at 248.92 127 0)
      (effects (font (size 1.524 1.524)) hide)
    )
    (pin "1" (uuid 9b689622-2620-44de-a9b0-a38036670b68))
    (instances
      (project "pbv3"
        (path "/1ac5048d-b0c0-4de3-9895-a616185014c6"
          (reference "J127") (unit 1)
        )
      )
    )
  )

  (symbol (lib_id "pbv3:BondPad") (at 247.65 152.4 180) (unit 1)
    (in_bom yes) (on_board yes) (dnp no)
    (uuid 00000000-0000-0000-0000-00005cffaa4f)
    (property "Reference" "J128" (at 247.65 154.94 0)
      (effects (font (size 1.524 1.524)))
    )
    (property "Value" "OFout" (at 255.27 152.4 0)
      (effects (font (size 1.524 1.524)))
    )
    (property "Footprint" "pbv3:pad" (at 247.65 152.4 0)
      (effects (font (size 1.524 1.524)) hide)
    )
    (property "Datasheet" "" (at 247.65 152.4 0)
      (effects (font (size 1.524 1.524)) hide)
    )
    (pin "1" (uuid d4dade08-801e-48bc-9527-770b998c5418))
    (instances
      (project "pbv3"
        (path "/1ac5048d-b0c0-4de3-9895-a616185014c6"
          (reference "J128") (unit 1)
        )
      )
    )
  )

  (symbol (lib_id "power:GND") (at 59.69 185.42 0) (unit 1)
    (in_bom yes) (on_board yes) (dnp no)
    (uuid 00000000-0000-0000-0000-00005cffaa61)
    (property "Reference" "#PWR0109" (at 59.69 191.77 0)
      (effects (font (size 1.27 1.27)) hide)
    )
    (property "Value" "GND" (at 59.69 189.23 0)
      (effects (font (size 1.27 1.27)))
    )
    (property "Footprint" "" (at 59.69 185.42 0)
      (effects (font (size 1.27 1.27)))
    )
    (property "Datasheet" "" (at 59.69 185.42 0)
      (effects (font (size 1.27 1.27)))
    )
    (pin "1" (uuid 18ab49a2-e84c-456c-93f1-ed9179d4de15))
    (instances
      (project "pbv3"
        (path "/1ac5048d-b0c0-4de3-9895-a616185014c6"
          (reference "#PWR0109") (unit 1)
        )
      )
    )
  )

  (symbol (lib_id "power:GND") (at 106.68 179.07 0) (unit 1)
    (in_bom yes) (on_board yes) (dnp no)
    (uuid 00000000-0000-0000-0000-00005cffaa6d)
    (property "Reference" "#PWR0111" (at 106.68 185.42 0)
      (effects (font (size 1.27 1.27)) hide)
    )
    (property "Value" "GND" (at 106.68 182.88 0)
      (effects (font (size 1.27 1.27)))
    )
    (property "Footprint" "" (at 106.68 179.07 0)
      (effects (font (size 1.27 1.27)))
    )
    (property "Datasheet" "" (at 106.68 179.07 0)
      (effects (font (size 1.27 1.27)))
    )
    (pin "1" (uuid 5c359d20-4da9-4ba6-9762-cab6beb3e38a))
    (instances
      (project "pbv3"
        (path "/1ac5048d-b0c0-4de3-9895-a616185014c6"
          (reference "#PWR0111") (unit 1)
        )
      )
    )
  )

  (symbol (lib_id "pbv3-rescue:R") (at 107.95 172.72 90) (unit 1)
    (in_bom yes) (on_board yes) (dnp no)
    (uuid 85547538-3eb1-4382-b35f-1fcf2103631f)
    (property "Reference" "R24" (at 107.95 170.688 90)
      (effects (font (size 1.27 1.27)))
    )
    (property "Value" "100R" (at 107.95 172.72 90)
      (effects (font (size 1.27 1.27)))
    )
    (property "Footprint" "Resistor_SMD:R_0201_0603Metric" (at 107.95 174.498 90)
      (effects (font (size 1.27 1.27)) hide)
    )
    (property "Datasheet" "" (at 107.95 172.72 0)
      (effects (font (size 1.27 1.27)))
    )
    (property "Part" "ERJ-1GNJ101C" (at 107.95 172.72 90)
      (effects (font (size 1.524 1.524)) hide)
    )
    (pin "1" (uuid 20b4a9fd-06c0-445f-afed-146759f2bb5b))
    (pin "2" (uuid 62c7f90b-b08d-4f40-988f-9299b981cb09))
    (instances
      (project "pbv3"
        (path "/1ac5048d-b0c0-4de3-9895-a616185014c6"
          (reference "R24") (unit 1)
        )
      )
    )
  )

  (symbol (lib_id "pbv3-rescue:R") (at 107.95 133.35 90) (unit 1)
    (in_bom yes) (on_board yes) (dnp no)
    (uuid f5cfccc3-db99-46dc-8940-89725fdc4aab)
    (property "Reference" "R16" (at 107.95 131.318 90)
      (effects (font (size 1.27 1.27)))
    )
    (property "Value" "100R" (at 107.95 133.35 90)
      (effects (font (size 1.27 1.27)))
    )
    (property "Footprint" "Resistor_SMD:R_0201_0603Metric" (at 107.95 135.128 90)
      (effects (font (size 1.27 1.27)) hide)
    )
    (property "Datasheet" "" (at 107.95 133.35 0)
      (effects (font (size 1.27 1.27)))
    )
    (property "Part" "ERJ-1GNJ101C" (at 107.95 133.35 90)
      (effects (font (size 1.524 1.524)) hide)
    )
    (pin "1" (uuid b92af3c4-b5ac-4190-afd2-03930d9c7909))
    (pin "2" (uuid 65b1b9aa-999a-4838-9b32-57d0a045627e))
    (instances
      (project "pbv3"
        (path "/1ac5048d-b0c0-4de3-9895-a616185014c6"
          (reference "R16") (unit 1)
        )
      )
    )
  )

  (sheet (at 67.31 39.37) (size 30.48 36.83) (fields_autoplaced)
    (stroke (width 0) (type solid))
    (fill (color 0 0 0 0.0000))
    (uuid 00000000-0000-0000-0000-000059efea3a)
    (property "Sheetname" "Power" (at 67.31 38.5314 0)
      (effects (font (size 1.524 1.524)) (justify left bottom))
    )
    (property "Sheetfile" "pbv3_power.kicad_sch" (at 67.31 76.8862 0)
      (effects (font (size 1.524 1.524)) (justify left top))
    )
    (pin "VOUT" input (at 97.79 41.91 0)
      (effects (font (size 1.524 1.524)) (justify right))
      (uuid 33c2ce81-d980-4146-8567-3c93c950b8bd)
    )
    (pin "VIN" input (at 67.31 41.91 180)
      (effects (font (size 1.524 1.524)) (justify left))
      (uuid 8db5d7f2-2756-4e30-b577-347ecac98289)
    )
    (pin "VIN_RTN" input (at 67.31 45.72 180)
      (effects (font (size 1.524 1.524)) (justify left))
      (uuid 85b47e2c-f84c-4ad0-8cb4-44e463e19213)
    )
    (pin "PTAT" input (at 97.79 73.66 0)
      (effects (font (size 1.524 1.524)) (justify right))
      (uuid 5a8cee00-d7e7-461b-aff7-761b7020db42)
    )
    (pin "DCDCEN" input (at 67.31 59.69 180)
      (effects (font (size 1.524 1.524)) (justify left))
      (uuid cb046a92-89c4-4f93-ac88-d6694c914588)
    )
    (pin "PGOOD" input (at 97.79 69.85 0)
      (effects (font (size 1.524 1.524)) (justify right))
      (uuid 88ef9428-51e7-40d7-8949-e1dbb85436ff)
    )
    (pin "FVOUT" input (at 97.79 62.23 0)
      (effects (font (size 1.524 1.524)) (justify right))
      (uuid 0315598e-3276-452d-adad-703b34776d8d)
    )
    (pin "VCC3V3" input (at 97.79 49.53 0)
      (effects (font (size 1.524 1.524)) (justify right))
      (uuid 5d076173-b401-412a-b5bf-db022d7f64b6)
    )
    (pin "VCC1V4" input (at 97.79 45.72 0)
      (effects (font (size 1.524 1.524)) (justify right))
      (uuid 2783f19e-897c-4da4-93c2-c6c302cdf565)
    )
    (pin "LREGEN" input (at 67.31 55.88 180)
      (effects (font (size 1.524 1.524)) (justify left))
      (uuid 27e04cf7-c1b2-465a-9d8f-872e71060ee9)
    )
    (pin "NTCp" input (at 67.31 69.85 180)
      (effects (font (size 1.524 1.524)) (justify left))
      (uuid 3dac9f93-fa2f-44b4-892c-e9c6c70b34c9)
    )
    (pin "NTCn" input (at 67.31 73.66 180)
      (effects (font (size 1.524 1.524)) (justify left))
      (uuid 251ea352-f7fc-4003-9869-4500587d4b5c)
    )
    (pin "FVIN" input (at 97.79 66.04 0)
      (effects (font (size 1.524 1.524)) (justify right))
      (uuid 84a6d983-820c-4e36-ba07-6185af065da3)
    )
    (pin "Bit1_VOUT" input (at 97.79 54.61 0)
      (effects (font (size 1.524 1.524)) (justify right))
      (uuid c6f7733e-1885-4f18-b94d-9c67a14bc2b2)
    )
    (pin "Bit2_VOUT" input (at 97.79 58.42 0)
      (effects (font (size 1.524 1.524)) (justify right))
      (uuid 6d87e914-fafd-4352-b60c-d8453dc3b368)
    )
    (instances
      (project "pbv3"
        (path "/1ac5048d-b0c0-4de3-9895-a616185014c6" (page "2"))
      )
    )
  )

  (sheet (at 213.36 43.18) (size 25.4 113.03) (fields_autoplaced)
    (stroke (width 0) (type solid))
    (fill (color 0 0 0 0.0000))
    (uuid 00000000-0000-0000-0000-000059f0798f)
    (property "Sheetname" "AMAC" (at 213.36 42.3414 0)
      (effects (font (size 1.524 1.524)) (justify left bottom))
    )
    (property "Sheetfile" "amac.kicad_sch" (at 213.36 156.8962 0)
      (effects (font (size 1.524 1.524)) (justify left top))
    )
    (pin "VDCDC" input (at 213.36 45.72 180)
      (effects (font (size 1.524 1.524)) (justify left))
      (uuid 968491a4-a065-42ea-8954-90bdb1b41eb0)
    )
    (pin "VLREG" input (at 213.36 48.26 180)
      (effects (font (size 1.524 1.524)) (justify left))
      (uuid 79aa76e3-fe2b-4cc3-9171-4be544b99fa3)
    )
    (pin "GND" input (at 213.36 53.34 180)
      (effects (font (size 1.524 1.524)) (justify left))
      (uuid ab5e0b56-932c-42e0-8ee8-93584a2de5a8)
    )
    (pin "CUR1Vp" input (at 213.36 58.42 180)
      (effects (font (size 1.524 1.524)) (justify left))
      (uuid c446f855-c96c-4560-b08f-2477dccbf233)
    )
    (pin "CUR1Vn" input (at 213.36 60.96 180)
      (effects (font (size 1.524 1.524)) (justify left))
      (uuid 6a5a8784-cefb-42ef-853d-0c3eb1d02402)
    )
    (pin "DCDCEN" input (at 238.76 45.72 0)
      (effects (font (size 1.524 1.524)) (justify right))
      (uuid b4a2aab1-606f-463b-976e-fef45e82c056)
    )
    (pin "NTCPBn" input (at 238.76 53.34 0)
      (effects (font (size 1.524 1.524)) (justify right))
      (uuid 5a53ba60-8076-40b1-aa9d-b22e0ef898de)
    )
    (pin "NTCPBp" input (at 238.76 55.88 0)
      (effects (font (size 1.524 1.524)) (justify right))
      (uuid 723f671a-3ad1-475a-a732-0558a301e95f)
    )
    (pin "CUR10Vn" input (at 213.36 67.31 180)
      (effects (font (size 1.524 1.524)) (justify left))
      (uuid 33710415-cb47-4b83-93ec-c87642c0cb4c)
    )
    (pin "CUR10Vp" input (at 213.36 64.77 180)
      (effects (font (size 1.524 1.524)) (justify left))
      (uuid e73fd60d-4ce0-495f-93d2-6039edc46bee)
    )
    (pin "PGOOD" input (at 238.76 48.26 0)
      (effects (font (size 1.524 1.524)) (justify right))
      (uuid 8dcc5d46-ba99-4738-a6b1-1afc4e425372)
    )
    (pin "PTAT" input (at 238.76 50.8 0)
      (effects (font (size 1.524 1.524)) (justify right))
      (uuid b81a93ad-1c1d-44f1-9396-5f5e1dcea5ec)
    )
    (pin "SSSHy" input (at 238.76 73.66 0)
      (effects (font (size 1.524 1.524)) (justify right))
      (uuid 58efa3f2-be84-4fde-97fc-e560614266d4)
    )
    (pin "HRSTBy" input (at 238.76 78.74 0)
      (effects (font (size 1.524 1.524)) (justify right))
      (uuid d26599dd-baff-462d-8932-4552d1651f01)
    )
    (pin "LDy0EN" input (at 238.76 83.82 0)
      (effects (font (size 1.524 1.524)) (justify right))
      (uuid 05476a34-406c-4cf7-8c5a-ca4b4a31342e)
    )
    (pin "HREFy" input (at 238.76 88.9 0)
      (effects (font (size 1.524 1.524)) (justify right))
      (uuid 9bc35066-bf49-4fb1-9b7a-f7e94f104b4d)
    )
    (pin "NTCyN" input (at 238.76 93.98 0)
      (effects (font (size 1.524 1.524)) (justify right))
      (uuid 15bc015c-7afb-427a-83cc-674e31456083)
    )
    (pin "NTCyP" input (at 238.76 99.06 0)
      (effects (font (size 1.524 1.524)) (justify right))
      (uuid e22b7022-2fa4-41ab-900a-0437aa3f891a)
    )
    (pin "LDy1EN" input (at 238.76 104.14 0)
      (effects (font (size 1.524 1.524)) (justify right))
      (uuid cff042b1-cb2b-42d9-a227-b7fddb720d84)
    )
    (pin "LDy2EN" input (at 238.76 109.22 0)
      (effects (font (size 1.524 1.524)) (justify right))
      (uuid 45dd3ff1-baf0-4a76-bfbc-b421f09c19fc)
    )
    (pin "SHUNTy" input (at 238.76 114.3 0)
      (effects (font (size 1.524 1.524)) (justify right))
      (uuid 94d4fa74-4d53-4ccd-88c4-7bcedb21d51e)
    )
    (pin "CALy" input (at 238.76 119.38 0)
      (effects (font (size 1.524 1.524)) (justify right))
      (uuid 4751429b-588c-4746-a5ca-8c2d7d506333)
    )
    (pin "OFout" input (at 238.76 152.4 0)
      (effects (font (size 1.524 1.524)) (justify right))
      (uuid 60e7bf47-2f8d-4ea7-abd3-040ca046250c)
    )
    (pin "GPO2" input (at 238.76 58.42 0)
      (effects (font (size 1.524 1.524)) (justify right))
      (uuid 73d01d0a-b756-4166-978d-e440d228bbd9)
    )
    (pin "HVret1" input (at 213.36 127 180)
      (effects (font (size 1.524 1.524)) (justify left))
      (uuid 3cc41de8-a020-40d2-a299-a94795e9eed6)
    )
    (pin "CMDin_P" input (at 213.36 138.43 180)
      (effects (font (size 1.524 1.524)) (justify left))
      (uuid c28f154a-4904-4dcc-8517-bca9e66088af)
    )
    (pin "CMDin_N" input (at 213.36 140.97 180)
      (effects (font (size 1.524 1.524)) (justify left))
      (uuid 1dea0fc0-4f42-491f-9959-2b5fca8108e3)
    )
    (pin "CMDout_P" output (at 238.76 138.43 0)
      (effects (font (size 1.524 1.524)) (justify right))
      (uuid a0245988-5b85-41b1-81e0-34bc4810df0f)
    )
    (pin "CMDout_N" input (at 238.76 140.97 0)
      (effects (font (size 1.524 1.524)) (justify right))
      (uuid 311f9ec6-de8b-4f6c-a874-5b0fcff90237)
    )
    (pin "HVOSC0" input (at 213.36 132.08 180)
      (effects (font (size 1.524 1.524)) (justify left))
      (uuid 80705c2a-8290-4913-a17d-48a353ef249a)
    )
    (pin "VDDHI" input (at 213.36 50.8 180)
      (effects (font (size 1.524 1.524)) (justify left))
      (uuid 420586f8-d0ea-4db9-bb07-ce3f74038896)
    )
    (pin "LAM" input (at 238.76 148.59 0)
      (effects (font (size 1.524 1.524)) (justify right))
      (uuid 1e4d36b8-0b95-4ef4-a2b8-6c00fcbc46ef)
    )
    (pin "HVret2" input (at 238.76 127 0)
      (effects (font (size 1.524 1.524)) (justify right))
      (uuid df12bb9f-4cb8-49c8-9248-49033744166b)
    )
    (pin "LDx0EN" input (at 213.36 83.82 180)
      (effects (font (size 1.524 1.524)) (justify left))
      (uuid e9c221c3-e5ed-4807-8258-ded2618141e5)
    )
    (pin "HRSTBx" input (at 213.36 78.74 180)
      (effects (font (size 1.524 1.524)) (justify left))
      (uuid 5c082f37-6e42-4f50-8c34-1a5a851fcd1b)
    )
    (pin "SSSHx" input (at 213.36 73.66 180)
      (effects (font (size 1.524 1.524)) (justify left))
      (uuid 5b7648c8-bfc3-4e6f-a124-bb9ab992dcd3)
    )
    (pin "HREFx" input (at 213.36 88.9 180)
      (effects (font (size 1.524 1.524)) (justify left))
      (uuid 065f4e5e-6a63-4d78-b2c5-cfc02e75af73)
    )
    (pin "NTCxP" input (at 213.36 93.98 180)
      (effects (font (size 1.524 1.524)) (justify left))
      (uuid a6f57fa2-2119-438f-ae2d-69ee06247d66)
    )
    (pin "NTCxN" input (at 213.36 99.06 180)
      (effects (font (size 1.524 1.524)) (justify left))
      (uuid 595ace12-1646-4f6c-b413-f256e35a0d2a)
    )
    (pin "LDx1EN" input (at 213.36 104.14 180)
      (effects (font (size 1.524 1.524)) (justify left))
      (uuid 75064a56-0a0c-49cb-82b4-412144800932)
    )
    (pin "LDx2EN" input (at 213.36 109.22 180)
      (effects (font (size 1.524 1.524)) (justify left))
      (uuid 0c5a365f-7543-4650-bc9b-8e1794719b9c)
    )
    (pin "SHUNTx" input (at 213.36 114.3 180)
      (effects (font (size 1.524 1.524)) (justify left))
      (uuid 1c67f40e-8432-492b-9528-3750592b0063)
    )
    (pin "CALx" input (at 213.36 119.38 180)
      (effects (font (size 1.524 1.524)) (justify left))
      (uuid ede34512-5b87-4679-b58d-0ec885d72617)
    )
    (pin "OFin" input (at 213.36 149.86 180)
      (effects (font (size 1.524 1.524)) (justify left))
      (uuid 889eff98-a3a9-4db9-8041-629d4426f057)
    )
    (pin "CAL" input (at 213.36 146.05 180)
      (effects (font (size 1.524 1.524)) (justify left))
      (uuid 8f8ad387-51eb-4356-9435-6d2a72c3c82a)
    )
    (pin "GPO1" input (at 238.76 60.96 0)
      (effects (font (size 1.524 1.524)) (justify right))
      (uuid 39a2a3fa-a045-4e88-ac5f-6e9417c510d1)
    )
    (pin "HVOSC2" input (at 238.76 133.35 0)
      (effects (font (size 1.524 1.524)) (justify right))
      (uuid 9138b5a5-a6cb-4b4b-aee9-864676222c6e)
    )
    (instances
      (project "pbv3"
        (path "/1ac5048d-b0c0-4de3-9895-a616185014c6" (page "5"))
      )
    )
  )

  (sheet (at 71.12 124.46) (size 26.67 25.4) (fields_autoplaced)
    (stroke (width 0) (type solid))
    (fill (color 0 0 0 0.0000))
    (uuid 00000000-0000-0000-0000-000059f07aaa)
    (property "Sheetname" "HV" (at 71.12 123.6214 0)
      (effects (font (size 1.524 1.524)) (justify left bottom))
    )
    (property "Sheetfile" "hv.kicad_sch" (at 71.12 150.5462 0)
      (effects (font (size 1.524 1.524)) (justify left top))
    )
    (pin "HVOSC" input (at 71.12 128.27 180)
      (effects (font (size 1.524 1.524)) (justify left))
      (uuid 318e847a-71ca-4f9e-ad67-cc232dfa5130)
    )
    (pin "GND" input (at 71.12 132.08 180)
      (effects (font (size 1.524 1.524)) (justify left))
      (uuid 5ebbba19-51ee-4b6c-aa31-68e14a7a0569)
    )
    (pin "HV_IN" input (at 71.12 139.7 180)
      (effects (font (size 1.524 1.524)) (justify left))
      (uuid 316a2aa5-275a-46f4-8059-1682a5450774)
    )
    (pin "HV_IN_RTN" input (at 71.12 143.51 180)
      (effects (font (size 1.524 1.524)) (justify left))
      (uuid 04907088-0dd3-4ba2-b1a6-0488548107c7)
    )
    (pin "HV_OUT_RTN" input (at 97.79 137.16 0)
      (effects (font (size 1.524 1.524)) (justify right))
      (uuid 5e987534-a735-4fd2-86b8-4290218bfdff)
    )
    (pin "HV_OUT" input (at 97.79 133.35 0)
      (effects (font (size 1.524 1.524)) (justify right))
      (uuid 1e6b394d-08b4-4cc4-9141-58bd9a5255c4)
    )
    (instances
      (project "pbv3"
        (path "/1ac5048d-b0c0-4de3-9895-a616185014c6" (page "3"))
      )
    )
  )

  (sheet (at 71.12 163.83) (size 26.67 25.4) (fields_autoplaced)
    (stroke (width 0) (type solid))
    (fill (color 0 0 0 0.0000))
    (uuid 00000000-0000-0000-0000-00005cffa990)
    (property "Sheetname" "sheet5CFFA985" (at 71.12 162.9914 0)
      (effects (font (size 1.524 1.524)) (justify left bottom))
    )
    (property "Sheetfile" "hv.kicad_sch" (at 71.12 189.9162 0)
      (effects (font (size 1.524 1.524)) (justify left top))
    )
    (pin "HVOSC" input (at 71.12 167.64 180)
      (effects (font (size 1.524 1.524)) (justify left))
      (uuid 01e5716d-a1c7-48ec-a1cc-a2bc7bdaf923)
    )
    (pin "GND" input (at 71.12 171.45 180)
      (effects (font (size 1.524 1.524)) (justify left))
      (uuid 8983533a-672e-4a3f-810e-63227a7a8cff)
    )
    (pin "HV_IN" input (at 71.12 179.07 180)
      (effects (font (size 1.524 1.524)) (justify left))
      (uuid f8139f70-97e8-478a-b92e-f8836c57a35a)
    )
    (pin "HV_IN_RTN" input (at 71.12 182.88 180)
      (effects (font (size 1.524 1.524)) (justify left))
      (uuid 7f22a57e-0c32-4d0a-953d-a81036e89953)
    )
    (pin "HV_OUT_RTN" input (at 97.79 176.53 0)
      (effects (font (size 1.524 1.524)) (justify right))
      (uuid b7b8d9ed-5c06-49cb-abd1-c9425a465219)
    )
    (pin "HV_OUT" input (at 97.79 172.72 0)
      (effects (font (size 1.524 1.524)) (justify right))
      (uuid a02d646d-465c-465e-83c2-b9295073373d)
    )
    (instances
      (project "pbv3"
        (path "/1ac5048d-b0c0-4de3-9895-a616185014c6" (page "4"))
      )
    )
  )

  (sheet_instances
    (path "/" (page "1"))
  )
)
