EESchema Schematic File Version 4
EELAYER 30 0
EELAYER END
$Descr A4 11693 8268
encoding utf-8
Sheet 3 5
Title "Powerboard v3"
Date "2017-10-23"
Rev "A"
Comp "LBNL"
Comment1 "Timon Heim"
Comment2 ""
Comment3 ""
Comment4 ""
$EndDescr
$Comp
L pbv3-rescue:C C?
U 1 1 59F0106D
P 3050 2150
AR Path="/59F0106D" Ref="C?"  Part="1" 
AR Path="/59EFEA3A/59F0106D" Ref="C1"  Part="1" 
AR Path="/5CFFAB5B/59F0106D" Ref="C701"  Part="1" 
F 0 "C1" H 3075 2250 50  0000 L CNN
F 1 "10pF" H 3075 2050 50  0000 L CNN
F 2 "Capacitor_SMD:C_0402_1005Metric" H 3088 2000 50  0001 C CNN
F 3 "" H 3050 2150 50  0000 C CNN
F 4 "CGA1A2C0G1H100D030BA" H 3050 2150 60  0001 C CNN "Part"
	1    3050 2150
	1    0    0    -1  
$EndComp
$Comp
L pbv3-rescue:C C?
U 1 1 59F01074
P 3350 2150
AR Path="/59F01074" Ref="C?"  Part="1" 
AR Path="/59EFEA3A/59F01074" Ref="C2"  Part="1" 
AR Path="/5CFFAB5B/59F01074" Ref="C702"  Part="1" 
F 0 "C2" H 3375 2250 50  0000 L CNN
F 1 "22uF" H 3375 2050 50  0000 L CNN
F 2 "Capacitor_SMD:C_0805_2012Metric" H 3388 2000 50  0001 C CNN
F 3 "" H 3350 2150 50  0000 C CNN
F 4 "GRM219R61C226ME15L" H 3350 2150 60  0001 C CNN "Part"
F 5 "High demand item, decide and order soon (may be use CC0805MKX5R8BB226)" H 3350 2150 60  0001 C CNN "Comment"
	1    3350 2150
	1    0    0    -1  
$EndComp
$Comp
L pbv3-rescue:C C?
U 1 1 59F0107B
P 4150 2150
AR Path="/59F0107B" Ref="C?"  Part="1" 
AR Path="/59EFEA3A/59F0107B" Ref="C4"  Part="1" 
AR Path="/5CFFAB5B/59F0107B" Ref="C704"  Part="1" 
F 0 "C4" H 4175 2250 50  0000 L CNN
F 1 "10uF" H 4175 2050 50  0000 L CNN
F 2 "Capacitor_SMD:C_0805_2012Metric" H 4188 2000 50  0001 C CNN
F 3 "" H 4150 2150 50  0000 C CNN
F 4 "GRM21BR61E106MA73L" H 4150 2150 60  0001 C CNN "Part"
F 5 "First chose TMK212BBJ106MG-T, may to to evaluate TMK212BBJ106KD-T, this is lower in profile, but seems mostly market driven" H 4150 2150 60  0001 C CNN "Comment"
	1    4150 2150
	1    0    0    -1  
$EndComp
$Comp
L pbv3-rescue:C C?
U 1 1 59F01082
P 4450 2150
AR Path="/59F01082" Ref="C?"  Part="1" 
AR Path="/59EFEA3A/59F01082" Ref="C5"  Part="1" 
AR Path="/5CFFAB5B/59F01082" Ref="C705"  Part="1" 
F 0 "C5" H 4475 2250 50  0000 L CNN
F 1 "10uF" H 4475 2050 50  0000 L CNN
F 2 "Capacitor_SMD:C_0805_2012Metric" H 4488 2000 50  0001 C CNN
F 3 "" H 4450 2150 50  0000 C CNN
F 4 "GRM21BR61E106MA73L" H 4450 2150 60  0001 C CNN "Part"
F 5 "Evaluate TMK212BBJ106KD-T, this is lower in profile" H 4450 2150 60  0001 C CNN "Comment"
	1    4450 2150
	1    0    0    -1  
$EndComp
$Comp
L pbv3-rescue:L L1
U 1 1 5D76D576
P 3750 2000
AR Path="/59EFEA3A/5D76D576" Ref="L1"  Part="1" 
AR Path="/5CFFAB5B/5D76D576" Ref="L701"  Part="1" 
F 0 "L1" H 3750 2100 50  0000 C CNN
F 1 "12.3nH" H 3750 1950 50  0000 C CNN
F 2 "pbv3:0806SQ-12N" H 3750 2000 50  0001 C CNN
F 3 "" H 3750 2000 50  0000 C CNN
F 4 "0806SQ-12N" H 3750 2000 50  0001 C CNN "Part"
	1    3750 2000
	0    1    1    0   
$EndComp
$Comp
L power:GND #PWR0201
U 1 1 59F010AF
P 2900 2350
AR Path="/59EFEA3A/59F010AF" Ref="#PWR0201"  Part="1" 
AR Path="/5CFFAB5B/59F010AF" Ref="#PWR0701"  Part="1" 
F 0 "#PWR0201" H 2900 2100 50  0001 C CNN
F 1 "GND" H 2900 2200 50  0000 C CNN
F 2 "" H 2900 2350 50  0000 C CNN
F 3 "" H 2900 2350 50  0000 C CNN
	1    2900 2350
	1    0    0    -1  
$EndComp
$Comp
L pbv3-rescue:L L2
U 1 1 59F010B7
P 5850 4800
AR Path="/59EFEA3A/59F010B7" Ref="L2"  Part="1" 
AR Path="/5CFFAB5B/59F010B7" Ref="L702"  Part="1" 
F 0 "L2" V 5800 4800 50  0000 C CNN
F 1 "250nH" V 5950 4800 50  0000 C CNN
F 2 "pbv3:YaleCoil" H 5850 4800 50  0001 C CNN
F 3 "" H 5850 4800 50  0000 C CNN
	1    5850 4800
	0    -1   -1   0   
$EndComp
$Comp
L pbv3-rescue:L L3
U 1 1 59F010BE
P 7150 4800
AR Path="/59EFEA3A/59F010BE" Ref="L3"  Part="1" 
AR Path="/5CFFAB5B/59F010BE" Ref="L703"  Part="1" 
F 0 "L3" V 7100 4800 50  0000 C CNN
F 1 "12.3nH" V 7250 4800 50  0000 C CNN
F 2 "pbv3:0806SQ-12N" H 7150 4800 50  0001 C CNN
F 3 "" H 7150 4800 50  0000 C CNN
F 4 "0806SQ-12N" H 7150 4800 50  0001 C CNN "Part"
	1    7150 4800
	0    -1   -1   0   
$EndComp
$Comp
L pbv3-rescue:C C?
U 1 1 59F010C5
P 6350 4950
AR Path="/59F010C5" Ref="C?"  Part="1" 
AR Path="/59EFEA3A/59F010C5" Ref="C7"  Part="1" 
AR Path="/5CFFAB5B/59F010C5" Ref="C708"  Part="1" 
F 0 "C7" H 6375 5050 50  0000 L CNN
F 1 "10uF" H 6375 4850 50  0000 L CNN
F 2 "Capacitor_SMD:C_0805_2012Metric" H 6388 4800 50  0001 C CNN
F 3 "" H 6350 4950 50  0000 C CNN
F 4 "GRM21BR61E106MA73L" H 6350 4950 60  0001 C CNN "Part"
F 5 "First chose TMK212BBJ106MG-T, may to to evaluate TMK212BBJ106KD-T, this is lower in profile, but seems mostly market driven" H 6350 4950 60  0001 C CNN "Comment"
	1    6350 4950
	1    0    0    -1  
$EndComp
$Comp
L pbv3-rescue:C C?
U 1 1 59F010CC
P 6600 4950
AR Path="/59F010CC" Ref="C?"  Part="1" 
AR Path="/59EFEA3A/59F010CC" Ref="C8"  Part="1" 
AR Path="/5CFFAB5B/59F010CC" Ref="C709"  Part="1" 
F 0 "C8" H 6625 5050 50  0000 L CNN
F 1 "10uF" H 6625 4850 50  0000 L CNN
F 2 "Capacitor_SMD:C_0805_2012Metric" H 6638 4800 50  0001 C CNN
F 3 "" H 6600 4950 50  0000 C CNN
F 4 "GRM21BR61E106MA73L" H 6600 4950 60  0001 C CNN "Part"
F 5 "First chose TMK212BBJ106MG-T, may to to evaluate TMK212BBJ106KD-T, this is lower in profile, but seems mostly market driven" H 6600 4950 60  0001 C CNN "Comment"
	1    6600 4950
	1    0    0    -1  
$EndComp
$Comp
L pbv3-rescue:C C?
U 1 1 59F010D3
P 7650 4950
AR Path="/59F010D3" Ref="C?"  Part="1" 
AR Path="/59EFEA3A/59F010D3" Ref="C10"  Part="1" 
AR Path="/5CFFAB5B/59F010D3" Ref="C710"  Part="1" 
F 0 "C10" H 7675 5050 50  0000 L CNN
F 1 "22uF" H 7675 4850 50  0000 L CNN
F 2 "Capacitor_SMD:C_0805_2012Metric_Pad1.15x1.40mm_HandSolder" H 7688 4800 50  0001 C CNN
F 3 "" H 7650 4950 50  0000 C CNN
F 4 "GRM219R61C226ME15L" H 7650 4950 60  0001 C CNN "Part"
	1    7650 4950
	1    0    0    -1  
$EndComp
$Comp
L pbv3-rescue:C C?
U 1 1 59F010DA
P 4850 4600
AR Path="/59F010DA" Ref="C?"  Part="1" 
AR Path="/59EFEA3A/59F010DA" Ref="C6"  Part="1" 
AR Path="/5CFFAB5B/59F010DA" Ref="C707"  Part="1" 
F 0 "C6" H 4875 4700 50  0000 L CNN
F 1 "220nF" H 4875 4500 50  0000 L CNN
F 2 "Capacitor_SMD:C_0402_1005Metric" H 4888 4450 50  0001 C CNN
F 3 "" H 4850 4600 50  0000 C CNN
F 4 "GRM155R61C224MA12D" H 4850 4600 60  0001 C CNN "Part"
F 5 "Intendet CGA2B1X5R1C224K050BC, but sold out" H 4850 4600 60  0001 C CNN "Comment"
	1    4850 4600
	1    0    0    -1  
$EndComp
$Comp
L power:GND #PWR0207
U 1 1 59F010F4
P 6350 5200
AR Path="/59EFEA3A/59F010F4" Ref="#PWR0207"  Part="1" 
AR Path="/5CFFAB5B/59F010F4" Ref="#PWR0707"  Part="1" 
F 0 "#PWR0207" H 6350 4950 50  0001 C CNN
F 1 "GND" H 6350 5050 50  0000 C CNN
F 2 "" H 6350 5200 50  0000 C CNN
F 3 "" H 6350 5200 50  0000 C CNN
	1    6350 5200
	1    0    0    -1  
$EndComp
$Comp
L power:GND #PWR0208
U 1 1 59F01102
P 6600 5200
AR Path="/59EFEA3A/59F01102" Ref="#PWR0208"  Part="1" 
AR Path="/5CFFAB5B/59F01102" Ref="#PWR0708"  Part="1" 
F 0 "#PWR0208" H 6600 4950 50  0001 C CNN
F 1 "GND" H 6600 5050 50  0000 C CNN
F 2 "" H 6600 5200 50  0000 C CNN
F 3 "" H 6600 5200 50  0000 C CNN
	1    6600 5200
	1    0    0    -1  
$EndComp
$Comp
L power:GND #PWR0209
U 1 1 59F01108
P 7650 5200
AR Path="/59EFEA3A/59F01108" Ref="#PWR0209"  Part="1" 
AR Path="/5CFFAB5B/59F01108" Ref="#PWR0709"  Part="1" 
F 0 "#PWR0209" H 7650 4950 50  0001 C CNN
F 1 "GND" H 7650 5050 50  0000 C CNN
F 2 "" H 7650 5200 50  0000 C CNN
F 3 "" H 7650 5200 50  0000 C CNN
	1    7650 5200
	1    0    0    -1  
$EndComp
$Comp
L pbv3-rescue:R R1
U 1 1 59F01147
P 3400 3700
AR Path="/59EFEA3A/59F01147" Ref="R1"  Part="1" 
AR Path="/5CFFAB5B/59F01147" Ref="R701"  Part="1" 
F 0 "R1" V 3480 3700 50  0000 C CNN
F 1 "499k" V 3400 3700 50  0000 C CNN
F 2 "Resistor_SMD:R_0201_0603Metric" V 3330 3700 50  0001 C CNN
F 3 "" H 3400 3700 50  0000 C CNN
F 4 "ERJ-1GNF4993C" V 3400 3700 60  0001 C CNN "Part"
	1    3400 3700
	1    0    0    -1  
$EndComp
$Comp
L pbv3-rescue:R R2
U 1 1 59F0114E
P 3400 4100
AR Path="/59EFEA3A/59F0114E" Ref="R2"  Part="1" 
AR Path="/5CFFAB5B/59F0114E" Ref="R702"  Part="1" 
F 0 "R2" V 3480 4100 50  0000 C CNN
F 1 "348k" V 3400 4100 50  0000 C CNN
F 2 "Resistor_SMD:R_0201_0603Metric" V 3330 4100 50  0001 C CNN
F 3 "" H 3400 4100 50  0000 C CNN
F 4 "ERJ-1GNF3483C" V 3400 4100 60  0001 C CNN "Part"
	1    3400 4100
	1    0    0    -1  
$EndComp
$Comp
L pbv3-rescue:R R3
U 1 1 59F01155
P 3850 3150
AR Path="/59EFEA3A/59F01155" Ref="R3"  Part="1" 
AR Path="/5CFFAB5B/59F01155" Ref="R705"  Part="1" 
F 0 "R3" V 3930 3150 50  0000 C CNN
F 1 "130k" V 3850 3150 50  0000 C CNN
F 2 "Resistor_SMD:R_0201_0603Metric" V 3780 3150 50  0001 C CNN
F 3 "" H 3850 3150 50  0000 C CNN
F 4 "ERJ-1GNJ134C" V 3850 3150 60  0001 C CNN "Part"
	1    3850 3150
	0    1    1    0   
$EndComp
$Comp
L pbv3-rescue:C C?
U 1 1 59F0115C
P 3950 3950
AR Path="/59F0115C" Ref="C?"  Part="1" 
AR Path="/59EFEA3A/59F0115C" Ref="C3"  Part="1" 
AR Path="/5CFFAB5B/59F0115C" Ref="C703"  Part="1" 
F 0 "C3" H 3975 4050 50  0000 L CNN
F 1 "220nF" H 3975 3850 50  0000 L CNN
F 2 "Capacitor_SMD:C_0402_1005Metric" H 3988 3800 50  0001 C CNN
F 3 "" H 3950 3950 50  0000 C CNN
F 4 "GRM155R61C224MA12D" H 3950 3950 60  0001 C CNN "Part"
F 5 "Intended CGA2B1X5R1C224K050BC, but was sold out" H 3950 3950 60  0001 C CNN "Comment"
	1    3950 3950
	1    0    0    -1  
$EndComp
$Comp
L power:GND #PWR0205
U 1 1 59F01163
P 6100 4000
AR Path="/59EFEA3A/59F01163" Ref="#PWR0205"  Part="1" 
AR Path="/5CFFAB5B/59F01163" Ref="#PWR0705"  Part="1" 
F 0 "#PWR0205" H 6100 3750 50  0001 C CNN
F 1 "GND" H 6100 3850 50  0000 C CNN
F 2 "" H 6100 4000 50  0000 C CNN
F 3 "" H 6100 4000 50  0000 C CNN
	1    6100 4000
	1    0    0    -1  
$EndComp
$Comp
L power:GND #PWR0206
U 1 1 59F01171
P 6250 3600
AR Path="/59EFEA3A/59F01171" Ref="#PWR0206"  Part="1" 
AR Path="/5CFFAB5B/59F01171" Ref="#PWR0706"  Part="1" 
F 0 "#PWR0206" H 6250 3350 50  0001 C CNN
F 1 "GND" H 6250 3450 50  0000 C CNN
F 2 "" H 6250 3600 50  0000 C CNN
F 3 "" H 6250 3600 50  0000 C CNN
	1    6250 3600
	1    0    0    -1  
$EndComp
$Comp
L power:GND #PWR0203
U 1 1 59F01179
P 4100 4450
AR Path="/59EFEA3A/59F01179" Ref="#PWR0203"  Part="1" 
AR Path="/5CFFAB5B/59F01179" Ref="#PWR0703"  Part="1" 
F 0 "#PWR0203" H 4100 4200 50  0001 C CNN
F 1 "GND" H 4100 4300 50  0000 C CNN
F 2 "" H 4100 4450 50  0000 C CNN
F 3 "" H 4100 4450 50  0000 C CNN
	1    4100 4450
	1    0    0    -1  
$EndComp
$Comp
L power:GND #PWR0202
U 1 1 59F0118A
P 3950 4450
AR Path="/59EFEA3A/59F0118A" Ref="#PWR0202"  Part="1" 
AR Path="/5CFFAB5B/59F0118A" Ref="#PWR0702"  Part="1" 
F 0 "#PWR0202" H 3950 4200 50  0001 C CNN
F 1 "GND" H 3950 4300 50  0000 C CNN
F 2 "" H 3950 4450 50  0000 C CNN
F 3 "" H 3950 4450 50  0000 C CNN
	1    3950 4450
	1    0    0    -1  
$EndComp
Text Label 6100 3150 0    60   ~ 0
FVOUT
Text Label 3150 3450 0    60   ~ 0
FVOUT
$Comp
L power:GND #PWR0204
U 1 1 59F011AE
P 4400 2500
AR Path="/59EFEA3A/59F011AE" Ref="#PWR0204"  Part="1" 
AR Path="/5CFFAB5B/59F011AE" Ref="#PWR0704"  Part="1" 
F 0 "#PWR0204" H 4400 2250 50  0001 C CNN
F 1 "GND" H 4400 2350 50  0000 C CNN
F 2 "" H 4400 2500 50  0000 C CNN
F 3 "" H 4400 2500 50  0000 C CNN
	1    4400 2500
	0    1    1    0   
$EndComp
Text Notes 3000 5550 0    260  ~ 0
Shielded
$Comp
L pbv3:LREG U2
U 1 1 5D76D578
P 8650 2800
AR Path="/59EFEA3A/5D76D578" Ref="U2"  Part="1" 
AR Path="/5CFFAB5B/5D76D578" Ref="U702"  Part="1" 
F 0 "U2" H 8650 3100 60  0000 C CNN
F 1 "LINPOL12V" H 8650 2450 60  0000 C CNN
F 2 "Package_DFN_QFN:DFN-8-1EP_2x2mm_P0.5mm_EP0.7x1.3mm" V 8700 2850 260 0001 C CNN
F 3 "" V 8700 2850 260 0001 C CNN
	1    8650 2800
	1    0    0    -1  
$EndComp
$Comp
L power:GND #PWR0211
U 1 1 5D76D579
P 9450 3650
AR Path="/59EFEA3A/5D76D579" Ref="#PWR0211"  Part="1" 
AR Path="/5CFFAB5B/5D76D579" Ref="#PWR0712"  Part="1" 
F 0 "#PWR0211" H 9450 3400 50  0001 C CNN
F 1 "GND" H 9450 3500 50  0000 C CNN
F 2 "" H 9450 3650 50  0000 C CNN
F 3 "" H 9450 3650 50  0000 C CNN
	1    9450 3650
	1    0    0    -1  
$EndComp
$Comp
L pbv3-rescue:C C?
U 1 1 5D76D57A
P 10150 3350
AR Path="/5D76D57A" Ref="C?"  Part="1" 
AR Path="/59EFEA3A/5D76D57A" Ref="C9"  Part="1" 
AR Path="/5CFFAB5B/5D76D57A" Ref="C712"  Part="1" 
F 0 "C9" H 10175 3450 50  0000 L CNN
F 1 "10uF" H 10175 3250 50  0000 L CNN
F 2 "Capacitor_SMD:C_0402_1005Metric" H 10188 3200 50  0001 C CNN
F 3 "" H 10150 3350 50  0000 C CNN
F 4 "GRM155R60J106ME47D" H 10150 3350 60  0001 C CNN "Part"
	1    10150 3350
	1    0    0    -1  
$EndComp
Text HLabel 7800 4800 2    60   Input ~ 0
VOUT
Text HLabel 2250 2000 0    60   Input ~ 0
VIN
Text HLabel 2650 2300 0    60   Input ~ 0
VIN_RTN
Text HLabel 5450 2550 1    60   Input ~ 0
PTAT
Text HLabel 4750 2400 0    60   Input ~ 0
DCDCEN
Text HLabel 3350 3250 0    60   Input ~ 0
PGOOD
$Comp
L pbv3-rescue:R NTC1
U 1 1 59F01D17
P 3250 4800
AR Path="/59EFEA3A/59F01D17" Ref="NTC1"  Part="1" 
AR Path="/5CFFAB5B/59F01D17" Ref="NTC701"  Part="1" 
F 0 "NTC1" V 3330 4800 50  0000 C CNN
F 1 "10k/3435K" V 3250 4800 50  0000 C CNN
F 2 "Resistors_SMD:R_0402" V 3180 4800 50  0001 C CNN
F 3 "" H 3250 4800 50  0000 C CNN
F 4 "ERT-J0EG103FM" V 3250 4800 60  0001 C CNN "Part"
	1    3250 4800
	-1   0    0    1   
$EndComp
Text HLabel 7800 4600 2    60   Input ~ 0
FVOUT
Wire Wire Line
	7800 2600 8150 2600
Wire Wire Line
	4450 2500 4400 2500
Wire Wire Line
	4450 2600 4450 2500
Connection ~ 3400 3900
Wire Wire Line
	3550 3900 3400 3900
Wire Wire Line
	3550 3450 3550 3900
Wire Wire Line
	3550 3450 4200 3450
Wire Wire Line
	3400 3450 3150 3450
Wire Wire Line
	3400 3550 3400 3450
Wire Wire Line
	3350 3250 3550 3250
Connection ~ 3650 3350
Wire Wire Line
	3700 3150 3650 3150
Wire Wire Line
	4000 3150 4200 3150
Connection ~ 3650 3550
Wire Wire Line
	3650 3350 4200 3350
Wire Wire Line
	3400 3850 3400 3900
Wire Wire Line
	3400 4350 3400 4250
Wire Wire Line
	3650 3150 3650 3350
Wire Wire Line
	3950 3650 3950 3800
Wire Wire Line
	3750 3650 3950 3650
Wire Wire Line
	3950 4100 3950 4350
Connection ~ 3650 4350
Connection ~ 3950 4350
Wire Wire Line
	3400 4350 3650 4350
Wire Wire Line
	3650 3550 4200 3550
Connection ~ 6750 4800
Wire Wire Line
	6750 3150 6000 3150
Wire Wire Line
	6750 4800 6750 4600
Connection ~ 4100 4400
Wire Wire Line
	4100 4400 4750 4400
Connection ~ 4100 3850
Wire Wire Line
	4200 3750 4100 3750
Wire Wire Line
	4100 3750 4100 3850
Wire Wire Line
	4200 3850 4100 3850
Wire Wire Line
	6250 3550 6250 3600
Wire Wire Line
	6000 3550 6250 3550
Connection ~ 6100 3750
Wire Wire Line
	6000 3650 6100 3650
Connection ~ 6100 3850
Wire Wire Line
	6000 3750 6100 3750
Wire Wire Line
	6100 3650 6100 3750
Wire Wire Line
	6100 3850 6000 3850
Wire Notes Line
	3900 2650 2850 2650
Wire Notes Line
	4050 1900 4050 2650
Wire Wire Line
	5450 2600 5450 2550
Wire Wire Line
	4750 2400 4750 2600
Wire Wire Line
	4950 2500 5050 2500
Wire Notes Line
	6800 1900 4050 1900
Wire Notes Line
	6800 5600 6800 1900
Wire Notes Line
	3000 5600 6800 5600
Connection ~ 7650 4800
Wire Wire Line
	7650 5100 7650 5200
Wire Wire Line
	6600 5200 6600 5100
Wire Wire Line
	6350 5200 6350 5100
Wire Wire Line
	7300 4800 7650 4800
Connection ~ 6600 4800
Connection ~ 6350 4800
Wire Wire Line
	6000 4800 6350 4800
Connection ~ 5350 4800
Wire Wire Line
	4850 4750 4850 4800
Wire Wire Line
	4850 4450 4850 4400
Connection ~ 5350 4450
Connection ~ 5250 4450
Wire Wire Line
	5250 4450 5250 4400
Connection ~ 5150 4450
Wire Wire Line
	5150 4450 5150 4400
Connection ~ 5050 4450
Wire Wire Line
	5050 4400 5050 4450
Wire Wire Line
	4850 4800 5350 4800
Wire Wire Line
	5350 4400 5350 4450
Wire Wire Line
	4950 4450 5050 4450
Wire Wire Line
	4950 4400 4950 4450
Connection ~ 2900 2300
Wire Wire Line
	2900 2350 2900 2300
Connection ~ 4150 2300
Connection ~ 3350 2300
Connection ~ 3050 2300
Wire Wire Line
	2650 2300 2900 2300
Connection ~ 5250 2500
Wire Wire Line
	5350 2500 5350 2600
Connection ~ 5150 2500
Wire Wire Line
	5250 2500 5250 2600
Connection ~ 5050 2500
Wire Wire Line
	5150 2500 5150 2600
Connection ~ 4950 2500
Wire Wire Line
	5050 2600 5050 2500
Wire Wire Line
	3900 2000 4150 2000
Connection ~ 4950 2000
Wire Wire Line
	4950 2000 4950 2500
Connection ~ 4450 2000
Connection ~ 4150 2000
Connection ~ 3350 2000
Connection ~ 3050 2000
Wire Wire Line
	7800 4600 6750 4600
Connection ~ 6750 4600
Text HLabel 10600 2750 2    60   Input ~ 0
VCC3V3
Text HLabel 10600 2600 2    60   Input ~ 0
VCC1V4
Text HLabel 7850 2750 0    60   Input ~ 0
LREGEN
Text HLabel 2850 4600 0    60   Input ~ 0
NTCp
Text HLabel 2850 5000 0    60   Input ~ 0
NTCn
Wire Wire Line
	3250 4650 3250 4600
Wire Wire Line
	3250 4600 2850 4600
Wire Wire Line
	3250 4950 3250 5000
Wire Wire Line
	3250 5000 2850 5000
Text HLabel 4150 1750 1    60   Input ~ 0
FVIN
Wire Wire Line
	4150 2000 4150 1750
Text Notes 5600 5000 0    60   ~ 0
Custom coil
Text Notes 8300 3400 0    60   ~ 0
Packaged or bare die?
Text Notes 8300 3500 0    60   ~ 0
830um x 1500um die
Wire Wire Line
	7800 2000 7800 2600
Text Notes 7150 2700 0    60   ~ 0
External Pull-down?
Text Notes 8400 3600 0    60   ~ 0
QFN8 packaged
Text Notes 3100 1400 0    60   ~ 0
Need 50mOhm between VIN and FVIN to AMAC.
Text Notes 8150 4700 0    60   ~ 0
7mOhm in between
Text Notes 5550 2700 0    60   ~ 0
Crosscheck BPOL12V pinout
$Comp
L pbv3:bpol12v U1
U 1 1 59F01058
P 5100 3500
AR Path="/59EFEA3A/59F01058" Ref="U1"  Part="1" 
AR Path="/5CFFAB5B/59F01058" Ref="U701"  Part="1" 
AR Path="/59F01058" Ref="U1"  Part="1" 
F 0 "U1" H 5100 3850 60  0000 C CNN
F 1 "BPOL12V" H 5100 3400 60  0000 C CNN
F 2 "Package_DFN_QFN:QFN-32-1EP_5x5mm_P0.5mm_EP3.7x3.7mm" H 5100 3500 60  0001 C CNN
F 3 "" H 5100 3500 60  0001 C CNN
	1    5100 3500
	1    0    0    -1  
$EndComp
Text HLabel 6150 3250 2    60   Input ~ 0
Bit1_VOUT
Text HLabel 6150 3450 2    60   Input ~ 0
Bit2_VOUT
Wire Wire Line
	6000 3250 6150 3250
$Comp
L pbv3-rescue:C C?
U 1 1 5D76D583
P 4700 2150
AR Path="/5D76D583" Ref="C?"  Part="1" 
AR Path="/59EFEA3A/5D76D583" Ref="C11"  Part="1" 
AR Path="/5CFFAB5B/5D76D583" Ref="C706"  Part="1" 
F 0 "C11" H 4725 2250 50  0000 L CNN
F 1 "100nF" H 4725 2050 50  0000 L CNN
F 2 "pbv3:SMD_0306" H 4738 2000 50  0001 C CNN
F 3 "" H 4700 2150 50  0000 C CNN
F 4 "0306YD104KAT2A" H 4700 2150 60  0001 C CNN "Part"
	1    4700 2150
	1    0    0    -1  
$EndComp
Connection ~ 4450 2300
Connection ~ 4700 2000
Text Notes 4650 1850 0    60   ~ 0
C11 reverse geometry cap.
$Comp
L pbv3-rescue:C C?
U 1 1 5D76D588
P 9600 3350
AR Path="/5D76D588" Ref="C?"  Part="1" 
AR Path="/59EFEA3A/5D76D588" Ref="C28"  Part="1" 
AR Path="/5CFFAB5B/5D76D588" Ref="C711"  Part="1" 
F 0 "C28" H 9625 3450 50  0000 L CNN
F 1 "4.7uF" H 9625 3250 50  0000 L CNN
F 2 "Capacitor_SMD:C_0402_1005Metric" H 9638 3200 50  0001 C CNN
F 3 "" H 9600 3350 50  0000 C CNN
F 4 "C0402C475M9PACTU" H 9600 3350 60  0001 C CNN "Part"
	1    9600 3350
	1    0    0    -1  
$EndComp
$Comp
L pbv3-rescue:R R22
U 1 1 59F77035
P 9600 3000
AR Path="/59EFEA3A/59F77035" Ref="R22"  Part="1" 
AR Path="/5CFFAB5B/59F77035" Ref="R708"  Part="1" 
F 0 "R22" V 9680 3000 50  0000 C CNN
F 1 "300m" V 9600 3000 50  0000 C CNN
F 2 "Resistor_SMD:R_0201_0603Metric" V 9530 3000 50  0001 C CNN
F 3 "" H 9600 3000 50  0000 C CNN
F 4 "UCR006YVPFLR300" V 9600 3000 60  0001 C CNN "Part"
	1    9600 3000
	-1   0    0    1   
$EndComp
$Comp
L pbv3-rescue:R R23
U 1 1 59F770A0
P 10150 2950
AR Path="/59EFEA3A/59F770A0" Ref="R23"  Part="1" 
AR Path="/5CFFAB5B/59F770A0" Ref="R709"  Part="1" 
F 0 "R23" V 10230 2950 50  0000 C CNN
F 1 "300m" V 10150 2950 50  0000 C CNN
F 2 "Resistor_SMD:R_0201_0603Metric" V 10080 2950 50  0001 C CNN
F 3 "" H 10150 2950 50  0000 C CNN
F 4 "UCR006YVPFLR300" V 10150 2950 60  0001 C CNN "Part"
	1    10150 2950
	1    0    0    -1  
$EndComp
Text Label 7850 2600 0    60   ~ 0
FVIN
Wire Wire Line
	9150 2600 9600 2600
Wire Wire Line
	9150 2750 10150 2750
Wire Wire Line
	10150 2800 10150 2750
Wire Wire Line
	9150 2900 9450 2900
Wire Wire Line
	9450 2900 9450 3600
Wire Wire Line
	9450 3600 9600 3600
Wire Wire Line
	10150 3600 10150 3500
Connection ~ 9450 3600
Wire Wire Line
	7850 2750 8000 2750
Wire Wire Line
	8150 2900 8000 2900
Wire Wire Line
	8000 2750 8000 2900
Connection ~ 8000 2750
$Comp
L pbv3-rescue:R R4
U 1 1 5AAC2F26
P 8000 3100
AR Path="/59EFEA3A/5AAC2F26" Ref="R4"  Part="1" 
AR Path="/5CFFAB5B/5AAC2F26" Ref="R706"  Part="1" 
F 0 "R4" V 8080 3100 50  0000 C CNN
F 1 "14k" V 8000 3100 50  0000 C CNN
F 2 "Resistor_SMD:R_0201_0603Metric" V 7930 3100 50  0001 C CNN
F 3 "" H 8000 3100 50  0000 C CNN
F 4 "ERJ-1GNF1402C" V 8000 3100 60  0001 C CNN "Part"
	1    8000 3100
	-1   0    0    1   
$EndComp
$Comp
L power:GND #PWR0210
U 1 1 5AAC2FC7
P 8000 3350
AR Path="/59EFEA3A/5AAC2FC7" Ref="#PWR0210"  Part="1" 
AR Path="/5CFFAB5B/5AAC2FC7" Ref="#PWR0710"  Part="1" 
F 0 "#PWR0210" H 8000 3100 50  0001 C CNN
F 1 "GND" H 8000 3200 50  0000 C CNN
F 2 "" H 8000 3350 50  0000 C CNN
F 3 "" H 8000 3350 50  0000 C CNN
	1    8000 3350
	1    0    0    -1  
$EndComp
Connection ~ 8000 2900
Wire Wire Line
	8000 3350 8000 3250
$Comp
L pbv3-rescue:R R12
U 1 1 5AAC42E0
P 3550 2950
AR Path="/59EFEA3A/5AAC42E0" Ref="R12"  Part="1" 
AR Path="/5CFFAB5B/5AAC42E0" Ref="R703"  Part="1" 
F 0 "R12" V 3630 2950 50  0000 C CNN
F 1 "30k" V 3550 2950 50  0000 C CNN
F 2 "Resistor_SMD:R_0201_0603Metric" V 3480 2950 50  0001 C CNN
F 3 "" H 3550 2950 50  0000 C CNN
F 4 "ERJ-1GNF3002C" V 3550 2950 60  0001 C CNN "Part"
	1    3550 2950
	-1   0    0    1   
$EndComp
Wire Wire Line
	3550 3100 3550 3250
Connection ~ 3550 3250
Text Label 7500 4800 0    60   ~ 0
VOUT
Wire Wire Line
	3550 2800 3550 2700
Text Label 3550 2750 0    60   ~ 0
VOUT
Text Notes 2000 1700 0    60   ~ 0
42mΩ trace + 8mΩ Inductor
$Comp
L pbv3-rescue:R R203
U 1 1 5D76D58D
P 10350 3000
AR Path="/59EFEA3A/5D76D58D" Ref="R203"  Part="1" 
AR Path="/5CFFAB5B/5D76D58D" Ref="R710"  Part="1" 
F 0 "R203" V 10430 3000 50  0000 C CNN
F 1 "3k" V 10350 3000 50  0000 C CNN
F 2 "Resistor_SMD:R_0201_0603Metric" V 10280 3000 50  0001 C CNN
F 3 "" H 10350 3000 50  0000 C CNN
F 4 "RC0201FR-073KL" V 10350 3000 60  0001 C CNN "Part"
	1    10350 3000
	1    0    0    -1  
$EndComp
Wire Wire Line
	9600 3150 9600 3200
Connection ~ 9600 3600
Wire Wire Line
	9600 2850 9600 2600
Wire Wire Line
	10350 2850 10350 2750
Connection ~ 10350 2750
Wire Wire Line
	10350 3600 10350 3150
Connection ~ 10150 3600
$Comp
L pbv3-rescue:R R201
U 1 1 5B190EFF
P 3750 3950
AR Path="/59EFEA3A/5B190EFF" Ref="R201"  Part="1" 
AR Path="/5CFFAB5B/5B190EFF" Ref="R704"  Part="1" 
F 0 "R201" V 3830 3950 50  0000 C CNN
F 1 "3k" V 3750 3950 50  0000 C CNN
F 2 "Resistor_SMD:R_0201_0603Metric" V 3680 3950 50  0001 C CNN
F 3 "" H 3750 3950 50  0000 C CNN
F 4 "RC0201FR-073KL" V 3750 3950 60  0001 C CNN "Part"
	1    3750 3950
	1    0    0    -1  
$EndComp
Wire Wire Line
	3750 3650 3750 3800
Connection ~ 3950 3650
Wire Wire Line
	3750 4100 3750 4350
Connection ~ 3750 4350
Wire Wire Line
	6150 3450 6000 3450
NoConn ~ 6000 3350
$Comp
L power:GND #PWR0107
U 1 1 5D76D58E
P 8800 2350
AR Path="/59EFEA3A/5D76D58E" Ref="#PWR0107"  Part="1" 
AR Path="/5CFFAB5B/5D76D58E" Ref="#PWR0711"  Part="1" 
F 0 "#PWR0107" H 8800 2100 50  0001 C CNN
F 1 "GND" H 8800 2200 50  0000 C CNN
F 2 "" H 8800 2350 50  0000 C CNN
F 3 "" H 8800 2350 50  0000 C CNN
	1    8800 2350
	1    0    0    -1  
$EndComp
Wire Wire Line
	8650 2350 8650 2250
Wire Wire Line
	8650 2250 8800 2250
Wire Wire Line
	8800 2250 8800 2350
Wire Wire Line
	3400 3900 3400 3950
Wire Wire Line
	3650 3350 3650 3550
Wire Wire Line
	3650 3550 3650 4350
Wire Wire Line
	3650 4350 3750 4350
Wire Wire Line
	3950 4350 3950 4450
Wire Wire Line
	6750 4800 7000 4800
Wire Wire Line
	4100 4400 4100 4450
Wire Wire Line
	4100 3850 4100 4400
Wire Wire Line
	6100 3750 6100 3850
Wire Wire Line
	6100 3850 6100 4000
Wire Wire Line
	7650 4800 7800 4800
Wire Wire Line
	6600 4800 6750 4800
Wire Wire Line
	6350 4800 6600 4800
Wire Wire Line
	5350 4800 5700 4800
Wire Wire Line
	5350 4450 5350 4800
Wire Wire Line
	5250 4450 5350 4450
Wire Wire Line
	5150 4450 5250 4450
Wire Wire Line
	5050 4450 5150 4450
Wire Wire Line
	2900 2300 3050 2300
Wire Wire Line
	4150 2300 4450 2300
Wire Wire Line
	3350 2300 4150 2300
Wire Wire Line
	3050 2300 3350 2300
Wire Wire Line
	5250 2500 5350 2500
Wire Wire Line
	5150 2500 5250 2500
Wire Wire Line
	5050 2500 5150 2500
Wire Wire Line
	4950 2500 4950 2600
Wire Wire Line
	4950 2000 7800 2000
Wire Wire Line
	4450 2000 4700 2000
Wire Wire Line
	4150 2000 4450 2000
Wire Wire Line
	3350 2000 3600 2000
Wire Wire Line
	3050 2000 3350 2000
Wire Wire Line
	6750 4600 6750 3150
Wire Wire Line
	4450 2300 4700 2300
Wire Wire Line
	4700 2000 4950 2000
Wire Wire Line
	9450 3600 9450 3650
Wire Wire Line
	8000 2750 8150 2750
Wire Wire Line
	8000 2900 8000 2950
Wire Wire Line
	3550 3250 4200 3250
Wire Wire Line
	10350 2750 10600 2750
Wire Wire Line
	10150 3600 10350 3600
Wire Wire Line
	3950 3650 4200 3650
Wire Wire Line
	3750 4350 3950 4350
Wire Wire Line
	2250 2000 3050 2000
Text Notes 800  4050 0    60   ~ 0
bPOL12V_v4 requires 500kΩ between Vi and Vout\nclaims Vref=615mV -> 499k:340k results in 1.5176V\nVoltage settings: 1.618, 1.416, 1.315
Wire Wire Line
	9600 3500 9600 3600
$Comp
L pbv3-rescue:R R202
U 1 1 5D76D58C
P 9900 3300
AR Path="/59EFEA3A/5D76D58C" Ref="R202"  Part="1" 
AR Path="/5CFFAB5B/5D76D58C" Ref="R707"  Part="1" 
F 0 "R202" V 9980 3300 50  0000 C CNN
F 1 "1k" V 9900 3300 50  0000 C CNN
F 2 "Resistor_SMD:R_0201_0603Metric" V 9830 3300 50  0001 C CNN
F 3 "" H 9900 3300 50  0000 C CNN
F 4 "ERJ-1GNJ102C" V 9900 3300 60  0001 C CNN "Part"
	1    9900 3300
	-1   0    0    1   
$EndComp
Wire Wire Line
	9900 3450 9900 3600
Connection ~ 9900 3600
Wire Wire Line
	9900 3600 10150 3600
Wire Wire Line
	9600 3600 9900 3600
Wire Wire Line
	9900 2600 10600 2600
Wire Wire Line
	9900 2600 9600 2600
Connection ~ 9900 2600
Connection ~ 9600 2600
Wire Wire Line
	9900 2600 9900 3150
Wire Wire Line
	10150 3100 10150 3200
Wire Wire Line
	10150 2750 10350 2750
Connection ~ 10150 2750
$EndSCHEMATC
