EESchema Schematic File Version 4
LIBS:pbv3-cache
EELAYER 30 0
EELAYER END
$Descr A4 11693 8268
encoding utf-8
Sheet 7 7
Title "Powerboard v3"
Date "2017-10-23"
Rev "A"
Comp "LBNL"
Comment1 "Timon Heim"
Comment2 ""
Comment3 ""
Comment4 ""
$EndDescr
$Comp
L Device:C C?
U 1 1 5D76D573
P 3350 2150
AR Path="/5D76D573" Ref="C?"  Part="1" 
AR Path="/59EFEA3A/5D76D573" Ref="C2"  Part="1" 
AR Path="/5CFFAB5B/5D76D573" Ref="C701"  Part="1" 
F 0 "C701" H 3375 2250 50  0000 L CNN
F 1 "22uF" H 3375 2050 50  0000 L CNN
F 2 "Capacitors_SMD:C_0805" H 3388 2000 50  0001 C CNN
F 3 "" H 3350 2150 50  0000 C CNN
F 4 "GRM219R61C226ME15L" H 3350 2150 60  0001 C CNN "Part"
F 5 "High demand item, decide and order soon (may be use CC0805MKX5R8BB226)" H 3350 2150 60  0001 C CNN "Comment"
	1    3350 2150
	1    0    0    -1  
$EndComp
$Comp
L Device:C C?
U 1 1 5D76D574
P 4150 2150
AR Path="/5D76D574" Ref="C?"  Part="1" 
AR Path="/59EFEA3A/5D76D574" Ref="C4"  Part="1" 
AR Path="/5CFFAB5B/5D76D574" Ref="C702"  Part="1" 
F 0 "C702" H 4175 2250 50  0000 L CNN
F 1 "10uF" H 4175 2050 50  0000 L CNN
F 2 "Capacitors_SMD:C_0805" H 4188 2000 50  0001 C CNN
F 3 "" H 4150 2150 50  0000 C CNN
F 4 "GRM21B771E106KE15L" H 4150 2150 60  0001 C CNN "Part"
F 5 "First chose TMK212BBJ106MG-T, may to to evaluate TMK212BBJ106KD-T, this is lower in profile, but seems mostly market driven" H 4150 2150 60  0001 C CNN "Comment"
	1    4150 2150
	1    0    0    -1  
$EndComp
$Comp
L Device:C C?
U 1 1 5D76D575
P 4450 2150
AR Path="/5D76D575" Ref="C?"  Part="1" 
AR Path="/59EFEA3A/5D76D575" Ref="C5"  Part="1" 
AR Path="/5CFFAB5B/5D76D575" Ref="C703"  Part="1" 
F 0 "C703" H 4475 2250 50  0000 L CNN
F 1 "10uF" H 4475 2050 50  0000 L CNN
F 2 "Capacitors_SMD:C_0805" H 4488 2000 50  0001 C CNN
F 3 "" H 4450 2150 50  0000 C CNN
F 4 "GRM21B771E106KE15L" H 4450 2150 60  0001 C CNN "Part"
F 5 "Evaluate TMK212BBJ106KD-T, this is lower in profile" H 4450 2150 60  0001 C CNN "Comment"
	1    4450 2150
	1    0    0    -1  
$EndComp
$Comp
L Device:L L1
U 1 1 59F01089
P 3750 2000
AR Path="/59EFEA3A/59F01089" Ref="L1"  Part="1" 
AR Path="/5CFFAB5B/59F01089" Ref="L701"  Part="1" 
F 0 "L701" H 3750 2100 50  0000 C CNN
F 1 "12.3nH" H 3750 1950 50  0000 C CNN
F 2 "pbv3:0806SQ-12N" H 3750 2000 50  0001 C CNN
F 3 "" H 3750 2000 50  0000 C CNN
	1    3750 2000
	0    1    1    0   
$EndComp
$Comp
L power:GND #PWR0201
U 1 1 5D76D577
P 2900 2350
AR Path="/59EFEA3A/5D76D577" Ref="#PWR0201"  Part="1" 
AR Path="/5CFFAB5B/5D76D577" Ref="#PWR0701"  Part="1" 
F 0 "#PWR0701" H 2900 2100 50  0001 C CNN
F 1 "GND" H 2900 2200 50  0000 C CNN
F 2 "" H 2900 2350 50  0000 C CNN
F 3 "" H 2900 2350 50  0000 C CNN
	1    2900 2350
	1    0    0    -1  
$EndComp
$Comp
L pbv3:LREG U2
U 1 1 59F011BA
P 8650 2800
AR Path="/59EFEA3A/59F011BA" Ref="U2"  Part="1" 
AR Path="/5CFFAB5B/59F011BA" Ref="U701"  Part="1" 
F 0 "U701" H 8650 3100 60  0000 C CNN
F 1 "LINPOL12V" H 8650 2450 60  0000 C CNN
F 2 "pbv3:DFN-8_2x2mm_Pitch0.5mm" V 8700 2850 260 0001 C CNN
F 3 "" V 8700 2850 260 0001 C CNN
	1    8650 2800
	1    0    0    -1  
$EndComp
$Comp
L power:GND #PWR0211
U 1 1 59F011C3
P 9450 3650
AR Path="/59EFEA3A/59F011C3" Ref="#PWR0211"  Part="1" 
AR Path="/5CFFAB5B/59F011C3" Ref="#PWR0704"  Part="1" 
F 0 "#PWR0704" H 9450 3400 50  0001 C CNN
F 1 "GND" H 9450 3500 50  0000 C CNN
F 2 "" H 9450 3650 50  0000 C CNN
F 3 "" H 9450 3650 50  0000 C CNN
	1    9450 3650
	1    0    0    -1  
$EndComp
$Comp
L Device:C C?
U 1 1 59F011D3
P 10150 3350
AR Path="/59F011D3" Ref="C?"  Part="1" 
AR Path="/59EFEA3A/59F011D3" Ref="C9"  Part="1" 
AR Path="/5CFFAB5B/59F011D3" Ref="C706"  Part="1" 
F 0 "C706" H 10175 3450 50  0000 L CNN
F 1 "10uF" H 10175 3250 50  0000 L CNN
F 2 "Capacitors_SMD:C_0402" H 10188 3200 50  0001 C CNN
F 3 "" H 10150 3350 50  0000 C CNN
F 4 "GRM155R60J106ME47D" H 10150 3350 60  0001 C CNN "Part"
	1    10150 3350
	1    0    0    -1  
$EndComp
Text HLabel 2250 2000 0    60   Input ~ 0
VIN
Text HLabel 2650 2300 0    60   Input ~ 0
VIN_RTN
Connection ~ 2900 2300
Wire Wire Line
	2900 2350 2900 2300
Wire Wire Line
	2650 2300 2900 2300
Connection ~ 4150 2000
Text HLabel 10600 2750 2    60   Input ~ 0
VCC3V3
Text HLabel 10600 2600 2    60   Input ~ 0
VCC1V4
Text HLabel 4150 1750 1    60   Input ~ 0
FVIN
Wire Wire Line
	4150 2000 4150 1750
Text Notes 8300 3400 0    60   ~ 0
Packaged or bare die?
Text Notes 8300 3500 0    60   ~ 0
830um x 1500um die
Text Notes 8400 3600 0    60   ~ 0
QFN8 packaged
Text Notes 3100 1400 0    60   ~ 0
Need 50mOhm between VIN and FVIN to AMAC.
$Comp
L Device:C C?
U 1 1 59F4F093
P 4700 2150
AR Path="/59F4F093" Ref="C?"  Part="1" 
AR Path="/59EFEA3A/59F4F093" Ref="C11"  Part="1" 
AR Path="/5CFFAB5B/59F4F093" Ref="C704"  Part="1" 
F 0 "C704" H 4725 2250 50  0000 L CNN
F 1 "100nF" H 4725 2050 50  0000 L CNN
F 2 "pbv3:SMD_0306" H 4738 2000 50  0001 C CNN
F 3 "" H 4700 2150 50  0000 C CNN
F 4 "0306YD104KAT2A" H 4700 2150 60  0001 C CNN "Part"
	1    4700 2150
	1    0    0    -1  
$EndComp
$Comp
L Device:C C?
U 1 1 59F76B63
P 9850 3350
AR Path="/59F76B63" Ref="C?"  Part="1" 
AR Path="/59EFEA3A/59F76B63" Ref="C28"  Part="1" 
AR Path="/5CFFAB5B/59F76B63" Ref="C705"  Part="1" 
F 0 "C705" H 9875 3450 50  0000 L CNN
F 1 "4.7uF" H 9875 3250 50  0000 L CNN
F 2 "Capacitors_SMD:C_0402" H 9888 3200 50  0001 C CNN
F 3 "" H 9850 3350 50  0000 C CNN
F 4 "C0402C475M9PACTU" H 9850 3350 60  0001 C CNN "Part"
	1    9850 3350
	1    0    0    -1  
$EndComp
$Comp
L Device:R R22
U 1 1 5D76D589
P 9850 2950
AR Path="/59EFEA3A/5D76D589" Ref="R22"  Part="1" 
AR Path="/5CFFAB5B/5D76D589" Ref="R703"  Part="1" 
F 0 "R703" V 9930 2950 50  0000 C CNN
F 1 "300m" V 9850 2950 50  0000 C CNN
F 2 "Resistors_SMD:R_0201" V 9780 2950 50  0001 C CNN
F 3 "" H 9850 2950 50  0000 C CNN
F 4 "UCR006YVPFLR300" V 9850 2950 60  0001 C CNN "Part"
	1    9850 2950
	-1   0    0    1   
$EndComp
$Comp
L Device:R R23
U 1 1 5D76D58A
P 10150 2950
AR Path="/59EFEA3A/5D76D58A" Ref="R23"  Part="1" 
AR Path="/5CFFAB5B/5D76D58A" Ref="R704"  Part="1" 
F 0 "R704" V 10230 2950 50  0000 C CNN
F 1 "300m" V 10150 2950 50  0000 C CNN
F 2 "Resistors_SMD:R_0201" V 10080 2950 50  0001 C CNN
F 3 "" H 10150 2950 50  0000 C CNN
F 4 "UCR006YVPFLR300" V 10150 2950 60  0001 C CNN "Part"
	1    10150 2950
	1    0    0    -1  
$EndComp
Wire Wire Line
	9150 2600 9600 2600
Wire Wire Line
	9150 2750 10150 2750
Wire Wire Line
	9850 3100 9850 3200
Wire Wire Line
	9850 2800 9850 2600
Connection ~ 9850 2600
Wire Wire Line
	10150 2800 10150 2750
Connection ~ 10150 2750
Wire Wire Line
	10150 3200 10150 3100
Wire Wire Line
	9150 2900 9450 2900
Wire Wire Line
	9450 2900 9450 3600
Wire Wire Line
	9850 3500 9850 3600
Wire Wire Line
	9450 3600 9600 3600
Wire Wire Line
	10150 3600 10150 3500
Connection ~ 9850 3600
Connection ~ 9450 3600
$Comp
L Device:Fuse F201
U 1 1 5AF024BD
P 2500 2000
AR Path="/59EFEA3A/5AF024BD" Ref="F201"  Part="1" 
AR Path="/5CFFAB5B/5AF024BD" Ref="F701"  Part="1" 
F 0 "F701" V 2580 2000 50  0000 C CNN
F 1 "3A Fuse" V 2425 2000 50  0000 C CNN
F 2 "Resistors_SMD:R_0402" V 2430 2000 50  0001 C CNN
F 3 "" H 2500 2000 50  0001 C CNN
F 4 "SF-0402S300M-2" V 2500 2000 60  0001 C CNN "Part"
	1    2500 2000
	0    1    -1   0   
$EndComp
Wire Wire Line
	2250 2000 2350 2000
Text Notes 2000 1700 0    60   ~ 0
20mΩ fuse + 20mΩ trace + 8mΩ Inductor
$Comp
L Device:R R202
U 1 1 5B18F4C7
P 9600 3000
AR Path="/59EFEA3A/5B18F4C7" Ref="R202"  Part="1" 
AR Path="/5CFFAB5B/5B18F4C7" Ref="R702"  Part="1" 
F 0 "R702" V 9680 3000 50  0000 C CNN
F 1 "1k" V 9600 3000 50  0000 C CNN
F 2 "Resistors_SMD:R_0201" V 9530 3000 50  0001 C CNN
F 3 "" H 9600 3000 50  0000 C CNN
F 4 "RC0201FR-071KL" V 9600 3000 60  0001 C CNN "Part"
	1    9600 3000
	-1   0    0    1   
$EndComp
$Comp
L Device:R R203
U 1 1 5B18F587
P 10350 3000
AR Path="/59EFEA3A/5B18F587" Ref="R203"  Part="1" 
AR Path="/5CFFAB5B/5B18F587" Ref="R705"  Part="1" 
F 0 "R705" V 10430 3000 50  0000 C CNN
F 1 "3k" V 10350 3000 50  0000 C CNN
F 2 "Resistors_SMD:R_0201" V 10280 3000 50  0001 C CNN
F 3 "" H 10350 3000 50  0000 C CNN
F 4 "RC0201FR-073KL" V 10350 3000 60  0001 C CNN "Part"
	1    10350 3000
	1    0    0    -1  
$EndComp
Wire Wire Line
	9600 3150 9600 3600
Connection ~ 9600 3600
Wire Wire Line
	9600 2850 9600 2600
Connection ~ 9600 2600
Wire Wire Line
	10350 2850 10350 2750
Connection ~ 10350 2750
Wire Wire Line
	10350 3600 10350 3150
Connection ~ 10150 3600
$Comp
L power:GND #PWR0107
U 1 1 5C075536
P 8800 2350
AR Path="/59EFEA3A/5C075536" Ref="#PWR0107"  Part="1" 
AR Path="/5CFFAB5B/5C075536" Ref="#PWR0703"  Part="1" 
F 0 "#PWR0703" H 8800 2100 50  0001 C CNN
F 1 "GND" H 8800 2200 50  0000 C CNN
F 2 "" H 8800 2350 50  0000 C CNN
F 3 "" H 8800 2350 50  0000 C CNN
	1    8800 2350
	1    0    0    -1  
$EndComp
Wire Wire Line
	8650 2350 8650 2250
Wire Wire Line
	8650 2250 8800 2250
Wire Wire Line
	8800 2250 8800 2350
Wire Wire Line
	9850 2600 10600 2600
Wire Wire Line
	10150 2750 10350 2750
Wire Wire Line
	9850 3600 10150 3600
Wire Wire Line
	9450 3600 9450 3650
Wire Wire Line
	9600 3600 9850 3600
Wire Wire Line
	9600 2600 9850 2600
Wire Wire Line
	10350 2750 10600 2750
Wire Wire Line
	10150 3600 10350 3600
Wire Wire Line
	2650 2000 3350 2000
Wire Wire Line
	2900 2300 3350 2300
Wire Wire Line
	7800 2600 8150 2600
Text HLabel 7850 2750 0    60   Input ~ 0
LREGEN
Wire Wire Line
	7800 2000 7800 2600
Text Notes 7150 2700 0    60   ~ 0
External Pull-down?
Text Label 7850 2600 0    60   ~ 0
FVIN
Wire Wire Line
	7850 2750 8000 2750
Wire Wire Line
	8150 2900 8000 2900
Wire Wire Line
	8000 2750 8000 2900
Connection ~ 8000 2750
$Comp
L pbv3-rescue:R R?
U 1 1 5D76BE7F
P 8000 3100
AR Path="/59EFEA3A/5D76BE7F" Ref="R?"  Part="1" 
AR Path="/5CFFAB5B/5D76BE7F" Ref="R701"  Part="1" 
F 0 "R701" V 8080 3100 50  0000 C CNN
F 1 "10k" V 8000 3100 50  0000 C CNN
F 2 "Resistors_SMD:R_0201" V 7930 3100 50  0001 C CNN
F 3 "" H 8000 3100 50  0000 C CNN
F 4 "RC0201FR-0710KL" V 8000 3100 60  0001 C CNN "Part"
	1    8000 3100
	-1   0    0    1   
$EndComp
$Comp
L power:GND #PWR?
U 1 1 5D76BE85
P 8000 3350
AR Path="/59EFEA3A/5D76BE85" Ref="#PWR?"  Part="1" 
AR Path="/5CFFAB5B/5D76BE85" Ref="#PWR0702"  Part="1" 
F 0 "#PWR0702" H 8000 3100 50  0001 C CNN
F 1 "GND" H 8000 3200 50  0000 C CNN
F 2 "" H 8000 3350 50  0000 C CNN
F 3 "" H 8000 3350 50  0000 C CNN
	1    8000 3350
	1    0    0    -1  
$EndComp
Connection ~ 8000 2900
Wire Wire Line
	8000 3350 8000 3250
Wire Wire Line
	8000 2750 8150 2750
Wire Wire Line
	8000 2900 8000 2950
Wire Wire Line
	7800 2000 4700 2000
Connection ~ 4100 2000
Wire Wire Line
	4100 2000 4150 2000
Connection ~ 4450 2000
Wire Wire Line
	4450 2000 4150 2000
Connection ~ 4700 2000
Wire Wire Line
	4700 2000 4450 2000
Wire Wire Line
	3900 2000 4150 2000
Connection ~ 4150 2300
Wire Wire Line
	4150 2300 4450 2300
Connection ~ 4450 2300
Wire Wire Line
	4450 2300 4700 2300
Connection ~ 3350 2300
Wire Wire Line
	3350 2300 4150 2300
Connection ~ 3350 2000
Wire Wire Line
	3350 2000 3600 2000
$EndSCHEMATC
