(module AMACv2 (layer F.Cu) (tedit 59F37CA0)
  (fp_text reference U3 (at 0 5.969) (layer F.SilkS)
    (effects (font (size 1 1) (thickness 0.15)))
  )
  (fp_text value AMACv2 (at 0 -5.334) (layer F.Fab)
    (effects (font (size 1 1) (thickness 0.15)))
  )
  (fp_line (start -1.75 2.6) (end -1.75 -2.6) (layer F.Fab) (width 0.15))
  (fp_line (start 1.75 2.6) (end -1.75 2.6) (layer F.Fab) (width 0.15))
  (fp_line (start 1.75 -2.6) (end 1.75 2.6) (layer F.Fab) (width 0.15))
  (fp_line (start -1.75 -2.6) (end 1.75 -2.6) (layer F.Fab) (width 0.15))
  (pad 1 smd rect (at -3.175 -2.413 270) (size 0.127 0.254) (layers F.Cu F.Mask))
  (pad 2 smd rect (at -3.683 -2.286 270) (size 0.127 0.254) (layers F.Cu F.Mask))
  (pad 3 smd rect (at -4.191 -2.159 270) (size 0.127 0.254) (layers F.Cu F.Mask))
  (pad 4 smd rect (at -3.683 -2.032 270) (size 0.127 0.254) (layers F.Cu F.Mask))
  (pad 5 smd rect (at -4.191 -1.905 270) (size 0.127 0.254) (layers F.Cu F.Mask))
  (pad 6 smd rect (at -4.953 -1.778 270) (size 0.127 0.254) (layers F.Cu F.Mask))
  (pad 7 smd rect (at -4.445 -1.651 270) (size 0.127 0.254) (layers F.Cu F.Mask))
  (pad 8 smd rect (at -4.953 -1.524 270) (size 0.127 0.254) (layers F.Cu F.Mask))
  (pad 9 smd rect (at -4.445 -1.397 270) (size 0.127 0.254) (layers F.Cu F.Mask))
  (pad 10 smd rect (at -4.953 -1.27 270) (size 0.127 0.254) (layers F.Cu F.Mask))
  (pad 11 smd rect (at -3.175 -1.143 270) (size 0.127 0.254) (layers F.Cu F.Mask))
  (pad 12 smd rect (at -4.191 -1.016 270) (size 0.127 0.254) (layers F.Cu F.Mask))
  (pad 13 smd rect (at -3.175 -0.889 270) (size 0.127 0.254) (layers F.Cu F.Mask))
  (pad 14 smd rect (at -4.191 -0.762 270) (size 0.127 0.254) (layers F.Cu F.Mask))
  (pad 15 smd rect (at -3.175 -0.635 270) (size 0.127 0.254) (layers F.Cu F.Mask))
  (pad 16 smd rect (at -4.191 -0.508 270) (size 0.127 0.254) (layers F.Cu F.Mask))
  (pad 17 smd rect (at -3.175 -0.381 270) (size 0.127 0.254) (layers F.Cu F.Mask))
  (pad 18 smd rect (at -4.191 -0.254 270) (size 0.127 0.254) (layers F.Cu F.Mask))
  (pad 19 smd rect (at -3.175 -0.127 270) (size 0.127 0.254) (layers F.Cu F.Mask))
  (pad 20 smd rect (at -4.191 0 270) (size 0.127 0.254) (layers F.Cu F.Mask))
  (pad 21 smd rect (at -3.175 0.127 270) (size 0.127 0.254) (layers F.Cu F.Mask))
  (pad 22 smd rect (at -4.191 0.254 270) (size 0.127 0.254) (layers F.Cu F.Mask))
  (pad 23 smd rect (at -3.175 0.381 270) (size 0.127 0.254) (layers F.Cu F.Mask))
  (pad 24 smd rect (at -4.191 0.508 270) (size 0.127 0.254) (layers F.Cu F.Mask))
  (pad 25 smd rect (at -3.175 0.635 270) (size 0.127 0.254) (layers F.Cu F.Mask))
  (pad 26 smd rect (at -4.191 0.762 270) (size 0.127 0.254) (layers F.Cu F.Mask))
  (pad 27 smd rect (at -3.175 0.889 270) (size 0.127 0.254) (layers F.Cu F.Mask))
  (pad 28 smd rect (at -4.191 1.016 270) (size 0.127 0.254) (layers F.Cu F.Mask))
  (pad 29 smd rect (at -3.175 1.143 270) (size 0.127 0.254) (layers F.Cu F.Mask))
  (pad 30 smd rect (at -4.191 1.27 270) (size 0.127 0.254) (layers F.Cu F.Mask))
  (pad 31 smd rect (at -3.175 1.397 270) (size 0.127 0.254) (layers F.Cu F.Mask))
  (pad 32 smd rect (at -4.191 1.524 270) (size 0.127 0.254) (layers F.Cu F.Mask))
  (pad 33 smd rect (at -3.175 1.651 270) (size 0.127 0.254) (layers F.Cu F.Mask))
  (pad 34 smd rect (at -4.191 1.778 270) (size 0.127 0.254) (layers F.Cu F.Mask))
  (pad 35 smd rect (at -3.175 1.905 270) (size 0.127 0.254) (layers F.Cu F.Mask))
  (pad 36 smd rect (at -4.191 2.032 270) (size 0.127 0.254) (layers F.Cu F.Mask))
  (pad 37 smd rect (at -3.175 2.159 270) (size 0.127 0.254) (layers F.Cu F.Mask))
  (pad 38 smd rect (at -4.191 2.286 270) (size 0.127 0.254) (layers F.Cu F.Mask))
  (pad 39 smd rect (at -1.4605 4.191) (size 0.127 0.254) (layers F.Cu F.Mask))
  (pad 40 smd rect (at -1.2065 4.445) (size 0.127 0.254) (layers F.Cu F.Mask))
  (pad 41 smd rect (at -1.0795 4.953) (size 0.127 0.254) (layers F.Cu F.Mask))
  (pad 42 smd rect (at -0.8255 4.953) (size 0.127 0.254) (layers F.Cu F.Mask))
  (pad 43 smd rect (at -0.6985 3.937) (size 0.127 0.254) (layers F.Cu F.Mask))
  (pad 44 smd rect (at -0.5715 4.953) (size 0.127 0.254) (layers F.Cu F.Mask))
  (pad 45 smd rect (at -0.3175 4.953) (size 0.127 0.254) (layers F.Cu F.Mask))
  (pad 46 smd rect (at -0.1905 3.937) (size 0.127 0.254) (layers F.Cu F.Mask))
  (pad 47 smd rect (at -0.0635 4.445) (size 0.127 0.254) (layers F.Cu F.Mask))
  (pad 48 smd rect (at 0.0635 3.937) (size 0.127 0.254) (layers F.Cu F.Mask))
  (pad 49 smd rect (at 0.1905 4.445) (size 0.127 0.254) (layers F.Cu F.Mask))
  (pad 50 smd rect (at 0.3175 3.937) (size 0.127 0.254) (layers F.Cu F.Mask))
  (pad 51 smd rect (at 0.4445 4.445) (size 0.127 0.254) (layers F.Cu F.Mask))
  (pad 52 smd rect (at 0.5715 3.937) (size 0.127 0.254) (layers F.Cu F.Mask))
  (pad 53 smd rect (at 0.6985 4.445) (size 0.127 0.254) (layers F.Cu F.Mask))
  (pad 54 smd rect (at 0.8255 3.937) (size 0.127 0.254) (layers F.Cu F.Mask))
  (pad 56 smd rect (at 1.0795 4.445) (size 0.127 0.254) (layers F.Cu F.Mask))
  (pad 57 smd rect (at 1.2065 3.937) (size 0.127 0.254) (layers F.Cu F.Mask))
  (pad 58 smd rect (at 1.3335 4.953) (size 0.127 0.254) (layers F.Cu F.Mask))
  (pad 59 smd rect (at 1.4605 4.445) (size 0.127 0.254) (layers F.Cu F.Mask))
  (pad 60 smd rect (at 3.683 2.286 270) (size 0.127 0.254) (layers F.Cu F.Mask))
  (pad 61 smd rect (at 3.175 2.159 270) (size 0.127 0.254) (layers F.Cu F.Mask))
  (pad 62 smd rect (at 4.191 2.032 270) (size 0.127 0.254) (layers F.Cu F.Mask))
  (pad 63 smd rect (at 3.175 1.905 270) (size 0.127 0.254) (layers F.Cu F.Mask))
  (pad 64 smd rect (at 4.191 1.778 270) (size 0.127 0.254) (layers F.Cu F.Mask))
  (pad 65 smd rect (at 3.175 1.651 270) (size 0.127 0.254) (layers F.Cu F.Mask))
  (pad 66 smd rect (at 4.191 1.524 270) (size 0.127 0.254) (layers F.Cu F.Mask))
  (pad 67 smd rect (at 3.175 1.397 270) (size 0.127 0.254) (layers F.Cu F.Mask))
  (pad 68 smd rect (at 4.191 1.27 270) (size 0.127 0.254) (layers F.Cu F.Mask))
  (pad 69 smd rect (at 3.175 1.143 270) (size 0.127 0.254) (layers F.Cu F.Mask))
  (pad 70 smd rect (at 4.191 1.016 270) (size 0.127 0.254) (layers F.Cu F.Mask))
  (pad 71 smd rect (at 3.175 0.889 270) (size 0.127 0.254) (layers F.Cu F.Mask))
  (pad 72 smd rect (at 4.191 0.762 270) (size 0.127 0.254) (layers F.Cu F.Mask))
  (pad 73 smd rect (at 3.175 0.635 270) (size 0.127 0.254) (layers F.Cu F.Mask))
  (pad 74 smd rect (at 4.191 0.508 270) (size 0.127 0.254) (layers F.Cu F.Mask))
  (pad 75 smd rect (at 3.175 0.381 270) (size 0.127 0.254) (layers F.Cu F.Mask))
  (pad 76 smd rect (at 4.191 0.254 270) (size 0.127 0.254) (layers F.Cu F.Mask))
  (pad 77 smd rect (at 3.175 0.127 270) (size 0.127 0.254) (layers F.Cu F.Mask))
  (pad 78 smd rect (at 4.191 0 270) (size 0.127 0.254) (layers F.Cu F.Mask))
  (pad 79 smd rect (at 3.175 -0.127 270) (size 0.127 0.254) (layers F.Cu F.Mask))
  (pad 80 smd rect (at 4.191 -0.254 270) (size 0.127 0.254) (layers F.Cu F.Mask))
  (pad 81 smd rect (at 3.175 -0.381 270) (size 0.127 0.254) (layers F.Cu F.Mask))
  (pad 82 smd rect (at 4.191 -0.508 270) (size 0.127 0.254) (layers F.Cu F.Mask))
  (pad 83 smd rect (at 3.175 -0.635 270) (size 0.127 0.254) (layers F.Cu F.Mask))
  (pad 84 smd rect (at 3.683 -0.762 270) (size 0.127 0.254) (layers F.Cu F.Mask))
  (pad 85 smd rect (at 3.175 -0.889 270) (size 0.127 0.254) (layers F.Cu F.Mask))
  (pad 86 smd rect (at 3.683 -1.016 270) (size 0.127 0.254) (layers F.Cu F.Mask))
  (pad 87 smd rect (at 3.175 -1.143 270) (size 0.127 0.254) (layers F.Cu F.Mask))
  (pad 88 smd rect (at 3.683 -1.27 270) (size 0.127 0.254) (layers F.Cu F.Mask))
  (pad 89 smd rect (at 3.175 -1.397 270) (size 0.127 0.254) (layers F.Cu F.Mask))
  (pad 90 smd rect (at 4.191 -1.524 270) (size 0.127 0.254) (layers F.Cu F.Mask))
  (pad 91 smd rect (at 3.683 -1.651 270) (size 0.127 0.254) (layers F.Cu F.Mask))
  (pad 92 smd rect (at 3.175 -1.778 270) (size 0.127 0.254) (layers F.Cu F.Mask))
  (pad 93 smd rect (at 3.683 -1.905 270) (size 0.127 0.254) (layers F.Cu F.Mask))
  (pad 94 smd rect (at 4.191 -2.032 270) (size 0.127 0.254) (layers F.Cu F.Mask))
  (pad 95 smd rect (at 3.175 -2.159 270) (size 0.127 0.254) (layers F.Cu F.Mask))
  (pad 96 smd rect (at 3.683 -2.286 270) (size 0.127 0.254) (layers F.Cu F.Mask))
  (pad 97 smd rect (at 3.175 -2.413 270) (size 0.127 0.254) (layers F.Cu F.Mask))
  (pad 98 smd rect (at 1.397 -3.81) (size 0.127 0.254) (layers F.Cu F.Mask))
  (pad 99 smd rect (at 1.27 -4.318) (size 0.127 0.254) (layers F.Cu F.Mask))
  (pad 100 smd rect (at 1.143 -3.81) (size 0.127 0.254) (layers F.Cu F.Mask))
  (pad 101 smd rect (at 1.016 -4.318) (size 0.127 0.254) (layers F.Cu F.Mask))
  (pad 102 smd rect (at 0.889 -3.81) (size 0.127 0.254) (layers F.Cu F.Mask))
  (pad 103 smd rect (at 0.762 -4.318) (size 0.127 0.254) (layers F.Cu F.Mask))
  (pad 104 smd rect (at 0.635 -3.81) (size 0.127 0.254) (layers F.Cu F.Mask))
  (pad 105 smd rect (at 0.508 -4.318) (size 0.127 0.254) (layers F.Cu F.Mask))
  (pad 106 smd rect (at 0.381 -3.81) (size 0.127 0.254) (layers F.Cu F.Mask))
  (pad 107 smd rect (at 0.254 -4.318) (size 0.127 0.254) (layers F.Cu F.Mask))
  (pad 108 smd rect (at 0.127 -3.81) (size 0.127 0.254) (layers F.Cu F.Mask))
  (pad 109 smd rect (at 0 -4.318) (size 0.127 0.254) (layers F.Cu F.Mask))
  (pad 110 smd rect (at -0.127 -3.81) (size 0.127 0.254) (layers F.Cu F.Mask))
  (pad 111 smd rect (at -0.254 -4.318) (size 0.127 0.254) (layers F.Cu F.Mask))
  (pad 112 smd rect (at -0.381 -3.81) (size 0.127 0.254) (layers F.Cu F.Mask))
  (pad 113 smd rect (at -0.508 -4.318) (size 0.127 0.254) (layers F.Cu F.Mask))
  (pad 114 smd rect (at -0.635 -3.81) (size 0.127 0.254) (layers F.Cu F.Mask))
  (pad 115 smd rect (at -0.762 -4.318) (size 0.127 0.254) (layers F.Cu F.Mask))
  (pad 116 smd rect (at -0.889 -3.81) (size 0.127 0.254) (layers F.Cu F.Mask))
  (pad 117 smd rect (at -1.016 -4.318) (size 0.127 0.254) (layers F.Cu F.Mask))
  (pad 118 smd rect (at -1.143 -3.81) (size 0.127 0.254) (layers F.Cu F.Mask))
  (pad 119 smd rect (at -1.27 -4.318) (size 0.127 0.254) (layers F.Cu F.Mask))
  (pad 120 smd rect (at -1.397 -3.81) (size 0.127 0.254) (layers F.Cu F.Mask))
  (pad 121 smd rect (at 0 0 270) (size 5.2 3.5) (layers F.Cu F.Mask))
  (pad 55 smd rect (at 0.9525 4.953) (size 0.127 0.254) (layers F.Cu F.Mask))
)
