(module D_0402 (layer F.Cu) (tedit 5EB2C1A7)
  (descr "Diode SMD in 0603 package")
  (tags "smd diode")
  (attr smd)
  (fp_text reference REF** (at 0 0.75) (layer F.SilkS)
    (effects (font (size 0.3 0.3) (thickness 0.075)))
  )
  (fp_text value D_0603 (at 0 -0.65) (layer F.Fab)
    (effects (font (size 0.3 0.3) (thickness 0.075)))
  )
  (fp_line (start 0.5 -0.3) (end -0.5 -0.3) (layer F.Fab) (width 0.1))
  (fp_line (start 0.5 0.3) (end 0.5 -0.3) (layer F.Fab) (width 0.1))
  (fp_line (start 0.55 -0.45) (end -0.65 -0.45) (layer F.SilkS) (width 0.1))
  (fp_line (start -0.65 0.45) (end -0.65 -0.45) (layer F.SilkS) (width 0.1))
  (fp_line (start -0.65 0.45) (end 0.55 0.45) (layer F.SilkS) (width 0.1))
  (fp_line (start 0.5 0.3) (end -0.5 0.3) (layer F.Fab) (width 0.1))
  (fp_line (start -0.5 0.3) (end -0.5 -0.3) (layer F.Fab) (width 0.1))
  (pad 2 smd rect (at 0.35 0) (size 0.4 0.7) (layers F.Cu F.Paste F.Mask))
  (pad 1 smd rect (at -0.35 0) (size 0.4 0.7) (layers F.Cu F.Paste F.Mask))
)
