M48
; DRILL file {KiCad (6.0.5-0)} date Monday, June 19, 2023 at 08:47:50 AM
; FORMAT={-:-/ absolute / inch / decimal}
; #@! TF.CreationDate,2023-06-19T08:47:50-07:00
; #@! TF.GenerationSoftware,Kicad,Pcbnew,(6.0.5-0)
; #@! TF.FileFunction,Plated,1,4,PTH
FMAT,2
INCH
%
G90
G05
T0
M30
