G04 #@! TF.GenerationSoftware,KiCad,Pcbnew,(6.0.5-0)*
G04 #@! TF.CreationDate,2023-06-19T08:48:17-07:00*
G04 #@! TF.ProjectId,pbv3,70627633-2e6b-4696-9361-645f70636258,rev?*
G04 #@! TF.SameCoordinates,Original*
G04 #@! TF.FileFunction,Copper,L3,Inr*
G04 #@! TF.FilePolarity,Positive*
%FSLAX46Y46*%
G04 Gerber Fmt 4.6, Leading zero omitted, Abs format (unit mm)*
G04 Created by KiCad (PCBNEW (6.0.5-0)) date 2023-06-19 08:48:17*
%MOMM*%
%LPD*%
G01*
G04 APERTURE LIST*
G04 #@! TA.AperFunction,Profile*
%ADD10C,0.150000*%
G04 #@! TD*
G04 #@! TA.AperFunction,ViaPad*
%ADD11C,0.355600*%
G04 #@! TD*
G04 #@! TA.AperFunction,Conductor*
%ADD12C,0.127000*%
G04 #@! TD*
G04 #@! TA.AperFunction,Conductor*
%ADD13C,0.250000*%
G04 #@! TD*
G04 #@! TA.AperFunction,Conductor*
%ADD14C,0.254000*%
G04 #@! TD*
G04 APERTURE END LIST*
D10*
X182000000Y-67000000D02*
X182000000Y-71000000D01*
X182000000Y-67000000D02*
X185000000Y-67000000D01*
X185000000Y-67000000D02*
X185000000Y-64000000D01*
X185000000Y-64000000D02*
X182000000Y-64000000D01*
X182000000Y-71000000D02*
X110000000Y-71000000D01*
X110000000Y-71000000D02*
X110000000Y-60000000D01*
X110000000Y-60000000D02*
X182000000Y-60000000D01*
X182000000Y-60000000D02*
X182000000Y-64000000D01*
D11*
X155321000Y-69342000D03*
X155194000Y-64770000D03*
X155575000Y-61595000D03*
X112522000Y-64516000D03*
X140081000Y-60706000D03*
X137668000Y-65913000D03*
X153035000Y-69342000D03*
X154432000Y-61595000D03*
X111887000Y-65278000D03*
X150749000Y-69342000D03*
X111887000Y-64897000D03*
X121666000Y-66802000D03*
X139700000Y-69215000D03*
X139319000Y-67818000D03*
X155448000Y-67056000D03*
X140589000Y-61976000D03*
X111887000Y-64516000D03*
X142367000Y-61087000D03*
X148209000Y-66929000D03*
X152146000Y-61595000D03*
X151003000Y-61595000D03*
X139446000Y-61976000D03*
X154305000Y-67056000D03*
X140208000Y-61976000D03*
X146177000Y-63881000D03*
X151892000Y-69342000D03*
X149860000Y-61595000D03*
X121158000Y-70231000D03*
X112204500Y-65087500D03*
X144145000Y-65405000D03*
X142113000Y-67310000D03*
X112522000Y-65278000D03*
X116840000Y-69977000D03*
X146177000Y-66929000D03*
X154686000Y-67056000D03*
X122047000Y-66802000D03*
X144145000Y-63881000D03*
X146177000Y-65278000D03*
X155702000Y-64770000D03*
X154178000Y-69342000D03*
X112204500Y-64706500D03*
X112522000Y-64897000D03*
X141986000Y-61087000D03*
X141732000Y-67310000D03*
X148082000Y-65278000D03*
X144145000Y-66929000D03*
X140081000Y-61087000D03*
X155067000Y-67056000D03*
X139827000Y-61976000D03*
X121285000Y-66802000D03*
X153289000Y-61595000D03*
X138049000Y-65913000D03*
X145796000Y-63881000D03*
X152527000Y-61595000D03*
X145796000Y-65278000D03*
X138049000Y-66294000D03*
X147701000Y-65278000D03*
X155194000Y-64389000D03*
X154686000Y-67437000D03*
X137668000Y-66294000D03*
X117221000Y-69723000D03*
X113030000Y-64897000D03*
X113347500Y-64706500D03*
X152273000Y-69342000D03*
X155448000Y-67437000D03*
X150241000Y-61595000D03*
X113030000Y-65278000D03*
X138938000Y-67818000D03*
X113347500Y-65087500D03*
X141732000Y-66929000D03*
X113665000Y-64516000D03*
X119888000Y-67437000D03*
X145796000Y-66929000D03*
X147828000Y-66929000D03*
X113665000Y-64897000D03*
X144526000Y-66929000D03*
X154305000Y-67437000D03*
X141605000Y-61087000D03*
X143764000Y-65405000D03*
X155702000Y-65151000D03*
X155067000Y-67437000D03*
X121666000Y-66802000D03*
X142113000Y-66929000D03*
X144526000Y-63881000D03*
X153670000Y-61595000D03*
X140462000Y-60706000D03*
X154559000Y-69342000D03*
X151130000Y-69342000D03*
X153416000Y-69342000D03*
X151384000Y-61595000D03*
X113030000Y-64516000D03*
X121539000Y-70231000D03*
X154813000Y-61595000D03*
X119634000Y-67056000D03*
X139319000Y-69215000D03*
X155956000Y-61595000D03*
X155702000Y-69342000D03*
X140462000Y-61087000D03*
X141605000Y-60706000D03*
X147828000Y-69723000D03*
X170942000Y-61595000D03*
X147701000Y-69342000D03*
X171323000Y-61595000D03*
X113411000Y-69913500D03*
X143129000Y-60325000D03*
X150876000Y-67310000D03*
X150876000Y-66929000D03*
X142748000Y-60325000D03*
X113792000Y-69913500D03*
X161544000Y-60452000D03*
X147447000Y-60325000D03*
X147828000Y-60325000D03*
X148463000Y-60756795D03*
X162179000Y-60452000D03*
X148082000Y-60756795D03*
X162814000Y-60452000D03*
X147447000Y-61722000D03*
X147828000Y-61722000D03*
X117729000Y-69088000D03*
X117729000Y-69469000D03*
X142875000Y-61468000D03*
X143256000Y-61468000D03*
X146685000Y-69215000D03*
X146685000Y-69596000D03*
X161544000Y-69469000D03*
X145923000Y-70485000D03*
X145923000Y-70104000D03*
X162179000Y-69469000D03*
X143510000Y-70612000D03*
X143129000Y-70612000D03*
X113792000Y-70612000D03*
X113411000Y-70612000D03*
X152654000Y-65151000D03*
X178943000Y-63246000D03*
X152527000Y-65913000D03*
X179451000Y-63246000D03*
X174498000Y-61976000D03*
X175260000Y-69342000D03*
X175641000Y-69342000D03*
X174498000Y-61595000D03*
X178943000Y-61468000D03*
X148717000Y-69342000D03*
X148844000Y-69723000D03*
X153416000Y-68834000D03*
X173863000Y-68453000D03*
X153035000Y-68834000D03*
X150368000Y-68834000D03*
X148336000Y-69723000D03*
X149987000Y-68834000D03*
X148209000Y-69342000D03*
X171958000Y-67056000D03*
X152781000Y-63944500D03*
X171958000Y-67437000D03*
X153162000Y-63944500D03*
X147320000Y-69850000D03*
X177165000Y-61214000D03*
X147193000Y-69342000D03*
X120523000Y-67945000D03*
X140462000Y-63754000D03*
X139700000Y-63754000D03*
X120142000Y-67945000D03*
X140843000Y-63754000D03*
X140081000Y-63754000D03*
X120142000Y-68453000D03*
X140081000Y-64325500D03*
X120523000Y-68453000D03*
X140843000Y-64325500D03*
X140462000Y-64325500D03*
X139700000Y-64325500D03*
X120650000Y-69088000D03*
X140462000Y-64897000D03*
X120269000Y-69088000D03*
X140843000Y-64897000D03*
X140081000Y-64897000D03*
X139700000Y-64897000D03*
X120269000Y-69596000D03*
X120650000Y-69596000D03*
X139065000Y-65024000D03*
X139446000Y-65405000D03*
D12*
X177176179Y-67436999D02*
X173735999Y-67436999D01*
X178943000Y-65670178D02*
X177176179Y-67436999D01*
X178943000Y-63246000D02*
X178943000Y-65670178D01*
X173735999Y-67436999D02*
X172720000Y-66421000D01*
X157352999Y-67309999D02*
X155702000Y-65659000D01*
X170307001Y-67309999D02*
X157352999Y-67309999D01*
X172720000Y-66421000D02*
X171196000Y-66421000D01*
X171196000Y-66421000D02*
X170307001Y-67309999D01*
X155702000Y-65659000D02*
X153162000Y-65659000D01*
X153162000Y-65659000D02*
X152654000Y-65151000D01*
X179451000Y-63246000D02*
X179451000Y-65532000D01*
X173630786Y-67691010D02*
X172614776Y-66675000D01*
X172614776Y-66675000D02*
X171323000Y-66675000D01*
X177291990Y-67691010D02*
X173630786Y-67691010D01*
X179451000Y-65532000D02*
X177291990Y-67691010D01*
X152636944Y-66022944D02*
X152527000Y-65913000D01*
X171323000Y-66675000D02*
X170433990Y-67564010D01*
X170433990Y-67564010D02*
X157226010Y-67564010D01*
X157226010Y-67564010D02*
X155684944Y-66022944D01*
X155684944Y-66022944D02*
X152636944Y-66022944D01*
D13*
X154432000Y-61595000D02*
X154813000Y-61595000D01*
X122047000Y-66802000D02*
X121285000Y-66802000D01*
D12*
X119634000Y-67119500D02*
X120015000Y-67500500D01*
D14*
X137541000Y-61976000D02*
X134366000Y-65151000D01*
D12*
X137731500Y-63119000D02*
X139954000Y-63119000D01*
D13*
X137668000Y-66294000D02*
X138049000Y-66294000D01*
D14*
X122301000Y-66548000D02*
X122047000Y-66802000D01*
D13*
X154178000Y-69342000D02*
X154559000Y-69342000D01*
X151003000Y-61595000D02*
X151384000Y-61595000D01*
X138049000Y-65913000D02*
X137668000Y-65913000D01*
X153289000Y-61595000D02*
X153670000Y-61595000D01*
D12*
X116840000Y-69977000D02*
X117094000Y-69723000D01*
D13*
X140081000Y-60706000D02*
X140081000Y-61087000D01*
D12*
X117094000Y-69723000D02*
X117221000Y-69723000D01*
X133350000Y-67500500D02*
X137731500Y-63119000D01*
X155702000Y-64770000D02*
X155702000Y-65151000D01*
D13*
X155575000Y-61595000D02*
X155956000Y-61595000D01*
X146177000Y-65278000D02*
X145796000Y-65278000D01*
D12*
X121158000Y-70231000D02*
X121539000Y-70231000D01*
D13*
X153035000Y-69342000D02*
X153416000Y-69342000D01*
D14*
X128270000Y-66548000D02*
X122301000Y-66548000D01*
D13*
X140081000Y-61087000D02*
X140462000Y-61087000D01*
X146177000Y-63881000D02*
X145796000Y-63881000D01*
X137668000Y-65913000D02*
X137668000Y-66294000D01*
X146177000Y-66929000D02*
X145796000Y-66929000D01*
X139700000Y-69215000D02*
X139319000Y-69215000D01*
X152146000Y-61595000D02*
X152527000Y-61595000D01*
D12*
X155194000Y-64770000D02*
X155194000Y-64389000D01*
D13*
X148082000Y-65278000D02*
X147701000Y-65278000D01*
X140462000Y-61087000D02*
X140081000Y-60706000D01*
D12*
X120015000Y-67500500D02*
X133350000Y-67500500D01*
D13*
X138049000Y-66294000D02*
X138049000Y-65913000D01*
X141605000Y-60706000D02*
X141605000Y-61087000D01*
X149860000Y-61595000D02*
X150241000Y-61595000D01*
X142113000Y-67310000D02*
X142113000Y-66929000D01*
X141732000Y-67310000D02*
X141732000Y-66929000D01*
X151892000Y-69342000D02*
X152273000Y-69342000D01*
X140462000Y-61087000D02*
X140462000Y-60706000D01*
X148209000Y-66929000D02*
X147828000Y-66929000D01*
D14*
X134366000Y-65151000D02*
X129667000Y-65151000D01*
D13*
X144145000Y-66929000D02*
X144526000Y-66929000D01*
X141986000Y-61087000D02*
X142367000Y-61087000D01*
D14*
X129667000Y-65151000D02*
X128270000Y-66548000D01*
D13*
X150749000Y-69342000D02*
X151130000Y-69342000D01*
D12*
X119634000Y-67056000D02*
X119634000Y-67119500D01*
D13*
X141605000Y-61087000D02*
X141986000Y-61087000D01*
D14*
X140589000Y-61976000D02*
X137541000Y-61976000D01*
D13*
X144145000Y-63881000D02*
X144526000Y-63881000D01*
X140462000Y-60706000D02*
X140081000Y-60706000D01*
X137668000Y-66294000D02*
X138049000Y-65913000D01*
X155321000Y-69342000D02*
X155702000Y-69342000D01*
X144145000Y-65405000D02*
X143764000Y-65405000D01*
X139319000Y-67818000D02*
X138938000Y-67818000D01*
D12*
X150342581Y-63752477D02*
X150342581Y-63017419D01*
X163703000Y-62992000D02*
X165354000Y-61341000D01*
X150876000Y-62484000D02*
X155536902Y-62484000D01*
X170688000Y-61341000D02*
X170942000Y-61595000D01*
X148717000Y-67945000D02*
X151384000Y-67945000D01*
X150342581Y-63017419D02*
X150876000Y-62484000D01*
X147828000Y-69723000D02*
X147828000Y-69469000D01*
X150342589Y-65633589D02*
X150342589Y-63752485D01*
X147701000Y-69342000D02*
X147701000Y-68961000D01*
X170942000Y-61595000D02*
X171323000Y-61595000D01*
X151384000Y-66675000D02*
X150342589Y-65633589D01*
X147701000Y-68961000D02*
X148717000Y-67945000D01*
X151384000Y-67945000D02*
X151384000Y-66675000D01*
X165354000Y-61341000D02*
X170688000Y-61341000D01*
X155536902Y-62484000D02*
X156044902Y-62992000D01*
X156044902Y-62992000D02*
X163703000Y-62992000D01*
X147828000Y-69469000D02*
X147701000Y-69342000D01*
X150342589Y-63752485D02*
X150342581Y-63752477D01*
X113411000Y-69913500D02*
X114617500Y-69913500D01*
X144526001Y-60325001D02*
X150876000Y-66675000D01*
X150876000Y-66675000D02*
X150876000Y-67310000D01*
X134492999Y-60325001D02*
X144526001Y-60325001D01*
X121158000Y-63373000D02*
X131445000Y-63373000D01*
X114617500Y-69913500D02*
X121158000Y-63373000D01*
X131445000Y-63373000D02*
X134492999Y-60325001D01*
X147447000Y-60325000D02*
X161353500Y-60325000D01*
X161353500Y-60325000D02*
X161543996Y-60515496D01*
X161150295Y-61021977D02*
X161342318Y-61214000D01*
X160947101Y-60579012D02*
X161150295Y-60782206D01*
X162115500Y-61214000D02*
X162179000Y-61150500D01*
X148463000Y-60756795D02*
X148082000Y-60756795D01*
X148640790Y-60579005D02*
X160947101Y-60579005D01*
X162179000Y-61150500D02*
X162179000Y-60452000D01*
X161150295Y-60782206D02*
X161150295Y-61021977D01*
X148463000Y-60756795D02*
X148640790Y-60579005D01*
X161342318Y-61214000D02*
X162115500Y-61214000D01*
X160947101Y-60579005D02*
X160947101Y-60579012D01*
X148971000Y-60833000D02*
X148971022Y-60833022D01*
X162814000Y-61341000D02*
X162814000Y-60452000D01*
X160528022Y-60833022D02*
X161163000Y-61468000D01*
X147447000Y-61722000D02*
X147828000Y-61722000D01*
X148082044Y-61722000D02*
X148971022Y-60833022D01*
X162687000Y-61468000D02*
X162814000Y-61341000D01*
X147828000Y-61722000D02*
X148082044Y-61722000D01*
X148971022Y-60833022D02*
X160528022Y-60833022D01*
X161163000Y-61468000D02*
X162687000Y-61468000D01*
X117729000Y-67564000D02*
X117729000Y-69469000D01*
X142875000Y-61468000D02*
X143256000Y-61468000D01*
X121539000Y-63754000D02*
X117729000Y-67564000D01*
X132969000Y-63754000D02*
X121539000Y-63754000D01*
X142875000Y-61468000D02*
X142811501Y-61531499D01*
X135191501Y-61531499D02*
X132969000Y-63754000D01*
X142811501Y-61531499D02*
X135191501Y-61531499D01*
X146685000Y-70231000D02*
X146685000Y-69596000D01*
X156273510Y-70421490D02*
X146875490Y-70421490D01*
X146875490Y-70421490D02*
X146685000Y-70231000D01*
X156591001Y-70103999D02*
X156273510Y-70421490D01*
X160909001Y-70103999D02*
X156591001Y-70103999D01*
X161544000Y-69469000D02*
X160909001Y-70103999D01*
X146685000Y-69596000D02*
X146685000Y-69215000D01*
X146113500Y-70675500D02*
X156527500Y-70675500D01*
X156845000Y-70358000D02*
X162052000Y-70358000D01*
X162052000Y-70358000D02*
X162179000Y-70231000D01*
X162179000Y-70231000D02*
X162179000Y-69469000D01*
X145923000Y-70485000D02*
X145923000Y-70104000D01*
X156527500Y-70675500D02*
X156845000Y-70358000D01*
X145923000Y-70485000D02*
X146113500Y-70675500D01*
X115044567Y-70688199D02*
X143052801Y-70688199D01*
X143129000Y-70612000D02*
X143510000Y-70612000D01*
X143052801Y-70688199D02*
X143129000Y-70612000D01*
X114236500Y-70612000D02*
X114968368Y-70612000D01*
X113411000Y-70612000D02*
X114554000Y-70612000D01*
X114968368Y-70612000D02*
X115044567Y-70688199D01*
X175260000Y-69342000D02*
X179070000Y-69342000D01*
X179070000Y-69342000D02*
X179958978Y-68453022D01*
D14*
X174498000Y-61976000D02*
X174498000Y-61595000D01*
D12*
X174561500Y-62039500D02*
X174498000Y-61976000D01*
X179958978Y-68453022D02*
X179958978Y-62229978D01*
X179958978Y-62229978D02*
X179768500Y-62039500D01*
D14*
X175641000Y-69342000D02*
X175260000Y-69342000D01*
D12*
X179768500Y-62039500D02*
X174561500Y-62039500D01*
X171081701Y-69354701D02*
X163895023Y-69354701D01*
X171450000Y-69723000D02*
X171081701Y-69354701D01*
X148844000Y-69469000D02*
X148844000Y-69723000D01*
X156400499Y-69532501D02*
X156019530Y-69913470D01*
X161163000Y-68834000D02*
X160464499Y-69532501D01*
X179101750Y-69723000D02*
X171450000Y-69723000D01*
X149034470Y-69913470D02*
X148844000Y-69723000D01*
X180212989Y-68611761D02*
X179101750Y-69723000D01*
X180212989Y-62102989D02*
X180212989Y-68611761D01*
X179578000Y-61468000D02*
X180212989Y-62102989D01*
X178943000Y-61468000D02*
X179578000Y-61468000D01*
X163895023Y-69354701D02*
X163374322Y-68834000D01*
X160464499Y-69532501D02*
X156400499Y-69532501D01*
X163374322Y-68834000D02*
X161163000Y-68834000D01*
X156019530Y-69913470D02*
X149034470Y-69913470D01*
X148717000Y-69342000D02*
X148844000Y-69469000D01*
X153416000Y-68834000D02*
X153035000Y-68834000D01*
X170878500Y-68072000D02*
X171259500Y-68453000D01*
X171259500Y-68453000D02*
X173863000Y-68453000D01*
X153924000Y-68834000D02*
X154686000Y-68072000D01*
X153531822Y-68834000D02*
X153924000Y-68834000D01*
X154686000Y-68072000D02*
X170878500Y-68072000D01*
X148209000Y-69088000D02*
X148461219Y-68835781D01*
X148336000Y-69723000D02*
X148336000Y-69469000D01*
X148336000Y-69469000D02*
X148209000Y-69342000D01*
X148209000Y-69342000D02*
X148209000Y-69088000D01*
X150280558Y-68835781D02*
X148461219Y-68835781D01*
X151892000Y-64770000D02*
X152717500Y-63944500D01*
X170942000Y-67437000D02*
X170561000Y-67818000D01*
X155575000Y-66294000D02*
X152273000Y-66294000D01*
X170561000Y-67818000D02*
X157099000Y-67818000D01*
X152717500Y-63944500D02*
X153162000Y-63944500D01*
X157099000Y-67818000D02*
X155575000Y-66294000D01*
X151892000Y-65913000D02*
X151892000Y-64770000D01*
X152273000Y-66294000D02*
X151892000Y-65913000D01*
X171958000Y-67437000D02*
X170942000Y-67437000D01*
D14*
X171958000Y-67056000D02*
X171958000Y-67437000D01*
D12*
X180467000Y-61976000D02*
X179578000Y-61087000D01*
X161290000Y-69088000D02*
X163269098Y-69088000D01*
X163904098Y-69723000D02*
X171090776Y-69723000D01*
X160591488Y-69786512D02*
X161290000Y-69088000D01*
X156146520Y-70167480D02*
X156527488Y-69786512D01*
X163269098Y-69088000D02*
X163904098Y-69723000D01*
X147320000Y-69850000D02*
X147320000Y-69469000D01*
X178117530Y-61087000D02*
X177990530Y-61214000D01*
X171344776Y-69977000D02*
X179324000Y-69977000D01*
X147320000Y-69469000D02*
X147193000Y-69342000D01*
X147637480Y-70167480D02*
X156146520Y-70167480D01*
X171090776Y-69723000D02*
X171344776Y-69977000D01*
X180467000Y-68834000D02*
X180467000Y-61976000D01*
X179324000Y-69977000D02*
X180467000Y-68834000D01*
X179578000Y-61087000D02*
X178117530Y-61087000D01*
X156527488Y-69786512D02*
X160591488Y-69786512D01*
X177990530Y-61214000D02*
X177165000Y-61214000D01*
X147320000Y-69850000D02*
X147637480Y-70167480D01*
X139636500Y-63754000D02*
X140843000Y-63754000D01*
X137719025Y-63550801D02*
X139433301Y-63550801D01*
X133324826Y-67945000D02*
X137719025Y-63550801D01*
X120142000Y-67945000D02*
X133324826Y-67945000D01*
X139433301Y-63550801D02*
X139636500Y-63754000D01*
X140843000Y-64325500D02*
X139636500Y-64325500D01*
X120142000Y-68453000D02*
X120777000Y-68453000D01*
X133477000Y-68199000D02*
X121031000Y-68199000D01*
X120777000Y-68453000D02*
X121031000Y-68199000D01*
X139636500Y-64325500D02*
X139115811Y-63804811D01*
X137871189Y-63804811D02*
X133477000Y-68199000D01*
X139115811Y-63804811D02*
X137871189Y-63804811D01*
X120269000Y-69088000D02*
X120650000Y-69088000D01*
X136906000Y-65214500D02*
X137922000Y-64198500D01*
X120650000Y-69088000D02*
X120904000Y-68834000D01*
X120904000Y-68834000D02*
X134620000Y-68834000D01*
X137922000Y-64198500D02*
X138938000Y-64198500D01*
X139636500Y-64897000D02*
X140843000Y-64897000D01*
X136906000Y-66548000D02*
X136906000Y-65214500D01*
X138938000Y-64198500D02*
X139636500Y-64897000D01*
X134620000Y-68834000D02*
X136906000Y-66548000D01*
X120650000Y-69596000D02*
X120269000Y-69596000D01*
X137160000Y-65393822D02*
X137160000Y-66675000D01*
X137847322Y-64706500D02*
X137160000Y-65393822D01*
X134747000Y-69088000D02*
X121285000Y-69088000D01*
X139446000Y-65405000D02*
X138747500Y-64706500D01*
X137160000Y-66675000D02*
X134747000Y-69088000D01*
X138747500Y-64706500D02*
X137847322Y-64706500D01*
X120777000Y-69596000D02*
X120650000Y-69596000D01*
X121285000Y-69088000D02*
X120777000Y-69596000D01*
G04 #@! TA.AperFunction,Conductor*
G36*
X155644121Y-66822002D02*
G01*
X155690614Y-66875658D01*
X155702000Y-66928000D01*
X155702000Y-67565000D01*
X155681998Y-67633121D01*
X155628342Y-67679614D01*
X155576000Y-67691000D01*
X154177000Y-67691000D01*
X154108879Y-67670998D01*
X154062386Y-67617342D01*
X154051000Y-67565000D01*
X154051000Y-66928000D01*
X154071002Y-66859879D01*
X154124658Y-66813386D01*
X154177000Y-66802000D01*
X155576000Y-66802000D01*
X155644121Y-66822002D01*
G37*
G04 #@! TD.AperFunction*
G04 #@! TA.AperFunction,Conductor*
G36*
X181679121Y-60218002D02*
G01*
X181725614Y-60271658D01*
X181737000Y-60324000D01*
X181737000Y-70613000D01*
X181716998Y-70681121D01*
X181663342Y-70727614D01*
X181611000Y-70739000D01*
X162241337Y-70739000D01*
X162173216Y-70718998D01*
X162126723Y-70665342D01*
X162116619Y-70595068D01*
X162146113Y-70530488D01*
X162162855Y-70514428D01*
X162165674Y-70512184D01*
X162171711Y-70508404D01*
X162176751Y-70503364D01*
X162179337Y-70501305D01*
X162184963Y-70496279D01*
X162194011Y-70489069D01*
X162194012Y-70489068D01*
X162205109Y-70480225D01*
X162209878Y-70470337D01*
X162210727Y-70469388D01*
X162290357Y-70389757D01*
X162291193Y-70389011D01*
X162300958Y-70384322D01*
X162317226Y-70363980D01*
X162322344Y-70358261D01*
X162324280Y-70355834D01*
X162329283Y-70350831D01*
X162333046Y-70344844D01*
X162335337Y-70341972D01*
X162339409Y-70336243D01*
X162346519Y-70327352D01*
X162346520Y-70327349D01*
X162355383Y-70316267D01*
X162357907Y-70305290D01*
X162363902Y-70295752D01*
X162366773Y-70270353D01*
X162368009Y-70263123D01*
X162368404Y-70259644D01*
X162370000Y-70252703D01*
X162370000Y-70245577D01*
X162370372Y-70242299D01*
X162370797Y-70234755D01*
X162372096Y-70223260D01*
X162373690Y-70209162D01*
X162370071Y-70198799D01*
X162370000Y-70197524D01*
X162370000Y-69766028D01*
X162390002Y-69697907D01*
X162401797Y-69684512D01*
X162400950Y-69683802D01*
X162408036Y-69675357D01*
X162416481Y-69668271D01*
X162425968Y-69651840D01*
X162451663Y-69607334D01*
X162470314Y-69575030D01*
X162489010Y-69469000D01*
X162481583Y-69426880D01*
X162489452Y-69356321D01*
X162534219Y-69301217D01*
X162605669Y-69279000D01*
X163137793Y-69279000D01*
X163205914Y-69299002D01*
X163226888Y-69315905D01*
X163745341Y-69834358D01*
X163746088Y-69835195D01*
X163750776Y-69844958D01*
X163761856Y-69853819D01*
X163761857Y-69853820D01*
X163771113Y-69861222D01*
X163776837Y-69866345D01*
X163779263Y-69868280D01*
X163784267Y-69873284D01*
X163790256Y-69877048D01*
X163793128Y-69879339D01*
X163798859Y-69883412D01*
X163807746Y-69890519D01*
X163807749Y-69890520D01*
X163818831Y-69899383D01*
X163829808Y-69901907D01*
X163839346Y-69907902D01*
X163864770Y-69910776D01*
X163871975Y-69912008D01*
X163875445Y-69912402D01*
X163882395Y-69914000D01*
X163889525Y-69914000D01*
X163892811Y-69914373D01*
X163900337Y-69914797D01*
X163925937Y-69917691D01*
X163936301Y-69914072D01*
X163937581Y-69914000D01*
X170959470Y-69914000D01*
X171027591Y-69934002D01*
X171048565Y-69950904D01*
X171186019Y-70088357D01*
X171186765Y-70089193D01*
X171191454Y-70098958D01*
X171202534Y-70107819D01*
X171202535Y-70107820D01*
X171211796Y-70115226D01*
X171217515Y-70120344D01*
X171219942Y-70122280D01*
X171224945Y-70127283D01*
X171230932Y-70131046D01*
X171233804Y-70133337D01*
X171239533Y-70137409D01*
X171248424Y-70144519D01*
X171248427Y-70144520D01*
X171259509Y-70153383D01*
X171270486Y-70155907D01*
X171280024Y-70161902D01*
X171294123Y-70163496D01*
X171294124Y-70163496D01*
X171305423Y-70164773D01*
X171312653Y-70166009D01*
X171316132Y-70166404D01*
X171323073Y-70168000D01*
X171330199Y-70168000D01*
X171333477Y-70168372D01*
X171341021Y-70168797D01*
X171366614Y-70171690D01*
X171376977Y-70168071D01*
X171378252Y-70168000D01*
X179290491Y-70168000D01*
X179291603Y-70168063D01*
X179301822Y-70171652D01*
X179315923Y-70170083D01*
X179315925Y-70170083D01*
X179327693Y-70168773D01*
X179335381Y-70168347D01*
X179338462Y-70168000D01*
X179345533Y-70168000D01*
X179352430Y-70166427D01*
X179356079Y-70166016D01*
X179363014Y-70164842D01*
X179369588Y-70164111D01*
X179374332Y-70163583D01*
X179388429Y-70162014D01*
X179397975Y-70156038D01*
X179408959Y-70153532D01*
X179420270Y-70144519D01*
X179428952Y-70137600D01*
X179434926Y-70133371D01*
X179437671Y-70131186D01*
X179443711Y-70127404D01*
X179448754Y-70122361D01*
X179451345Y-70120298D01*
X179456963Y-70115279D01*
X179466011Y-70108069D01*
X179466012Y-70108068D01*
X179477109Y-70099225D01*
X179481878Y-70089338D01*
X179482732Y-70088383D01*
X180578353Y-68992761D01*
X180579194Y-68992011D01*
X180588958Y-68987322D01*
X180605226Y-68966980D01*
X180610344Y-68961261D01*
X180612280Y-68958834D01*
X180617283Y-68953831D01*
X180621046Y-68947844D01*
X180623337Y-68944972D01*
X180627409Y-68939243D01*
X180634519Y-68930352D01*
X180634520Y-68930349D01*
X180643383Y-68919267D01*
X180645907Y-68908290D01*
X180651902Y-68898752D01*
X180654773Y-68873353D01*
X180656009Y-68866123D01*
X180656404Y-68862644D01*
X180658000Y-68855703D01*
X180658000Y-68848577D01*
X180658372Y-68845299D01*
X180658797Y-68837755D01*
X180660096Y-68826260D01*
X180661690Y-68812162D01*
X180658071Y-68801799D01*
X180658000Y-68800524D01*
X180658000Y-62009510D01*
X180658063Y-62008397D01*
X180661652Y-61998178D01*
X180658773Y-61972304D01*
X180658346Y-61964607D01*
X180658000Y-61961535D01*
X180658000Y-61954467D01*
X180656428Y-61947576D01*
X180656017Y-61943926D01*
X180654843Y-61936985D01*
X180653584Y-61925673D01*
X180652015Y-61911571D01*
X180646037Y-61902023D01*
X180643532Y-61891041D01*
X180627602Y-61871050D01*
X180623359Y-61865058D01*
X180621184Y-61862326D01*
X180617404Y-61856289D01*
X180612364Y-61851249D01*
X180610305Y-61848663D01*
X180605285Y-61843045D01*
X180589225Y-61822891D01*
X180579338Y-61818122D01*
X180578384Y-61817269D01*
X179736757Y-60975642D01*
X179736010Y-60974805D01*
X179731322Y-60965042D01*
X179710985Y-60948778D01*
X179705261Y-60943655D01*
X179702835Y-60941720D01*
X179697831Y-60936716D01*
X179691842Y-60932952D01*
X179688970Y-60930661D01*
X179683239Y-60926588D01*
X179674352Y-60919481D01*
X179674349Y-60919480D01*
X179663267Y-60910617D01*
X179652290Y-60908093D01*
X179642752Y-60902098D01*
X179617333Y-60899224D01*
X179610118Y-60897991D01*
X179606648Y-60897597D01*
X179599703Y-60896000D01*
X179592579Y-60896000D01*
X179589293Y-60895627D01*
X179581752Y-60895202D01*
X179570263Y-60893903D01*
X179570262Y-60893903D01*
X179556162Y-60892309D01*
X179545797Y-60895929D01*
X179544523Y-60896000D01*
X178151039Y-60896000D01*
X178149927Y-60895937D01*
X178139708Y-60892348D01*
X178125607Y-60893917D01*
X178125605Y-60893917D01*
X178113837Y-60895227D01*
X178106149Y-60895653D01*
X178103068Y-60896000D01*
X178095997Y-60896000D01*
X178089100Y-60897573D01*
X178085451Y-60897984D01*
X178078516Y-60899158D01*
X178071942Y-60899889D01*
X178067198Y-60900417D01*
X178053101Y-60901986D01*
X178043555Y-60907962D01*
X178032571Y-60910468D01*
X178021477Y-60919309D01*
X178021476Y-60919309D01*
X178012578Y-60926400D01*
X178006604Y-60930629D01*
X178003859Y-60932814D01*
X177997819Y-60936596D01*
X177992776Y-60941639D01*
X177990190Y-60943698D01*
X177984575Y-60948715D01*
X177964421Y-60964775D01*
X177959652Y-60974662D01*
X177958799Y-60975616D01*
X177948320Y-60986095D01*
X177886008Y-61020121D01*
X177859225Y-61023000D01*
X177458198Y-61023000D01*
X177390077Y-61002998D01*
X177377206Y-60993521D01*
X177376512Y-60992938D01*
X177320005Y-60945523D01*
X177218833Y-60908700D01*
X177111167Y-60908700D01*
X177009995Y-60945523D01*
X177001549Y-60952610D01*
X176952794Y-60993521D01*
X176927519Y-61014729D01*
X176873686Y-61107970D01*
X176854990Y-61214000D01*
X176873686Y-61320030D01*
X176904406Y-61373239D01*
X176920194Y-61400583D01*
X176927519Y-61413271D01*
X176935960Y-61420354D01*
X176935961Y-61420355D01*
X176956217Y-61437352D01*
X177009995Y-61482477D01*
X177111167Y-61519300D01*
X177218833Y-61519300D01*
X177320005Y-61482477D01*
X177377207Y-61434479D01*
X177442247Y-61406014D01*
X177458198Y-61405000D01*
X177957021Y-61405000D01*
X177958133Y-61405063D01*
X177968352Y-61408652D01*
X177982453Y-61407083D01*
X177982455Y-61407083D01*
X177994223Y-61405773D01*
X178001911Y-61405347D01*
X178004992Y-61405000D01*
X178012063Y-61405000D01*
X178018960Y-61403427D01*
X178022609Y-61403016D01*
X178029544Y-61401842D01*
X178036118Y-61401111D01*
X178040862Y-61400583D01*
X178054959Y-61399014D01*
X178064505Y-61393038D01*
X178075489Y-61390532D01*
X178095483Y-61374599D01*
X178101456Y-61370371D01*
X178104201Y-61368186D01*
X178110241Y-61364404D01*
X178115284Y-61359361D01*
X178117875Y-61357298D01*
X178123493Y-61352279D01*
X178132541Y-61345069D01*
X178132542Y-61345068D01*
X178143639Y-61336225D01*
X178148407Y-61326339D01*
X178149258Y-61325388D01*
X178159741Y-61314905D01*
X178222053Y-61280879D01*
X178248836Y-61278000D01*
X178516331Y-61278000D01*
X178584452Y-61298002D01*
X178630945Y-61351658D01*
X178640417Y-61425880D01*
X178632990Y-61468000D01*
X178651686Y-61574030D01*
X178680272Y-61623542D01*
X178701032Y-61659500D01*
X178717770Y-61728495D01*
X178694549Y-61795587D01*
X178638742Y-61839474D01*
X178591913Y-61848500D01*
X174913472Y-61848500D01*
X174845351Y-61828498D01*
X174798858Y-61774842D01*
X174789386Y-61700620D01*
X174795267Y-61667271D01*
X174808010Y-61595000D01*
X174789314Y-61488970D01*
X174735481Y-61395729D01*
X174718752Y-61381691D01*
X174661451Y-61333610D01*
X174653005Y-61326523D01*
X174551833Y-61289700D01*
X174444167Y-61289700D01*
X174342995Y-61326523D01*
X174334549Y-61333610D01*
X174277249Y-61381691D01*
X174260519Y-61395729D01*
X174206686Y-61488970D01*
X174187990Y-61595000D01*
X174189904Y-61605855D01*
X174204772Y-61690173D01*
X174206686Y-61701030D01*
X174212197Y-61710575D01*
X174212199Y-61710581D01*
X174219081Y-61722501D01*
X174235819Y-61791496D01*
X174219081Y-61848499D01*
X174212199Y-61860419D01*
X174212197Y-61860425D01*
X174206686Y-61869970D01*
X174204772Y-61880823D01*
X174204772Y-61880824D01*
X174193616Y-61944095D01*
X174187990Y-61976000D01*
X174206686Y-62082030D01*
X174260519Y-62175271D01*
X174342995Y-62244477D01*
X174444167Y-62281300D01*
X174551833Y-62281300D01*
X174595902Y-62265261D01*
X174642645Y-62248248D01*
X174642647Y-62248247D01*
X174647481Y-62246488D01*
X174647483Y-62246487D01*
X174653005Y-62244477D01*
X174653181Y-62244960D01*
X174707146Y-62230500D01*
X179637195Y-62230500D01*
X179705316Y-62250502D01*
X179726290Y-62267405D01*
X179731073Y-62272188D01*
X179765099Y-62334500D01*
X179767978Y-62361283D01*
X179767978Y-62856530D01*
X179747976Y-62924651D01*
X179694320Y-62971144D01*
X179624046Y-62981248D01*
X179598891Y-62974934D01*
X179504833Y-62940700D01*
X179397167Y-62940700D01*
X179295995Y-62977523D01*
X179287550Y-62984609D01*
X179287545Y-62984612D01*
X179277990Y-62992630D01*
X179212949Y-63021094D01*
X179142845Y-63009876D01*
X179116010Y-62992630D01*
X179106455Y-62984612D01*
X179106450Y-62984609D01*
X179098005Y-62977523D01*
X178996833Y-62940700D01*
X178889167Y-62940700D01*
X178787995Y-62977523D01*
X178779549Y-62984610D01*
X178714424Y-63039257D01*
X178705519Y-63046729D01*
X178651686Y-63139970D01*
X178632990Y-63246000D01*
X178651686Y-63352030D01*
X178705519Y-63445271D01*
X178713964Y-63452357D01*
X178721050Y-63460802D01*
X178718131Y-63463252D01*
X178746315Y-63505609D01*
X178752000Y-63543028D01*
X178752000Y-65538873D01*
X178731998Y-65606994D01*
X178715095Y-65627968D01*
X177133969Y-67209094D01*
X177071657Y-67243120D01*
X177044874Y-67245999D01*
X173867304Y-67245999D01*
X173799183Y-67225997D01*
X173778209Y-67209094D01*
X172878757Y-66309642D01*
X172878010Y-66308805D01*
X172873322Y-66299042D01*
X172852985Y-66282778D01*
X172847261Y-66277655D01*
X172844835Y-66275720D01*
X172839831Y-66270716D01*
X172833842Y-66266952D01*
X172830970Y-66264661D01*
X172825239Y-66260588D01*
X172816352Y-66253481D01*
X172816349Y-66253480D01*
X172805267Y-66244617D01*
X172794290Y-66242093D01*
X172784752Y-66236098D01*
X172759333Y-66233224D01*
X172752118Y-66231991D01*
X172748648Y-66231597D01*
X172741703Y-66230000D01*
X172734579Y-66230000D01*
X172731293Y-66229627D01*
X172723752Y-66229202D01*
X172712263Y-66227903D01*
X172712262Y-66227903D01*
X172698162Y-66226309D01*
X172687797Y-66229929D01*
X172686523Y-66230000D01*
X171229508Y-66230000D01*
X171228396Y-66229937D01*
X171218177Y-66226348D01*
X171204077Y-66227917D01*
X171204075Y-66227917D01*
X171192307Y-66229227D01*
X171184617Y-66229654D01*
X171181544Y-66230000D01*
X171174467Y-66230000D01*
X171167570Y-66231573D01*
X171163921Y-66231984D01*
X171156981Y-66233158D01*
X171131571Y-66235986D01*
X171122025Y-66241962D01*
X171111041Y-66244468D01*
X171099945Y-66253310D01*
X171099943Y-66253311D01*
X171091038Y-66260407D01*
X171085079Y-66264626D01*
X171082330Y-66266815D01*
X171076289Y-66270597D01*
X171071246Y-66275640D01*
X171068655Y-66277703D01*
X171063050Y-66282711D01*
X171042891Y-66298775D01*
X171038121Y-66308664D01*
X171037267Y-66309619D01*
X170264790Y-67082095D01*
X170202478Y-67116120D01*
X170175695Y-67118999D01*
X157484304Y-67118999D01*
X157416183Y-67098997D01*
X157395209Y-67082094D01*
X156119905Y-65806790D01*
X156085879Y-65744478D01*
X156083000Y-65717695D01*
X156083000Y-63309000D01*
X156103002Y-63240879D01*
X156156658Y-63194386D01*
X156209000Y-63183000D01*
X163669491Y-63183000D01*
X163670603Y-63183063D01*
X163680822Y-63186652D01*
X163694923Y-63185083D01*
X163694925Y-63185083D01*
X163706693Y-63183773D01*
X163714381Y-63183347D01*
X163717462Y-63183000D01*
X163724533Y-63183000D01*
X163731430Y-63181427D01*
X163735079Y-63181016D01*
X163742014Y-63179842D01*
X163748588Y-63179111D01*
X163753332Y-63178583D01*
X163767429Y-63177014D01*
X163776975Y-63171038D01*
X163787959Y-63168532D01*
X163807953Y-63152599D01*
X163813926Y-63148371D01*
X163816671Y-63146186D01*
X163822711Y-63142404D01*
X163827754Y-63137361D01*
X163830340Y-63135302D01*
X163835955Y-63130285D01*
X163856109Y-63114225D01*
X163860878Y-63104338D01*
X163861731Y-63103384D01*
X165396210Y-61568905D01*
X165458522Y-61534879D01*
X165485305Y-61532000D01*
X170515155Y-61532000D01*
X170583276Y-61552002D01*
X170629769Y-61605658D01*
X170639240Y-61636119D01*
X170650686Y-61701030D01*
X170704519Y-61794271D01*
X170712960Y-61801354D01*
X170712961Y-61801355D01*
X170762636Y-61843037D01*
X170786995Y-61863477D01*
X170888167Y-61900300D01*
X170995833Y-61900300D01*
X171089409Y-61866242D01*
X171160260Y-61861740D01*
X171175583Y-61866239D01*
X171269167Y-61900300D01*
X171376833Y-61900300D01*
X171478005Y-61863477D01*
X171502364Y-61843037D01*
X171552039Y-61801355D01*
X171552040Y-61801354D01*
X171560481Y-61794271D01*
X171614314Y-61701030D01*
X171633010Y-61595000D01*
X171614314Y-61488970D01*
X171560481Y-61395729D01*
X171543752Y-61381691D01*
X171486451Y-61333610D01*
X171478005Y-61326523D01*
X171376833Y-61289700D01*
X171269167Y-61289700D01*
X171175591Y-61323758D01*
X171104740Y-61328260D01*
X171089417Y-61323761D01*
X170995833Y-61289700D01*
X170959005Y-61289700D01*
X170890884Y-61269698D01*
X170869910Y-61252795D01*
X170846757Y-61229642D01*
X170846010Y-61228805D01*
X170841322Y-61219042D01*
X170820985Y-61202778D01*
X170815261Y-61197655D01*
X170812835Y-61195720D01*
X170807831Y-61190716D01*
X170801842Y-61186952D01*
X170798970Y-61184661D01*
X170793239Y-61180588D01*
X170784352Y-61173481D01*
X170784349Y-61173480D01*
X170773267Y-61164617D01*
X170762290Y-61162093D01*
X170752752Y-61156098D01*
X170727333Y-61153224D01*
X170720118Y-61151991D01*
X170716648Y-61151597D01*
X170709703Y-61150000D01*
X170702579Y-61150000D01*
X170699293Y-61149627D01*
X170691752Y-61149202D01*
X170680263Y-61147903D01*
X170680262Y-61147903D01*
X170666162Y-61146309D01*
X170655797Y-61149929D01*
X170654523Y-61150000D01*
X165387517Y-61150000D01*
X165386399Y-61149937D01*
X165376178Y-61146347D01*
X165362077Y-61147916D01*
X165362075Y-61147916D01*
X165350299Y-61149227D01*
X165342619Y-61149653D01*
X165339537Y-61150000D01*
X165332467Y-61150000D01*
X165325574Y-61151572D01*
X165321933Y-61151982D01*
X165314993Y-61153156D01*
X165289572Y-61155985D01*
X165280024Y-61161963D01*
X165269041Y-61164468D01*
X165257945Y-61173310D01*
X165249048Y-61180400D01*
X165243074Y-61184629D01*
X165240329Y-61186814D01*
X165234289Y-61190596D01*
X165229246Y-61195639D01*
X165226660Y-61197698D01*
X165221045Y-61202715D01*
X165200891Y-61218775D01*
X165196122Y-61228662D01*
X165195269Y-61229616D01*
X163660790Y-62764095D01*
X163598478Y-62798121D01*
X163571695Y-62801000D01*
X156209000Y-62801000D01*
X156140879Y-62780998D01*
X156094386Y-62727342D01*
X156083000Y-62675000D01*
X156083000Y-62103000D01*
X149351000Y-62103000D01*
X149282879Y-62082998D01*
X149236386Y-62029342D01*
X149225000Y-61977000D01*
X149225000Y-61150022D01*
X149245002Y-61081901D01*
X149298658Y-61035408D01*
X149351000Y-61024022D01*
X160396717Y-61024022D01*
X160464838Y-61044024D01*
X160485812Y-61060927D01*
X161004243Y-61579358D01*
X161004990Y-61580195D01*
X161009678Y-61589958D01*
X161020758Y-61598819D01*
X161020759Y-61598820D01*
X161030015Y-61606222D01*
X161035734Y-61611340D01*
X161038159Y-61613274D01*
X161043168Y-61618283D01*
X161049165Y-61622052D01*
X161052035Y-61624341D01*
X161057763Y-61628412D01*
X161077733Y-61644383D01*
X161088710Y-61646907D01*
X161098248Y-61652902D01*
X161112347Y-61654496D01*
X161112348Y-61654496D01*
X161123647Y-61655773D01*
X161130877Y-61657009D01*
X161134356Y-61657404D01*
X161141297Y-61659000D01*
X161148423Y-61659000D01*
X161151701Y-61659372D01*
X161159245Y-61659797D01*
X161184838Y-61662690D01*
X161195200Y-61659071D01*
X161196474Y-61659000D01*
X162653491Y-61659000D01*
X162654603Y-61659063D01*
X162664822Y-61662652D01*
X162678923Y-61661083D01*
X162678925Y-61661083D01*
X162690693Y-61659773D01*
X162698381Y-61659347D01*
X162701462Y-61659000D01*
X162708533Y-61659000D01*
X162715430Y-61657427D01*
X162719079Y-61657016D01*
X162726014Y-61655842D01*
X162732588Y-61655111D01*
X162737332Y-61654583D01*
X162751429Y-61653014D01*
X162760975Y-61647038D01*
X162771959Y-61644532D01*
X162783269Y-61635520D01*
X162791952Y-61628600D01*
X162797926Y-61624371D01*
X162800671Y-61622186D01*
X162806711Y-61618404D01*
X162811754Y-61613361D01*
X162814345Y-61611298D01*
X162819963Y-61606279D01*
X162829011Y-61599069D01*
X162829012Y-61599068D01*
X162840109Y-61590225D01*
X162844878Y-61580337D01*
X162845727Y-61579388D01*
X162925357Y-61499757D01*
X162926193Y-61499011D01*
X162935958Y-61494322D01*
X162952226Y-61473980D01*
X162957344Y-61468261D01*
X162959280Y-61465834D01*
X162964283Y-61460831D01*
X162968046Y-61454844D01*
X162970337Y-61451972D01*
X162974409Y-61446243D01*
X162981519Y-61437352D01*
X162981520Y-61437349D01*
X162990383Y-61426267D01*
X162992907Y-61415290D01*
X162998902Y-61405752D01*
X163000623Y-61390532D01*
X163001773Y-61380353D01*
X163003009Y-61373123D01*
X163003404Y-61369644D01*
X163005000Y-61362703D01*
X163005000Y-61355577D01*
X163005372Y-61352299D01*
X163005797Y-61344755D01*
X163006801Y-61335874D01*
X163008690Y-61319162D01*
X163005071Y-61308799D01*
X163005000Y-61307524D01*
X163005000Y-60749028D01*
X163025002Y-60680907D01*
X163036797Y-60667512D01*
X163035950Y-60666802D01*
X163043036Y-60658357D01*
X163051481Y-60651271D01*
X163060948Y-60634875D01*
X163099801Y-60567578D01*
X163105314Y-60558030D01*
X163124010Y-60452000D01*
X163105314Y-60345970D01*
X163109607Y-60345213D01*
X163106397Y-60296533D01*
X163140768Y-60234411D01*
X163203268Y-60200733D01*
X163229367Y-60198000D01*
X181611000Y-60198000D01*
X181679121Y-60218002D01*
G37*
G04 #@! TD.AperFunction*
G04 #@! TA.AperFunction,Conductor*
G36*
X179686010Y-65671270D02*
G01*
X179742846Y-65713817D01*
X179767657Y-65780337D01*
X179767978Y-65789326D01*
X179767978Y-68321717D01*
X179747976Y-68389838D01*
X179731073Y-68410812D01*
X179027790Y-69114095D01*
X178965478Y-69148121D01*
X178938695Y-69151000D01*
X175934198Y-69151000D01*
X175866077Y-69130998D01*
X175853206Y-69121521D01*
X175844357Y-69114095D01*
X175796005Y-69073523D01*
X175694833Y-69036700D01*
X175587167Y-69036700D01*
X175493591Y-69070758D01*
X175422740Y-69075260D01*
X175407417Y-69070761D01*
X175313833Y-69036700D01*
X175206167Y-69036700D01*
X175104995Y-69073523D01*
X175096549Y-69080610D01*
X175047794Y-69121521D01*
X175022519Y-69142729D01*
X174968686Y-69235970D01*
X174949990Y-69342000D01*
X174951904Y-69352855D01*
X174957417Y-69384120D01*
X174949548Y-69454679D01*
X174904781Y-69509783D01*
X174833331Y-69532000D01*
X171581304Y-69532000D01*
X171513183Y-69511998D01*
X171492209Y-69495095D01*
X171240459Y-69243345D01*
X171239711Y-69242507D01*
X171235023Y-69232743D01*
X171214686Y-69216479D01*
X171208962Y-69211356D01*
X171206536Y-69209421D01*
X171201532Y-69204417D01*
X171195543Y-69200653D01*
X171192671Y-69198362D01*
X171186940Y-69194289D01*
X171178053Y-69187182D01*
X171178050Y-69187181D01*
X171166968Y-69178318D01*
X171155991Y-69175794D01*
X171146453Y-69169799D01*
X171121034Y-69166925D01*
X171113819Y-69165692D01*
X171110349Y-69165298D01*
X171103404Y-69163701D01*
X171096280Y-69163701D01*
X171092994Y-69163328D01*
X171085453Y-69162903D01*
X171073964Y-69161604D01*
X171073963Y-69161604D01*
X171059863Y-69160010D01*
X171049498Y-69163630D01*
X171048224Y-69163701D01*
X164026328Y-69163701D01*
X163958207Y-69143699D01*
X163937232Y-69126796D01*
X163750467Y-68940030D01*
X163533074Y-68722637D01*
X163532332Y-68721806D01*
X163527644Y-68712042D01*
X163507307Y-68695778D01*
X163501583Y-68690655D01*
X163499157Y-68688720D01*
X163494153Y-68683716D01*
X163488164Y-68679952D01*
X163485292Y-68677661D01*
X163479561Y-68673588D01*
X163470674Y-68666481D01*
X163470671Y-68666480D01*
X163459589Y-68657617D01*
X163448612Y-68655093D01*
X163439074Y-68649098D01*
X163413655Y-68646224D01*
X163406440Y-68644991D01*
X163402970Y-68644597D01*
X163396025Y-68643000D01*
X163388901Y-68643000D01*
X163385615Y-68642627D01*
X163378074Y-68642202D01*
X163366585Y-68640903D01*
X163366584Y-68640903D01*
X163352484Y-68639309D01*
X163342119Y-68642929D01*
X163340845Y-68643000D01*
X161196517Y-68643000D01*
X161195399Y-68642937D01*
X161185178Y-68639347D01*
X161171077Y-68640916D01*
X161171075Y-68640916D01*
X161159299Y-68642227D01*
X161151619Y-68642653D01*
X161148537Y-68643000D01*
X161141467Y-68643000D01*
X161134574Y-68644572D01*
X161130933Y-68644982D01*
X161123993Y-68646156D01*
X161098572Y-68648985D01*
X161089024Y-68654963D01*
X161078041Y-68657468D01*
X161066945Y-68666310D01*
X161058048Y-68673400D01*
X161052074Y-68677629D01*
X161049329Y-68679814D01*
X161043289Y-68683596D01*
X161038246Y-68688639D01*
X161035660Y-68690698D01*
X161030045Y-68695715D01*
X161009891Y-68711775D01*
X161005122Y-68721662D01*
X161004269Y-68722616D01*
X160422289Y-69304596D01*
X160359977Y-69338622D01*
X160333194Y-69341501D01*
X156434016Y-69341501D01*
X156432898Y-69341438D01*
X156422677Y-69337848D01*
X156408576Y-69339417D01*
X156408574Y-69339417D01*
X156396798Y-69340728D01*
X156389118Y-69341154D01*
X156386036Y-69341501D01*
X156378966Y-69341501D01*
X156372073Y-69343073D01*
X156368432Y-69343483D01*
X156361492Y-69344657D01*
X156336071Y-69347486D01*
X156326523Y-69353464D01*
X156315540Y-69355969D01*
X156304444Y-69364811D01*
X156295547Y-69371901D01*
X156289573Y-69376130D01*
X156286828Y-69378315D01*
X156280788Y-69382097D01*
X156275745Y-69387140D01*
X156273159Y-69389199D01*
X156267544Y-69394216D01*
X156247390Y-69410276D01*
X156242621Y-69420163D01*
X156241768Y-69421117D01*
X155977320Y-69685565D01*
X155915008Y-69719591D01*
X155888225Y-69722470D01*
X150621000Y-69722470D01*
X150552879Y-69702468D01*
X150506386Y-69648812D01*
X150495000Y-69596470D01*
X150495000Y-69341000D01*
X150515002Y-69272879D01*
X150568658Y-69226386D01*
X150621000Y-69215000D01*
X155067000Y-69215000D01*
X155067000Y-68452000D01*
X155087002Y-68383879D01*
X155140658Y-68337386D01*
X155193000Y-68326000D01*
X156083000Y-68326000D01*
X156083000Y-68318207D01*
X156093155Y-68306488D01*
X156152881Y-68268104D01*
X156188379Y-68263000D01*
X170747195Y-68263000D01*
X170815316Y-68283002D01*
X170836290Y-68299905D01*
X171100743Y-68564358D01*
X171101490Y-68565195D01*
X171106178Y-68574958D01*
X171117258Y-68583819D01*
X171117259Y-68583820D01*
X171126515Y-68591222D01*
X171132234Y-68596340D01*
X171134659Y-68598274D01*
X171139668Y-68603283D01*
X171145665Y-68607052D01*
X171148535Y-68609341D01*
X171154263Y-68613412D01*
X171174233Y-68629383D01*
X171185210Y-68631907D01*
X171194748Y-68637902D01*
X171208847Y-68639496D01*
X171208848Y-68639496D01*
X171220147Y-68640773D01*
X171227377Y-68642009D01*
X171230856Y-68642404D01*
X171237797Y-68644000D01*
X171244923Y-68644000D01*
X171248201Y-68644372D01*
X171255745Y-68644797D01*
X171281338Y-68647690D01*
X171291701Y-68644071D01*
X171292976Y-68644000D01*
X173569802Y-68644000D01*
X173637923Y-68664002D01*
X173650790Y-68673476D01*
X173707995Y-68721477D01*
X173809167Y-68758300D01*
X173916833Y-68758300D01*
X174018005Y-68721477D01*
X174029567Y-68711775D01*
X174092039Y-68659355D01*
X174092040Y-68659354D01*
X174100481Y-68652271D01*
X174106295Y-68642202D01*
X174132773Y-68596340D01*
X174154314Y-68559030D01*
X174173010Y-68453000D01*
X174154314Y-68346970D01*
X174117382Y-68283002D01*
X174105992Y-68263274D01*
X174105991Y-68263273D01*
X174100481Y-68253729D01*
X174075207Y-68232521D01*
X174026451Y-68191610D01*
X174018005Y-68184523D01*
X173916833Y-68147700D01*
X173809167Y-68147700D01*
X173707995Y-68184523D01*
X173659644Y-68225095D01*
X173650794Y-68232521D01*
X173585753Y-68260986D01*
X173569802Y-68262000D01*
X171390804Y-68262000D01*
X171322683Y-68241998D01*
X171301709Y-68225095D01*
X171037258Y-67960644D01*
X171036510Y-67959806D01*
X171031822Y-67950042D01*
X171011485Y-67933778D01*
X171005761Y-67928655D01*
X171003335Y-67926720D01*
X170998331Y-67921716D01*
X170992342Y-67917952D01*
X170989470Y-67915661D01*
X170983739Y-67911588D01*
X170963768Y-67895617D01*
X170965181Y-67893851D01*
X170926663Y-67858974D01*
X170908152Y-67790433D01*
X170929636Y-67722765D01*
X170945027Y-67704088D01*
X170984210Y-67664905D01*
X171046522Y-67630879D01*
X171073305Y-67628000D01*
X171664802Y-67628000D01*
X171732923Y-67648002D01*
X171745790Y-67657476D01*
X171802995Y-67705477D01*
X171904167Y-67742300D01*
X172011833Y-67742300D01*
X172113005Y-67705477D01*
X172161357Y-67664905D01*
X172187039Y-67643355D01*
X172187040Y-67643354D01*
X172195481Y-67636271D01*
X172249314Y-67543030D01*
X172268010Y-67437000D01*
X172249314Y-67330970D01*
X172243803Y-67321425D01*
X172243801Y-67321419D01*
X172236919Y-67309499D01*
X172220181Y-67240504D01*
X172236919Y-67183501D01*
X172243801Y-67171581D01*
X172243803Y-67171575D01*
X172249314Y-67162030D01*
X172260429Y-67098997D01*
X172266096Y-67066855D01*
X172268010Y-67056000D01*
X172260583Y-67013880D01*
X172268452Y-66943321D01*
X172313219Y-66888217D01*
X172384669Y-66866000D01*
X172483470Y-66866000D01*
X172551591Y-66886002D01*
X172572565Y-66902904D01*
X173472029Y-67802367D01*
X173472775Y-67803203D01*
X173477464Y-67812968D01*
X173488544Y-67821829D01*
X173488545Y-67821830D01*
X173497806Y-67829236D01*
X173503525Y-67834354D01*
X173505952Y-67836290D01*
X173510955Y-67841293D01*
X173516942Y-67845056D01*
X173519814Y-67847347D01*
X173525543Y-67851419D01*
X173534434Y-67858529D01*
X173534437Y-67858530D01*
X173545519Y-67867393D01*
X173556496Y-67869917D01*
X173566034Y-67875912D01*
X173580133Y-67877506D01*
X173580134Y-67877506D01*
X173591433Y-67878783D01*
X173598663Y-67880019D01*
X173602142Y-67880414D01*
X173609083Y-67882010D01*
X173616209Y-67882010D01*
X173619487Y-67882382D01*
X173627031Y-67882807D01*
X173652624Y-67885700D01*
X173662987Y-67882081D01*
X173664262Y-67882010D01*
X177258481Y-67882010D01*
X177259593Y-67882073D01*
X177269812Y-67885662D01*
X177283913Y-67884093D01*
X177283915Y-67884093D01*
X177295683Y-67882783D01*
X177303371Y-67882357D01*
X177306452Y-67882010D01*
X177313523Y-67882010D01*
X177320420Y-67880437D01*
X177324069Y-67880026D01*
X177331004Y-67878852D01*
X177337578Y-67878121D01*
X177342322Y-67877593D01*
X177356419Y-67876024D01*
X177365965Y-67870048D01*
X177376949Y-67867542D01*
X177388260Y-67858529D01*
X177396942Y-67851610D01*
X177402916Y-67847381D01*
X177405661Y-67845196D01*
X177411701Y-67841414D01*
X177416744Y-67836371D01*
X177419330Y-67834312D01*
X177424945Y-67829295D01*
X177445099Y-67813235D01*
X177449868Y-67803348D01*
X177450721Y-67802394D01*
X179552883Y-65700231D01*
X179615195Y-65666206D01*
X179686010Y-65671270D01*
G37*
G04 #@! TD.AperFunction*
G04 #@! TA.AperFunction,Conductor*
G36*
X113734121Y-64282002D02*
G01*
X113780614Y-64335658D01*
X113792000Y-64388000D01*
X113792000Y-65406000D01*
X113771998Y-65474121D01*
X113718342Y-65520614D01*
X113666000Y-65532000D01*
X111759000Y-65532000D01*
X111690879Y-65511998D01*
X111644386Y-65458342D01*
X111633000Y-65406000D01*
X111633000Y-64388000D01*
X111653002Y-64319879D01*
X111706658Y-64273386D01*
X111759000Y-64262000D01*
X113666000Y-64262000D01*
X113734121Y-64282002D01*
G37*
G04 #@! TD.AperFunction*
M02*
