M48
; DRILL file {KiCad (6.0.5-0)} date Monday, June 19, 2023 at 08:47:50 AM
; FORMAT={-:-/ absolute / inch / decimal}
; #@! TF.CreationDate,2023-06-19T08:47:50-07:00
; #@! TF.GenerationSoftware,Kicad,Pcbnew,(6.0.5-0)
; #@! TF.FileFunction,NonPlated,1,4,NPTH
FMAT,2
INCH
; #@! TA.AperFunction,NonPlated,NPTH,ComponentDrill
T1C0.0394
%
G90
G05
T1
X4.5079Y-2.5787
T1
G00X7.1949Y-2.5787
M15
G01X7.2146Y-2.5787
M16
G05
T0
M30
