%TF.GenerationSoftware,KiCad,Pcbnew,(7.0.0-0)*%
%TF.CreationDate,2023-06-15T16:27:39-07:00*%
%TF.ProjectId,coupon,636f7570-6f6e-42e6-9b69-6361645f7063,1.0*%
%TF.SameCoordinates,Original*%
%TF.FileFunction,Drillmap*%
%TF.FilePolarity,Positive*%
%FSLAX45Y45*%
G04 Gerber Fmt 4.5, Leading zero omitted, Abs format (unit mm)*
G04 Created by KiCad (PCBNEW (7.0.0-0)) date 2023-06-15 16:27:39*
%MOMM*%
%LPD*%
G01*
G04 APERTURE LIST*
%ADD10C,0.150000*%
%ADD11C,0.200000*%
%ADD12C,0.015240*%
G04 APERTURE END LIST*
D10*
X16500000Y-6000000D02*
X16500000Y-7000000D01*
X9000000Y-7000000D02*
X9000000Y-6000000D01*
X9000000Y-6000000D02*
X16500000Y-6000000D01*
X16500000Y-7000000D02*
X9000000Y-7000000D01*
D11*
D12*
X9079230Y-6634480D02*
X9094470Y-6649720D01*
X9094470Y-6634480D02*
X9079230Y-6649720D01*
X9079230Y-6697980D02*
X9094470Y-6713220D01*
X9094470Y-6697980D02*
X9079230Y-6713220D01*
X9142730Y-6634480D02*
X9157970Y-6649720D01*
X9157970Y-6634480D02*
X9142730Y-6649720D01*
X9142730Y-6697980D02*
X9157970Y-6713220D01*
X9157970Y-6697980D02*
X9142730Y-6713220D01*
X9231630Y-6634480D02*
X9246870Y-6649720D01*
X9246870Y-6634480D02*
X9231630Y-6649720D01*
X9231630Y-6697980D02*
X9246870Y-6713220D01*
X9246870Y-6697980D02*
X9231630Y-6713220D01*
X9295130Y-6634480D02*
X9310370Y-6649720D01*
X9310370Y-6634480D02*
X9295130Y-6649720D01*
X9295130Y-6697980D02*
X9310370Y-6713220D01*
X9310370Y-6697980D02*
X9295130Y-6713220D01*
X9371330Y-6634480D02*
X9386570Y-6649720D01*
X9386570Y-6634480D02*
X9371330Y-6649720D01*
X9371330Y-6697980D02*
X9386570Y-6713220D01*
X9386570Y-6697980D02*
X9371330Y-6713220D01*
X9434830Y-6634480D02*
X9450070Y-6649720D01*
X9450070Y-6634480D02*
X9434830Y-6649720D01*
X9434830Y-6697980D02*
X9450070Y-6713220D01*
X9450070Y-6697980D02*
X9434830Y-6713220D01*
X9537980Y-6679680D02*
X9553220Y-6694920D01*
X9553220Y-6679680D02*
X9537980Y-6694920D01*
X9550680Y-6832080D02*
X9565920Y-6847320D01*
X9565920Y-6832080D02*
X9550680Y-6847320D01*
X9576080Y-6679680D02*
X9591320Y-6694920D01*
X9591320Y-6679680D02*
X9576080Y-6694920D01*
X9588780Y-6832080D02*
X9604020Y-6847320D01*
X9604020Y-6832080D02*
X9588780Y-6847320D01*
X9614180Y-6679680D02*
X9629420Y-6694920D01*
X9629420Y-6679680D02*
X9614180Y-6694920D01*
X9626880Y-6832080D02*
X9642120Y-6847320D01*
X9642120Y-6832080D02*
X9626880Y-6847320D01*
X9652280Y-6679680D02*
X9667520Y-6694920D01*
X9667520Y-6679680D02*
X9652280Y-6694920D01*
X9664980Y-6832080D02*
X9680220Y-6847320D01*
X9680220Y-6832080D02*
X9664980Y-6847320D01*
X9690380Y-6679680D02*
X9705620Y-6694920D01*
X9705620Y-6679680D02*
X9690380Y-6694920D01*
X9703080Y-6832080D02*
X9718320Y-6847320D01*
X9718320Y-6832080D02*
X9703080Y-6847320D01*
X9728480Y-6679680D02*
X9743720Y-6694920D01*
X9743720Y-6679680D02*
X9728480Y-6694920D01*
X9741180Y-6832080D02*
X9756420Y-6847320D01*
X9756420Y-6832080D02*
X9741180Y-6847320D01*
X9766580Y-6679680D02*
X9781820Y-6694920D01*
X9781820Y-6679680D02*
X9766580Y-6694920D01*
X9779280Y-6832080D02*
X9794520Y-6847320D01*
X9794520Y-6832080D02*
X9779280Y-6847320D01*
X9804680Y-6679680D02*
X9819920Y-6694920D01*
X9819920Y-6679680D02*
X9804680Y-6694920D01*
X9817380Y-6832080D02*
X9832620Y-6847320D01*
X9832620Y-6832080D02*
X9817380Y-6847320D01*
X9842780Y-6679680D02*
X9858020Y-6694920D01*
X9858020Y-6679680D02*
X9842780Y-6694920D01*
X9855480Y-6832080D02*
X9870720Y-6847320D01*
X9870720Y-6832080D02*
X9855480Y-6847320D01*
X11785880Y-6324080D02*
X11801120Y-6339320D01*
X11801120Y-6324080D02*
X11785880Y-6339320D01*
X12141480Y-6578080D02*
X12156720Y-6593320D01*
X12156720Y-6578080D02*
X12141480Y-6593320D01*
X12281180Y-6298680D02*
X12296420Y-6313920D01*
X12296420Y-6298680D02*
X12281180Y-6313920D01*
X12281180Y-6539980D02*
X12296420Y-6555220D01*
X12296420Y-6539980D02*
X12281180Y-6555220D01*
X13726440Y-6834620D02*
X13741680Y-6849860D01*
X13741680Y-6834620D02*
X13726440Y-6849860D01*
X13728980Y-6730480D02*
X13744220Y-6745720D01*
X13744220Y-6730480D02*
X13728980Y-6745720D01*
X13779780Y-6044680D02*
X13795020Y-6059920D01*
X13795020Y-6044680D02*
X13779780Y-6059920D01*
X13779780Y-6082780D02*
X13795020Y-6098020D01*
X13795020Y-6082780D02*
X13779780Y-6098020D01*
X13779780Y-6120880D02*
X13795020Y-6136120D01*
X13795020Y-6120880D02*
X13779780Y-6136120D01*
X13779780Y-6158980D02*
X13795020Y-6174220D01*
X13795020Y-6158980D02*
X13779780Y-6174220D01*
X13779780Y-6197080D02*
X13795020Y-6212320D01*
X13795020Y-6197080D02*
X13779780Y-6212320D01*
X13779780Y-6235180D02*
X13795020Y-6250420D01*
X13795020Y-6235180D02*
X13779780Y-6250420D01*
X13779780Y-6273280D02*
X13795020Y-6288520D01*
X13795020Y-6273280D02*
X13779780Y-6288520D01*
X13779780Y-6311380D02*
X13795020Y-6326620D01*
X13795020Y-6311380D02*
X13779780Y-6326620D01*
X13779780Y-6349480D02*
X13795020Y-6364720D01*
X13795020Y-6349480D02*
X13779780Y-6364720D01*
X13779780Y-6387580D02*
X13795020Y-6402820D01*
X13795020Y-6387580D02*
X13779780Y-6402820D01*
X13779780Y-6425680D02*
X13795020Y-6440920D01*
X13795020Y-6425680D02*
X13779780Y-6440920D01*
X13779780Y-6463780D02*
X13795020Y-6479020D01*
X13795020Y-6463780D02*
X13779780Y-6479020D01*
X13779780Y-6501880D02*
X13795020Y-6517120D01*
X13795020Y-6501880D02*
X13779780Y-6517120D01*
X13779780Y-6539980D02*
X13795020Y-6555220D01*
X13795020Y-6539980D02*
X13779780Y-6555220D01*
X13830580Y-6044680D02*
X13845820Y-6059920D01*
X13845820Y-6044680D02*
X13830580Y-6059920D01*
X13830580Y-6082780D02*
X13845820Y-6098020D01*
X13845820Y-6082780D02*
X13830580Y-6098020D01*
X13830580Y-6120880D02*
X13845820Y-6136120D01*
X13845820Y-6120880D02*
X13830580Y-6136120D01*
X13830580Y-6158980D02*
X13845820Y-6174220D01*
X13845820Y-6158980D02*
X13830580Y-6174220D01*
X13830580Y-6197080D02*
X13845820Y-6212320D01*
X13845820Y-6197080D02*
X13830580Y-6212320D01*
X13830580Y-6235180D02*
X13845820Y-6250420D01*
X13845820Y-6235180D02*
X13830580Y-6250420D01*
X13830580Y-6273280D02*
X13845820Y-6288520D01*
X13845820Y-6273280D02*
X13830580Y-6288520D01*
X13830580Y-6311380D02*
X13845820Y-6326620D01*
X13845820Y-6311380D02*
X13830580Y-6326620D01*
X13830580Y-6349480D02*
X13845820Y-6364720D01*
X13845820Y-6349480D02*
X13830580Y-6364720D01*
X13830580Y-6387580D02*
X13845820Y-6402820D01*
X13845820Y-6387580D02*
X13830580Y-6402820D01*
X13830580Y-6425680D02*
X13845820Y-6440920D01*
X13845820Y-6425680D02*
X13830580Y-6440920D01*
X13830580Y-6463780D02*
X13845820Y-6479020D01*
X13845820Y-6463780D02*
X13830580Y-6479020D01*
X13830580Y-6501880D02*
X13845820Y-6517120D01*
X13845820Y-6501880D02*
X13830580Y-6517120D01*
X13830580Y-6539980D02*
X13845820Y-6555220D01*
X13845820Y-6539980D02*
X13830580Y-6555220D01*
X13881380Y-6044680D02*
X13896620Y-6059920D01*
X13896620Y-6044680D02*
X13881380Y-6059920D01*
X13881380Y-6082780D02*
X13896620Y-6098020D01*
X13896620Y-6082780D02*
X13881380Y-6098020D01*
X13881380Y-6120880D02*
X13896620Y-6136120D01*
X13896620Y-6120880D02*
X13881380Y-6136120D01*
X13881380Y-6158980D02*
X13896620Y-6174220D01*
X13896620Y-6158980D02*
X13881380Y-6174220D01*
X13881380Y-6197080D02*
X13896620Y-6212320D01*
X13896620Y-6197080D02*
X13881380Y-6212320D01*
X13881380Y-6235180D02*
X13896620Y-6250420D01*
X13896620Y-6235180D02*
X13881380Y-6250420D01*
X13881380Y-6273280D02*
X13896620Y-6288520D01*
X13896620Y-6273280D02*
X13881380Y-6288520D01*
X13881380Y-6311380D02*
X13896620Y-6326620D01*
X13896620Y-6311380D02*
X13881380Y-6326620D01*
X13881380Y-6349480D02*
X13896620Y-6364720D01*
X13896620Y-6349480D02*
X13881380Y-6364720D01*
X13881380Y-6387580D02*
X13896620Y-6402820D01*
X13896620Y-6387580D02*
X13881380Y-6402820D01*
X13881380Y-6425680D02*
X13896620Y-6440920D01*
X13896620Y-6425680D02*
X13881380Y-6440920D01*
X13881380Y-6463780D02*
X13896620Y-6479020D01*
X13896620Y-6463780D02*
X13881380Y-6479020D01*
X13881380Y-6501880D02*
X13896620Y-6517120D01*
X13896620Y-6501880D02*
X13881380Y-6517120D01*
X13881380Y-6539980D02*
X13896620Y-6555220D01*
X13896620Y-6539980D02*
X13881380Y-6555220D01*
X13932180Y-6044680D02*
X13947420Y-6059920D01*
X13947420Y-6044680D02*
X13932180Y-6059920D01*
X13932180Y-6082780D02*
X13947420Y-6098020D01*
X13947420Y-6082780D02*
X13932180Y-6098020D01*
X13932180Y-6120880D02*
X13947420Y-6136120D01*
X13947420Y-6120880D02*
X13932180Y-6136120D01*
X13932180Y-6158980D02*
X13947420Y-6174220D01*
X13947420Y-6158980D02*
X13932180Y-6174220D01*
X13932180Y-6197080D02*
X13947420Y-6212320D01*
X13947420Y-6197080D02*
X13932180Y-6212320D01*
X13932180Y-6235180D02*
X13947420Y-6250420D01*
X13947420Y-6235180D02*
X13932180Y-6250420D01*
X13932180Y-6273280D02*
X13947420Y-6288520D01*
X13947420Y-6273280D02*
X13932180Y-6288520D01*
X13932180Y-6311380D02*
X13947420Y-6326620D01*
X13947420Y-6311380D02*
X13932180Y-6326620D01*
X13932180Y-6349480D02*
X13947420Y-6364720D01*
X13947420Y-6349480D02*
X13932180Y-6364720D01*
X13932180Y-6387580D02*
X13947420Y-6402820D01*
X13947420Y-6387580D02*
X13932180Y-6402820D01*
X13932180Y-6425680D02*
X13947420Y-6440920D01*
X13947420Y-6425680D02*
X13932180Y-6440920D01*
X13932180Y-6463780D02*
X13947420Y-6479020D01*
X13947420Y-6463780D02*
X13932180Y-6479020D01*
X13932180Y-6501880D02*
X13947420Y-6517120D01*
X13947420Y-6501880D02*
X13932180Y-6517120D01*
X13932180Y-6539980D02*
X13947420Y-6555220D01*
X13947420Y-6539980D02*
X13932180Y-6555220D01*
X13982980Y-6044680D02*
X13998220Y-6059920D01*
X13998220Y-6044680D02*
X13982980Y-6059920D01*
X13982980Y-6082780D02*
X13998220Y-6098020D01*
X13998220Y-6082780D02*
X13982980Y-6098020D01*
X13982980Y-6120880D02*
X13998220Y-6136120D01*
X13998220Y-6120880D02*
X13982980Y-6136120D01*
X13982980Y-6158980D02*
X13998220Y-6174220D01*
X13998220Y-6158980D02*
X13982980Y-6174220D01*
X13982980Y-6197080D02*
X13998220Y-6212320D01*
X13998220Y-6197080D02*
X13982980Y-6212320D01*
X13982980Y-6235180D02*
X13998220Y-6250420D01*
X13998220Y-6235180D02*
X13982980Y-6250420D01*
X13982980Y-6273280D02*
X13998220Y-6288520D01*
X13998220Y-6273280D02*
X13982980Y-6288520D01*
X13982980Y-6311380D02*
X13998220Y-6326620D01*
X13998220Y-6311380D02*
X13982980Y-6326620D01*
X13982980Y-6349480D02*
X13998220Y-6364720D01*
X13998220Y-6349480D02*
X13982980Y-6364720D01*
X13982980Y-6387580D02*
X13998220Y-6402820D01*
X13998220Y-6387580D02*
X13982980Y-6402820D01*
X13982980Y-6425680D02*
X13998220Y-6440920D01*
X13998220Y-6425680D02*
X13982980Y-6440920D01*
X13982980Y-6463780D02*
X13998220Y-6479020D01*
X13998220Y-6463780D02*
X13982980Y-6479020D01*
X13982980Y-6501880D02*
X13998220Y-6517120D01*
X13998220Y-6501880D02*
X13982980Y-6517120D01*
X13982980Y-6539980D02*
X13998220Y-6555220D01*
X13998220Y-6539980D02*
X13982980Y-6555220D01*
X14033780Y-6044680D02*
X14049020Y-6059920D01*
X14049020Y-6044680D02*
X14033780Y-6059920D01*
X14033780Y-6082780D02*
X14049020Y-6098020D01*
X14049020Y-6082780D02*
X14033780Y-6098020D01*
X14033780Y-6120880D02*
X14049020Y-6136120D01*
X14049020Y-6120880D02*
X14033780Y-6136120D01*
X14033780Y-6158980D02*
X14049020Y-6174220D01*
X14049020Y-6158980D02*
X14033780Y-6174220D01*
X14033780Y-6197080D02*
X14049020Y-6212320D01*
X14049020Y-6197080D02*
X14033780Y-6212320D01*
X14033780Y-6235180D02*
X14049020Y-6250420D01*
X14049020Y-6235180D02*
X14033780Y-6250420D01*
X14033780Y-6273280D02*
X14049020Y-6288520D01*
X14049020Y-6273280D02*
X14033780Y-6288520D01*
X14033780Y-6311380D02*
X14049020Y-6326620D01*
X14049020Y-6311380D02*
X14033780Y-6326620D01*
X14033780Y-6349480D02*
X14049020Y-6364720D01*
X14049020Y-6349480D02*
X14033780Y-6364720D01*
X14033780Y-6387580D02*
X14049020Y-6402820D01*
X14049020Y-6387580D02*
X14033780Y-6402820D01*
X14033780Y-6425680D02*
X14049020Y-6440920D01*
X14049020Y-6425680D02*
X14033780Y-6440920D01*
X14033780Y-6463780D02*
X14049020Y-6479020D01*
X14049020Y-6463780D02*
X14033780Y-6479020D01*
X14033780Y-6501880D02*
X14049020Y-6517120D01*
X14049020Y-6501880D02*
X14033780Y-6517120D01*
X14033780Y-6539980D02*
X14049020Y-6555220D01*
X14049020Y-6539980D02*
X14033780Y-6555220D01*
X14084580Y-6044680D02*
X14099820Y-6059920D01*
X14099820Y-6044680D02*
X14084580Y-6059920D01*
X14084580Y-6082780D02*
X14099820Y-6098020D01*
X14099820Y-6082780D02*
X14084580Y-6098020D01*
X14084580Y-6120880D02*
X14099820Y-6136120D01*
X14099820Y-6120880D02*
X14084580Y-6136120D01*
X14084580Y-6158980D02*
X14099820Y-6174220D01*
X14099820Y-6158980D02*
X14084580Y-6174220D01*
X14084580Y-6197080D02*
X14099820Y-6212320D01*
X14099820Y-6197080D02*
X14084580Y-6212320D01*
X14084580Y-6235180D02*
X14099820Y-6250420D01*
X14099820Y-6235180D02*
X14084580Y-6250420D01*
X14084580Y-6273280D02*
X14099820Y-6288520D01*
X14099820Y-6273280D02*
X14084580Y-6288520D01*
X14084580Y-6311380D02*
X14099820Y-6326620D01*
X14099820Y-6311380D02*
X14084580Y-6326620D01*
X14084580Y-6349480D02*
X14099820Y-6364720D01*
X14099820Y-6349480D02*
X14084580Y-6364720D01*
X14084580Y-6387580D02*
X14099820Y-6402820D01*
X14099820Y-6387580D02*
X14084580Y-6402820D01*
X14084580Y-6425680D02*
X14099820Y-6440920D01*
X14099820Y-6425680D02*
X14084580Y-6440920D01*
X14084580Y-6463780D02*
X14099820Y-6479020D01*
X14099820Y-6463780D02*
X14084580Y-6479020D01*
X14084580Y-6501880D02*
X14099820Y-6517120D01*
X14099820Y-6501880D02*
X14084580Y-6517120D01*
X14084580Y-6539980D02*
X14099820Y-6555220D01*
X14099820Y-6539980D02*
X14084580Y-6555220D01*
X14135380Y-6044680D02*
X14150620Y-6059920D01*
X14150620Y-6044680D02*
X14135380Y-6059920D01*
X14135380Y-6082780D02*
X14150620Y-6098020D01*
X14150620Y-6082780D02*
X14135380Y-6098020D01*
X14135380Y-6120880D02*
X14150620Y-6136120D01*
X14150620Y-6120880D02*
X14135380Y-6136120D01*
X14135380Y-6158980D02*
X14150620Y-6174220D01*
X14150620Y-6158980D02*
X14135380Y-6174220D01*
X14135380Y-6197080D02*
X14150620Y-6212320D01*
X14150620Y-6197080D02*
X14135380Y-6212320D01*
X14135380Y-6235180D02*
X14150620Y-6250420D01*
X14150620Y-6235180D02*
X14135380Y-6250420D01*
X14135380Y-6273280D02*
X14150620Y-6288520D01*
X14150620Y-6273280D02*
X14135380Y-6288520D01*
X14135380Y-6311380D02*
X14150620Y-6326620D01*
X14150620Y-6311380D02*
X14135380Y-6326620D01*
X14135380Y-6349480D02*
X14150620Y-6364720D01*
X14150620Y-6349480D02*
X14135380Y-6364720D01*
X14135380Y-6387580D02*
X14150620Y-6402820D01*
X14150620Y-6387580D02*
X14135380Y-6402820D01*
X14135380Y-6425680D02*
X14150620Y-6440920D01*
X14150620Y-6425680D02*
X14135380Y-6440920D01*
X14135380Y-6463780D02*
X14150620Y-6479020D01*
X14150620Y-6463780D02*
X14135380Y-6479020D01*
X14135380Y-6501880D02*
X14150620Y-6517120D01*
X14150620Y-6501880D02*
X14135380Y-6517120D01*
X14135380Y-6539980D02*
X14150620Y-6555220D01*
X14150620Y-6539980D02*
X14135380Y-6555220D01*
X14186180Y-6044680D02*
X14201420Y-6059920D01*
X14201420Y-6044680D02*
X14186180Y-6059920D01*
X14186180Y-6082780D02*
X14201420Y-6098020D01*
X14201420Y-6082780D02*
X14186180Y-6098020D01*
X14186180Y-6120880D02*
X14201420Y-6136120D01*
X14201420Y-6120880D02*
X14186180Y-6136120D01*
X14186180Y-6158980D02*
X14201420Y-6174220D01*
X14201420Y-6158980D02*
X14186180Y-6174220D01*
X14186180Y-6197080D02*
X14201420Y-6212320D01*
X14201420Y-6197080D02*
X14186180Y-6212320D01*
X14186180Y-6235180D02*
X14201420Y-6250420D01*
X14201420Y-6235180D02*
X14186180Y-6250420D01*
X14186180Y-6273280D02*
X14201420Y-6288520D01*
X14201420Y-6273280D02*
X14186180Y-6288520D01*
X14186180Y-6311380D02*
X14201420Y-6326620D01*
X14201420Y-6311380D02*
X14186180Y-6326620D01*
X14186180Y-6349480D02*
X14201420Y-6364720D01*
X14201420Y-6349480D02*
X14186180Y-6364720D01*
X14186180Y-6387580D02*
X14201420Y-6402820D01*
X14201420Y-6387580D02*
X14186180Y-6402820D01*
X14186180Y-6425680D02*
X14201420Y-6440920D01*
X14201420Y-6425680D02*
X14186180Y-6440920D01*
X14186180Y-6463780D02*
X14201420Y-6479020D01*
X14201420Y-6463780D02*
X14186180Y-6479020D01*
X14186180Y-6501880D02*
X14201420Y-6517120D01*
X14201420Y-6501880D02*
X14186180Y-6517120D01*
X14186180Y-6539980D02*
X14201420Y-6555220D01*
X14201420Y-6539980D02*
X14186180Y-6555220D01*
X14236980Y-6044680D02*
X14252220Y-6059920D01*
X14252220Y-6044680D02*
X14236980Y-6059920D01*
X14236980Y-6082780D02*
X14252220Y-6098020D01*
X14252220Y-6082780D02*
X14236980Y-6098020D01*
X14236980Y-6120880D02*
X14252220Y-6136120D01*
X14252220Y-6120880D02*
X14236980Y-6136120D01*
X14236980Y-6158980D02*
X14252220Y-6174220D01*
X14252220Y-6158980D02*
X14236980Y-6174220D01*
X14236980Y-6197080D02*
X14252220Y-6212320D01*
X14252220Y-6197080D02*
X14236980Y-6212320D01*
X14236980Y-6235180D02*
X14252220Y-6250420D01*
X14252220Y-6235180D02*
X14236980Y-6250420D01*
X14236980Y-6273280D02*
X14252220Y-6288520D01*
X14252220Y-6273280D02*
X14236980Y-6288520D01*
X14236980Y-6311380D02*
X14252220Y-6326620D01*
X14252220Y-6311380D02*
X14236980Y-6326620D01*
X14236980Y-6349480D02*
X14252220Y-6364720D01*
X14252220Y-6349480D02*
X14236980Y-6364720D01*
X14236980Y-6387580D02*
X14252220Y-6402820D01*
X14252220Y-6387580D02*
X14236980Y-6402820D01*
X14236980Y-6425680D02*
X14252220Y-6440920D01*
X14252220Y-6425680D02*
X14236980Y-6440920D01*
X14236980Y-6463780D02*
X14252220Y-6479020D01*
X14252220Y-6463780D02*
X14236980Y-6479020D01*
X14236980Y-6501880D02*
X14252220Y-6517120D01*
X14252220Y-6501880D02*
X14236980Y-6517120D01*
X14236980Y-6539980D02*
X14252220Y-6555220D01*
X14252220Y-6539980D02*
X14236980Y-6555220D01*
X14287780Y-6044680D02*
X14303020Y-6059920D01*
X14303020Y-6044680D02*
X14287780Y-6059920D01*
X14287780Y-6082780D02*
X14303020Y-6098020D01*
X14303020Y-6082780D02*
X14287780Y-6098020D01*
X14287780Y-6120880D02*
X14303020Y-6136120D01*
X14303020Y-6120880D02*
X14287780Y-6136120D01*
X14287780Y-6158980D02*
X14303020Y-6174220D01*
X14303020Y-6158980D02*
X14287780Y-6174220D01*
X14287780Y-6197080D02*
X14303020Y-6212320D01*
X14303020Y-6197080D02*
X14287780Y-6212320D01*
X14287780Y-6235180D02*
X14303020Y-6250420D01*
X14303020Y-6235180D02*
X14287780Y-6250420D01*
X14287780Y-6273280D02*
X14303020Y-6288520D01*
X14303020Y-6273280D02*
X14287780Y-6288520D01*
X14287780Y-6311380D02*
X14303020Y-6326620D01*
X14303020Y-6311380D02*
X14287780Y-6326620D01*
X14287780Y-6349480D02*
X14303020Y-6364720D01*
X14303020Y-6349480D02*
X14287780Y-6364720D01*
X14287780Y-6387580D02*
X14303020Y-6402820D01*
X14303020Y-6387580D02*
X14287780Y-6402820D01*
X14287780Y-6425680D02*
X14303020Y-6440920D01*
X14303020Y-6425680D02*
X14287780Y-6440920D01*
X14287780Y-6463780D02*
X14303020Y-6479020D01*
X14303020Y-6463780D02*
X14287780Y-6479020D01*
X14287780Y-6501880D02*
X14303020Y-6517120D01*
X14303020Y-6501880D02*
X14287780Y-6517120D01*
X14287780Y-6539980D02*
X14303020Y-6555220D01*
X14303020Y-6539980D02*
X14287780Y-6555220D01*
X14338580Y-6044680D02*
X14353820Y-6059920D01*
X14353820Y-6044680D02*
X14338580Y-6059920D01*
X14338580Y-6082780D02*
X14353820Y-6098020D01*
X14353820Y-6082780D02*
X14338580Y-6098020D01*
X14338580Y-6120880D02*
X14353820Y-6136120D01*
X14353820Y-6120880D02*
X14338580Y-6136120D01*
X14338580Y-6158980D02*
X14353820Y-6174220D01*
X14353820Y-6158980D02*
X14338580Y-6174220D01*
X14338580Y-6197080D02*
X14353820Y-6212320D01*
X14353820Y-6197080D02*
X14338580Y-6212320D01*
X14338580Y-6235180D02*
X14353820Y-6250420D01*
X14353820Y-6235180D02*
X14338580Y-6250420D01*
X14338580Y-6273280D02*
X14353820Y-6288520D01*
X14353820Y-6273280D02*
X14338580Y-6288520D01*
X14338580Y-6311380D02*
X14353820Y-6326620D01*
X14353820Y-6311380D02*
X14338580Y-6326620D01*
X14338580Y-6349480D02*
X14353820Y-6364720D01*
X14353820Y-6349480D02*
X14338580Y-6364720D01*
X14338580Y-6387580D02*
X14353820Y-6402820D01*
X14353820Y-6387580D02*
X14338580Y-6402820D01*
X14338580Y-6425680D02*
X14353820Y-6440920D01*
X14353820Y-6425680D02*
X14338580Y-6440920D01*
X14338580Y-6463780D02*
X14353820Y-6479020D01*
X14353820Y-6463780D02*
X14338580Y-6479020D01*
X14338580Y-6501880D02*
X14353820Y-6517120D01*
X14353820Y-6501880D02*
X14338580Y-6517120D01*
X14338580Y-6539980D02*
X14353820Y-6555220D01*
X14353820Y-6539980D02*
X14338580Y-6555220D01*
X14389380Y-6044680D02*
X14404620Y-6059920D01*
X14404620Y-6044680D02*
X14389380Y-6059920D01*
X14389380Y-6082780D02*
X14404620Y-6098020D01*
X14404620Y-6082780D02*
X14389380Y-6098020D01*
X14389380Y-6120880D02*
X14404620Y-6136120D01*
X14404620Y-6120880D02*
X14389380Y-6136120D01*
X14389380Y-6158980D02*
X14404620Y-6174220D01*
X14404620Y-6158980D02*
X14389380Y-6174220D01*
X14389380Y-6197080D02*
X14404620Y-6212320D01*
X14404620Y-6197080D02*
X14389380Y-6212320D01*
X14389380Y-6235180D02*
X14404620Y-6250420D01*
X14404620Y-6235180D02*
X14389380Y-6250420D01*
X14389380Y-6273280D02*
X14404620Y-6288520D01*
X14404620Y-6273280D02*
X14389380Y-6288520D01*
X14389380Y-6311380D02*
X14404620Y-6326620D01*
X14404620Y-6311380D02*
X14389380Y-6326620D01*
X14389380Y-6349480D02*
X14404620Y-6364720D01*
X14404620Y-6349480D02*
X14389380Y-6364720D01*
X14389380Y-6387580D02*
X14404620Y-6402820D01*
X14404620Y-6387580D02*
X14389380Y-6402820D01*
X14389380Y-6425680D02*
X14404620Y-6440920D01*
X14404620Y-6425680D02*
X14389380Y-6440920D01*
X14389380Y-6463780D02*
X14404620Y-6479020D01*
X14404620Y-6463780D02*
X14389380Y-6479020D01*
X14389380Y-6501880D02*
X14404620Y-6517120D01*
X14404620Y-6501880D02*
X14389380Y-6517120D01*
X14389380Y-6539980D02*
X14404620Y-6555220D01*
X14404620Y-6539980D02*
X14389380Y-6555220D01*
X14440180Y-6044680D02*
X14455420Y-6059920D01*
X14455420Y-6044680D02*
X14440180Y-6059920D01*
X14440180Y-6082780D02*
X14455420Y-6098020D01*
X14455420Y-6082780D02*
X14440180Y-6098020D01*
X14440180Y-6120880D02*
X14455420Y-6136120D01*
X14455420Y-6120880D02*
X14440180Y-6136120D01*
X14440180Y-6158980D02*
X14455420Y-6174220D01*
X14455420Y-6158980D02*
X14440180Y-6174220D01*
X14440180Y-6197080D02*
X14455420Y-6212320D01*
X14455420Y-6197080D02*
X14440180Y-6212320D01*
X14440180Y-6235180D02*
X14455420Y-6250420D01*
X14455420Y-6235180D02*
X14440180Y-6250420D01*
X14440180Y-6273280D02*
X14455420Y-6288520D01*
X14455420Y-6273280D02*
X14440180Y-6288520D01*
X14440180Y-6311380D02*
X14455420Y-6326620D01*
X14455420Y-6311380D02*
X14440180Y-6326620D01*
X14440180Y-6349480D02*
X14455420Y-6364720D01*
X14455420Y-6349480D02*
X14440180Y-6364720D01*
X14440180Y-6387580D02*
X14455420Y-6402820D01*
X14455420Y-6387580D02*
X14440180Y-6402820D01*
X14440180Y-6425680D02*
X14455420Y-6440920D01*
X14455420Y-6425680D02*
X14440180Y-6440920D01*
X14440180Y-6463780D02*
X14455420Y-6479020D01*
X14455420Y-6463780D02*
X14440180Y-6479020D01*
X14440180Y-6501880D02*
X14455420Y-6517120D01*
X14455420Y-6501880D02*
X14440180Y-6517120D01*
X14440180Y-6539980D02*
X14455420Y-6555220D01*
X14455420Y-6539980D02*
X14440180Y-6555220D01*
X14490980Y-6044680D02*
X14506220Y-6059920D01*
X14506220Y-6044680D02*
X14490980Y-6059920D01*
X14490980Y-6082780D02*
X14506220Y-6098020D01*
X14506220Y-6082780D02*
X14490980Y-6098020D01*
X14490980Y-6120880D02*
X14506220Y-6136120D01*
X14506220Y-6120880D02*
X14490980Y-6136120D01*
X14490980Y-6158980D02*
X14506220Y-6174220D01*
X14506220Y-6158980D02*
X14490980Y-6174220D01*
X14490980Y-6197080D02*
X14506220Y-6212320D01*
X14506220Y-6197080D02*
X14490980Y-6212320D01*
X14490980Y-6235180D02*
X14506220Y-6250420D01*
X14506220Y-6235180D02*
X14490980Y-6250420D01*
X14490980Y-6273280D02*
X14506220Y-6288520D01*
X14506220Y-6273280D02*
X14490980Y-6288520D01*
X14490980Y-6311380D02*
X14506220Y-6326620D01*
X14506220Y-6311380D02*
X14490980Y-6326620D01*
X14490980Y-6349480D02*
X14506220Y-6364720D01*
X14506220Y-6349480D02*
X14490980Y-6364720D01*
X14490980Y-6387580D02*
X14506220Y-6402820D01*
X14506220Y-6387580D02*
X14490980Y-6402820D01*
X14490980Y-6425680D02*
X14506220Y-6440920D01*
X14506220Y-6425680D02*
X14490980Y-6440920D01*
X14490980Y-6463780D02*
X14506220Y-6479020D01*
X14506220Y-6463780D02*
X14490980Y-6479020D01*
X14490980Y-6501880D02*
X14506220Y-6517120D01*
X14506220Y-6501880D02*
X14490980Y-6517120D01*
X14490980Y-6539980D02*
X14506220Y-6555220D01*
X14506220Y-6539980D02*
X14490980Y-6555220D01*
X14541780Y-6044680D02*
X14557020Y-6059920D01*
X14557020Y-6044680D02*
X14541780Y-6059920D01*
X14541780Y-6082780D02*
X14557020Y-6098020D01*
X14557020Y-6082780D02*
X14541780Y-6098020D01*
X14541780Y-6120880D02*
X14557020Y-6136120D01*
X14557020Y-6120880D02*
X14541780Y-6136120D01*
X14541780Y-6158980D02*
X14557020Y-6174220D01*
X14557020Y-6158980D02*
X14541780Y-6174220D01*
X14541780Y-6197080D02*
X14557020Y-6212320D01*
X14557020Y-6197080D02*
X14541780Y-6212320D01*
X14541780Y-6235180D02*
X14557020Y-6250420D01*
X14557020Y-6235180D02*
X14541780Y-6250420D01*
X14541780Y-6273280D02*
X14557020Y-6288520D01*
X14557020Y-6273280D02*
X14541780Y-6288520D01*
X14541780Y-6311380D02*
X14557020Y-6326620D01*
X14557020Y-6311380D02*
X14541780Y-6326620D01*
X14541780Y-6349480D02*
X14557020Y-6364720D01*
X14557020Y-6349480D02*
X14541780Y-6364720D01*
X14541780Y-6387580D02*
X14557020Y-6402820D01*
X14557020Y-6387580D02*
X14541780Y-6402820D01*
X14541780Y-6425680D02*
X14557020Y-6440920D01*
X14557020Y-6425680D02*
X14541780Y-6440920D01*
X14541780Y-6463780D02*
X14557020Y-6479020D01*
X14557020Y-6463780D02*
X14541780Y-6479020D01*
X14541780Y-6501880D02*
X14557020Y-6517120D01*
X14557020Y-6501880D02*
X14541780Y-6517120D01*
X14541780Y-6539980D02*
X14557020Y-6555220D01*
X14557020Y-6539980D02*
X14541780Y-6555220D01*
X14592580Y-6044680D02*
X14607820Y-6059920D01*
X14607820Y-6044680D02*
X14592580Y-6059920D01*
X14592580Y-6082780D02*
X14607820Y-6098020D01*
X14607820Y-6082780D02*
X14592580Y-6098020D01*
X14592580Y-6120880D02*
X14607820Y-6136120D01*
X14607820Y-6120880D02*
X14592580Y-6136120D01*
X14592580Y-6158980D02*
X14607820Y-6174220D01*
X14607820Y-6158980D02*
X14592580Y-6174220D01*
X14592580Y-6197080D02*
X14607820Y-6212320D01*
X14607820Y-6197080D02*
X14592580Y-6212320D01*
X14592580Y-6235180D02*
X14607820Y-6250420D01*
X14607820Y-6235180D02*
X14592580Y-6250420D01*
X14592580Y-6273280D02*
X14607820Y-6288520D01*
X14607820Y-6273280D02*
X14592580Y-6288520D01*
X14592580Y-6311380D02*
X14607820Y-6326620D01*
X14607820Y-6311380D02*
X14592580Y-6326620D01*
X14592580Y-6349480D02*
X14607820Y-6364720D01*
X14607820Y-6349480D02*
X14592580Y-6364720D01*
X14592580Y-6387580D02*
X14607820Y-6402820D01*
X14607820Y-6387580D02*
X14592580Y-6402820D01*
X14592580Y-6425680D02*
X14607820Y-6440920D01*
X14607820Y-6425680D02*
X14592580Y-6440920D01*
X14592580Y-6463780D02*
X14607820Y-6479020D01*
X14607820Y-6463780D02*
X14592580Y-6479020D01*
X14592580Y-6501880D02*
X14607820Y-6517120D01*
X14607820Y-6501880D02*
X14592580Y-6517120D01*
X14592580Y-6539980D02*
X14607820Y-6555220D01*
X14607820Y-6539980D02*
X14592580Y-6555220D01*
X14643380Y-6044680D02*
X14658620Y-6059920D01*
X14658620Y-6044680D02*
X14643380Y-6059920D01*
X14643380Y-6082780D02*
X14658620Y-6098020D01*
X14658620Y-6082780D02*
X14643380Y-6098020D01*
X14643380Y-6120880D02*
X14658620Y-6136120D01*
X14658620Y-6120880D02*
X14643380Y-6136120D01*
X14643380Y-6158980D02*
X14658620Y-6174220D01*
X14658620Y-6158980D02*
X14643380Y-6174220D01*
X14643380Y-6197080D02*
X14658620Y-6212320D01*
X14658620Y-6197080D02*
X14643380Y-6212320D01*
X14643380Y-6235180D02*
X14658620Y-6250420D01*
X14658620Y-6235180D02*
X14643380Y-6250420D01*
X14643380Y-6273280D02*
X14658620Y-6288520D01*
X14658620Y-6273280D02*
X14643380Y-6288520D01*
X14643380Y-6311380D02*
X14658620Y-6326620D01*
X14658620Y-6311380D02*
X14643380Y-6326620D01*
X14643380Y-6349480D02*
X14658620Y-6364720D01*
X14658620Y-6349480D02*
X14643380Y-6364720D01*
X14643380Y-6387580D02*
X14658620Y-6402820D01*
X14658620Y-6387580D02*
X14643380Y-6402820D01*
X14643380Y-6425680D02*
X14658620Y-6440920D01*
X14658620Y-6425680D02*
X14643380Y-6440920D01*
X14643380Y-6463780D02*
X14658620Y-6479020D01*
X14658620Y-6463780D02*
X14643380Y-6479020D01*
X14643380Y-6501880D02*
X14658620Y-6517120D01*
X14658620Y-6501880D02*
X14643380Y-6517120D01*
X14643380Y-6539980D02*
X14658620Y-6555220D01*
X14658620Y-6539980D02*
X14643380Y-6555220D01*
X14694180Y-6044680D02*
X14709420Y-6059920D01*
X14709420Y-6044680D02*
X14694180Y-6059920D01*
X14694180Y-6082780D02*
X14709420Y-6098020D01*
X14709420Y-6082780D02*
X14694180Y-6098020D01*
X14694180Y-6120880D02*
X14709420Y-6136120D01*
X14709420Y-6120880D02*
X14694180Y-6136120D01*
X14694180Y-6158980D02*
X14709420Y-6174220D01*
X14709420Y-6158980D02*
X14694180Y-6174220D01*
X14694180Y-6197080D02*
X14709420Y-6212320D01*
X14709420Y-6197080D02*
X14694180Y-6212320D01*
X14694180Y-6235180D02*
X14709420Y-6250420D01*
X14709420Y-6235180D02*
X14694180Y-6250420D01*
X14694180Y-6273280D02*
X14709420Y-6288520D01*
X14709420Y-6273280D02*
X14694180Y-6288520D01*
X14694180Y-6311380D02*
X14709420Y-6326620D01*
X14709420Y-6311380D02*
X14694180Y-6326620D01*
X14694180Y-6349480D02*
X14709420Y-6364720D01*
X14709420Y-6349480D02*
X14694180Y-6364720D01*
X14694180Y-6387580D02*
X14709420Y-6402820D01*
X14709420Y-6387580D02*
X14694180Y-6402820D01*
X14694180Y-6425680D02*
X14709420Y-6440920D01*
X14709420Y-6425680D02*
X14694180Y-6440920D01*
X14694180Y-6463780D02*
X14709420Y-6479020D01*
X14709420Y-6463780D02*
X14694180Y-6479020D01*
X14694180Y-6501880D02*
X14709420Y-6517120D01*
X14709420Y-6501880D02*
X14694180Y-6517120D01*
X14694180Y-6539980D02*
X14709420Y-6555220D01*
X14709420Y-6539980D02*
X14694180Y-6555220D01*
X14744980Y-6044680D02*
X14760220Y-6059920D01*
X14760220Y-6044680D02*
X14744980Y-6059920D01*
X14744980Y-6082780D02*
X14760220Y-6098020D01*
X14760220Y-6082780D02*
X14744980Y-6098020D01*
X14744980Y-6120880D02*
X14760220Y-6136120D01*
X14760220Y-6120880D02*
X14744980Y-6136120D01*
X14744980Y-6158980D02*
X14760220Y-6174220D01*
X14760220Y-6158980D02*
X14744980Y-6174220D01*
X14744980Y-6197080D02*
X14760220Y-6212320D01*
X14760220Y-6197080D02*
X14744980Y-6212320D01*
X14744980Y-6235180D02*
X14760220Y-6250420D01*
X14760220Y-6235180D02*
X14744980Y-6250420D01*
X14744980Y-6273280D02*
X14760220Y-6288520D01*
X14760220Y-6273280D02*
X14744980Y-6288520D01*
X14744980Y-6311380D02*
X14760220Y-6326620D01*
X14760220Y-6311380D02*
X14744980Y-6326620D01*
X14744980Y-6349480D02*
X14760220Y-6364720D01*
X14760220Y-6349480D02*
X14744980Y-6364720D01*
X14744980Y-6387580D02*
X14760220Y-6402820D01*
X14760220Y-6387580D02*
X14744980Y-6402820D01*
X14744980Y-6425680D02*
X14760220Y-6440920D01*
X14760220Y-6425680D02*
X14744980Y-6440920D01*
X14744980Y-6463780D02*
X14760220Y-6479020D01*
X14760220Y-6463780D02*
X14744980Y-6479020D01*
X14744980Y-6501880D02*
X14760220Y-6517120D01*
X14760220Y-6501880D02*
X14744980Y-6517120D01*
X14744980Y-6539980D02*
X14760220Y-6555220D01*
X14760220Y-6539980D02*
X14744980Y-6555220D01*
X14795780Y-6044680D02*
X14811020Y-6059920D01*
X14811020Y-6044680D02*
X14795780Y-6059920D01*
X14795780Y-6082780D02*
X14811020Y-6098020D01*
X14811020Y-6082780D02*
X14795780Y-6098020D01*
X14795780Y-6120880D02*
X14811020Y-6136120D01*
X14811020Y-6120880D02*
X14795780Y-6136120D01*
X14795780Y-6158980D02*
X14811020Y-6174220D01*
X14811020Y-6158980D02*
X14795780Y-6174220D01*
X14795780Y-6197080D02*
X14811020Y-6212320D01*
X14811020Y-6197080D02*
X14795780Y-6212320D01*
X14795780Y-6235180D02*
X14811020Y-6250420D01*
X14811020Y-6235180D02*
X14795780Y-6250420D01*
X14795780Y-6273280D02*
X14811020Y-6288520D01*
X14811020Y-6273280D02*
X14795780Y-6288520D01*
X14795780Y-6311380D02*
X14811020Y-6326620D01*
X14811020Y-6311380D02*
X14795780Y-6326620D01*
X14795780Y-6349480D02*
X14811020Y-6364720D01*
X14811020Y-6349480D02*
X14795780Y-6364720D01*
X14795780Y-6387580D02*
X14811020Y-6402820D01*
X14811020Y-6387580D02*
X14795780Y-6402820D01*
X14795780Y-6425680D02*
X14811020Y-6440920D01*
X14811020Y-6425680D02*
X14795780Y-6440920D01*
X14795780Y-6463780D02*
X14811020Y-6479020D01*
X14811020Y-6463780D02*
X14795780Y-6479020D01*
X14795780Y-6501880D02*
X14811020Y-6517120D01*
X14811020Y-6501880D02*
X14795780Y-6517120D01*
X14795780Y-6539980D02*
X14811020Y-6555220D01*
X14811020Y-6539980D02*
X14795780Y-6555220D01*
X14846580Y-6044680D02*
X14861820Y-6059920D01*
X14861820Y-6044680D02*
X14846580Y-6059920D01*
X14846580Y-6082780D02*
X14861820Y-6098020D01*
X14861820Y-6082780D02*
X14846580Y-6098020D01*
X14846580Y-6120880D02*
X14861820Y-6136120D01*
X14861820Y-6120880D02*
X14846580Y-6136120D01*
X14846580Y-6158980D02*
X14861820Y-6174220D01*
X14861820Y-6158980D02*
X14846580Y-6174220D01*
X14846580Y-6197080D02*
X14861820Y-6212320D01*
X14861820Y-6197080D02*
X14846580Y-6212320D01*
X14846580Y-6235180D02*
X14861820Y-6250420D01*
X14861820Y-6235180D02*
X14846580Y-6250420D01*
X14846580Y-6273280D02*
X14861820Y-6288520D01*
X14861820Y-6273280D02*
X14846580Y-6288520D01*
X14846580Y-6311380D02*
X14861820Y-6326620D01*
X14861820Y-6311380D02*
X14846580Y-6326620D01*
X14846580Y-6349480D02*
X14861820Y-6364720D01*
X14861820Y-6349480D02*
X14846580Y-6364720D01*
X14846580Y-6387580D02*
X14861820Y-6402820D01*
X14861820Y-6387580D02*
X14846580Y-6402820D01*
X14846580Y-6425680D02*
X14861820Y-6440920D01*
X14861820Y-6425680D02*
X14846580Y-6440920D01*
X14846580Y-6463780D02*
X14861820Y-6479020D01*
X14861820Y-6463780D02*
X14846580Y-6479020D01*
X14846580Y-6501880D02*
X14861820Y-6517120D01*
X14861820Y-6501880D02*
X14846580Y-6517120D01*
X14846580Y-6539980D02*
X14861820Y-6555220D01*
X14861820Y-6539980D02*
X14846580Y-6555220D01*
X14897380Y-6044680D02*
X14912620Y-6059920D01*
X14912620Y-6044680D02*
X14897380Y-6059920D01*
X14897380Y-6082780D02*
X14912620Y-6098020D01*
X14912620Y-6082780D02*
X14897380Y-6098020D01*
X14897380Y-6120880D02*
X14912620Y-6136120D01*
X14912620Y-6120880D02*
X14897380Y-6136120D01*
X14897380Y-6158980D02*
X14912620Y-6174220D01*
X14912620Y-6158980D02*
X14897380Y-6174220D01*
X14897380Y-6197080D02*
X14912620Y-6212320D01*
X14912620Y-6197080D02*
X14897380Y-6212320D01*
X14897380Y-6235180D02*
X14912620Y-6250420D01*
X14912620Y-6235180D02*
X14897380Y-6250420D01*
X14897380Y-6273280D02*
X14912620Y-6288520D01*
X14912620Y-6273280D02*
X14897380Y-6288520D01*
X14897380Y-6311380D02*
X14912620Y-6326620D01*
X14912620Y-6311380D02*
X14897380Y-6326620D01*
X14897380Y-6349480D02*
X14912620Y-6364720D01*
X14912620Y-6349480D02*
X14897380Y-6364720D01*
X14897380Y-6387580D02*
X14912620Y-6402820D01*
X14912620Y-6387580D02*
X14897380Y-6402820D01*
X14897380Y-6425680D02*
X14912620Y-6440920D01*
X14912620Y-6425680D02*
X14897380Y-6440920D01*
X14897380Y-6463780D02*
X14912620Y-6479020D01*
X14912620Y-6463780D02*
X14897380Y-6479020D01*
X14897380Y-6501880D02*
X14912620Y-6517120D01*
X14912620Y-6501880D02*
X14897380Y-6517120D01*
X14897380Y-6539980D02*
X14912620Y-6555220D01*
X14912620Y-6539980D02*
X14897380Y-6555220D01*
X14948180Y-6044680D02*
X14963420Y-6059920D01*
X14963420Y-6044680D02*
X14948180Y-6059920D01*
X14948180Y-6082780D02*
X14963420Y-6098020D01*
X14963420Y-6082780D02*
X14948180Y-6098020D01*
X14948180Y-6120880D02*
X14963420Y-6136120D01*
X14963420Y-6120880D02*
X14948180Y-6136120D01*
X14948180Y-6158980D02*
X14963420Y-6174220D01*
X14963420Y-6158980D02*
X14948180Y-6174220D01*
X14948180Y-6197080D02*
X14963420Y-6212320D01*
X14963420Y-6197080D02*
X14948180Y-6212320D01*
X14948180Y-6235180D02*
X14963420Y-6250420D01*
X14963420Y-6235180D02*
X14948180Y-6250420D01*
X14948180Y-6273280D02*
X14963420Y-6288520D01*
X14963420Y-6273280D02*
X14948180Y-6288520D01*
X14948180Y-6311380D02*
X14963420Y-6326620D01*
X14963420Y-6311380D02*
X14948180Y-6326620D01*
X14948180Y-6349480D02*
X14963420Y-6364720D01*
X14963420Y-6349480D02*
X14948180Y-6364720D01*
X14948180Y-6387580D02*
X14963420Y-6402820D01*
X14963420Y-6387580D02*
X14948180Y-6402820D01*
X14948180Y-6425680D02*
X14963420Y-6440920D01*
X14963420Y-6425680D02*
X14948180Y-6440920D01*
X14948180Y-6463780D02*
X14963420Y-6479020D01*
X14963420Y-6463780D02*
X14948180Y-6479020D01*
X14948180Y-6501880D02*
X14963420Y-6517120D01*
X14963420Y-6501880D02*
X14948180Y-6517120D01*
X14948180Y-6539980D02*
X14963420Y-6555220D01*
X14963420Y-6539980D02*
X14948180Y-6555220D01*
X14998980Y-6044680D02*
X15014220Y-6059920D01*
X15014220Y-6044680D02*
X14998980Y-6059920D01*
X14998980Y-6082780D02*
X15014220Y-6098020D01*
X15014220Y-6082780D02*
X14998980Y-6098020D01*
X14998980Y-6120880D02*
X15014220Y-6136120D01*
X15014220Y-6120880D02*
X14998980Y-6136120D01*
X14998980Y-6158980D02*
X15014220Y-6174220D01*
X15014220Y-6158980D02*
X14998980Y-6174220D01*
X14998980Y-6197080D02*
X15014220Y-6212320D01*
X15014220Y-6197080D02*
X14998980Y-6212320D01*
X14998980Y-6235180D02*
X15014220Y-6250420D01*
X15014220Y-6235180D02*
X14998980Y-6250420D01*
X14998980Y-6273280D02*
X15014220Y-6288520D01*
X15014220Y-6273280D02*
X14998980Y-6288520D01*
X14998980Y-6311380D02*
X15014220Y-6326620D01*
X15014220Y-6311380D02*
X14998980Y-6326620D01*
X14998980Y-6349480D02*
X15014220Y-6364720D01*
X15014220Y-6349480D02*
X14998980Y-6364720D01*
X14998980Y-6387580D02*
X15014220Y-6402820D01*
X15014220Y-6387580D02*
X14998980Y-6402820D01*
X14998980Y-6425680D02*
X15014220Y-6440920D01*
X15014220Y-6425680D02*
X14998980Y-6440920D01*
X14998980Y-6463780D02*
X15014220Y-6479020D01*
X15014220Y-6463780D02*
X14998980Y-6479020D01*
X14998980Y-6501880D02*
X15014220Y-6517120D01*
X15014220Y-6501880D02*
X14998980Y-6517120D01*
X14998980Y-6539980D02*
X15014220Y-6555220D01*
X15014220Y-6539980D02*
X14998980Y-6555220D01*
X15049780Y-6044680D02*
X15065020Y-6059920D01*
X15065020Y-6044680D02*
X15049780Y-6059920D01*
X15049780Y-6082780D02*
X15065020Y-6098020D01*
X15065020Y-6082780D02*
X15049780Y-6098020D01*
X15049780Y-6120880D02*
X15065020Y-6136120D01*
X15065020Y-6120880D02*
X15049780Y-6136120D01*
X15049780Y-6158980D02*
X15065020Y-6174220D01*
X15065020Y-6158980D02*
X15049780Y-6174220D01*
X15049780Y-6197080D02*
X15065020Y-6212320D01*
X15065020Y-6197080D02*
X15049780Y-6212320D01*
X15049780Y-6235180D02*
X15065020Y-6250420D01*
X15065020Y-6235180D02*
X15049780Y-6250420D01*
X15049780Y-6273280D02*
X15065020Y-6288520D01*
X15065020Y-6273280D02*
X15049780Y-6288520D01*
X15049780Y-6311380D02*
X15065020Y-6326620D01*
X15065020Y-6311380D02*
X15049780Y-6326620D01*
X15049780Y-6349480D02*
X15065020Y-6364720D01*
X15065020Y-6349480D02*
X15049780Y-6364720D01*
X15049780Y-6387580D02*
X15065020Y-6402820D01*
X15065020Y-6387580D02*
X15049780Y-6402820D01*
X15049780Y-6425680D02*
X15065020Y-6440920D01*
X15065020Y-6425680D02*
X15049780Y-6440920D01*
X15049780Y-6463780D02*
X15065020Y-6479020D01*
X15065020Y-6463780D02*
X15049780Y-6479020D01*
X15049780Y-6501880D02*
X15065020Y-6517120D01*
X15065020Y-6501880D02*
X15049780Y-6517120D01*
X15049780Y-6539980D02*
X15065020Y-6555220D01*
X15065020Y-6539980D02*
X15049780Y-6555220D01*
X15100580Y-6044680D02*
X15115820Y-6059920D01*
X15115820Y-6044680D02*
X15100580Y-6059920D01*
X15100580Y-6082780D02*
X15115820Y-6098020D01*
X15115820Y-6082780D02*
X15100580Y-6098020D01*
X15100580Y-6120880D02*
X15115820Y-6136120D01*
X15115820Y-6120880D02*
X15100580Y-6136120D01*
X15100580Y-6158980D02*
X15115820Y-6174220D01*
X15115820Y-6158980D02*
X15100580Y-6174220D01*
X15100580Y-6197080D02*
X15115820Y-6212320D01*
X15115820Y-6197080D02*
X15100580Y-6212320D01*
X15100580Y-6235180D02*
X15115820Y-6250420D01*
X15115820Y-6235180D02*
X15100580Y-6250420D01*
X15100580Y-6273280D02*
X15115820Y-6288520D01*
X15115820Y-6273280D02*
X15100580Y-6288520D01*
X15100580Y-6311380D02*
X15115820Y-6326620D01*
X15115820Y-6311380D02*
X15100580Y-6326620D01*
X15100580Y-6349480D02*
X15115820Y-6364720D01*
X15115820Y-6349480D02*
X15100580Y-6364720D01*
X15100580Y-6387580D02*
X15115820Y-6402820D01*
X15115820Y-6387580D02*
X15100580Y-6402820D01*
X15100580Y-6425680D02*
X15115820Y-6440920D01*
X15115820Y-6425680D02*
X15100580Y-6440920D01*
X15100580Y-6463780D02*
X15115820Y-6479020D01*
X15115820Y-6463780D02*
X15100580Y-6479020D01*
X15100580Y-6501880D02*
X15115820Y-6517120D01*
X15115820Y-6501880D02*
X15100580Y-6517120D01*
X15100580Y-6539980D02*
X15115820Y-6555220D01*
X15115820Y-6539980D02*
X15100580Y-6555220D01*
X15151380Y-6044680D02*
X15166620Y-6059920D01*
X15166620Y-6044680D02*
X15151380Y-6059920D01*
X15151380Y-6082780D02*
X15166620Y-6098020D01*
X15166620Y-6082780D02*
X15151380Y-6098020D01*
X15151380Y-6120880D02*
X15166620Y-6136120D01*
X15166620Y-6120880D02*
X15151380Y-6136120D01*
X15151380Y-6158980D02*
X15166620Y-6174220D01*
X15166620Y-6158980D02*
X15151380Y-6174220D01*
X15151380Y-6197080D02*
X15166620Y-6212320D01*
X15166620Y-6197080D02*
X15151380Y-6212320D01*
X15151380Y-6235180D02*
X15166620Y-6250420D01*
X15166620Y-6235180D02*
X15151380Y-6250420D01*
X15151380Y-6273280D02*
X15166620Y-6288520D01*
X15166620Y-6273280D02*
X15151380Y-6288520D01*
X15151380Y-6311380D02*
X15166620Y-6326620D01*
X15166620Y-6311380D02*
X15151380Y-6326620D01*
X15151380Y-6349480D02*
X15166620Y-6364720D01*
X15166620Y-6349480D02*
X15151380Y-6364720D01*
X15151380Y-6387580D02*
X15166620Y-6402820D01*
X15166620Y-6387580D02*
X15151380Y-6402820D01*
X15151380Y-6425680D02*
X15166620Y-6440920D01*
X15166620Y-6425680D02*
X15151380Y-6440920D01*
X15151380Y-6463780D02*
X15166620Y-6479020D01*
X15166620Y-6463780D02*
X15151380Y-6479020D01*
X15151380Y-6501880D02*
X15166620Y-6517120D01*
X15166620Y-6501880D02*
X15151380Y-6517120D01*
X15151380Y-6539980D02*
X15166620Y-6555220D01*
X15166620Y-6539980D02*
X15151380Y-6555220D01*
X15202180Y-6044680D02*
X15217420Y-6059920D01*
X15217420Y-6044680D02*
X15202180Y-6059920D01*
X15202180Y-6082780D02*
X15217420Y-6098020D01*
X15217420Y-6082780D02*
X15202180Y-6098020D01*
X15202180Y-6120880D02*
X15217420Y-6136120D01*
X15217420Y-6120880D02*
X15202180Y-6136120D01*
X15202180Y-6158980D02*
X15217420Y-6174220D01*
X15217420Y-6158980D02*
X15202180Y-6174220D01*
X15202180Y-6197080D02*
X15217420Y-6212320D01*
X15217420Y-6197080D02*
X15202180Y-6212320D01*
X15202180Y-6235180D02*
X15217420Y-6250420D01*
X15217420Y-6235180D02*
X15202180Y-6250420D01*
X15202180Y-6273280D02*
X15217420Y-6288520D01*
X15217420Y-6273280D02*
X15202180Y-6288520D01*
X15202180Y-6311380D02*
X15217420Y-6326620D01*
X15217420Y-6311380D02*
X15202180Y-6326620D01*
X15202180Y-6349480D02*
X15217420Y-6364720D01*
X15217420Y-6349480D02*
X15202180Y-6364720D01*
X15202180Y-6387580D02*
X15217420Y-6402820D01*
X15217420Y-6387580D02*
X15202180Y-6402820D01*
X15202180Y-6425680D02*
X15217420Y-6440920D01*
X15217420Y-6425680D02*
X15202180Y-6440920D01*
X15202180Y-6463780D02*
X15217420Y-6479020D01*
X15217420Y-6463780D02*
X15202180Y-6479020D01*
X15202180Y-6501880D02*
X15217420Y-6517120D01*
X15217420Y-6501880D02*
X15202180Y-6517120D01*
X15202180Y-6539980D02*
X15217420Y-6555220D01*
X15217420Y-6539980D02*
X15202180Y-6555220D01*
X15252980Y-6044680D02*
X15268220Y-6059920D01*
X15268220Y-6044680D02*
X15252980Y-6059920D01*
X15252980Y-6082780D02*
X15268220Y-6098020D01*
X15268220Y-6082780D02*
X15252980Y-6098020D01*
X15252980Y-6120880D02*
X15268220Y-6136120D01*
X15268220Y-6120880D02*
X15252980Y-6136120D01*
X15252980Y-6158980D02*
X15268220Y-6174220D01*
X15268220Y-6158980D02*
X15252980Y-6174220D01*
X15252980Y-6197080D02*
X15268220Y-6212320D01*
X15268220Y-6197080D02*
X15252980Y-6212320D01*
X15252980Y-6235180D02*
X15268220Y-6250420D01*
X15268220Y-6235180D02*
X15252980Y-6250420D01*
X15252980Y-6273280D02*
X15268220Y-6288520D01*
X15268220Y-6273280D02*
X15252980Y-6288520D01*
X15252980Y-6311380D02*
X15268220Y-6326620D01*
X15268220Y-6311380D02*
X15252980Y-6326620D01*
X15252980Y-6349480D02*
X15268220Y-6364720D01*
X15268220Y-6349480D02*
X15252980Y-6364720D01*
X15252980Y-6387580D02*
X15268220Y-6402820D01*
X15268220Y-6387580D02*
X15252980Y-6402820D01*
X15252980Y-6425680D02*
X15268220Y-6440920D01*
X15268220Y-6425680D02*
X15252980Y-6440920D01*
X15252980Y-6463780D02*
X15268220Y-6479020D01*
X15268220Y-6463780D02*
X15252980Y-6479020D01*
X15252980Y-6501880D02*
X15268220Y-6517120D01*
X15268220Y-6501880D02*
X15252980Y-6517120D01*
X15252980Y-6539980D02*
X15268220Y-6555220D01*
X15268220Y-6539980D02*
X15252980Y-6555220D01*
X15303780Y-6044680D02*
X15319020Y-6059920D01*
X15319020Y-6044680D02*
X15303780Y-6059920D01*
X15303780Y-6082780D02*
X15319020Y-6098020D01*
X15319020Y-6082780D02*
X15303780Y-6098020D01*
X15303780Y-6120880D02*
X15319020Y-6136120D01*
X15319020Y-6120880D02*
X15303780Y-6136120D01*
X15303780Y-6158980D02*
X15319020Y-6174220D01*
X15319020Y-6158980D02*
X15303780Y-6174220D01*
X15303780Y-6197080D02*
X15319020Y-6212320D01*
X15319020Y-6197080D02*
X15303780Y-6212320D01*
X15303780Y-6235180D02*
X15319020Y-6250420D01*
X15319020Y-6235180D02*
X15303780Y-6250420D01*
X15303780Y-6273280D02*
X15319020Y-6288520D01*
X15319020Y-6273280D02*
X15303780Y-6288520D01*
X15303780Y-6311380D02*
X15319020Y-6326620D01*
X15319020Y-6311380D02*
X15303780Y-6326620D01*
X15303780Y-6349480D02*
X15319020Y-6364720D01*
X15319020Y-6349480D02*
X15303780Y-6364720D01*
X15303780Y-6387580D02*
X15319020Y-6402820D01*
X15319020Y-6387580D02*
X15303780Y-6402820D01*
X15303780Y-6425680D02*
X15319020Y-6440920D01*
X15319020Y-6425680D02*
X15303780Y-6440920D01*
X15303780Y-6463780D02*
X15319020Y-6479020D01*
X15319020Y-6463780D02*
X15303780Y-6479020D01*
X15303780Y-6501880D02*
X15319020Y-6517120D01*
X15319020Y-6501880D02*
X15303780Y-6517120D01*
X15303780Y-6539980D02*
X15319020Y-6555220D01*
X15319020Y-6539980D02*
X15303780Y-6555220D01*
X15354580Y-6044680D02*
X15369820Y-6059920D01*
X15369820Y-6044680D02*
X15354580Y-6059920D01*
X15354580Y-6082780D02*
X15369820Y-6098020D01*
X15369820Y-6082780D02*
X15354580Y-6098020D01*
X15354580Y-6120880D02*
X15369820Y-6136120D01*
X15369820Y-6120880D02*
X15354580Y-6136120D01*
X15354580Y-6158980D02*
X15369820Y-6174220D01*
X15369820Y-6158980D02*
X15354580Y-6174220D01*
X15354580Y-6197080D02*
X15369820Y-6212320D01*
X15369820Y-6197080D02*
X15354580Y-6212320D01*
X15354580Y-6235180D02*
X15369820Y-6250420D01*
X15369820Y-6235180D02*
X15354580Y-6250420D01*
X15354580Y-6273280D02*
X15369820Y-6288520D01*
X15369820Y-6273280D02*
X15354580Y-6288520D01*
X15354580Y-6311380D02*
X15369820Y-6326620D01*
X15369820Y-6311380D02*
X15354580Y-6326620D01*
X15354580Y-6349480D02*
X15369820Y-6364720D01*
X15369820Y-6349480D02*
X15354580Y-6364720D01*
X15354580Y-6387580D02*
X15369820Y-6402820D01*
X15369820Y-6387580D02*
X15354580Y-6402820D01*
X15354580Y-6425680D02*
X15369820Y-6440920D01*
X15369820Y-6425680D02*
X15354580Y-6440920D01*
X15354580Y-6463780D02*
X15369820Y-6479020D01*
X15369820Y-6463780D02*
X15354580Y-6479020D01*
X15354580Y-6501880D02*
X15369820Y-6517120D01*
X15369820Y-6501880D02*
X15354580Y-6517120D01*
X15354580Y-6539980D02*
X15369820Y-6555220D01*
X15369820Y-6539980D02*
X15354580Y-6555220D01*
X15405380Y-6044680D02*
X15420620Y-6059920D01*
X15420620Y-6044680D02*
X15405380Y-6059920D01*
X15405380Y-6082780D02*
X15420620Y-6098020D01*
X15420620Y-6082780D02*
X15405380Y-6098020D01*
X15405380Y-6120880D02*
X15420620Y-6136120D01*
X15420620Y-6120880D02*
X15405380Y-6136120D01*
X15405380Y-6158980D02*
X15420620Y-6174220D01*
X15420620Y-6158980D02*
X15405380Y-6174220D01*
X15405380Y-6197080D02*
X15420620Y-6212320D01*
X15420620Y-6197080D02*
X15405380Y-6212320D01*
X15405380Y-6235180D02*
X15420620Y-6250420D01*
X15420620Y-6235180D02*
X15405380Y-6250420D01*
X15405380Y-6273280D02*
X15420620Y-6288520D01*
X15420620Y-6273280D02*
X15405380Y-6288520D01*
X15405380Y-6311380D02*
X15420620Y-6326620D01*
X15420620Y-6311380D02*
X15405380Y-6326620D01*
X15405380Y-6349480D02*
X15420620Y-6364720D01*
X15420620Y-6349480D02*
X15405380Y-6364720D01*
X15405380Y-6387580D02*
X15420620Y-6402820D01*
X15420620Y-6387580D02*
X15405380Y-6402820D01*
X15405380Y-6425680D02*
X15420620Y-6440920D01*
X15420620Y-6425680D02*
X15405380Y-6440920D01*
X15405380Y-6463780D02*
X15420620Y-6479020D01*
X15420620Y-6463780D02*
X15405380Y-6479020D01*
X15405380Y-6501880D02*
X15420620Y-6517120D01*
X15420620Y-6501880D02*
X15405380Y-6517120D01*
X15405380Y-6539980D02*
X15420620Y-6555220D01*
X15420620Y-6539980D02*
X15405380Y-6555220D01*
X15456180Y-6044680D02*
X15471420Y-6059920D01*
X15471420Y-6044680D02*
X15456180Y-6059920D01*
X15456180Y-6082780D02*
X15471420Y-6098020D01*
X15471420Y-6082780D02*
X15456180Y-6098020D01*
X15456180Y-6120880D02*
X15471420Y-6136120D01*
X15471420Y-6120880D02*
X15456180Y-6136120D01*
X15456180Y-6158980D02*
X15471420Y-6174220D01*
X15471420Y-6158980D02*
X15456180Y-6174220D01*
X15456180Y-6197080D02*
X15471420Y-6212320D01*
X15471420Y-6197080D02*
X15456180Y-6212320D01*
X15456180Y-6235180D02*
X15471420Y-6250420D01*
X15471420Y-6235180D02*
X15456180Y-6250420D01*
X15456180Y-6273280D02*
X15471420Y-6288520D01*
X15471420Y-6273280D02*
X15456180Y-6288520D01*
X15456180Y-6311380D02*
X15471420Y-6326620D01*
X15471420Y-6311380D02*
X15456180Y-6326620D01*
X15456180Y-6349480D02*
X15471420Y-6364720D01*
X15471420Y-6349480D02*
X15456180Y-6364720D01*
X15456180Y-6387580D02*
X15471420Y-6402820D01*
X15471420Y-6387580D02*
X15456180Y-6402820D01*
X15456180Y-6425680D02*
X15471420Y-6440920D01*
X15471420Y-6425680D02*
X15456180Y-6440920D01*
X15456180Y-6463780D02*
X15471420Y-6479020D01*
X15471420Y-6463780D02*
X15456180Y-6479020D01*
X15456180Y-6501880D02*
X15471420Y-6517120D01*
X15471420Y-6501880D02*
X15456180Y-6517120D01*
X15456180Y-6539980D02*
X15471420Y-6555220D01*
X15471420Y-6539980D02*
X15456180Y-6555220D01*
X15506980Y-6044680D02*
X15522220Y-6059920D01*
X15522220Y-6044680D02*
X15506980Y-6059920D01*
X15506980Y-6082780D02*
X15522220Y-6098020D01*
X15522220Y-6082780D02*
X15506980Y-6098020D01*
X15506980Y-6120880D02*
X15522220Y-6136120D01*
X15522220Y-6120880D02*
X15506980Y-6136120D01*
X15506980Y-6158980D02*
X15522220Y-6174220D01*
X15522220Y-6158980D02*
X15506980Y-6174220D01*
X15506980Y-6197080D02*
X15522220Y-6212320D01*
X15522220Y-6197080D02*
X15506980Y-6212320D01*
X15506980Y-6235180D02*
X15522220Y-6250420D01*
X15522220Y-6235180D02*
X15506980Y-6250420D01*
X15506980Y-6273280D02*
X15522220Y-6288520D01*
X15522220Y-6273280D02*
X15506980Y-6288520D01*
X15506980Y-6311380D02*
X15522220Y-6326620D01*
X15522220Y-6311380D02*
X15506980Y-6326620D01*
X15506980Y-6349480D02*
X15522220Y-6364720D01*
X15522220Y-6349480D02*
X15506980Y-6364720D01*
X15506980Y-6387580D02*
X15522220Y-6402820D01*
X15522220Y-6387580D02*
X15506980Y-6402820D01*
X15506980Y-6425680D02*
X15522220Y-6440920D01*
X15522220Y-6425680D02*
X15506980Y-6440920D01*
X15506980Y-6463780D02*
X15522220Y-6479020D01*
X15522220Y-6463780D02*
X15506980Y-6479020D01*
X15506980Y-6501880D02*
X15522220Y-6517120D01*
X15522220Y-6501880D02*
X15506980Y-6517120D01*
X15506980Y-6539980D02*
X15522220Y-6555220D01*
X15522220Y-6539980D02*
X15506980Y-6555220D01*
X15557780Y-6044680D02*
X15573020Y-6059920D01*
X15573020Y-6044680D02*
X15557780Y-6059920D01*
X15557780Y-6082780D02*
X15573020Y-6098020D01*
X15573020Y-6082780D02*
X15557780Y-6098020D01*
X15557780Y-6120880D02*
X15573020Y-6136120D01*
X15573020Y-6120880D02*
X15557780Y-6136120D01*
X15557780Y-6158980D02*
X15573020Y-6174220D01*
X15573020Y-6158980D02*
X15557780Y-6174220D01*
X15557780Y-6197080D02*
X15573020Y-6212320D01*
X15573020Y-6197080D02*
X15557780Y-6212320D01*
X15557780Y-6235180D02*
X15573020Y-6250420D01*
X15573020Y-6235180D02*
X15557780Y-6250420D01*
X15557780Y-6273280D02*
X15573020Y-6288520D01*
X15573020Y-6273280D02*
X15557780Y-6288520D01*
X15557780Y-6311380D02*
X15573020Y-6326620D01*
X15573020Y-6311380D02*
X15557780Y-6326620D01*
X15557780Y-6349480D02*
X15573020Y-6364720D01*
X15573020Y-6349480D02*
X15557780Y-6364720D01*
X15557780Y-6387580D02*
X15573020Y-6402820D01*
X15573020Y-6387580D02*
X15557780Y-6402820D01*
X15557780Y-6425680D02*
X15573020Y-6440920D01*
X15573020Y-6425680D02*
X15557780Y-6440920D01*
X15557780Y-6463780D02*
X15573020Y-6479020D01*
X15573020Y-6463780D02*
X15557780Y-6479020D01*
X15557780Y-6501880D02*
X15573020Y-6517120D01*
X15573020Y-6501880D02*
X15557780Y-6517120D01*
X15557780Y-6539980D02*
X15573020Y-6555220D01*
X15573020Y-6539980D02*
X15557780Y-6555220D01*
X15608580Y-6044680D02*
X15623820Y-6059920D01*
X15623820Y-6044680D02*
X15608580Y-6059920D01*
X15608580Y-6082780D02*
X15623820Y-6098020D01*
X15623820Y-6082780D02*
X15608580Y-6098020D01*
X15608580Y-6120880D02*
X15623820Y-6136120D01*
X15623820Y-6120880D02*
X15608580Y-6136120D01*
X15608580Y-6158980D02*
X15623820Y-6174220D01*
X15623820Y-6158980D02*
X15608580Y-6174220D01*
X15608580Y-6197080D02*
X15623820Y-6212320D01*
X15623820Y-6197080D02*
X15608580Y-6212320D01*
X15608580Y-6235180D02*
X15623820Y-6250420D01*
X15623820Y-6235180D02*
X15608580Y-6250420D01*
X15608580Y-6273280D02*
X15623820Y-6288520D01*
X15623820Y-6273280D02*
X15608580Y-6288520D01*
X15608580Y-6311380D02*
X15623820Y-6326620D01*
X15623820Y-6311380D02*
X15608580Y-6326620D01*
X15608580Y-6349480D02*
X15623820Y-6364720D01*
X15623820Y-6349480D02*
X15608580Y-6364720D01*
X15608580Y-6387580D02*
X15623820Y-6402820D01*
X15623820Y-6387580D02*
X15608580Y-6402820D01*
X15608580Y-6425680D02*
X15623820Y-6440920D01*
X15623820Y-6425680D02*
X15608580Y-6440920D01*
X15608580Y-6463780D02*
X15623820Y-6479020D01*
X15623820Y-6463780D02*
X15608580Y-6479020D01*
X15608580Y-6501880D02*
X15623820Y-6517120D01*
X15623820Y-6501880D02*
X15608580Y-6517120D01*
X15608580Y-6539980D02*
X15623820Y-6555220D01*
X15623820Y-6539980D02*
X15608580Y-6555220D01*
X15659380Y-6044680D02*
X15674620Y-6059920D01*
X15674620Y-6044680D02*
X15659380Y-6059920D01*
X15659380Y-6082780D02*
X15674620Y-6098020D01*
X15674620Y-6082780D02*
X15659380Y-6098020D01*
X15659380Y-6120880D02*
X15674620Y-6136120D01*
X15674620Y-6120880D02*
X15659380Y-6136120D01*
X15659380Y-6158980D02*
X15674620Y-6174220D01*
X15674620Y-6158980D02*
X15659380Y-6174220D01*
X15659380Y-6197080D02*
X15674620Y-6212320D01*
X15674620Y-6197080D02*
X15659380Y-6212320D01*
X15659380Y-6235180D02*
X15674620Y-6250420D01*
X15674620Y-6235180D02*
X15659380Y-6250420D01*
X15659380Y-6273280D02*
X15674620Y-6288520D01*
X15674620Y-6273280D02*
X15659380Y-6288520D01*
X15659380Y-6311380D02*
X15674620Y-6326620D01*
X15674620Y-6311380D02*
X15659380Y-6326620D01*
X15659380Y-6349480D02*
X15674620Y-6364720D01*
X15674620Y-6349480D02*
X15659380Y-6364720D01*
X15659380Y-6387580D02*
X15674620Y-6402820D01*
X15674620Y-6387580D02*
X15659380Y-6402820D01*
X15659380Y-6425680D02*
X15674620Y-6440920D01*
X15674620Y-6425680D02*
X15659380Y-6440920D01*
X15659380Y-6463780D02*
X15674620Y-6479020D01*
X15674620Y-6463780D02*
X15659380Y-6479020D01*
X15659380Y-6501880D02*
X15674620Y-6517120D01*
X15674620Y-6501880D02*
X15659380Y-6517120D01*
X15659380Y-6539980D02*
X15674620Y-6555220D01*
X15674620Y-6539980D02*
X15659380Y-6555220D01*
X15710180Y-6044680D02*
X15725420Y-6059920D01*
X15725420Y-6044680D02*
X15710180Y-6059920D01*
X15710180Y-6082780D02*
X15725420Y-6098020D01*
X15725420Y-6082780D02*
X15710180Y-6098020D01*
X15710180Y-6120880D02*
X15725420Y-6136120D01*
X15725420Y-6120880D02*
X15710180Y-6136120D01*
X15710180Y-6158980D02*
X15725420Y-6174220D01*
X15725420Y-6158980D02*
X15710180Y-6174220D01*
X15710180Y-6197080D02*
X15725420Y-6212320D01*
X15725420Y-6197080D02*
X15710180Y-6212320D01*
X15710180Y-6235180D02*
X15725420Y-6250420D01*
X15725420Y-6235180D02*
X15710180Y-6250420D01*
X15710180Y-6273280D02*
X15725420Y-6288520D01*
X15725420Y-6273280D02*
X15710180Y-6288520D01*
X15710180Y-6311380D02*
X15725420Y-6326620D01*
X15725420Y-6311380D02*
X15710180Y-6326620D01*
X15710180Y-6349480D02*
X15725420Y-6364720D01*
X15725420Y-6349480D02*
X15710180Y-6364720D01*
X15710180Y-6387580D02*
X15725420Y-6402820D01*
X15725420Y-6387580D02*
X15710180Y-6402820D01*
X15710180Y-6425680D02*
X15725420Y-6440920D01*
X15725420Y-6425680D02*
X15710180Y-6440920D01*
X15710180Y-6463780D02*
X15725420Y-6479020D01*
X15725420Y-6463780D02*
X15710180Y-6479020D01*
X15710180Y-6501880D02*
X15725420Y-6517120D01*
X15725420Y-6501880D02*
X15710180Y-6517120D01*
X15710180Y-6539980D02*
X15725420Y-6555220D01*
X15725420Y-6539980D02*
X15710180Y-6555220D01*
X15760980Y-6044680D02*
X15776220Y-6059920D01*
X15776220Y-6044680D02*
X15760980Y-6059920D01*
X15760980Y-6082780D02*
X15776220Y-6098020D01*
X15776220Y-6082780D02*
X15760980Y-6098020D01*
X15760980Y-6120880D02*
X15776220Y-6136120D01*
X15776220Y-6120880D02*
X15760980Y-6136120D01*
X15760980Y-6158980D02*
X15776220Y-6174220D01*
X15776220Y-6158980D02*
X15760980Y-6174220D01*
X15760980Y-6197080D02*
X15776220Y-6212320D01*
X15776220Y-6197080D02*
X15760980Y-6212320D01*
X15760980Y-6235180D02*
X15776220Y-6250420D01*
X15776220Y-6235180D02*
X15760980Y-6250420D01*
X15760980Y-6273280D02*
X15776220Y-6288520D01*
X15776220Y-6273280D02*
X15760980Y-6288520D01*
X15760980Y-6311380D02*
X15776220Y-6326620D01*
X15776220Y-6311380D02*
X15760980Y-6326620D01*
X15760980Y-6349480D02*
X15776220Y-6364720D01*
X15776220Y-6349480D02*
X15760980Y-6364720D01*
X15760980Y-6387580D02*
X15776220Y-6402820D01*
X15776220Y-6387580D02*
X15760980Y-6402820D01*
X15760980Y-6425680D02*
X15776220Y-6440920D01*
X15776220Y-6425680D02*
X15760980Y-6440920D01*
X15760980Y-6463780D02*
X15776220Y-6479020D01*
X15776220Y-6463780D02*
X15760980Y-6479020D01*
X15760980Y-6501880D02*
X15776220Y-6517120D01*
X15776220Y-6501880D02*
X15760980Y-6517120D01*
X15760980Y-6539980D02*
X15776220Y-6555220D01*
X15776220Y-6539980D02*
X15760980Y-6555220D01*
X15811780Y-6044680D02*
X15827020Y-6059920D01*
X15827020Y-6044680D02*
X15811780Y-6059920D01*
X15811780Y-6082780D02*
X15827020Y-6098020D01*
X15827020Y-6082780D02*
X15811780Y-6098020D01*
X15811780Y-6120880D02*
X15827020Y-6136120D01*
X15827020Y-6120880D02*
X15811780Y-6136120D01*
X15811780Y-6158980D02*
X15827020Y-6174220D01*
X15827020Y-6158980D02*
X15811780Y-6174220D01*
X15811780Y-6197080D02*
X15827020Y-6212320D01*
X15827020Y-6197080D02*
X15811780Y-6212320D01*
X15811780Y-6235180D02*
X15827020Y-6250420D01*
X15827020Y-6235180D02*
X15811780Y-6250420D01*
X15811780Y-6273280D02*
X15827020Y-6288520D01*
X15827020Y-6273280D02*
X15811780Y-6288520D01*
X15811780Y-6311380D02*
X15827020Y-6326620D01*
X15827020Y-6311380D02*
X15811780Y-6326620D01*
X15811780Y-6349480D02*
X15827020Y-6364720D01*
X15827020Y-6349480D02*
X15811780Y-6364720D01*
X15811780Y-6387580D02*
X15827020Y-6402820D01*
X15827020Y-6387580D02*
X15811780Y-6402820D01*
X15811780Y-6425680D02*
X15827020Y-6440920D01*
X15827020Y-6425680D02*
X15811780Y-6440920D01*
X15811780Y-6463780D02*
X15827020Y-6479020D01*
X15827020Y-6463780D02*
X15811780Y-6479020D01*
X15811780Y-6501880D02*
X15827020Y-6517120D01*
X15827020Y-6501880D02*
X15811780Y-6517120D01*
X15811780Y-6539980D02*
X15827020Y-6555220D01*
X15827020Y-6539980D02*
X15811780Y-6555220D01*
D11*
X9240119Y-7300976D02*
X9240119Y-7100976D01*
X9240119Y-7100976D02*
X9287738Y-7100976D01*
X9287738Y-7100976D02*
X9316310Y-7110500D01*
X9316310Y-7110500D02*
X9335357Y-7129548D01*
X9335357Y-7129548D02*
X9344881Y-7148595D01*
X9344881Y-7148595D02*
X9354405Y-7186690D01*
X9354405Y-7186690D02*
X9354405Y-7215262D01*
X9354405Y-7215262D02*
X9344881Y-7253357D01*
X9344881Y-7253357D02*
X9335357Y-7272405D01*
X9335357Y-7272405D02*
X9316310Y-7291452D01*
X9316310Y-7291452D02*
X9287738Y-7300976D01*
X9287738Y-7300976D02*
X9240119Y-7300976D01*
X9440119Y-7300976D02*
X9440119Y-7167643D01*
X9440119Y-7205738D02*
X9449643Y-7186690D01*
X9449643Y-7186690D02*
X9459167Y-7177167D01*
X9459167Y-7177167D02*
X9478214Y-7167643D01*
X9478214Y-7167643D02*
X9497262Y-7167643D01*
X9563929Y-7300976D02*
X9563929Y-7167643D01*
X9563929Y-7100976D02*
X9554405Y-7110500D01*
X9554405Y-7110500D02*
X9563929Y-7120024D01*
X9563929Y-7120024D02*
X9573452Y-7110500D01*
X9573452Y-7110500D02*
X9563929Y-7100976D01*
X9563929Y-7100976D02*
X9563929Y-7120024D01*
X9687738Y-7300976D02*
X9668690Y-7291452D01*
X9668690Y-7291452D02*
X9659167Y-7272405D01*
X9659167Y-7272405D02*
X9659167Y-7100976D01*
X9792500Y-7300976D02*
X9773452Y-7291452D01*
X9773452Y-7291452D02*
X9763929Y-7272405D01*
X9763929Y-7272405D02*
X9763929Y-7100976D01*
X9988690Y-7300976D02*
X9988690Y-7100976D01*
X9988690Y-7100976D02*
X10055357Y-7243833D01*
X10055357Y-7243833D02*
X10122024Y-7100976D01*
X10122024Y-7100976D02*
X10122024Y-7300976D01*
X10302976Y-7300976D02*
X10302976Y-7196214D01*
X10302976Y-7196214D02*
X10293452Y-7177167D01*
X10293452Y-7177167D02*
X10274405Y-7167643D01*
X10274405Y-7167643D02*
X10236309Y-7167643D01*
X10236309Y-7167643D02*
X10217262Y-7177167D01*
X10302976Y-7291452D02*
X10283929Y-7300976D01*
X10283929Y-7300976D02*
X10236309Y-7300976D01*
X10236309Y-7300976D02*
X10217262Y-7291452D01*
X10217262Y-7291452D02*
X10207738Y-7272405D01*
X10207738Y-7272405D02*
X10207738Y-7253357D01*
X10207738Y-7253357D02*
X10217262Y-7234309D01*
X10217262Y-7234309D02*
X10236309Y-7224786D01*
X10236309Y-7224786D02*
X10283929Y-7224786D01*
X10283929Y-7224786D02*
X10302976Y-7215262D01*
X10398214Y-7167643D02*
X10398214Y-7367643D01*
X10398214Y-7177167D02*
X10417262Y-7167643D01*
X10417262Y-7167643D02*
X10455357Y-7167643D01*
X10455357Y-7167643D02*
X10474405Y-7177167D01*
X10474405Y-7177167D02*
X10483929Y-7186690D01*
X10483929Y-7186690D02*
X10493452Y-7205738D01*
X10493452Y-7205738D02*
X10493452Y-7262881D01*
X10493452Y-7262881D02*
X10483929Y-7281928D01*
X10483929Y-7281928D02*
X10474405Y-7291452D01*
X10474405Y-7291452D02*
X10455357Y-7300976D01*
X10455357Y-7300976D02*
X10417262Y-7300976D01*
X10417262Y-7300976D02*
X10398214Y-7291452D01*
X10579167Y-7281928D02*
X10588690Y-7291452D01*
X10588690Y-7291452D02*
X10579167Y-7300976D01*
X10579167Y-7300976D02*
X10569643Y-7291452D01*
X10569643Y-7291452D02*
X10579167Y-7281928D01*
X10579167Y-7281928D02*
X10579167Y-7300976D01*
X10579167Y-7177167D02*
X10588690Y-7186690D01*
X10588690Y-7186690D02*
X10579167Y-7196214D01*
X10579167Y-7196214D02*
X10569643Y-7186690D01*
X10569643Y-7186690D02*
X10579167Y-7177167D01*
X10579167Y-7177167D02*
X10579167Y-7196214D01*
D12*
X8977260Y-7639880D02*
X8992500Y-7655120D01*
X8992500Y-7639880D02*
X8977260Y-7655120D01*
D11*
X9278214Y-7520976D02*
X9297262Y-7520976D01*
X9297262Y-7520976D02*
X9316310Y-7530500D01*
X9316310Y-7530500D02*
X9325833Y-7540024D01*
X9325833Y-7540024D02*
X9335357Y-7559071D01*
X9335357Y-7559071D02*
X9344881Y-7597167D01*
X9344881Y-7597167D02*
X9344881Y-7644786D01*
X9344881Y-7644786D02*
X9335357Y-7682881D01*
X9335357Y-7682881D02*
X9325833Y-7701928D01*
X9325833Y-7701928D02*
X9316310Y-7711452D01*
X9316310Y-7711452D02*
X9297262Y-7720976D01*
X9297262Y-7720976D02*
X9278214Y-7720976D01*
X9278214Y-7720976D02*
X9259167Y-7711452D01*
X9259167Y-7711452D02*
X9249643Y-7701928D01*
X9249643Y-7701928D02*
X9240119Y-7682881D01*
X9240119Y-7682881D02*
X9230595Y-7644786D01*
X9230595Y-7644786D02*
X9230595Y-7597167D01*
X9230595Y-7597167D02*
X9240119Y-7559071D01*
X9240119Y-7559071D02*
X9249643Y-7540024D01*
X9249643Y-7540024D02*
X9259167Y-7530500D01*
X9259167Y-7530500D02*
X9278214Y-7520976D01*
X9430595Y-7701928D02*
X9440119Y-7711452D01*
X9440119Y-7711452D02*
X9430595Y-7720976D01*
X9430595Y-7720976D02*
X9421071Y-7711452D01*
X9421071Y-7711452D02*
X9430595Y-7701928D01*
X9430595Y-7701928D02*
X9430595Y-7720976D01*
X9630595Y-7720976D02*
X9516310Y-7720976D01*
X9573452Y-7720976D02*
X9573452Y-7520976D01*
X9573452Y-7520976D02*
X9554405Y-7549548D01*
X9554405Y-7549548D02*
X9535357Y-7568595D01*
X9535357Y-7568595D02*
X9516310Y-7578119D01*
X9811548Y-7520976D02*
X9716310Y-7520976D01*
X9716310Y-7520976D02*
X9706786Y-7616214D01*
X9706786Y-7616214D02*
X9716310Y-7606690D01*
X9716310Y-7606690D02*
X9735357Y-7597167D01*
X9735357Y-7597167D02*
X9782976Y-7597167D01*
X9782976Y-7597167D02*
X9802024Y-7606690D01*
X9802024Y-7606690D02*
X9811548Y-7616214D01*
X9811548Y-7616214D02*
X9821071Y-7635262D01*
X9821071Y-7635262D02*
X9821071Y-7682881D01*
X9821071Y-7682881D02*
X9811548Y-7701928D01*
X9811548Y-7701928D02*
X9802024Y-7711452D01*
X9802024Y-7711452D02*
X9782976Y-7720976D01*
X9782976Y-7720976D02*
X9735357Y-7720976D01*
X9735357Y-7720976D02*
X9716310Y-7711452D01*
X9716310Y-7711452D02*
X9706786Y-7701928D01*
X9897262Y-7540024D02*
X9906786Y-7530500D01*
X9906786Y-7530500D02*
X9925833Y-7520976D01*
X9925833Y-7520976D02*
X9973452Y-7520976D01*
X9973452Y-7520976D02*
X9992500Y-7530500D01*
X9992500Y-7530500D02*
X10002024Y-7540024D01*
X10002024Y-7540024D02*
X10011548Y-7559071D01*
X10011548Y-7559071D02*
X10011548Y-7578119D01*
X10011548Y-7578119D02*
X10002024Y-7606690D01*
X10002024Y-7606690D02*
X9887738Y-7720976D01*
X9887738Y-7720976D02*
X10011548Y-7720976D01*
X10097262Y-7720976D02*
X10097262Y-7587643D01*
X10097262Y-7606690D02*
X10106786Y-7597167D01*
X10106786Y-7597167D02*
X10125833Y-7587643D01*
X10125833Y-7587643D02*
X10154405Y-7587643D01*
X10154405Y-7587643D02*
X10173452Y-7597167D01*
X10173452Y-7597167D02*
X10182976Y-7616214D01*
X10182976Y-7616214D02*
X10182976Y-7720976D01*
X10182976Y-7616214D02*
X10192500Y-7597167D01*
X10192500Y-7597167D02*
X10211548Y-7587643D01*
X10211548Y-7587643D02*
X10240119Y-7587643D01*
X10240119Y-7587643D02*
X10259167Y-7597167D01*
X10259167Y-7597167D02*
X10268691Y-7616214D01*
X10268691Y-7616214D02*
X10268691Y-7720976D01*
X10363929Y-7720976D02*
X10363929Y-7587643D01*
X10363929Y-7606690D02*
X10373452Y-7597167D01*
X10373452Y-7597167D02*
X10392500Y-7587643D01*
X10392500Y-7587643D02*
X10421072Y-7587643D01*
X10421072Y-7587643D02*
X10440119Y-7597167D01*
X10440119Y-7597167D02*
X10449643Y-7616214D01*
X10449643Y-7616214D02*
X10449643Y-7720976D01*
X10449643Y-7616214D02*
X10459167Y-7597167D01*
X10459167Y-7597167D02*
X10478214Y-7587643D01*
X10478214Y-7587643D02*
X10506786Y-7587643D01*
X10506786Y-7587643D02*
X10525833Y-7597167D01*
X10525833Y-7597167D02*
X10535357Y-7616214D01*
X10535357Y-7616214D02*
X10535357Y-7720976D01*
X10893452Y-7511452D02*
X10722024Y-7768595D01*
X11118214Y-7520976D02*
X11137262Y-7520976D01*
X11137262Y-7520976D02*
X11156310Y-7530500D01*
X11156310Y-7530500D02*
X11165833Y-7540024D01*
X11165833Y-7540024D02*
X11175357Y-7559071D01*
X11175357Y-7559071D02*
X11184881Y-7597167D01*
X11184881Y-7597167D02*
X11184881Y-7644786D01*
X11184881Y-7644786D02*
X11175357Y-7682881D01*
X11175357Y-7682881D02*
X11165833Y-7701928D01*
X11165833Y-7701928D02*
X11156310Y-7711452D01*
X11156310Y-7711452D02*
X11137262Y-7720976D01*
X11137262Y-7720976D02*
X11118214Y-7720976D01*
X11118214Y-7720976D02*
X11099167Y-7711452D01*
X11099167Y-7711452D02*
X11089643Y-7701928D01*
X11089643Y-7701928D02*
X11080119Y-7682881D01*
X11080119Y-7682881D02*
X11070595Y-7644786D01*
X11070595Y-7644786D02*
X11070595Y-7597167D01*
X11070595Y-7597167D02*
X11080119Y-7559071D01*
X11080119Y-7559071D02*
X11089643Y-7540024D01*
X11089643Y-7540024D02*
X11099167Y-7530500D01*
X11099167Y-7530500D02*
X11118214Y-7520976D01*
X11270595Y-7701928D02*
X11280119Y-7711452D01*
X11280119Y-7711452D02*
X11270595Y-7720976D01*
X11270595Y-7720976D02*
X11261071Y-7711452D01*
X11261071Y-7711452D02*
X11270595Y-7701928D01*
X11270595Y-7701928D02*
X11270595Y-7720976D01*
X11403929Y-7520976D02*
X11422976Y-7520976D01*
X11422976Y-7520976D02*
X11442024Y-7530500D01*
X11442024Y-7530500D02*
X11451548Y-7540024D01*
X11451548Y-7540024D02*
X11461071Y-7559071D01*
X11461071Y-7559071D02*
X11470595Y-7597167D01*
X11470595Y-7597167D02*
X11470595Y-7644786D01*
X11470595Y-7644786D02*
X11461071Y-7682881D01*
X11461071Y-7682881D02*
X11451548Y-7701928D01*
X11451548Y-7701928D02*
X11442024Y-7711452D01*
X11442024Y-7711452D02*
X11422976Y-7720976D01*
X11422976Y-7720976D02*
X11403929Y-7720976D01*
X11403929Y-7720976D02*
X11384881Y-7711452D01*
X11384881Y-7711452D02*
X11375357Y-7701928D01*
X11375357Y-7701928D02*
X11365833Y-7682881D01*
X11365833Y-7682881D02*
X11356310Y-7644786D01*
X11356310Y-7644786D02*
X11356310Y-7597167D01*
X11356310Y-7597167D02*
X11365833Y-7559071D01*
X11365833Y-7559071D02*
X11375357Y-7540024D01*
X11375357Y-7540024D02*
X11384881Y-7530500D01*
X11384881Y-7530500D02*
X11403929Y-7520976D01*
X11594405Y-7520976D02*
X11613452Y-7520976D01*
X11613452Y-7520976D02*
X11632500Y-7530500D01*
X11632500Y-7530500D02*
X11642024Y-7540024D01*
X11642024Y-7540024D02*
X11651548Y-7559071D01*
X11651548Y-7559071D02*
X11661071Y-7597167D01*
X11661071Y-7597167D02*
X11661071Y-7644786D01*
X11661071Y-7644786D02*
X11651548Y-7682881D01*
X11651548Y-7682881D02*
X11642024Y-7701928D01*
X11642024Y-7701928D02*
X11632500Y-7711452D01*
X11632500Y-7711452D02*
X11613452Y-7720976D01*
X11613452Y-7720976D02*
X11594405Y-7720976D01*
X11594405Y-7720976D02*
X11575357Y-7711452D01*
X11575357Y-7711452D02*
X11565833Y-7701928D01*
X11565833Y-7701928D02*
X11556310Y-7682881D01*
X11556310Y-7682881D02*
X11546786Y-7644786D01*
X11546786Y-7644786D02*
X11546786Y-7597167D01*
X11546786Y-7597167D02*
X11556310Y-7559071D01*
X11556310Y-7559071D02*
X11565833Y-7540024D01*
X11565833Y-7540024D02*
X11575357Y-7530500D01*
X11575357Y-7530500D02*
X11594405Y-7520976D01*
X11832500Y-7520976D02*
X11794405Y-7520976D01*
X11794405Y-7520976D02*
X11775357Y-7530500D01*
X11775357Y-7530500D02*
X11765833Y-7540024D01*
X11765833Y-7540024D02*
X11746786Y-7568595D01*
X11746786Y-7568595D02*
X11737262Y-7606690D01*
X11737262Y-7606690D02*
X11737262Y-7682881D01*
X11737262Y-7682881D02*
X11746786Y-7701928D01*
X11746786Y-7701928D02*
X11756310Y-7711452D01*
X11756310Y-7711452D02*
X11775357Y-7720976D01*
X11775357Y-7720976D02*
X11813452Y-7720976D01*
X11813452Y-7720976D02*
X11832500Y-7711452D01*
X11832500Y-7711452D02*
X11842024Y-7701928D01*
X11842024Y-7701928D02*
X11851548Y-7682881D01*
X11851548Y-7682881D02*
X11851548Y-7635262D01*
X11851548Y-7635262D02*
X11842024Y-7616214D01*
X11842024Y-7616214D02*
X11832500Y-7606690D01*
X11832500Y-7606690D02*
X11813452Y-7597167D01*
X11813452Y-7597167D02*
X11775357Y-7597167D01*
X11775357Y-7597167D02*
X11756310Y-7606690D01*
X11756310Y-7606690D02*
X11746786Y-7616214D01*
X11746786Y-7616214D02*
X11737262Y-7635262D01*
X11975357Y-7520976D02*
X11994405Y-7520976D01*
X11994405Y-7520976D02*
X12013452Y-7530500D01*
X12013452Y-7530500D02*
X12022976Y-7540024D01*
X12022976Y-7540024D02*
X12032500Y-7559071D01*
X12032500Y-7559071D02*
X12042024Y-7597167D01*
X12042024Y-7597167D02*
X12042024Y-7644786D01*
X12042024Y-7644786D02*
X12032500Y-7682881D01*
X12032500Y-7682881D02*
X12022976Y-7701928D01*
X12022976Y-7701928D02*
X12013452Y-7711452D01*
X12013452Y-7711452D02*
X11994405Y-7720976D01*
X11994405Y-7720976D02*
X11975357Y-7720976D01*
X11975357Y-7720976D02*
X11956310Y-7711452D01*
X11956310Y-7711452D02*
X11946786Y-7701928D01*
X11946786Y-7701928D02*
X11937262Y-7682881D01*
X11937262Y-7682881D02*
X11927738Y-7644786D01*
X11927738Y-7644786D02*
X11927738Y-7597167D01*
X11927738Y-7597167D02*
X11937262Y-7559071D01*
X11937262Y-7559071D02*
X11946786Y-7540024D01*
X11946786Y-7540024D02*
X11956310Y-7530500D01*
X11956310Y-7530500D02*
X11975357Y-7520976D01*
X12118214Y-7520976D02*
X12118214Y-7559071D01*
X12194405Y-7520976D02*
X12194405Y-7559071D01*
X12457262Y-7797167D02*
X12447738Y-7787643D01*
X12447738Y-7787643D02*
X12428691Y-7759071D01*
X12428691Y-7759071D02*
X12419167Y-7740024D01*
X12419167Y-7740024D02*
X12409643Y-7711452D01*
X12409643Y-7711452D02*
X12400119Y-7663833D01*
X12400119Y-7663833D02*
X12400119Y-7625738D01*
X12400119Y-7625738D02*
X12409643Y-7578119D01*
X12409643Y-7578119D02*
X12419167Y-7549548D01*
X12419167Y-7549548D02*
X12428691Y-7530500D01*
X12428691Y-7530500D02*
X12447738Y-7501928D01*
X12447738Y-7501928D02*
X12457262Y-7492405D01*
X12619167Y-7520976D02*
X12581071Y-7520976D01*
X12581071Y-7520976D02*
X12562024Y-7530500D01*
X12562024Y-7530500D02*
X12552500Y-7540024D01*
X12552500Y-7540024D02*
X12533452Y-7568595D01*
X12533452Y-7568595D02*
X12523929Y-7606690D01*
X12523929Y-7606690D02*
X12523929Y-7682881D01*
X12523929Y-7682881D02*
X12533452Y-7701928D01*
X12533452Y-7701928D02*
X12542976Y-7711452D01*
X12542976Y-7711452D02*
X12562024Y-7720976D01*
X12562024Y-7720976D02*
X12600119Y-7720976D01*
X12600119Y-7720976D02*
X12619167Y-7711452D01*
X12619167Y-7711452D02*
X12628691Y-7701928D01*
X12628691Y-7701928D02*
X12638214Y-7682881D01*
X12638214Y-7682881D02*
X12638214Y-7635262D01*
X12638214Y-7635262D02*
X12628691Y-7616214D01*
X12628691Y-7616214D02*
X12619167Y-7606690D01*
X12619167Y-7606690D02*
X12600119Y-7597167D01*
X12600119Y-7597167D02*
X12562024Y-7597167D01*
X12562024Y-7597167D02*
X12542976Y-7606690D01*
X12542976Y-7606690D02*
X12533452Y-7616214D01*
X12533452Y-7616214D02*
X12523929Y-7635262D01*
X12828691Y-7720976D02*
X12714405Y-7720976D01*
X12771548Y-7720976D02*
X12771548Y-7520976D01*
X12771548Y-7520976D02*
X12752500Y-7549548D01*
X12752500Y-7549548D02*
X12733452Y-7568595D01*
X12733452Y-7568595D02*
X12714405Y-7578119D01*
X12952500Y-7520976D02*
X12971548Y-7520976D01*
X12971548Y-7520976D02*
X12990595Y-7530500D01*
X12990595Y-7530500D02*
X13000119Y-7540024D01*
X13000119Y-7540024D02*
X13009643Y-7559071D01*
X13009643Y-7559071D02*
X13019167Y-7597167D01*
X13019167Y-7597167D02*
X13019167Y-7644786D01*
X13019167Y-7644786D02*
X13009643Y-7682881D01*
X13009643Y-7682881D02*
X13000119Y-7701928D01*
X13000119Y-7701928D02*
X12990595Y-7711452D01*
X12990595Y-7711452D02*
X12971548Y-7720976D01*
X12971548Y-7720976D02*
X12952500Y-7720976D01*
X12952500Y-7720976D02*
X12933452Y-7711452D01*
X12933452Y-7711452D02*
X12923929Y-7701928D01*
X12923929Y-7701928D02*
X12914405Y-7682881D01*
X12914405Y-7682881D02*
X12904881Y-7644786D01*
X12904881Y-7644786D02*
X12904881Y-7597167D01*
X12904881Y-7597167D02*
X12914405Y-7559071D01*
X12914405Y-7559071D02*
X12923929Y-7540024D01*
X12923929Y-7540024D02*
X12933452Y-7530500D01*
X12933452Y-7530500D02*
X12952500Y-7520976D01*
X13224881Y-7720976D02*
X13224881Y-7520976D01*
X13310595Y-7720976D02*
X13310595Y-7616214D01*
X13310595Y-7616214D02*
X13301072Y-7597167D01*
X13301072Y-7597167D02*
X13282024Y-7587643D01*
X13282024Y-7587643D02*
X13253452Y-7587643D01*
X13253452Y-7587643D02*
X13234405Y-7597167D01*
X13234405Y-7597167D02*
X13224881Y-7606690D01*
X13434405Y-7720976D02*
X13415357Y-7711452D01*
X13415357Y-7711452D02*
X13405833Y-7701928D01*
X13405833Y-7701928D02*
X13396310Y-7682881D01*
X13396310Y-7682881D02*
X13396310Y-7625738D01*
X13396310Y-7625738D02*
X13405833Y-7606690D01*
X13405833Y-7606690D02*
X13415357Y-7597167D01*
X13415357Y-7597167D02*
X13434405Y-7587643D01*
X13434405Y-7587643D02*
X13462976Y-7587643D01*
X13462976Y-7587643D02*
X13482024Y-7597167D01*
X13482024Y-7597167D02*
X13491548Y-7606690D01*
X13491548Y-7606690D02*
X13501072Y-7625738D01*
X13501072Y-7625738D02*
X13501072Y-7682881D01*
X13501072Y-7682881D02*
X13491548Y-7701928D01*
X13491548Y-7701928D02*
X13482024Y-7711452D01*
X13482024Y-7711452D02*
X13462976Y-7720976D01*
X13462976Y-7720976D02*
X13434405Y-7720976D01*
X13615357Y-7720976D02*
X13596310Y-7711452D01*
X13596310Y-7711452D02*
X13586786Y-7692405D01*
X13586786Y-7692405D02*
X13586786Y-7520976D01*
X13767738Y-7711452D02*
X13748691Y-7720976D01*
X13748691Y-7720976D02*
X13710595Y-7720976D01*
X13710595Y-7720976D02*
X13691548Y-7711452D01*
X13691548Y-7711452D02*
X13682024Y-7692405D01*
X13682024Y-7692405D02*
X13682024Y-7616214D01*
X13682024Y-7616214D02*
X13691548Y-7597167D01*
X13691548Y-7597167D02*
X13710595Y-7587643D01*
X13710595Y-7587643D02*
X13748691Y-7587643D01*
X13748691Y-7587643D02*
X13767738Y-7597167D01*
X13767738Y-7597167D02*
X13777262Y-7616214D01*
X13777262Y-7616214D02*
X13777262Y-7635262D01*
X13777262Y-7635262D02*
X13682024Y-7654309D01*
X13853453Y-7711452D02*
X13872500Y-7720976D01*
X13872500Y-7720976D02*
X13910595Y-7720976D01*
X13910595Y-7720976D02*
X13929643Y-7711452D01*
X13929643Y-7711452D02*
X13939167Y-7692405D01*
X13939167Y-7692405D02*
X13939167Y-7682881D01*
X13939167Y-7682881D02*
X13929643Y-7663833D01*
X13929643Y-7663833D02*
X13910595Y-7654309D01*
X13910595Y-7654309D02*
X13882024Y-7654309D01*
X13882024Y-7654309D02*
X13862976Y-7644786D01*
X13862976Y-7644786D02*
X13853453Y-7625738D01*
X13853453Y-7625738D02*
X13853453Y-7616214D01*
X13853453Y-7616214D02*
X13862976Y-7597167D01*
X13862976Y-7597167D02*
X13882024Y-7587643D01*
X13882024Y-7587643D02*
X13910595Y-7587643D01*
X13910595Y-7587643D02*
X13929643Y-7597167D01*
X14005834Y-7797167D02*
X14015357Y-7787643D01*
X14015357Y-7787643D02*
X14034405Y-7759071D01*
X14034405Y-7759071D02*
X14043929Y-7740024D01*
X14043929Y-7740024D02*
X14053453Y-7711452D01*
X14053453Y-7711452D02*
X14062976Y-7663833D01*
X14062976Y-7663833D02*
X14062976Y-7625738D01*
X14062976Y-7625738D02*
X14053453Y-7578119D01*
X14053453Y-7578119D02*
X14043929Y-7549548D01*
X14043929Y-7549548D02*
X14034405Y-7530500D01*
X14034405Y-7530500D02*
X14015357Y-7501928D01*
X14015357Y-7501928D02*
X14005834Y-7492405D01*
M02*
