G04 #@! TF.GenerationSoftware,KiCad,Pcbnew,(7.0.0-0)*
G04 #@! TF.CreationDate,2023-06-15T16:27:49-07:00*
G04 #@! TF.ProjectId,coupon,636f7570-6f6e-42e6-9b69-6361645f7063,1.0*
G04 #@! TF.SameCoordinates,Original*
G04 #@! TF.FileFunction,Copper,L2,Inr*
G04 #@! TF.FilePolarity,Positive*
%FSLAX46Y46*%
G04 Gerber Fmt 4.6, Leading zero omitted, Abs format (unit mm)*
G04 Created by KiCad (PCBNEW (7.0.0-0)) date 2023-06-15 16:27:49*
%MOMM*%
%LPD*%
G01*
G04 APERTURE LIST*
G04 #@! TA.AperFunction,ViaPad*
%ADD10C,0.355600*%
G04 #@! TD*
G04 #@! TA.AperFunction,Conductor*
%ADD11C,0.508000*%
G04 #@! TD*
G04 #@! TA.AperFunction,Conductor*
%ADD12C,0.127000*%
G04 #@! TD*
G04 #@! TA.AperFunction,Conductor*
%ADD13C,0.254000*%
G04 #@! TD*
G04 #@! TA.AperFunction,Conductor*
%ADD14C,0.381000*%
G04 #@! TD*
G04 #@! TA.AperFunction,Conductor*
%ADD15C,0.304800*%
G04 #@! TD*
G04 APERTURE END LIST*
D10*
X90868500Y-65214500D03*
X90868500Y-65849500D03*
X91503500Y-65849500D03*
X91503500Y-65214500D03*
X92392500Y-65849500D03*
X92392500Y-65214500D03*
X93027500Y-65214500D03*
X93027500Y-65849500D03*
X94424500Y-65849500D03*
X93789500Y-65849500D03*
X93789500Y-65214500D03*
X94424500Y-65214500D03*
X95329000Y-66365000D03*
X95837000Y-67889000D03*
X95710000Y-66365000D03*
X96599000Y-67889000D03*
X95456000Y-67889000D03*
X98377000Y-66365000D03*
X97361000Y-67889000D03*
X98123000Y-67889000D03*
X96980000Y-67889000D03*
X96218000Y-67889000D03*
X98504000Y-67889000D03*
X96091000Y-66365000D03*
X97996000Y-66365000D03*
X97234000Y-66365000D03*
X96853000Y-66365000D03*
X97615000Y-66365000D03*
X96472000Y-66365000D03*
X97742000Y-67889000D03*
X90868500Y-67056000D03*
X91503500Y-66421000D03*
X90868500Y-66421000D03*
X91503500Y-67056000D03*
X92392500Y-67056000D03*
X93027500Y-66421000D03*
X93027500Y-67056000D03*
X92392500Y-66421000D03*
X94424500Y-66421000D03*
X94424500Y-67056000D03*
X93789500Y-66421000D03*
X93789500Y-67056000D03*
X95456000Y-66873000D03*
X98504000Y-66873000D03*
X96980000Y-66873000D03*
X95583000Y-68397000D03*
X96218000Y-66873000D03*
X96345000Y-68397000D03*
X98631000Y-68397000D03*
X96599000Y-66873000D03*
X95964000Y-68397000D03*
X95837000Y-66873000D03*
X97742000Y-66873000D03*
X98123000Y-66873000D03*
X96726000Y-68397000D03*
X97107000Y-68397000D03*
X98250000Y-68397000D03*
X97488000Y-68397000D03*
X97869000Y-68397000D03*
X97361000Y-66873000D03*
X106251000Y-63698000D03*
X114379000Y-60904000D03*
X102187000Y-62428000D03*
X103711000Y-60523000D03*
X114379000Y-62428000D03*
X120983000Y-60904000D03*
X105743000Y-60904000D03*
X102187000Y-62047000D03*
X111331000Y-62047000D03*
X103711000Y-64079000D03*
X113871000Y-61285000D03*
X115395000Y-64460000D03*
X103711000Y-63698000D03*
X121491000Y-62047000D03*
X103711000Y-62047000D03*
X115903000Y-62047000D03*
X121999000Y-61666000D03*
X100663000Y-65603000D03*
X107267000Y-65603000D03*
X102695000Y-61666000D03*
X105235000Y-60904000D03*
X108791000Y-65603000D03*
X114887000Y-63698000D03*
X110823000Y-62047000D03*
X117427000Y-65222000D03*
X117427000Y-61666000D03*
X115903000Y-64079000D03*
X111839000Y-61666000D03*
X116411000Y-64841000D03*
X112347000Y-61666000D03*
X120475000Y-60523000D03*
X117427000Y-60904000D03*
X114887000Y-61666000D03*
X109807000Y-64460000D03*
X118443000Y-62809000D03*
X111331000Y-62428000D03*
X110823000Y-64841000D03*
X108791000Y-61666000D03*
X101679000Y-64841000D03*
X114379000Y-62047000D03*
X115903000Y-60523000D03*
X107775000Y-62047000D03*
X99647000Y-62809000D03*
X110823000Y-65222000D03*
X110823000Y-64460000D03*
X114887000Y-64079000D03*
X109807000Y-65603000D03*
X101679000Y-62047000D03*
X106251000Y-64460000D03*
X110315000Y-64460000D03*
X117427000Y-64841000D03*
X107267000Y-62428000D03*
X102187000Y-65603000D03*
X111331000Y-65222000D03*
X109299000Y-65603000D03*
X113871000Y-62047000D03*
X119459000Y-61285000D03*
X120983000Y-61285000D03*
X112347000Y-62809000D03*
X111839000Y-65603000D03*
X106759000Y-61285000D03*
X116919000Y-61285000D03*
X108791000Y-64079000D03*
X118443000Y-60904000D03*
X109299000Y-61285000D03*
X102695000Y-65603000D03*
X115395000Y-62809000D03*
X108283000Y-60523000D03*
X105743000Y-60523000D03*
X114379000Y-63698000D03*
X101171000Y-64079000D03*
X113363000Y-63698000D03*
X116919000Y-60904000D03*
X118951000Y-62428000D03*
X108791000Y-60523000D03*
X117935000Y-62428000D03*
X111331000Y-60523000D03*
X104219000Y-65603000D03*
X99647000Y-61285000D03*
X115395000Y-61666000D03*
X106759000Y-63317000D03*
X101171000Y-62428000D03*
X113871000Y-65222000D03*
X105235000Y-63317000D03*
X99647000Y-65603000D03*
X101679000Y-63698000D03*
X113363000Y-65603000D03*
X102187000Y-64079000D03*
X120475000Y-62809000D03*
X102695000Y-62809000D03*
X105235000Y-62809000D03*
X109299000Y-60904000D03*
X115903000Y-64460000D03*
X105743000Y-62047000D03*
X109807000Y-63698000D03*
X119967000Y-60904000D03*
X102187000Y-64460000D03*
X114379000Y-65222000D03*
X115903000Y-65603000D03*
X101679000Y-63317000D03*
X120983000Y-62047000D03*
X110315000Y-64841000D03*
X111331000Y-63698000D03*
X101171000Y-63317000D03*
X115903000Y-63317000D03*
X110315000Y-65222000D03*
X116411000Y-62809000D03*
X108791000Y-63317000D03*
X104727000Y-61666000D03*
X107775000Y-62809000D03*
X110315000Y-62809000D03*
X113871000Y-60904000D03*
X99647000Y-62428000D03*
X110823000Y-64079000D03*
X104727000Y-62047000D03*
X108283000Y-61285000D03*
X114887000Y-60904000D03*
X115395000Y-60904000D03*
X104727000Y-60523000D03*
X105235000Y-65222000D03*
X111331000Y-62809000D03*
X104219000Y-62428000D03*
X100155000Y-60523000D03*
X112347000Y-64460000D03*
X118951000Y-62047000D03*
X107775000Y-61666000D03*
X114887000Y-62428000D03*
X100663000Y-63698000D03*
X109807000Y-62047000D03*
X116919000Y-64841000D03*
X102695000Y-60523000D03*
X103203000Y-62047000D03*
X103203000Y-63698000D03*
X107775000Y-64460000D03*
X105235000Y-61666000D03*
X114887000Y-63317000D03*
X103203000Y-61285000D03*
X110823000Y-63698000D03*
X116919000Y-62047000D03*
X121491000Y-60904000D03*
X113363000Y-62047000D03*
X101171000Y-60904000D03*
X101679000Y-65222000D03*
X104727000Y-64460000D03*
X104219000Y-60904000D03*
X106759000Y-62809000D03*
X101679000Y-64460000D03*
X116919000Y-64079000D03*
X108283000Y-65603000D03*
X99647000Y-64079000D03*
X113871000Y-64460000D03*
X116919000Y-63698000D03*
X104727000Y-63698000D03*
X107775000Y-65222000D03*
X105235000Y-62047000D03*
X106759000Y-65222000D03*
X121999000Y-62809000D03*
X102695000Y-63317000D03*
X113363000Y-61285000D03*
X113871000Y-61666000D03*
X110823000Y-62809000D03*
X116411000Y-61666000D03*
X100663000Y-64079000D03*
X117427000Y-63698000D03*
X114887000Y-61285000D03*
X120475000Y-61666000D03*
X115395000Y-61285000D03*
X104219000Y-61285000D03*
X117427000Y-61285000D03*
X108283000Y-65222000D03*
X119459000Y-61666000D03*
X116919000Y-62428000D03*
X119459000Y-62047000D03*
X112855000Y-60904000D03*
X118951000Y-60523000D03*
X116919000Y-65222000D03*
X103711000Y-61285000D03*
X114887000Y-64460000D03*
X108283000Y-64841000D03*
X112855000Y-63698000D03*
X106251000Y-65603000D03*
X117935000Y-61666000D03*
X101171000Y-60523000D03*
X109807000Y-63317000D03*
X100663000Y-64841000D03*
X114379000Y-65603000D03*
X120983000Y-62428000D03*
X113363000Y-62428000D03*
X110823000Y-62428000D03*
X111331000Y-60904000D03*
X104727000Y-63317000D03*
X106759000Y-63698000D03*
X105743000Y-65603000D03*
X116919000Y-63317000D03*
X116411000Y-65603000D03*
X119459000Y-62809000D03*
X109299000Y-64460000D03*
X106759000Y-62428000D03*
X114887000Y-65603000D03*
X118443000Y-61285000D03*
X107267000Y-63317000D03*
X110315000Y-60523000D03*
X107775000Y-62428000D03*
X104219000Y-64841000D03*
X101171000Y-61285000D03*
X104219000Y-60523000D03*
X110315000Y-61285000D03*
X105235000Y-65603000D03*
X108791000Y-64841000D03*
X112855000Y-64841000D03*
X109807000Y-60904000D03*
X118443000Y-61666000D03*
X107775000Y-65603000D03*
X113871000Y-63698000D03*
X100663000Y-64460000D03*
X101679000Y-60523000D03*
X100663000Y-62428000D03*
X117427000Y-64460000D03*
X111331000Y-64079000D03*
X110823000Y-61285000D03*
X112347000Y-62428000D03*
X103711000Y-61666000D03*
X113363000Y-61666000D03*
X117427000Y-62809000D03*
X121999000Y-62428000D03*
X109299000Y-62428000D03*
X115395000Y-64841000D03*
X110315000Y-65603000D03*
X107267000Y-61285000D03*
X110823000Y-60523000D03*
X122888000Y-63444000D03*
X112855000Y-63317000D03*
X112347000Y-65222000D03*
X121491000Y-60523000D03*
X113871000Y-62428000D03*
X106759000Y-64079000D03*
X106251000Y-62047000D03*
X111839000Y-62047000D03*
X112347000Y-63317000D03*
X110315000Y-64079000D03*
X120475000Y-61285000D03*
X121491000Y-62809000D03*
X100663000Y-61666000D03*
X115395000Y-63317000D03*
X111839000Y-65222000D03*
X114379000Y-64841000D03*
X101171000Y-61666000D03*
X119967000Y-62809000D03*
X120983000Y-61666000D03*
X115903000Y-61285000D03*
X102695000Y-61285000D03*
X115903000Y-62428000D03*
X120983000Y-60523000D03*
X104727000Y-64841000D03*
X103711000Y-65603000D03*
X106759000Y-60523000D03*
X109807000Y-62809000D03*
X115395000Y-60523000D03*
X104219000Y-64079000D03*
X103711000Y-64460000D03*
X102187000Y-60904000D03*
X111839000Y-60904000D03*
X111331000Y-65603000D03*
X100155000Y-61285000D03*
X106251000Y-61666000D03*
X108791000Y-62428000D03*
X107267000Y-62809000D03*
X106759000Y-60904000D03*
X115903000Y-65222000D03*
X102695000Y-64460000D03*
X115903000Y-63698000D03*
X137747000Y-66695200D03*
X115395000Y-65222000D03*
X119967000Y-61666000D03*
X117427000Y-60523000D03*
X112347000Y-63698000D03*
X99647000Y-65222000D03*
X119459000Y-60523000D03*
X120475000Y-62428000D03*
X102187000Y-65222000D03*
X99647000Y-60523000D03*
X104727000Y-64079000D03*
X101679000Y-64079000D03*
X100663000Y-63317000D03*
X101171000Y-62047000D03*
X108283000Y-62428000D03*
X104219000Y-63317000D03*
X101679000Y-65603000D03*
X108791000Y-63698000D03*
X106759000Y-64841000D03*
X105743000Y-61666000D03*
X113871000Y-60523000D03*
X106251000Y-63317000D03*
X113871000Y-63317000D03*
X101171000Y-63698000D03*
X115903000Y-62809000D03*
X118443000Y-62047000D03*
X137366000Y-67000000D03*
X105743000Y-64079000D03*
X99647000Y-64460000D03*
X107775000Y-61285000D03*
X116411000Y-62047000D03*
X117427000Y-62047000D03*
X104727000Y-65603000D03*
X102187000Y-61285000D03*
X115395000Y-64079000D03*
X118951000Y-61285000D03*
X109807000Y-61285000D03*
X105235000Y-61285000D03*
X99647000Y-60904000D03*
X102695000Y-64079000D03*
X108791000Y-60904000D03*
X107267000Y-63698000D03*
X104219000Y-63698000D03*
X110315000Y-60904000D03*
X117935000Y-60904000D03*
X100155000Y-65222000D03*
X103711000Y-62809000D03*
X101679000Y-62428000D03*
X102695000Y-63698000D03*
X117427000Y-65603000D03*
X113363000Y-63317000D03*
X113871000Y-65603000D03*
X116411000Y-63317000D03*
X110315000Y-63317000D03*
X99647000Y-63698000D03*
X110823000Y-63317000D03*
X100155000Y-60904000D03*
X107267000Y-64460000D03*
X107267000Y-64841000D03*
X111839000Y-62428000D03*
X112855000Y-62047000D03*
X100155000Y-64079000D03*
X100663000Y-60904000D03*
X103203000Y-60523000D03*
X103711000Y-64841000D03*
X109807000Y-64841000D03*
X112347000Y-61285000D03*
X102695000Y-60904000D03*
X117427000Y-63317000D03*
X108283000Y-61666000D03*
X111839000Y-64460000D03*
X106251000Y-60523000D03*
X101679000Y-61666000D03*
X104727000Y-60904000D03*
X105235000Y-64841000D03*
X116411000Y-64460000D03*
X107775000Y-63317000D03*
X108283000Y-64079000D03*
X101679000Y-62809000D03*
X104727000Y-61285000D03*
X103203000Y-60904000D03*
X107267000Y-64079000D03*
X101171000Y-62809000D03*
X104727000Y-62428000D03*
X107775000Y-64841000D03*
X100663000Y-65222000D03*
X114379000Y-62809000D03*
X102695000Y-62428000D03*
X121491000Y-61666000D03*
X107267000Y-65222000D03*
X100155000Y-62428000D03*
X109299000Y-63317000D03*
X113871000Y-64079000D03*
X112855000Y-65222000D03*
X112855000Y-64079000D03*
X105743000Y-65222000D03*
X112855000Y-60523000D03*
X121491000Y-61285000D03*
X101171000Y-64460000D03*
X108791000Y-64460000D03*
X109299000Y-62809000D03*
X101171000Y-65222000D03*
X108791000Y-61285000D03*
X119967000Y-62428000D03*
X105743000Y-62428000D03*
X108283000Y-60904000D03*
X105743000Y-62809000D03*
X103203000Y-64460000D03*
X112855000Y-62428000D03*
X105235000Y-64079000D03*
X103203000Y-62428000D03*
X103203000Y-62809000D03*
X100663000Y-62047000D03*
X117935000Y-62047000D03*
X110315000Y-62428000D03*
X107775000Y-60523000D03*
X103711000Y-63317000D03*
X113363000Y-62809000D03*
X115903000Y-64841000D03*
X114379000Y-64079000D03*
X114379000Y-61666000D03*
X106251000Y-65222000D03*
X108791000Y-62047000D03*
X102695000Y-62047000D03*
X134445000Y-66492000D03*
X100155000Y-63317000D03*
X114887000Y-65222000D03*
X99647000Y-64841000D03*
X102187000Y-63698000D03*
X121999000Y-60904000D03*
X99647000Y-62047000D03*
X118951000Y-60904000D03*
X105235000Y-63698000D03*
X110315000Y-62047000D03*
X115395000Y-62047000D03*
X110315000Y-61666000D03*
X106251000Y-64079000D03*
X105743000Y-64841000D03*
X108283000Y-64460000D03*
X120983000Y-62809000D03*
X103203000Y-64079000D03*
X117935000Y-61285000D03*
X109299000Y-62047000D03*
X100155000Y-64841000D03*
X109807000Y-62428000D03*
X115395000Y-62428000D03*
X119459000Y-62428000D03*
X109299000Y-63698000D03*
X108283000Y-62809000D03*
X107267000Y-61666000D03*
X114887000Y-62809000D03*
X112347000Y-62047000D03*
X105235000Y-60523000D03*
X112347000Y-60523000D03*
X118951000Y-62809000D03*
X119967000Y-61285000D03*
X112347000Y-64841000D03*
X102187000Y-63317000D03*
X103711000Y-62428000D03*
X104219000Y-62047000D03*
X116411000Y-62428000D03*
X116919000Y-64460000D03*
X107775000Y-64079000D03*
X108791000Y-65222000D03*
X105743000Y-63698000D03*
X99647000Y-63317000D03*
X136985000Y-65349000D03*
X116411000Y-60904000D03*
X109299000Y-60523000D03*
X100663000Y-62809000D03*
X100155000Y-63698000D03*
X112347000Y-60904000D03*
X115395000Y-63698000D03*
X109807000Y-61666000D03*
X104219000Y-61666000D03*
X112347000Y-65603000D03*
X105743000Y-63317000D03*
X116411000Y-64079000D03*
X107775000Y-60904000D03*
X114887000Y-62047000D03*
X114379000Y-61285000D03*
X110823000Y-65603000D03*
X113363000Y-60523000D03*
X101679000Y-61285000D03*
X109807000Y-65222000D03*
X106251000Y-62428000D03*
X102187000Y-64841000D03*
X113871000Y-62809000D03*
X103203000Y-65603000D03*
X109299000Y-65222000D03*
X118951000Y-61666000D03*
X111839000Y-64841000D03*
X104219000Y-64460000D03*
X122761000Y-61285000D03*
X109299000Y-61666000D03*
X100155000Y-61666000D03*
X113363000Y-65222000D03*
X116919000Y-65603000D03*
X108283000Y-63698000D03*
X114379000Y-60523000D03*
X109299000Y-64841000D03*
X119967000Y-62047000D03*
X108283000Y-63317000D03*
X106251000Y-64841000D03*
X106251000Y-62809000D03*
X115903000Y-60904000D03*
X111331000Y-64460000D03*
X113871000Y-64841000D03*
X100155000Y-62047000D03*
X103711000Y-60904000D03*
X110823000Y-60904000D03*
X114379000Y-63317000D03*
X111331000Y-64841000D03*
X117427000Y-62428000D03*
X106759000Y-64460000D03*
X106759000Y-65603000D03*
X105743000Y-64460000D03*
X107267000Y-62047000D03*
X106759000Y-61666000D03*
X121999000Y-61285000D03*
X102187000Y-62809000D03*
X106251000Y-60904000D03*
X111331000Y-61285000D03*
X109807000Y-64079000D03*
X110315000Y-63698000D03*
X121491000Y-62428000D03*
X112855000Y-61285000D03*
X116411000Y-60523000D03*
X116919000Y-61666000D03*
X112855000Y-61666000D03*
X112347000Y-64079000D03*
X120475000Y-60904000D03*
X115395000Y-65603000D03*
X107775000Y-63698000D03*
X105235000Y-62428000D03*
X100155000Y-62809000D03*
X101171000Y-64841000D03*
X107267000Y-60904000D03*
X112855000Y-62809000D03*
X105743000Y-61285000D03*
X102187000Y-60523000D03*
X106759000Y-62047000D03*
X103203000Y-64841000D03*
X113363000Y-64460000D03*
X102695000Y-64841000D03*
X112855000Y-65603000D03*
X119459000Y-60904000D03*
X111839000Y-61285000D03*
X103711000Y-65222000D03*
X100155000Y-65603000D03*
X113363000Y-64079000D03*
X119967000Y-60523000D03*
X103203000Y-61666000D03*
X116919000Y-60523000D03*
X111839000Y-60523000D03*
X108283000Y-62047000D03*
X99647000Y-61666000D03*
X120475000Y-62047000D03*
X111331000Y-61666000D03*
X117935000Y-60523000D03*
X116411000Y-65222000D03*
X100663000Y-61285000D03*
X104219000Y-65222000D03*
X103203000Y-63317000D03*
X115903000Y-61666000D03*
X112855000Y-64460000D03*
X109807000Y-60523000D03*
X100155000Y-64460000D03*
X102695000Y-65222000D03*
X111839000Y-62809000D03*
X106251000Y-61285000D03*
X118443000Y-60523000D03*
X104727000Y-65222000D03*
X121999000Y-60523000D03*
X105235000Y-64460000D03*
X101679000Y-60904000D03*
X104219000Y-62809000D03*
X101171000Y-65603000D03*
X118443000Y-62428000D03*
X114379000Y-64460000D03*
X103203000Y-65222000D03*
X108791000Y-62809000D03*
X100663000Y-60523000D03*
X111839000Y-63317000D03*
X109299000Y-64079000D03*
X102187000Y-61666000D03*
X114887000Y-60523000D03*
X116411000Y-61285000D03*
X116919000Y-62809000D03*
X113363000Y-60904000D03*
X121999000Y-62047000D03*
X137112000Y-61920000D03*
X110823000Y-61666000D03*
X111839000Y-64079000D03*
X111331000Y-63317000D03*
X104727000Y-62809000D03*
X107267000Y-60523000D03*
X113363000Y-64841000D03*
X111839000Y-63698000D03*
X114887000Y-64841000D03*
X116411000Y-63698000D03*
X117427000Y-64079000D03*
X117935000Y-62809000D03*
X150066000Y-65476000D03*
X146002000Y-61285000D03*
X154130000Y-62428000D03*
X142954000Y-64714000D03*
X138382000Y-62047000D03*
X149050000Y-63190000D03*
X137340600Y-68422400D03*
X157686000Y-62428000D03*
X149558000Y-65095000D03*
X154638000Y-64714000D03*
X152098000Y-65476000D03*
X143462000Y-64714000D03*
X157178000Y-63190000D03*
X150574000Y-64333000D03*
X144986000Y-62047000D03*
X147018000Y-62809000D03*
X157686000Y-60523000D03*
X140414000Y-60904000D03*
X150574000Y-65476000D03*
X139398000Y-61666000D03*
X153114000Y-63190000D03*
X145494000Y-63190000D03*
X137874000Y-63571000D03*
X142954000Y-61666000D03*
X153114000Y-60904000D03*
X155146000Y-63571000D03*
X137874000Y-62428000D03*
X142954000Y-65476000D03*
X147526000Y-63190000D03*
X140414000Y-61666000D03*
X143462000Y-64333000D03*
X143462000Y-63952000D03*
X139906000Y-63190000D03*
X145494000Y-62809000D03*
X143462000Y-65095000D03*
X143970000Y-62809000D03*
X148034000Y-64714000D03*
X152098000Y-62809000D03*
X156670000Y-61666000D03*
X140922000Y-61666000D03*
X153622000Y-62428000D03*
X150574000Y-61666000D03*
X156670000Y-61285000D03*
X151082000Y-62809000D03*
X150574000Y-63190000D03*
X146002000Y-61666000D03*
X140414000Y-62047000D03*
X152098000Y-60904000D03*
X143970000Y-61666000D03*
X153114000Y-62047000D03*
X156162000Y-61666000D03*
X142446000Y-63952000D03*
X155146000Y-63952000D03*
X147526000Y-60523000D03*
X151590000Y-63952000D03*
X122888000Y-63063000D03*
X144478000Y-63952000D03*
X137874000Y-63190000D03*
X146510000Y-61666000D03*
X157178000Y-60904000D03*
X155146000Y-62809000D03*
X146510000Y-64333000D03*
X154130000Y-61666000D03*
X156162000Y-65476000D03*
X146510000Y-64714000D03*
X139906000Y-62809000D03*
X148034000Y-61666000D03*
X140922000Y-62809000D03*
X142446000Y-62809000D03*
X157686000Y-63952000D03*
X148542000Y-65095000D03*
X141430000Y-62047000D03*
X153622000Y-62809000D03*
X142446000Y-61285000D03*
X157178000Y-62428000D03*
X143462000Y-60904000D03*
X145494000Y-63952000D03*
X144986000Y-61285000D03*
X147526000Y-64714000D03*
X142446000Y-65095000D03*
X137874000Y-62047000D03*
X152098000Y-63571000D03*
X141430000Y-65095000D03*
X141430000Y-60904000D03*
X152606000Y-62428000D03*
X151590000Y-62809000D03*
X147018000Y-64714000D03*
X155146000Y-60904000D03*
X147018000Y-60904000D03*
X151082000Y-65476000D03*
X153622000Y-60523000D03*
X140922000Y-65095000D03*
X153114000Y-65095000D03*
X152098000Y-62047000D03*
X151082000Y-61285000D03*
X156670000Y-63190000D03*
X151082000Y-63190000D03*
X141938000Y-62428000D03*
X139398000Y-64714000D03*
X158194000Y-63571000D03*
X138382000Y-63952000D03*
X154130000Y-60904000D03*
X138382000Y-63190000D03*
X141430000Y-65476000D03*
X138382000Y-60523000D03*
X143970000Y-65476000D03*
X139906000Y-63571000D03*
X140414000Y-63571000D03*
X152098000Y-63190000D03*
X148542000Y-61666000D03*
X149558000Y-63190000D03*
X142446000Y-63190000D03*
X152098000Y-64333000D03*
X149558000Y-63571000D03*
X141938000Y-62047000D03*
X147526000Y-62809000D03*
X150574000Y-61285000D03*
X154638000Y-64333000D03*
X155654000Y-62428000D03*
X148034000Y-65476000D03*
X147018000Y-65095000D03*
X155654000Y-63571000D03*
X139906000Y-62047000D03*
X158194000Y-63952000D03*
X138890000Y-62428000D03*
X153622000Y-62047000D03*
X154638000Y-65476000D03*
X156670000Y-60523000D03*
X139906000Y-64714000D03*
X152606000Y-63571000D03*
X140414000Y-64714000D03*
X142446000Y-60523000D03*
X152606000Y-60904000D03*
X138890000Y-60904000D03*
X144986000Y-63571000D03*
X154130000Y-63952000D03*
X158194000Y-62047000D03*
X144478000Y-61285000D03*
X155146000Y-65095000D03*
X146002000Y-63952000D03*
X143970000Y-62047000D03*
X148542000Y-65476000D03*
X156162000Y-60904000D03*
X146510000Y-62809000D03*
X150574000Y-62809000D03*
X149050000Y-61666000D03*
X140922000Y-65476000D03*
X157178000Y-63952000D03*
X137874000Y-61285000D03*
X141938000Y-63571000D03*
X153622000Y-63952000D03*
X154130000Y-64714000D03*
X140922000Y-63952000D03*
X140414000Y-64333000D03*
X143970000Y-62428000D03*
X152606000Y-65095000D03*
X148034000Y-65095000D03*
X144478000Y-64714000D03*
X146510000Y-60523000D03*
X154130000Y-64333000D03*
X150066000Y-60904000D03*
X155146000Y-63190000D03*
X149050000Y-65095000D03*
X143970000Y-60523000D03*
X155654000Y-63190000D03*
X142954000Y-63190000D03*
X144986000Y-63952000D03*
X152606000Y-64333000D03*
X139398000Y-62809000D03*
X153622000Y-64333000D03*
X152606000Y-61666000D03*
X141430000Y-60523000D03*
X156162000Y-60523000D03*
X140922000Y-63190000D03*
X146002000Y-63190000D03*
X146510000Y-60904000D03*
X148542000Y-62428000D03*
X144478000Y-63190000D03*
X149050000Y-65476000D03*
X146002000Y-64714000D03*
X144478000Y-62428000D03*
X140414000Y-61285000D03*
X152606000Y-62047000D03*
X151590000Y-63190000D03*
X144478000Y-60523000D03*
X154638000Y-61666000D03*
X140414000Y-63952000D03*
X139398000Y-60904000D03*
X148542000Y-62047000D03*
X146510000Y-63952000D03*
X151082000Y-63571000D03*
X157178000Y-61666000D03*
X156670000Y-65476000D03*
X143970000Y-63190000D03*
X145494000Y-63571000D03*
X158194000Y-64333000D03*
X145494000Y-62428000D03*
X148542000Y-62809000D03*
X142954000Y-60904000D03*
X157178000Y-65095000D03*
X158194000Y-61666000D03*
X146002000Y-62047000D03*
X138382000Y-61666000D03*
X142446000Y-60904000D03*
X139398000Y-65476000D03*
X158194000Y-65095000D03*
X152098000Y-65095000D03*
X157686000Y-64714000D03*
X147526000Y-60904000D03*
X155146000Y-64714000D03*
X152098000Y-64714000D03*
X147526000Y-62428000D03*
X141430000Y-64333000D03*
X142954000Y-62428000D03*
X147526000Y-62047000D03*
X146002000Y-63571000D03*
X153114000Y-63952000D03*
X148034000Y-62047000D03*
X146510000Y-63190000D03*
X145494000Y-61666000D03*
X155654000Y-60523000D03*
X148034000Y-62809000D03*
X146002000Y-60904000D03*
X139398000Y-60523000D03*
X157178000Y-63571000D03*
X154130000Y-60523000D03*
X151590000Y-65476000D03*
X157686000Y-65476000D03*
X148542000Y-63571000D03*
X143970000Y-63952000D03*
X145494000Y-65476000D03*
X140922000Y-64714000D03*
X148034000Y-61285000D03*
X144478000Y-62809000D03*
X148542000Y-64714000D03*
X151082000Y-60904000D03*
X146510000Y-62428000D03*
X155654000Y-63952000D03*
X153114000Y-63571000D03*
X146002000Y-62428000D03*
X147526000Y-64333000D03*
X156670000Y-63952000D03*
X157686000Y-61666000D03*
X148034000Y-63571000D03*
X147526000Y-63571000D03*
X150066000Y-64333000D03*
X157686000Y-60904000D03*
X143462000Y-63571000D03*
X146510000Y-63571000D03*
X156670000Y-62047000D03*
X151590000Y-64714000D03*
X139906000Y-60523000D03*
X147018000Y-62428000D03*
X141938000Y-61285000D03*
X138382000Y-64333000D03*
X149558000Y-64333000D03*
X140922000Y-62047000D03*
X157686000Y-62047000D03*
X141938000Y-65095000D03*
X139906000Y-61666000D03*
X142446000Y-65476000D03*
X152606000Y-63952000D03*
X144478000Y-63571000D03*
X137874000Y-61666000D03*
X146510000Y-62047000D03*
X153622000Y-61285000D03*
X145494000Y-60904000D03*
X138382000Y-62428000D03*
X153622000Y-61666000D03*
X154638000Y-62047000D03*
X137874000Y-62809000D03*
X155654000Y-64333000D03*
X141938000Y-63190000D03*
X150066000Y-64714000D03*
X142954000Y-61285000D03*
X152606000Y-64714000D03*
X139906000Y-61285000D03*
X154130000Y-65476000D03*
X149558000Y-61666000D03*
X156670000Y-63571000D03*
X139906000Y-65476000D03*
X154638000Y-65095000D03*
X145494000Y-60523000D03*
X144478000Y-61666000D03*
X147018000Y-62047000D03*
X148034000Y-62428000D03*
X141938000Y-61666000D03*
X143462000Y-65476000D03*
X153114000Y-64333000D03*
X138382000Y-64714000D03*
X143970000Y-64714000D03*
X148034000Y-60523000D03*
X137874000Y-64333000D03*
X144986000Y-65095000D03*
X147526000Y-61666000D03*
X158194000Y-62428000D03*
X138890000Y-62809000D03*
X138890000Y-61666000D03*
X156162000Y-63952000D03*
X140922000Y-60523000D03*
X151082000Y-63952000D03*
X143970000Y-60904000D03*
X137366000Y-67381000D03*
X152098000Y-61285000D03*
X141430000Y-62809000D03*
X138890000Y-65095000D03*
X157686000Y-64333000D03*
X147526000Y-65476000D03*
X142446000Y-64333000D03*
X150066000Y-63571000D03*
X149050000Y-61285000D03*
X154638000Y-63190000D03*
X139906000Y-60904000D03*
X146002000Y-60523000D03*
X139398000Y-63952000D03*
X149558000Y-63952000D03*
X153114000Y-62809000D03*
X154638000Y-62809000D03*
X138890000Y-64714000D03*
X156162000Y-64333000D03*
X146002000Y-65476000D03*
X145494000Y-65095000D03*
X144478000Y-65476000D03*
X141430000Y-63190000D03*
X146002000Y-62809000D03*
X149558000Y-62047000D03*
X157686000Y-63190000D03*
X141938000Y-60523000D03*
X155146000Y-61285000D03*
X139398000Y-61285000D03*
X156670000Y-64333000D03*
X157686000Y-62809000D03*
X153622000Y-63571000D03*
X151082000Y-62047000D03*
X155146000Y-62428000D03*
X149050000Y-62809000D03*
X146510000Y-65476000D03*
X152606000Y-61285000D03*
X140922000Y-64333000D03*
X142446000Y-62047000D03*
X155654000Y-61285000D03*
X154130000Y-62809000D03*
X138890000Y-63190000D03*
X150066000Y-62428000D03*
X148542000Y-61285000D03*
X141430000Y-62428000D03*
X146002000Y-65095000D03*
X147018000Y-65476000D03*
X157686000Y-65095000D03*
X139398000Y-62047000D03*
X155654000Y-65476000D03*
X141938000Y-64333000D03*
X147018000Y-61285000D03*
X151590000Y-64333000D03*
X150574000Y-63952000D03*
X147018000Y-63952000D03*
X151590000Y-62428000D03*
X145494000Y-64333000D03*
X153114000Y-61285000D03*
X150574000Y-62047000D03*
X155654000Y-64714000D03*
X157178000Y-64333000D03*
X147018000Y-63190000D03*
X153622000Y-63190000D03*
X155654000Y-61666000D03*
X151590000Y-65095000D03*
X144478000Y-62047000D03*
X142446000Y-62428000D03*
X148542000Y-60904000D03*
X150066000Y-65095000D03*
X143970000Y-65095000D03*
X150574000Y-63571000D03*
X142954000Y-62047000D03*
X142954000Y-60523000D03*
X158194000Y-60904000D03*
X140922000Y-63571000D03*
X154130000Y-62047000D03*
X140922000Y-62428000D03*
X154638000Y-60523000D03*
X137874000Y-65476000D03*
X148034000Y-63190000D03*
X141938000Y-63952000D03*
X139906000Y-62428000D03*
X151082000Y-64714000D03*
X158194000Y-64714000D03*
X151590000Y-61285000D03*
X147018000Y-60523000D03*
X143462000Y-62428000D03*
X157686000Y-63571000D03*
X154130000Y-65095000D03*
X152098000Y-61666000D03*
X142446000Y-61666000D03*
X142446000Y-63571000D03*
X149558000Y-61285000D03*
X152098000Y-62428000D03*
X144478000Y-65095000D03*
X149050000Y-63571000D03*
X156670000Y-65095000D03*
X149050000Y-60523000D03*
X155146000Y-65476000D03*
X146510000Y-65095000D03*
X141430000Y-61285000D03*
X158194000Y-60523000D03*
X137874000Y-65095000D03*
X138382000Y-62809000D03*
X141938000Y-64714000D03*
X153114000Y-65476000D03*
X139398000Y-62428000D03*
X140414000Y-60523000D03*
X152606000Y-63190000D03*
X151590000Y-60904000D03*
X155654000Y-60904000D03*
X138890000Y-64333000D03*
X151082000Y-60523000D03*
X157178000Y-61285000D03*
X154130000Y-61285000D03*
X137874000Y-64714000D03*
X153622000Y-64714000D03*
X147526000Y-61285000D03*
X140414000Y-62428000D03*
X147018000Y-64333000D03*
X141430000Y-64714000D03*
X152606000Y-65476000D03*
X156162000Y-62428000D03*
X143970000Y-61285000D03*
X152606000Y-62809000D03*
X151082000Y-62428000D03*
X150066000Y-60523000D03*
X149050000Y-64333000D03*
X144986000Y-65476000D03*
X144986000Y-63190000D03*
X143462000Y-61285000D03*
X153622000Y-60904000D03*
X149050000Y-62428000D03*
X146510000Y-61285000D03*
X148542000Y-63190000D03*
X154638000Y-62428000D03*
X148542000Y-60523000D03*
X152098000Y-63952000D03*
X143462000Y-60523000D03*
X144478000Y-64333000D03*
X158194000Y-65476000D03*
X144478000Y-60904000D03*
X157178000Y-64714000D03*
X149558000Y-64714000D03*
X143970000Y-63571000D03*
X148034000Y-63952000D03*
X148542000Y-63952000D03*
X157178000Y-62047000D03*
X150066000Y-62809000D03*
X151590000Y-61666000D03*
X145494000Y-61285000D03*
X152606000Y-60523000D03*
X139398000Y-65095000D03*
X139906000Y-63952000D03*
X139398000Y-63190000D03*
X150574000Y-64714000D03*
X150574000Y-62428000D03*
X149558000Y-60523000D03*
X140922000Y-61285000D03*
X150066000Y-61285000D03*
X145494000Y-64714000D03*
X140414000Y-65476000D03*
X137874000Y-60904000D03*
X154130000Y-63190000D03*
X143462000Y-62047000D03*
X150574000Y-60523000D03*
X141430000Y-63952000D03*
X144986000Y-60523000D03*
X149050000Y-62047000D03*
X151082000Y-61666000D03*
X138890000Y-63571000D03*
X148034000Y-64333000D03*
X150066000Y-63952000D03*
X157686000Y-61285000D03*
X146002000Y-64333000D03*
X141938000Y-62809000D03*
X138382000Y-63571000D03*
X156162000Y-63571000D03*
X156670000Y-62809000D03*
X139906000Y-65095000D03*
X151590000Y-60523000D03*
X138382000Y-65476000D03*
X138382000Y-60904000D03*
X140414000Y-63190000D03*
X143462000Y-63190000D03*
X141430000Y-61666000D03*
X144986000Y-62428000D03*
X141938000Y-65476000D03*
X150066000Y-63190000D03*
X139906000Y-64333000D03*
X153622000Y-65095000D03*
X149558000Y-60904000D03*
X156162000Y-61285000D03*
X138890000Y-65476000D03*
X138890000Y-60523000D03*
X142954000Y-64333000D03*
X149558000Y-65476000D03*
X144986000Y-62809000D03*
X117935000Y-63317000D03*
X137874000Y-60523000D03*
X155146000Y-62047000D03*
X143462000Y-62809000D03*
X158194000Y-63190000D03*
X157178000Y-62809000D03*
X142446000Y-64714000D03*
X149050000Y-64714000D03*
X150066000Y-61666000D03*
X154130000Y-63571000D03*
X155654000Y-65095000D03*
X155146000Y-61666000D03*
X142954000Y-63571000D03*
X151590000Y-62047000D03*
X153114000Y-61666000D03*
X148542000Y-64333000D03*
X147526000Y-65095000D03*
X156670000Y-62428000D03*
X148034000Y-60904000D03*
X140922000Y-60904000D03*
X149558000Y-62428000D03*
X147018000Y-61666000D03*
X144986000Y-64333000D03*
X138382000Y-61285000D03*
X138890000Y-61285000D03*
X137874000Y-63952000D03*
X155654000Y-62809000D03*
X153114000Y-64714000D03*
X145494000Y-62047000D03*
X158194000Y-62809000D03*
X144986000Y-60904000D03*
X140414000Y-65095000D03*
X158194000Y-61285000D03*
X154638000Y-61285000D03*
X155654000Y-62047000D03*
X156162000Y-62047000D03*
X143462000Y-61666000D03*
X141938000Y-60904000D03*
X149558000Y-62809000D03*
X149050000Y-63952000D03*
X156162000Y-63190000D03*
X139398000Y-64333000D03*
X142954000Y-62809000D03*
X147018000Y-63571000D03*
X156670000Y-64714000D03*
X153622000Y-65476000D03*
X138382000Y-65095000D03*
X144986000Y-64714000D03*
X150066000Y-62047000D03*
X155146000Y-60523000D03*
X152098000Y-60523000D03*
X149050000Y-60904000D03*
X155146000Y-64333000D03*
X151082000Y-65095000D03*
X150574000Y-65095000D03*
X143970000Y-64333000D03*
X141430000Y-63571000D03*
X138890000Y-63952000D03*
X153114000Y-62428000D03*
X142954000Y-65095000D03*
X156162000Y-64714000D03*
X144986000Y-61666000D03*
X157178000Y-60523000D03*
X142954000Y-63952000D03*
X156162000Y-62809000D03*
X147526000Y-63952000D03*
X139398000Y-63571000D03*
X154638000Y-63952000D03*
X138890000Y-62047000D03*
X154638000Y-60904000D03*
X157178000Y-65476000D03*
X150574000Y-60904000D03*
X140414000Y-62809000D03*
X156162000Y-65095000D03*
X153114000Y-60523000D03*
X154638000Y-63571000D03*
X151590000Y-63571000D03*
X151082000Y-64333000D03*
X156670000Y-60904000D03*
X119205000Y-65730000D03*
X121491000Y-65476000D03*
X121491000Y-65857000D03*
X123142000Y-65222000D03*
X122888000Y-65476000D03*
D11*
X95631000Y-64897000D02*
X98171000Y-64897000D01*
X95631000Y-65532000D02*
X98171000Y-65532000D01*
D12*
X95631000Y-61404500D02*
X98171000Y-61404500D01*
D13*
X95631000Y-61849000D02*
X98171000Y-61849000D01*
D12*
X95631000Y-60642500D02*
X98171000Y-60642500D01*
D14*
X95631000Y-64262000D02*
X98171000Y-64262000D01*
X95631000Y-63754000D02*
X98171000Y-63754000D01*
D13*
X95631000Y-62230000D02*
X98171000Y-62230000D01*
D15*
X95631000Y-62738000D02*
X98171000Y-62738000D01*
D12*
X95631000Y-61150500D02*
X98171000Y-61150500D01*
X95631000Y-60896500D02*
X98171000Y-60896500D01*
X90868500Y-67056000D02*
X91503500Y-66421000D01*
X90868500Y-66421000D02*
X90995500Y-66548000D01*
X90995500Y-66548000D02*
X91503500Y-67056000D01*
X93789500Y-66421000D02*
X93916500Y-66548000D01*
X93789500Y-67056000D02*
X94424500Y-66421000D01*
X92392500Y-66421000D02*
X92519500Y-66548000D01*
X92392500Y-67056000D02*
X93027500Y-66421000D01*
X92519500Y-66548000D02*
X93027500Y-67056000D01*
X93916500Y-66548000D02*
X94424500Y-67056000D01*
D15*
X95631000Y-63182500D02*
X98171000Y-63182500D01*
D13*
X98631000Y-68397000D02*
X95583000Y-68397000D01*
X98504000Y-66873000D02*
X95456000Y-66873000D01*
D12*
X137340600Y-68422400D02*
X137340600Y-68422400D01*
D15*
X101679000Y-62428000D02*
X101679000Y-62809000D01*
X101171000Y-64079000D02*
X101171000Y-64460000D01*
X150574000Y-60523000D02*
X150574000Y-60904000D01*
X108791000Y-64841000D02*
X108791000Y-65222000D01*
X153114000Y-63571000D02*
X153114000Y-63952000D01*
X108791000Y-63317000D02*
X108791000Y-63698000D01*
X145494000Y-62809000D02*
X145494000Y-63190000D01*
X105743000Y-65603000D02*
X106251000Y-65603000D01*
X121999000Y-61666000D02*
X121999000Y-62047000D01*
X141938000Y-62809000D02*
X141938000Y-63190000D01*
X137874000Y-64333000D02*
X137874000Y-64714000D01*
X151590000Y-62047000D02*
X151590000Y-62428000D01*
X133683000Y-64206000D02*
X134445000Y-64968000D01*
X149558000Y-60523000D02*
X149558000Y-60904000D01*
X146002000Y-65095000D02*
X146002000Y-65476000D01*
X150574000Y-61285000D02*
X150574000Y-61666000D01*
X112347000Y-62428000D02*
X112347000Y-62809000D01*
X146510000Y-60523000D02*
X146510000Y-60904000D01*
X139398000Y-64333000D02*
X139398000Y-64714000D01*
X105235000Y-63317000D02*
X105235000Y-63698000D01*
X144478000Y-62047000D02*
X144478000Y-62428000D01*
D12*
X157686000Y-68778000D02*
X138128000Y-68778000D01*
D15*
X111839000Y-65603000D02*
X112347000Y-65603000D01*
X147018000Y-64333000D02*
X147018000Y-64714000D01*
X151082000Y-61285000D02*
X151082000Y-61666000D01*
X115903000Y-61666000D02*
X115903000Y-62047000D01*
X141430000Y-61285000D02*
X141430000Y-61666000D01*
X157686000Y-60523000D02*
X157686000Y-60904000D01*
X108283000Y-60904000D02*
X108283000Y-61285000D01*
X103203000Y-61666000D02*
X103203000Y-62047000D01*
X102695000Y-60904000D02*
X102695000Y-61285000D01*
X150574000Y-64333000D02*
X150574000Y-64714000D01*
X138890000Y-62809000D02*
X138890000Y-63190000D01*
X146510000Y-64333000D02*
X146510000Y-64714000D01*
X122253000Y-64206000D02*
X133683000Y-64206000D01*
X121491000Y-61666000D02*
X121491000Y-62047000D01*
X118951000Y-60904000D02*
X118951000Y-61285000D01*
X109299000Y-60904000D02*
X109299000Y-61285000D01*
X148542000Y-63571000D02*
X148542000Y-63952000D01*
X153622000Y-60523000D02*
X153622000Y-60904000D01*
X111331000Y-63317000D02*
X111331000Y-63698000D01*
X110315000Y-64079000D02*
X110315000Y-64460000D01*
X109299000Y-64841000D02*
X109299000Y-65222000D01*
X105235000Y-60904000D02*
X105235000Y-61285000D01*
X144986000Y-63571000D02*
X144986000Y-63952000D01*
X154638000Y-63571000D02*
X154638000Y-63952000D01*
X148542000Y-62809000D02*
X148542000Y-63190000D01*
X111331000Y-60523000D02*
X110823000Y-60523000D01*
X138382000Y-62809000D02*
X138382000Y-63190000D01*
X106251000Y-60904000D02*
X106251000Y-61285000D01*
X111331000Y-64841000D02*
X111331000Y-65222000D01*
X149050000Y-64333000D02*
X149050000Y-64714000D01*
X105743000Y-64079000D02*
X105743000Y-64460000D01*
X115395000Y-61666000D02*
X115395000Y-62047000D01*
X146002000Y-64333000D02*
X146002000Y-64714000D01*
X114887000Y-61666000D02*
X114887000Y-62047000D01*
X140414000Y-62809000D02*
X140414000Y-63190000D01*
X155146000Y-62047000D02*
X155146000Y-62428000D01*
X103203000Y-64079000D02*
X103203000Y-64460000D01*
X140414000Y-61285000D02*
X140414000Y-61666000D01*
X140922000Y-63571000D02*
X140922000Y-63952000D01*
X114887000Y-63317000D02*
X114887000Y-63698000D01*
X143970000Y-60523000D02*
X143970000Y-60904000D01*
X150066000Y-62047000D02*
X150066000Y-62428000D01*
X119967000Y-62428000D02*
X119967000Y-62809000D01*
X147526000Y-62047000D02*
X147526000Y-62428000D01*
X105235000Y-61666000D02*
X105235000Y-62047000D01*
X150066000Y-62809000D02*
X150066000Y-63190000D01*
X101171000Y-64841000D02*
X101171000Y-65222000D01*
X113363000Y-60904000D02*
X113363000Y-61285000D01*
X151590000Y-61285000D02*
X151590000Y-61666000D01*
D12*
X137874000Y-69540000D02*
X157686000Y-69540000D01*
D15*
X149050000Y-62047000D02*
X149050000Y-62428000D01*
X139906000Y-63571000D02*
X139906000Y-63952000D01*
X157686000Y-62809000D02*
X157686000Y-63190000D01*
X144986000Y-60523000D02*
X144986000Y-60904000D01*
X103711000Y-60904000D02*
X103711000Y-61285000D01*
X151082000Y-63571000D02*
X151082000Y-63952000D01*
X144986000Y-65095000D02*
X144986000Y-65476000D01*
X107775000Y-63317000D02*
X107775000Y-63698000D01*
X146002000Y-61285000D02*
X146002000Y-61666000D01*
X139906000Y-62809000D02*
X139906000Y-63190000D01*
X105235000Y-60523000D02*
X104727000Y-60523000D01*
X146002000Y-62047000D02*
X146002000Y-62428000D01*
X150066000Y-60523000D02*
X150066000Y-60904000D01*
X108791000Y-65603000D02*
X109299000Y-65603000D01*
D12*
X157686000Y-69286000D02*
X138128000Y-69286000D01*
D15*
X105235000Y-64841000D02*
X105235000Y-65222000D01*
X154638000Y-62047000D02*
X154638000Y-62428000D01*
X154130000Y-62047000D02*
X154130000Y-62428000D01*
X105743000Y-62428000D02*
X105743000Y-62809000D01*
X153622000Y-62809000D02*
X153622000Y-63190000D01*
X115903000Y-60904000D02*
X115903000Y-61285000D01*
X100155000Y-64079000D02*
X100155000Y-64460000D01*
X102187000Y-64079000D02*
X102187000Y-64460000D01*
D12*
X137340600Y-68422400D02*
X137340600Y-69006600D01*
D15*
X109807000Y-63317000D02*
X109807000Y-63698000D01*
X111839000Y-60904000D02*
X111839000Y-61285000D01*
X143970000Y-61285000D02*
X143970000Y-61666000D01*
X119459000Y-60523000D02*
X118951000Y-60523000D01*
X100155000Y-60904000D02*
X100155000Y-61285000D01*
X139906000Y-64333000D02*
X139906000Y-64714000D01*
X109807000Y-61666000D02*
X109807000Y-62047000D01*
X148034000Y-62047000D02*
X148034000Y-62428000D01*
X109299000Y-62428000D02*
X109299000Y-62809000D01*
X107267000Y-64079000D02*
X107267000Y-64460000D01*
X99647000Y-65603000D02*
X100155000Y-65603000D01*
X142954000Y-62047000D02*
X142954000Y-62428000D01*
X109299000Y-64079000D02*
X109299000Y-64460000D01*
X155146000Y-65095000D02*
X155146000Y-65476000D01*
X103711000Y-64079000D02*
X103711000Y-64460000D01*
X106759000Y-61666000D02*
X106759000Y-62047000D01*
X139398000Y-65095000D02*
X139398000Y-65476000D01*
X157178000Y-62047000D02*
X157178000Y-62428000D01*
X154130000Y-61285000D02*
X154130000Y-61666000D01*
X152606000Y-61285000D02*
X152606000Y-61666000D01*
X100663000Y-65603000D02*
X101171000Y-65603000D01*
X138382000Y-64333000D02*
X138382000Y-64714000D01*
X142954000Y-63571000D02*
X142954000Y-63952000D01*
X110315000Y-62428000D02*
X110315000Y-62809000D01*
X104219000Y-60904000D02*
X104219000Y-61285000D01*
X115395000Y-60904000D02*
X115395000Y-61285000D01*
X144478000Y-64333000D02*
X144478000Y-64714000D01*
X101679000Y-61666000D02*
X101679000Y-62047000D01*
X109299000Y-61666000D02*
X109299000Y-62047000D01*
X105743000Y-60904000D02*
X105743000Y-61285000D01*
X148034000Y-64333000D02*
X148034000Y-64714000D01*
X106251000Y-61666000D02*
X106251000Y-62047000D01*
X109807000Y-64841000D02*
X109807000Y-65222000D01*
X151590000Y-63571000D02*
X151590000Y-63952000D01*
X112855000Y-64079000D02*
X112855000Y-64460000D01*
D12*
X138128000Y-69286000D02*
X138128000Y-69032000D01*
X138128000Y-68524000D02*
X157686000Y-68524000D01*
D15*
X104219000Y-60523000D02*
X103711000Y-60523000D01*
X143970000Y-62809000D02*
X143970000Y-63190000D01*
X117427000Y-63317000D02*
X117935000Y-63317000D01*
X154130000Y-63571000D02*
X154130000Y-63952000D01*
X117427000Y-64079000D02*
X117427000Y-64460000D01*
X101679000Y-64841000D02*
X101679000Y-65222000D01*
X137874000Y-65095000D02*
X137874000Y-65476000D01*
X100155000Y-61666000D02*
X100155000Y-62047000D01*
X157686000Y-63571000D02*
X157686000Y-63952000D01*
X106759000Y-64079000D02*
X106759000Y-64460000D01*
X143970000Y-64333000D02*
X143970000Y-64714000D01*
X122761000Y-61285000D02*
X122761000Y-60777000D01*
X122507000Y-60523000D02*
X121999000Y-60523000D01*
D12*
X138128000Y-67482600D02*
X157686000Y-67482600D01*
D15*
X137874000Y-61285000D02*
X137874000Y-61666000D01*
X147526000Y-60523000D02*
X147526000Y-60904000D01*
X155654000Y-64333000D02*
X155654000Y-64714000D01*
X134445000Y-64968000D02*
X134445000Y-66492000D01*
X142954000Y-61285000D02*
X142954000Y-61666000D01*
X115903000Y-63317000D02*
X115903000Y-63698000D01*
X104219000Y-63317000D02*
X104219000Y-63698000D01*
X148542000Y-60523000D02*
X148542000Y-60904000D01*
X118951000Y-62428000D02*
X118951000Y-62809000D01*
X158194000Y-65095000D02*
X158194000Y-65476000D01*
X102187000Y-60904000D02*
X102187000Y-61285000D01*
X108791000Y-60904000D02*
X108791000Y-61285000D01*
X108283000Y-62428000D02*
X108283000Y-62809000D01*
X146510000Y-63571000D02*
X146510000Y-63952000D01*
X116919000Y-64079000D02*
X116919000Y-64460000D01*
X110823000Y-62428000D02*
X110823000Y-62809000D01*
X105743000Y-64841000D02*
X105743000Y-65222000D01*
X156670000Y-63571000D02*
X156670000Y-63952000D01*
X158194000Y-63571000D02*
X158194000Y-63952000D01*
X157686000Y-61285000D02*
X157686000Y-61666000D01*
X150574000Y-63571000D02*
X150574000Y-63952000D01*
X152606000Y-63571000D02*
X152606000Y-63952000D01*
X138890000Y-63571000D02*
X138890000Y-63952000D01*
X116411000Y-64841000D02*
X116411000Y-65222000D01*
X104219000Y-61666000D02*
X104219000Y-62047000D01*
X100663000Y-64079000D02*
X100663000Y-64460000D01*
X151590000Y-65095000D02*
X151590000Y-65476000D01*
X111331000Y-61666000D02*
X111331000Y-62047000D01*
X152606000Y-60523000D02*
X152606000Y-60904000D01*
X104727000Y-64079000D02*
X104727000Y-64460000D01*
X109299000Y-60523000D02*
X108791000Y-60523000D01*
X105743000Y-61666000D02*
X105743000Y-62047000D01*
X107267000Y-61666000D02*
X107267000Y-62047000D01*
X102695000Y-62428000D02*
X102695000Y-62809000D01*
X154638000Y-62809000D02*
X154638000Y-63190000D01*
D12*
X138128000Y-66974600D02*
X157686000Y-66974600D01*
D15*
X144478000Y-65095000D02*
X144478000Y-65476000D01*
X149558000Y-65095000D02*
X149558000Y-65476000D01*
X156670000Y-62047000D02*
X156670000Y-62428000D01*
X103711000Y-63317000D02*
X103711000Y-63698000D01*
X155146000Y-61285000D02*
X155146000Y-61666000D01*
X100663000Y-60904000D02*
X100663000Y-61285000D01*
X138382000Y-60523000D02*
X138382000Y-60904000D01*
X150066000Y-61285000D02*
X150066000Y-61666000D01*
X121491000Y-62428000D02*
X121491000Y-62809000D01*
X141938000Y-62047000D02*
X141938000Y-62428000D01*
X102695000Y-61666000D02*
X102695000Y-62047000D01*
X147526000Y-65095000D02*
X147526000Y-65476000D01*
X141430000Y-64333000D02*
X141430000Y-64714000D01*
D12*
X157686000Y-66974600D02*
X157686000Y-66695200D01*
D15*
X150066000Y-64333000D02*
X150066000Y-64714000D01*
X149050000Y-61285000D02*
X149050000Y-61666000D01*
X143970000Y-65095000D02*
X143970000Y-65476000D01*
X103203000Y-60904000D02*
X103203000Y-61285000D01*
X153622000Y-64333000D02*
X153622000Y-64714000D01*
X143462000Y-62809000D02*
X143462000Y-63190000D01*
X110823000Y-61666000D02*
X110823000Y-62047000D01*
X144478000Y-61285000D02*
X144478000Y-61666000D01*
X112347000Y-60523000D02*
X111839000Y-60523000D01*
X111839000Y-63317000D02*
X111839000Y-63698000D01*
X142446000Y-61285000D02*
X142446000Y-61666000D01*
X157178000Y-64333000D02*
X157178000Y-64714000D01*
X156162000Y-65095000D02*
X156162000Y-65476000D01*
X108283000Y-64841000D02*
X108283000Y-65222000D01*
X103203000Y-60523000D02*
X102695000Y-60523000D01*
X148034000Y-65095000D02*
X148034000Y-65476000D01*
X140414000Y-64333000D02*
X140414000Y-64714000D01*
X147526000Y-64333000D02*
X147526000Y-64714000D01*
X138890000Y-64333000D02*
X138890000Y-64714000D01*
X155654000Y-65095000D02*
X155654000Y-65476000D01*
X147018000Y-61285000D02*
X147018000Y-61666000D01*
X157686000Y-62047000D02*
X157686000Y-62428000D01*
X139398000Y-63571000D02*
X139398000Y-63952000D01*
X101679000Y-60904000D02*
X101679000Y-61285000D01*
X156162000Y-61285000D02*
X156162000Y-61666000D01*
X102187000Y-63317000D02*
X102187000Y-63698000D01*
X113871000Y-62428000D02*
X113871000Y-62809000D01*
X116919000Y-61666000D02*
X116919000Y-62047000D01*
X106759000Y-62428000D02*
X106759000Y-62809000D01*
X137112000Y-60650000D02*
X137239000Y-60523000D01*
X141938000Y-64333000D02*
X141938000Y-64714000D01*
X103711000Y-65603000D02*
X104219000Y-65603000D01*
X142446000Y-63571000D02*
X142446000Y-63952000D01*
X114887000Y-64079000D02*
X114887000Y-64460000D01*
X139398000Y-62809000D02*
X139398000Y-63190000D01*
X114887000Y-60904000D02*
X114887000Y-61285000D01*
X105743000Y-63317000D02*
X105743000Y-63698000D01*
D12*
X157686000Y-67228600D02*
X138128000Y-67228600D01*
D15*
X100155000Y-62428000D02*
X100155000Y-62809000D01*
X144478000Y-60523000D02*
X144478000Y-60904000D01*
X103711000Y-62428000D02*
X103711000Y-62809000D01*
X152606000Y-64333000D02*
X152606000Y-64714000D01*
D12*
X138128000Y-68270000D02*
X138128000Y-67990600D01*
D15*
X111331000Y-64079000D02*
X111331000Y-64460000D01*
X114379000Y-63317000D02*
X114379000Y-63698000D01*
X156670000Y-64333000D02*
X156670000Y-64714000D01*
X139398000Y-62047000D02*
X139398000Y-62428000D01*
X101679000Y-63317000D02*
X101679000Y-63698000D01*
X142446000Y-60523000D02*
X142446000Y-60904000D01*
X158194000Y-61285000D02*
X158194000Y-61666000D01*
X99647000Y-64079000D02*
X99647000Y-64460000D01*
X100155000Y-60523000D02*
X99647000Y-60523000D01*
X111839000Y-64841000D02*
X111839000Y-65222000D01*
X146510000Y-65095000D02*
X146510000Y-65476000D01*
X100155000Y-64841000D02*
X100155000Y-65222000D01*
X157178000Y-63571000D02*
X157178000Y-63952000D01*
X101679000Y-65603000D02*
X102187000Y-65603000D01*
X139906000Y-65095000D02*
X139906000Y-65476000D01*
X110315000Y-60904000D02*
X110315000Y-61285000D01*
D12*
X157686000Y-67736600D02*
X138128000Y-67736600D01*
D15*
X138890000Y-65095000D02*
X138890000Y-65476000D01*
X111331000Y-60904000D02*
X111331000Y-61285000D01*
X143462000Y-62047000D02*
X143462000Y-62428000D01*
X101171000Y-60904000D02*
X101171000Y-61285000D01*
X101171000Y-63317000D02*
X101171000Y-63698000D01*
X144986000Y-62047000D02*
X144986000Y-62428000D01*
X148034000Y-60523000D02*
X148034000Y-60904000D01*
X137239000Y-60523000D02*
X137874000Y-60523000D01*
X115395000Y-63317000D02*
X115395000Y-63698000D01*
X107267000Y-60904000D02*
X107267000Y-61285000D01*
X140922000Y-61285000D02*
X140922000Y-61666000D01*
D12*
X138128000Y-67228600D02*
X138128000Y-66974600D01*
D15*
X102187000Y-60523000D02*
X101679000Y-60523000D01*
X102695000Y-64841000D02*
X102695000Y-65222000D01*
X143462000Y-65095000D02*
X143462000Y-65476000D01*
X151082000Y-64333000D02*
X151082000Y-64714000D01*
X154638000Y-64333000D02*
X154638000Y-64714000D01*
X157178000Y-65095000D02*
X157178000Y-65476000D01*
X110823000Y-60904000D02*
X110823000Y-61285000D01*
X144986000Y-62809000D02*
X144986000Y-63190000D01*
X117935000Y-60904000D02*
X117935000Y-61285000D01*
X147526000Y-62809000D02*
X147526000Y-63190000D01*
X142954000Y-60523000D02*
X142954000Y-60904000D01*
X151590000Y-62809000D02*
X151590000Y-63190000D01*
X119459000Y-62428000D02*
X119459000Y-62809000D01*
X155146000Y-62809000D02*
X155146000Y-63190000D01*
X142446000Y-62047000D02*
X142446000Y-62428000D01*
X109807000Y-64079000D02*
X109807000Y-64460000D01*
X103711000Y-61666000D02*
X103711000Y-62047000D01*
X138382000Y-61285000D02*
X138382000Y-61666000D01*
X147018000Y-60523000D02*
X147018000Y-60904000D01*
X104727000Y-61666000D02*
X104727000Y-62047000D01*
X140922000Y-62047000D02*
X140922000Y-62428000D01*
X156162000Y-62809000D02*
X156162000Y-63190000D01*
X156162000Y-62047000D02*
X156162000Y-62428000D01*
X121999000Y-62428000D02*
X121999000Y-62809000D01*
D12*
X138128000Y-67736600D02*
X138128000Y-67482600D01*
D15*
X104727000Y-64841000D02*
X104727000Y-65222000D01*
X150574000Y-65095000D02*
X150574000Y-65476000D01*
X153114000Y-65095000D02*
X153114000Y-65476000D01*
X108283000Y-64079000D02*
X108283000Y-64460000D01*
X112855000Y-64841000D02*
X112855000Y-65222000D01*
X119459000Y-61666000D02*
X119459000Y-62047000D01*
X153622000Y-61285000D02*
X153622000Y-61666000D01*
X117427000Y-62428000D02*
X117427000Y-62809000D01*
X114379000Y-64841000D02*
X114379000Y-65222000D01*
X122761000Y-60777000D02*
X122507000Y-60523000D01*
X117935000Y-63317000D02*
X121364000Y-63317000D01*
X155654000Y-61285000D02*
X155654000Y-61666000D01*
X149558000Y-62809000D02*
X149558000Y-63190000D01*
X110315000Y-61666000D02*
X110315000Y-62047000D01*
X140414000Y-65095000D02*
X140414000Y-65476000D01*
X136985000Y-65857000D02*
X136985000Y-65349000D01*
X147018000Y-65095000D02*
X147018000Y-65476000D01*
X137874000Y-60523000D02*
X137874000Y-60904000D01*
X104727000Y-65603000D02*
X105235000Y-65603000D01*
X118443000Y-62428000D02*
X118443000Y-62809000D01*
X139906000Y-62047000D02*
X139906000Y-62428000D01*
X106251000Y-64841000D02*
X106251000Y-65222000D01*
X107775000Y-65603000D02*
X108283000Y-65603000D01*
X145494000Y-65095000D02*
X145494000Y-65476000D01*
X115903000Y-64841000D02*
X115903000Y-65222000D01*
X115395000Y-60523000D02*
X114887000Y-60523000D01*
X140414000Y-62047000D02*
X140414000Y-62428000D01*
X142954000Y-62809000D02*
X142954000Y-63190000D01*
X102695000Y-63317000D02*
X102695000Y-63698000D01*
X152606000Y-62809000D02*
X152606000Y-63190000D01*
X115903000Y-65603000D02*
X116411000Y-65603000D01*
X142446000Y-64333000D02*
X142446000Y-64714000D01*
X147018000Y-62047000D02*
X147018000Y-62428000D01*
X143462000Y-61285000D02*
X143462000Y-61666000D01*
X148034000Y-63571000D02*
X148034000Y-63952000D01*
X141430000Y-65095000D02*
X141430000Y-65476000D01*
X105235000Y-64079000D02*
X105235000Y-64460000D01*
X142954000Y-64333000D02*
X142954000Y-64714000D01*
X117935000Y-61666000D02*
X117935000Y-62047000D01*
X113363000Y-64841000D02*
X113363000Y-65222000D01*
X141938000Y-60523000D02*
X141938000Y-60904000D01*
X148542000Y-65095000D02*
X148542000Y-65476000D01*
D12*
X137366000Y-67000000D02*
X137366000Y-67381000D01*
D15*
X101171000Y-60523000D02*
X100663000Y-60523000D01*
X113871000Y-65603000D02*
X114379000Y-65603000D01*
X143462000Y-64333000D02*
X143462000Y-64714000D01*
X109807000Y-60904000D02*
X109807000Y-61285000D01*
X148542000Y-64333000D02*
X148542000Y-64714000D01*
D12*
X157686000Y-66695200D02*
X137747000Y-66695200D01*
D15*
X157178000Y-62809000D02*
X157178000Y-63190000D01*
X102187000Y-64841000D02*
X102187000Y-65222000D01*
X113871000Y-60904000D02*
X113871000Y-61285000D01*
X105235000Y-62428000D02*
X105235000Y-62809000D01*
X108791000Y-62428000D02*
X108791000Y-62809000D01*
X140922000Y-60523000D02*
X140922000Y-60904000D01*
X107267000Y-64841000D02*
X107267000Y-65222000D01*
X116411000Y-64079000D02*
X116411000Y-64460000D01*
X153114000Y-62809000D02*
X153114000Y-63190000D01*
X108283000Y-63317000D02*
X108283000Y-63698000D01*
X107775000Y-60904000D02*
X107775000Y-61285000D01*
X117427000Y-61666000D02*
X117427000Y-62047000D01*
X146002000Y-62809000D02*
X146002000Y-63190000D01*
X107775000Y-64841000D02*
X107775000Y-65222000D01*
X149558000Y-61285000D02*
X149558000Y-61666000D01*
X99647000Y-62428000D02*
X99647000Y-62809000D01*
X100663000Y-63317000D02*
X100663000Y-63698000D01*
X117427000Y-63317000D02*
X117427000Y-63698000D01*
X150574000Y-62809000D02*
X150574000Y-63190000D01*
D12*
X157686000Y-67482600D02*
X157686000Y-67228600D01*
D15*
X106251000Y-63317000D02*
X106251000Y-63698000D01*
X138890000Y-60523000D02*
X138890000Y-60904000D01*
D12*
X157686000Y-69540000D02*
X157686000Y-69286000D01*
D15*
X151082000Y-60523000D02*
X151082000Y-60904000D01*
D12*
X157686000Y-69032000D02*
X157686000Y-68778000D01*
D15*
X151082000Y-65095000D02*
X151082000Y-65476000D01*
X154638000Y-65095000D02*
X154638000Y-65476000D01*
X100155000Y-63317000D02*
X100155000Y-63698000D01*
X154130000Y-64333000D02*
X154130000Y-64714000D01*
X103711000Y-64841000D02*
X103711000Y-65222000D01*
X144478000Y-63571000D02*
X144478000Y-63952000D01*
X106251000Y-62428000D02*
X106251000Y-62809000D01*
X104219000Y-64079000D02*
X104219000Y-64460000D01*
X156670000Y-65095000D02*
X156670000Y-65476000D01*
X112347000Y-64841000D02*
X112347000Y-65222000D01*
X120983000Y-61666000D02*
X120983000Y-62047000D01*
D12*
X138128000Y-67990600D02*
X157686000Y-67990600D01*
D15*
X114887000Y-62428000D02*
X114887000Y-62809000D01*
X142446000Y-62809000D02*
X142446000Y-63190000D01*
X104727000Y-62428000D02*
X104727000Y-62809000D01*
X155146000Y-64333000D02*
X155146000Y-64714000D01*
X149558000Y-63571000D02*
X149558000Y-63952000D01*
X111839000Y-62428000D02*
X111839000Y-62809000D01*
X102695000Y-65603000D02*
X103203000Y-65603000D01*
X119459000Y-60904000D02*
X119459000Y-61285000D01*
X145494000Y-63571000D02*
X145494000Y-63952000D01*
X144986000Y-64333000D02*
X144986000Y-64714000D01*
X137239000Y-66111000D02*
X136985000Y-65857000D01*
X116919000Y-63317000D02*
X116919000Y-63698000D01*
X116411000Y-60904000D02*
X116411000Y-61285000D01*
D12*
X157686000Y-68524000D02*
X157686000Y-68270000D01*
D15*
X141430000Y-62047000D02*
X141430000Y-62428000D01*
X152098000Y-61285000D02*
X152098000Y-61666000D01*
X156162000Y-64333000D02*
X156162000Y-64714000D01*
X140922000Y-65095000D02*
X140922000Y-65476000D01*
X153622000Y-65095000D02*
X153622000Y-65476000D01*
D12*
X137340600Y-69006600D02*
X137874000Y-69540000D01*
D15*
X147526000Y-61285000D02*
X147526000Y-61666000D01*
X149050000Y-65095000D02*
X149050000Y-65476000D01*
X117935000Y-62428000D02*
X117935000Y-62809000D01*
X156162000Y-63571000D02*
X156162000Y-63952000D01*
X154130000Y-60523000D02*
X154130000Y-60904000D01*
X157686000Y-65095000D02*
X157686000Y-65476000D01*
X121491000Y-60523000D02*
X120983000Y-60523000D01*
X155654000Y-63571000D02*
X155654000Y-63952000D01*
X111839000Y-64079000D02*
X111839000Y-64460000D01*
X140414000Y-60523000D02*
X140414000Y-60904000D01*
X141938000Y-61285000D02*
X141938000Y-61666000D01*
X145494000Y-64333000D02*
X145494000Y-64714000D01*
X109807000Y-62428000D02*
X109807000Y-62809000D01*
X114379000Y-64079000D02*
X114379000Y-64460000D01*
X100663000Y-64841000D02*
X100663000Y-65222000D01*
X117427000Y-60904000D02*
X117427000Y-61285000D01*
X117427000Y-60523000D02*
X116919000Y-60523000D01*
X146510000Y-61285000D02*
X146510000Y-61666000D01*
X107267000Y-60523000D02*
X106759000Y-60523000D01*
X114379000Y-60523000D02*
X113871000Y-60523000D01*
X151082000Y-62809000D02*
X151082000Y-63190000D01*
X116411000Y-62428000D02*
X116411000Y-62809000D01*
X120475000Y-60523000D02*
X119967000Y-60523000D01*
X157686000Y-64333000D02*
X157686000Y-64714000D01*
X150066000Y-65095000D02*
X150066000Y-65476000D01*
X118951000Y-61666000D02*
X118951000Y-62047000D01*
X155654000Y-62047000D02*
X155654000Y-62428000D01*
X102695000Y-64079000D02*
X102695000Y-64460000D01*
X120983000Y-62428000D02*
X120983000Y-62809000D01*
X147526000Y-63571000D02*
X147526000Y-63952000D01*
X138382000Y-62047000D02*
X138382000Y-62428000D01*
X99647000Y-64841000D02*
X99647000Y-65222000D01*
X119967000Y-60904000D02*
X119967000Y-61285000D01*
X101679000Y-64079000D02*
X101679000Y-64460000D01*
X152098000Y-62809000D02*
X152098000Y-63190000D01*
X152098000Y-60523000D02*
X152098000Y-60904000D01*
X110823000Y-65603000D02*
X111331000Y-65603000D01*
X149558000Y-62047000D02*
X149558000Y-62428000D01*
X138890000Y-61285000D02*
X138890000Y-61666000D01*
X141938000Y-63571000D02*
X141938000Y-63952000D01*
X158194000Y-60523000D02*
X158194000Y-60904000D01*
X140414000Y-63571000D02*
X140414000Y-63952000D01*
X137112000Y-61920000D02*
X137112000Y-60650000D01*
X139906000Y-61285000D02*
X139906000Y-61666000D01*
X115903000Y-64079000D02*
X115903000Y-64460000D01*
X141430000Y-62809000D02*
X141430000Y-63190000D01*
X113363000Y-62428000D02*
X113363000Y-62809000D01*
X107267000Y-62428000D02*
X107267000Y-62809000D01*
X103203000Y-63317000D02*
X103203000Y-63698000D01*
X106759000Y-60904000D02*
X106759000Y-61285000D01*
X103203000Y-64841000D02*
X103203000Y-65222000D01*
X152098000Y-63571000D02*
X152098000Y-63952000D01*
X156162000Y-60523000D02*
X156162000Y-60904000D01*
X146002000Y-63571000D02*
X146002000Y-63952000D01*
X138382000Y-63571000D02*
X138382000Y-63952000D01*
X154130000Y-62809000D02*
X154130000Y-63190000D01*
X155146000Y-63571000D02*
X155146000Y-63952000D01*
X108283000Y-60523000D02*
X107775000Y-60523000D01*
X114379000Y-60904000D02*
X114379000Y-61285000D01*
X148542000Y-62047000D02*
X148542000Y-62428000D01*
X121364000Y-63317000D02*
X122253000Y-64206000D01*
X100663000Y-62428000D02*
X100663000Y-62809000D01*
D12*
X138128000Y-69032000D02*
X157686000Y-69032000D01*
D15*
X111331000Y-62428000D02*
X111331000Y-62809000D01*
X149050000Y-63571000D02*
X149050000Y-63952000D01*
X141430000Y-63571000D02*
X141430000Y-63952000D01*
X120475000Y-61666000D02*
X120475000Y-62047000D01*
X139398000Y-61285000D02*
X139398000Y-61666000D01*
X112855000Y-62428000D02*
X112855000Y-62809000D01*
X116919000Y-64841000D02*
X116919000Y-65222000D01*
X101171000Y-62428000D02*
X101171000Y-62809000D01*
X110823000Y-63317000D02*
X110823000Y-63698000D01*
X152098000Y-62047000D02*
X152098000Y-62428000D01*
X113871000Y-64841000D02*
X113871000Y-65222000D01*
X99647000Y-61666000D02*
X99647000Y-62047000D01*
X143462000Y-63571000D02*
X143462000Y-63952000D01*
X114887000Y-65603000D02*
X115395000Y-65603000D01*
X148034000Y-62809000D02*
X148034000Y-63190000D01*
X120983000Y-60904000D02*
X120983000Y-61285000D01*
X103203000Y-62428000D02*
X103203000Y-62809000D01*
X157178000Y-60523000D02*
X157178000Y-60904000D01*
X147018000Y-62809000D02*
X147018000Y-63190000D01*
X158194000Y-65476000D02*
X158194000Y-66111000D01*
X116919000Y-60904000D02*
X116919000Y-61285000D01*
X155146000Y-60523000D02*
X155146000Y-60904000D01*
X110823000Y-64841000D02*
X110823000Y-65222000D01*
X108791000Y-64079000D02*
X108791000Y-64460000D01*
X152098000Y-65095000D02*
X152098000Y-65476000D01*
X113871000Y-61666000D02*
X113871000Y-62047000D01*
X147018000Y-63571000D02*
X147018000Y-63952000D01*
X139398000Y-60523000D02*
X139398000Y-60904000D01*
X118443000Y-60904000D02*
X118443000Y-61285000D01*
X104727000Y-60904000D02*
X104727000Y-61285000D01*
X119967000Y-61666000D02*
X119967000Y-62047000D01*
X148034000Y-61285000D02*
X148034000Y-61666000D01*
X138890000Y-62047000D02*
X138890000Y-62428000D01*
X153622000Y-62047000D02*
X153622000Y-62428000D01*
X121491000Y-60904000D02*
X121491000Y-61285000D01*
X152606000Y-62047000D02*
X152606000Y-62428000D01*
X149050000Y-60523000D02*
X149050000Y-60904000D01*
X106251000Y-60523000D02*
X105743000Y-60523000D01*
X148542000Y-61285000D02*
X148542000Y-61666000D01*
X158194000Y-62809000D02*
X158194000Y-63190000D01*
D12*
X157686000Y-67990600D02*
X157686000Y-67736600D01*
D15*
X99647000Y-60904000D02*
X99647000Y-61285000D01*
X146510000Y-62809000D02*
X146510000Y-63190000D01*
X109807000Y-65603000D02*
X110315000Y-65603000D01*
X114379000Y-62428000D02*
X114379000Y-62809000D01*
X150574000Y-62047000D02*
X150574000Y-62428000D01*
X120475000Y-60904000D02*
X120475000Y-61285000D01*
X140922000Y-62809000D02*
X140922000Y-63190000D01*
X106759000Y-65603000D02*
X107267000Y-65603000D01*
X143970000Y-62047000D02*
X143970000Y-62428000D01*
X151590000Y-60523000D02*
X151590000Y-60904000D01*
X114379000Y-61666000D02*
X114379000Y-62047000D01*
X100663000Y-61666000D02*
X100663000Y-62047000D01*
X152606000Y-65095000D02*
X152606000Y-65476000D01*
X150066000Y-63571000D02*
X150066000Y-63952000D01*
X107775000Y-62428000D02*
X107775000Y-62809000D01*
X120475000Y-62428000D02*
X120475000Y-62809000D01*
X112347000Y-60904000D02*
X112347000Y-61285000D01*
X108283000Y-61666000D02*
X108283000Y-62047000D01*
X115903000Y-62428000D02*
X115903000Y-62809000D01*
X139906000Y-60523000D02*
X139906000Y-60904000D01*
X113363000Y-60523000D02*
X112855000Y-60523000D01*
X110315000Y-64841000D02*
X110315000Y-65222000D01*
X113871000Y-64079000D02*
X113871000Y-64460000D01*
X109299000Y-63317000D02*
X109299000Y-63698000D01*
X112855000Y-65603000D02*
X113363000Y-65603000D01*
X101171000Y-61666000D02*
X101171000Y-62047000D01*
X153114000Y-62047000D02*
X153114000Y-62428000D01*
X138382000Y-65095000D02*
X138382000Y-65476000D01*
X149050000Y-62809000D02*
X149050000Y-63190000D01*
X142954000Y-65095000D02*
X142954000Y-65476000D01*
X112855000Y-60904000D02*
X112855000Y-61285000D01*
X108791000Y-61666000D02*
X108791000Y-62047000D01*
X111839000Y-61666000D02*
X111839000Y-62047000D01*
X107267000Y-63317000D02*
X107267000Y-63698000D01*
X104727000Y-63317000D02*
X104727000Y-63698000D01*
X112855000Y-63317000D02*
X112855000Y-63698000D01*
X99647000Y-63317000D02*
X99647000Y-63698000D01*
X112347000Y-64079000D02*
X112347000Y-64460000D01*
X152098000Y-64333000D02*
X152098000Y-64714000D01*
X113363000Y-61666000D02*
X113363000Y-62047000D01*
X154638000Y-61285000D02*
X154638000Y-61666000D01*
X158194000Y-66111000D02*
X137239000Y-66111000D01*
X154638000Y-60523000D02*
X154638000Y-60904000D01*
X110315000Y-63317000D02*
X110315000Y-63698000D01*
X102187000Y-62428000D02*
X102187000Y-62809000D01*
X156670000Y-62809000D02*
X156670000Y-63190000D01*
X113363000Y-64079000D02*
X113363000Y-64460000D01*
X113363000Y-63317000D02*
X113363000Y-63698000D01*
X145494000Y-60523000D02*
X145494000Y-60904000D01*
X158194000Y-64333000D02*
X158194000Y-64714000D01*
X116411000Y-63317000D02*
X116411000Y-63698000D01*
X137874000Y-62047000D02*
X137874000Y-62428000D01*
X144986000Y-61285000D02*
X144986000Y-61666000D01*
X146002000Y-60523000D02*
X146002000Y-60904000D01*
X156670000Y-60523000D02*
X156670000Y-60904000D01*
X110823000Y-64079000D02*
X110823000Y-64460000D01*
X144478000Y-62809000D02*
X144478000Y-63190000D01*
X155654000Y-62809000D02*
X155654000Y-63190000D01*
X153114000Y-64333000D02*
X153114000Y-64714000D01*
X106759000Y-63317000D02*
X106759000Y-63698000D01*
X158194000Y-62047000D02*
X158194000Y-62428000D01*
X151082000Y-62047000D02*
X151082000Y-62428000D01*
X116919000Y-62428000D02*
X116919000Y-62809000D01*
X137874000Y-63571000D02*
X137874000Y-63952000D01*
X121999000Y-60904000D02*
X121999000Y-61285000D01*
X102187000Y-61666000D02*
X102187000Y-62047000D01*
X116411000Y-61666000D02*
X116411000Y-62047000D01*
X149558000Y-64333000D02*
X149558000Y-64714000D01*
X115395000Y-64841000D02*
X115395000Y-65222000D01*
X141430000Y-60523000D02*
X141430000Y-60904000D01*
X118443000Y-60523000D02*
X117935000Y-60523000D01*
X117427000Y-64841000D02*
X117427000Y-65222000D01*
X153114000Y-61285000D02*
X153114000Y-61666000D01*
X157178000Y-61285000D02*
X157178000Y-61666000D01*
D12*
X157686000Y-68270000D02*
X138128000Y-68270000D01*
D15*
X145494000Y-61285000D02*
X145494000Y-61666000D01*
X140922000Y-64333000D02*
X140922000Y-64714000D01*
X153114000Y-60523000D02*
X153114000Y-60904000D01*
X112855000Y-61666000D02*
X112855000Y-62047000D01*
X156670000Y-61285000D02*
X156670000Y-61666000D01*
X114887000Y-64841000D02*
X114887000Y-65222000D01*
X137874000Y-62809000D02*
X137874000Y-63190000D01*
X143970000Y-63571000D02*
X143970000Y-63952000D01*
X155654000Y-60523000D02*
X155654000Y-60904000D01*
X112347000Y-63317000D02*
X112347000Y-63698000D01*
X113871000Y-63317000D02*
X113871000Y-63698000D01*
X106759000Y-64841000D02*
X106759000Y-65222000D01*
X116919000Y-65603000D02*
X117427000Y-65603000D01*
X145494000Y-62047000D02*
X145494000Y-62428000D01*
X115395000Y-62428000D02*
X115395000Y-62809000D01*
X106251000Y-64079000D02*
X106251000Y-64460000D01*
X115395000Y-64079000D02*
X115395000Y-64460000D01*
X104219000Y-64841000D02*
X104219000Y-65222000D01*
X151590000Y-64333000D02*
X151590000Y-64714000D01*
X154130000Y-65095000D02*
X154130000Y-65476000D01*
X107775000Y-64079000D02*
X107775000Y-64460000D01*
X143462000Y-60523000D02*
X143462000Y-60904000D01*
X146510000Y-62047000D02*
X146510000Y-62428000D01*
X118443000Y-61666000D02*
X118443000Y-62047000D01*
X112347000Y-61666000D02*
X112347000Y-62047000D01*
X122888000Y-63444000D02*
X122888000Y-63063000D01*
D12*
X138128000Y-68778000D02*
X138128000Y-68524000D01*
D15*
X142446000Y-65095000D02*
X142446000Y-65476000D01*
X107775000Y-61666000D02*
X107775000Y-62047000D01*
X116411000Y-60523000D02*
X115903000Y-60523000D01*
X104219000Y-62428000D02*
X104219000Y-62809000D01*
X141938000Y-65095000D02*
X141938000Y-65476000D01*
X110315000Y-60523000D02*
X109807000Y-60523000D01*
X153622000Y-63571000D02*
X153622000Y-63952000D01*
D12*
X119205000Y-65730000D02*
X119205000Y-66238000D01*
X121491000Y-65476000D02*
X121491000Y-65857000D01*
X123142000Y-65222000D02*
X122888000Y-65476000D01*
G04 #@! TA.AperFunction,Conductor*
G36*
X121191485Y-66008373D02*
G01*
X121214361Y-66031250D01*
X121234135Y-66065500D01*
X121234139Y-66065505D01*
X121236872Y-66070238D01*
X121241060Y-66073752D01*
X121320939Y-66140779D01*
X121320941Y-66140780D01*
X121325130Y-66144295D01*
X121433394Y-66183700D01*
X121543135Y-66183700D01*
X121548606Y-66183700D01*
X121656870Y-66144295D01*
X121745128Y-66070238D01*
X121747862Y-66065501D01*
X121747864Y-66065500D01*
X121767639Y-66031250D01*
X121790515Y-66008373D01*
X121821765Y-66000000D01*
X122437500Y-66000000D01*
X122481694Y-66018306D01*
X122500000Y-66062500D01*
X122500000Y-69437500D01*
X122481694Y-69481694D01*
X122437500Y-69500000D01*
X99062500Y-69500000D01*
X99018306Y-69481694D01*
X99000000Y-69437500D01*
X99000000Y-66062500D01*
X99018306Y-66018306D01*
X99062500Y-66000000D01*
X121160235Y-66000000D01*
X121191485Y-66008373D01*
G37*
G04 #@! TD.AperFunction*
M02*
