M48
; DRILL file {KiCad (7.0.0-0)} date Thursday, June 15, 2023 at 04:27:44 PM
; FORMAT={-:-/ absolute / inch / decimal}
; #@! TF.CreationDate,2023-06-15T16:27:44-07:00
; #@! TF.GenerationSoftware,Kicad,Pcbnew,(7.0.0-0)
; #@! TF.FileFunction,Plated,1,4,PTH
FMAT,2
INCH
%
G90
G05
T0
M30
