G04 #@! TF.GenerationSoftware,KiCad,Pcbnew,(7.0.0-0)*
G04 #@! TF.CreationDate,2023-06-15T16:27:49-07:00*
G04 #@! TF.ProjectId,coupon,636f7570-6f6e-42e6-9b69-6361645f7063,1.0*
G04 #@! TF.SameCoordinates,Original*
G04 #@! TF.FileFunction,Paste,Top*
G04 #@! TF.FilePolarity,Positive*
%FSLAX46Y46*%
G04 Gerber Fmt 4.6, Leading zero omitted, Abs format (unit mm)*
G04 Created by KiCad (PCBNEW (7.0.0-0)) date 2023-06-15 16:27:49*
%MOMM*%
%LPD*%
G01*
G04 APERTURE LIST*
%ADD10R,2.400000X0.750000*%
%ADD11R,0.280000X0.430000*%
%ADD12R,0.430000X0.280000*%
G04 APERTURE END LIST*
D10*
X128049999Y-61538999D03*
X131949999Y-61538999D03*
X128049999Y-62808999D03*
X131949999Y-62808999D03*
X128049999Y-64078999D03*
X131949999Y-64078999D03*
X128049999Y-65348999D03*
X131949999Y-65348999D03*
X128049999Y-66618999D03*
X131949999Y-66618999D03*
X128049999Y-67888999D03*
X131949999Y-67888999D03*
D11*
X93290999Y-61665999D03*
X93810999Y-61665999D03*
X91004999Y-60776999D03*
X91524999Y-60776999D03*
D12*
X92788999Y-62947999D03*
X92788999Y-62427999D03*
D11*
X91766999Y-61665999D03*
X92286999Y-61665999D03*
X94058999Y-60776999D03*
X94578999Y-60776999D03*
D12*
X94312999Y-62941999D03*
X94312999Y-62421999D03*
D11*
X92528999Y-60776999D03*
X93048999Y-60776999D03*
D12*
X91264999Y-62941999D03*
X91264999Y-62421999D03*
X93550999Y-64211999D03*
X93550999Y-63691999D03*
X92026999Y-64217999D03*
X92026999Y-63697999D03*
M02*
