G04 #@! TF.GenerationSoftware,KiCad,Pcbnew,(7.0.0-0)*
G04 #@! TF.CreationDate,2023-06-15T16:27:49-07:00*
G04 #@! TF.ProjectId,coupon,636f7570-6f6e-42e6-9b69-6361645f7063,1.0*
G04 #@! TF.SameCoordinates,Original*
G04 #@! TF.FileFunction,Copper,L4,Bot*
G04 #@! TF.FilePolarity,Positive*
%FSLAX46Y46*%
G04 Gerber Fmt 4.6, Leading zero omitted, Abs format (unit mm)*
G04 Created by KiCad (PCBNEW (7.0.0-0)) date 2023-06-15 16:27:49*
%MOMM*%
%LPD*%
G01*
G04 APERTURE LIST*
G04 #@! TA.AperFunction,ViaPad*
%ADD10C,0.355600*%
G04 #@! TD*
G04 #@! TA.AperFunction,Conductor*
%ADD11C,0.127000*%
G04 #@! TD*
G04 #@! TA.AperFunction,Conductor*
%ADD12C,0.304800*%
G04 #@! TD*
G04 #@! TA.AperFunction,Conductor*
%ADD13C,0.254000*%
G04 #@! TD*
G04 APERTURE END LIST*
D10*
X91503500Y-68199000D03*
X90868500Y-68199000D03*
X91503500Y-67564000D03*
X90868500Y-67564000D03*
X94424500Y-67564000D03*
X94424500Y-68199000D03*
X93789500Y-68199000D03*
X93789500Y-67564000D03*
X93027500Y-67564000D03*
X92392500Y-68199000D03*
X92392500Y-67564000D03*
X93027500Y-68199000D03*
X92964000Y-69342000D03*
X92329000Y-69342000D03*
X93789500Y-69342000D03*
X93789500Y-68707000D03*
X94424500Y-69342000D03*
X91503500Y-68707000D03*
X90868500Y-69342000D03*
X94424500Y-68707000D03*
X90868500Y-68707000D03*
X91503500Y-69342000D03*
X92964000Y-68707000D03*
X92329000Y-68707000D03*
X95583000Y-67381000D03*
X98631000Y-67381000D03*
X97488000Y-67381000D03*
X95964000Y-67381000D03*
X96726000Y-67381000D03*
X95710000Y-68905000D03*
X97234000Y-68905000D03*
X96091000Y-68905000D03*
X97869000Y-67381000D03*
X98377000Y-68905000D03*
X96853000Y-68905000D03*
X96472000Y-68905000D03*
X97615000Y-68905000D03*
X97107000Y-67381000D03*
X95329000Y-68905000D03*
X96345000Y-67381000D03*
X98250000Y-67381000D03*
X97996000Y-68905000D03*
X101933000Y-65603000D03*
X111585000Y-62047000D03*
X103457000Y-65222000D03*
X107013000Y-64841000D03*
X114633000Y-65222000D03*
X110569000Y-63317000D03*
X107521000Y-63698000D03*
X120729000Y-62047000D03*
X103965000Y-64460000D03*
X105489000Y-62428000D03*
X104473000Y-64841000D03*
X100409000Y-60523000D03*
X115141000Y-62428000D03*
X103457000Y-64079000D03*
X119713000Y-61285000D03*
X101933000Y-64841000D03*
X114125000Y-62428000D03*
X107521000Y-64841000D03*
X116665000Y-60523000D03*
X118697000Y-61666000D03*
X113617000Y-64079000D03*
X105489000Y-65603000D03*
X107013000Y-62047000D03*
X99901000Y-62809000D03*
X108029000Y-60523000D03*
X122888000Y-62682000D03*
X112601000Y-65222000D03*
X105489000Y-65222000D03*
X102441000Y-62047000D03*
X103965000Y-62047000D03*
X118189000Y-61285000D03*
X102949000Y-62809000D03*
X105489000Y-60904000D03*
X114633000Y-65603000D03*
X99393000Y-64460000D03*
X114633000Y-62809000D03*
X114125000Y-65603000D03*
X101425000Y-64079000D03*
X120221000Y-61666000D03*
X113109000Y-62047000D03*
X114125000Y-61666000D03*
X113617000Y-62809000D03*
X114125000Y-64841000D03*
X110569000Y-63698000D03*
X101425000Y-60904000D03*
X120729000Y-60523000D03*
X99393000Y-64841000D03*
X105997000Y-64460000D03*
X114125000Y-62047000D03*
X107521000Y-64079000D03*
X100409000Y-62047000D03*
X102441000Y-61285000D03*
X104981000Y-62809000D03*
X116157000Y-63698000D03*
X121745000Y-61666000D03*
X103965000Y-64079000D03*
X117173000Y-62047000D03*
X114633000Y-62047000D03*
X110061000Y-64841000D03*
X105489000Y-60523000D03*
X107521000Y-64460000D03*
X119205000Y-60904000D03*
X119205000Y-62809000D03*
X102949000Y-61666000D03*
X105997000Y-63698000D03*
X113109000Y-61666000D03*
X114125000Y-63317000D03*
X101933000Y-63317000D03*
X113617000Y-65222000D03*
X117681000Y-62428000D03*
X99901000Y-64841000D03*
X110061000Y-62047000D03*
X106505000Y-61285000D03*
X99393000Y-63698000D03*
X105997000Y-63317000D03*
X108537000Y-64079000D03*
X116665000Y-60904000D03*
X113109000Y-64841000D03*
X100917000Y-64841000D03*
X104981000Y-63317000D03*
X101933000Y-65222000D03*
X111585000Y-65603000D03*
X120221000Y-60523000D03*
X99901000Y-62047000D03*
X109045000Y-65603000D03*
X119713000Y-61666000D03*
X109553000Y-62809000D03*
X112093000Y-62428000D03*
X112093000Y-63698000D03*
X99393000Y-65222000D03*
X115649000Y-64079000D03*
X99393000Y-63317000D03*
X109045000Y-64460000D03*
X110061000Y-63698000D03*
X116157000Y-62047000D03*
X105489000Y-61285000D03*
X112601000Y-65603000D03*
X113617000Y-64460000D03*
X100409000Y-61285000D03*
X104473000Y-61666000D03*
X114633000Y-64841000D03*
X116665000Y-61666000D03*
X109553000Y-64079000D03*
X121237000Y-62809000D03*
X113109000Y-60523000D03*
X102949000Y-63698000D03*
X115649000Y-60523000D03*
X109553000Y-60904000D03*
X107521000Y-65222000D03*
X99901000Y-63317000D03*
X112093000Y-63317000D03*
X115141000Y-62047000D03*
X99393000Y-60523000D03*
X111077000Y-65222000D03*
X110569000Y-64079000D03*
X110569000Y-60523000D03*
X109553000Y-64460000D03*
X119205000Y-61666000D03*
X111585000Y-60904000D03*
X111585000Y-64841000D03*
X116665000Y-62047000D03*
X103965000Y-65603000D03*
X104473000Y-64460000D03*
X111585000Y-64460000D03*
X121237000Y-60523000D03*
X114633000Y-64079000D03*
X111585000Y-62809000D03*
X108029000Y-61285000D03*
X109553000Y-62047000D03*
X102441000Y-65603000D03*
X116157000Y-63317000D03*
X111585000Y-61666000D03*
X115141000Y-64841000D03*
X120221000Y-62428000D03*
X99901000Y-60904000D03*
X103457000Y-63698000D03*
X100917000Y-61666000D03*
X110061000Y-65222000D03*
X105489000Y-62047000D03*
X99393000Y-64079000D03*
X113109000Y-62428000D03*
X109553000Y-64841000D03*
X120729000Y-62428000D03*
X111077000Y-64079000D03*
X107521000Y-60904000D03*
X115649000Y-65222000D03*
X112093000Y-61666000D03*
X120729000Y-61666000D03*
X103965000Y-65222000D03*
X107521000Y-62428000D03*
X118189000Y-60523000D03*
X108537000Y-63317000D03*
X113109000Y-65603000D03*
X113617000Y-63698000D03*
X103457000Y-61666000D03*
X118697000Y-60904000D03*
X115141000Y-61666000D03*
X105489000Y-62809000D03*
X103965000Y-60904000D03*
X111077000Y-60523000D03*
X119205000Y-62428000D03*
X113109000Y-60904000D03*
X108537000Y-60904000D03*
X100409000Y-63317000D03*
X109045000Y-60904000D03*
X102949000Y-60904000D03*
X100917000Y-60523000D03*
X111077000Y-61285000D03*
X99901000Y-64079000D03*
X117173000Y-62428000D03*
X100409000Y-60904000D03*
X111585000Y-60523000D03*
X110569000Y-61285000D03*
X100409000Y-62809000D03*
X104473000Y-63317000D03*
X110061000Y-62428000D03*
X103965000Y-62428000D03*
X99901000Y-61285000D03*
X101933000Y-60523000D03*
X116157000Y-60523000D03*
X108537000Y-65222000D03*
X109045000Y-63317000D03*
X106505000Y-60523000D03*
X116665000Y-65222000D03*
X108029000Y-60904000D03*
X104981000Y-62047000D03*
X107013000Y-62428000D03*
X111585000Y-63317000D03*
X102441000Y-64460000D03*
X101425000Y-64460000D03*
X101933000Y-62809000D03*
X113617000Y-65603000D03*
X113617000Y-60904000D03*
X110569000Y-65603000D03*
X104981000Y-63698000D03*
X121745000Y-62047000D03*
X102441000Y-64841000D03*
X101933000Y-64460000D03*
X100409000Y-62428000D03*
X117173000Y-65222000D03*
X112601000Y-64079000D03*
X101425000Y-63698000D03*
X99901000Y-65603000D03*
X101933000Y-63698000D03*
X111077000Y-63698000D03*
X104473000Y-61285000D03*
X111077000Y-62047000D03*
X115649000Y-63698000D03*
X101425000Y-62809000D03*
X104981000Y-60904000D03*
X109553000Y-65222000D03*
X116665000Y-64079000D03*
X115141000Y-61285000D03*
X115141000Y-65603000D03*
X121745000Y-60904000D03*
X105489000Y-61666000D03*
X115141000Y-62809000D03*
X119713000Y-62428000D03*
X107521000Y-60523000D03*
X100917000Y-65222000D03*
X107521000Y-61285000D03*
X117173000Y-64460000D03*
X111585000Y-63698000D03*
X106505000Y-62047000D03*
X114125000Y-64079000D03*
X105489000Y-63698000D03*
X101425000Y-60523000D03*
X99393000Y-61666000D03*
X107013000Y-60904000D03*
X110569000Y-61666000D03*
X102441000Y-60523000D03*
X112601000Y-64460000D03*
X99901000Y-64460000D03*
X108029000Y-62809000D03*
X117173000Y-61666000D03*
X121237000Y-61285000D03*
X102441000Y-64079000D03*
X114125000Y-65222000D03*
X119713000Y-62047000D03*
X106505000Y-60904000D03*
X105997000Y-61285000D03*
X108537000Y-64460000D03*
X111077000Y-62809000D03*
X121237000Y-60904000D03*
X109045000Y-62809000D03*
X106505000Y-65222000D03*
X119713000Y-62809000D03*
X100917000Y-61285000D03*
X115141000Y-63317000D03*
X111585000Y-64079000D03*
X112601000Y-61666000D03*
X116665000Y-64841000D03*
X121237000Y-62047000D03*
X102441000Y-63698000D03*
X99393000Y-62047000D03*
X111077000Y-60904000D03*
X99901000Y-60523000D03*
X120221000Y-62047000D03*
X116665000Y-62809000D03*
X101425000Y-62428000D03*
X105489000Y-64460000D03*
X101425000Y-65603000D03*
X105997000Y-60523000D03*
X110061000Y-63317000D03*
X100917000Y-62428000D03*
X101933000Y-64079000D03*
X116665000Y-63698000D03*
X100409000Y-61666000D03*
X100409000Y-64460000D03*
X117173000Y-63698000D03*
X112601000Y-64841000D03*
X101425000Y-61285000D03*
X118189000Y-62047000D03*
X113109000Y-61285000D03*
X103457000Y-60904000D03*
X116665000Y-62428000D03*
X104473000Y-63698000D03*
X116665000Y-64460000D03*
X103457000Y-60523000D03*
X121237000Y-61666000D03*
X106505000Y-63317000D03*
X112093000Y-62047000D03*
X107521000Y-65603000D03*
X114633000Y-61666000D03*
X117681000Y-60523000D03*
X110569000Y-62428000D03*
X112601000Y-63317000D03*
X104473000Y-65222000D03*
X104981000Y-64841000D03*
X112601000Y-62428000D03*
X107013000Y-64079000D03*
X118697000Y-60523000D03*
X100409000Y-64079000D03*
X107521000Y-62809000D03*
X105489000Y-63317000D03*
X114633000Y-60904000D03*
X115141000Y-60523000D03*
X112093000Y-60904000D03*
X111585000Y-65222000D03*
X108537000Y-65603000D03*
X103457000Y-61285000D03*
X108537000Y-62428000D03*
X121745000Y-62809000D03*
X114633000Y-63317000D03*
X116157000Y-62428000D03*
X112093000Y-60523000D03*
X108029000Y-64841000D03*
X117173000Y-65603000D03*
X102949000Y-60523000D03*
X105997000Y-65603000D03*
X114125000Y-62809000D03*
X103457000Y-63317000D03*
X108537000Y-61285000D03*
X110061000Y-64079000D03*
X103965000Y-63698000D03*
X118697000Y-62428000D03*
X109045000Y-62428000D03*
X106505000Y-62428000D03*
X102949000Y-64079000D03*
X108537000Y-63698000D03*
X109045000Y-63698000D03*
X108029000Y-65222000D03*
X112601000Y-62047000D03*
X119205000Y-62047000D03*
X101933000Y-60904000D03*
X115141000Y-64079000D03*
X108029000Y-63698000D03*
X115141000Y-63698000D03*
X108029000Y-64460000D03*
X118697000Y-62809000D03*
X104981000Y-64079000D03*
X100917000Y-64460000D03*
X115649000Y-60904000D03*
X110569000Y-60904000D03*
X103457000Y-65603000D03*
X104473000Y-64079000D03*
X107013000Y-65603000D03*
X113617000Y-63317000D03*
X100409000Y-65222000D03*
X116665000Y-61285000D03*
X105997000Y-64079000D03*
X111585000Y-62428000D03*
X137366000Y-67762000D03*
X107521000Y-63317000D03*
X114125000Y-60904000D03*
X113617000Y-60523000D03*
X101425000Y-63317000D03*
X102441000Y-62809000D03*
X104473000Y-65603000D03*
X100917000Y-62047000D03*
X115649000Y-64841000D03*
X102441000Y-61666000D03*
X116157000Y-61285000D03*
X106505000Y-64079000D03*
X112601000Y-60523000D03*
X118697000Y-62047000D03*
X117173000Y-61285000D03*
X110061000Y-64460000D03*
X116157000Y-62809000D03*
X100917000Y-65603000D03*
X99393000Y-62428000D03*
X102949000Y-65603000D03*
X100917000Y-62809000D03*
X119713000Y-60523000D03*
X111077000Y-63317000D03*
X105997000Y-62428000D03*
X102441000Y-62428000D03*
X109045000Y-62047000D03*
X102949000Y-63317000D03*
X103457000Y-64841000D03*
X118697000Y-61285000D03*
X104473000Y-62428000D03*
X106505000Y-63698000D03*
X120221000Y-60904000D03*
X109553000Y-63698000D03*
X110569000Y-64841000D03*
X119205000Y-61285000D03*
X114125000Y-63698000D03*
X107013000Y-63698000D03*
X117681000Y-62047000D03*
X107013000Y-62809000D03*
X115649000Y-62428000D03*
X120729000Y-62809000D03*
X118189000Y-62428000D03*
X121237000Y-62428000D03*
X114633000Y-64460000D03*
X102441000Y-60904000D03*
X119205000Y-60523000D03*
X108029000Y-61666000D03*
X103457000Y-62047000D03*
X109553000Y-65603000D03*
X108537000Y-62047000D03*
X102949000Y-62428000D03*
X112093000Y-64841000D03*
X105997000Y-65222000D03*
X99901000Y-63698000D03*
X112093000Y-62809000D03*
X115649000Y-62047000D03*
X102441000Y-63317000D03*
X104473000Y-62047000D03*
X108029000Y-64079000D03*
X117173000Y-62809000D03*
X109045000Y-64841000D03*
X115649000Y-62809000D03*
X104473000Y-60904000D03*
X103965000Y-61285000D03*
X104473000Y-62809000D03*
X109553000Y-63317000D03*
X100917000Y-63698000D03*
X100917000Y-60904000D03*
X110569000Y-65222000D03*
X103965000Y-63317000D03*
X120221000Y-62809000D03*
X111077000Y-65603000D03*
X115141000Y-60904000D03*
X106505000Y-62809000D03*
X117173000Y-64841000D03*
X109045000Y-64079000D03*
X113109000Y-64460000D03*
X109045000Y-65222000D03*
X116157000Y-61666000D03*
X117173000Y-60523000D03*
X102441000Y-65222000D03*
X114633000Y-62428000D03*
X108029000Y-62428000D03*
X100409000Y-65603000D03*
X104981000Y-65603000D03*
X102949000Y-64460000D03*
X109553000Y-61285000D03*
X108537000Y-64841000D03*
X103457000Y-62809000D03*
X118189000Y-62809000D03*
X116157000Y-65222000D03*
X113109000Y-63698000D03*
X115141000Y-64460000D03*
X109553000Y-62428000D03*
X101933000Y-62047000D03*
X158168600Y-66492000D03*
X115649000Y-64460000D03*
X110061000Y-60523000D03*
X113617000Y-61285000D03*
X112093000Y-61285000D03*
X114125000Y-60523000D03*
X99393000Y-62809000D03*
X113617000Y-61666000D03*
X107521000Y-61666000D03*
X112601000Y-62809000D03*
X104981000Y-60523000D03*
X112601000Y-60904000D03*
X115649000Y-65603000D03*
X117173000Y-64079000D03*
X109045000Y-61666000D03*
X103457000Y-62428000D03*
X110061000Y-60904000D03*
X116665000Y-63317000D03*
X115649000Y-61285000D03*
X113109000Y-62809000D03*
X100917000Y-63317000D03*
X104473000Y-60523000D03*
X111077000Y-64841000D03*
X116157000Y-64841000D03*
X105489000Y-64841000D03*
X107521000Y-62047000D03*
X116157000Y-64460000D03*
X107013000Y-64460000D03*
X103965000Y-61666000D03*
X109045000Y-61285000D03*
X111077000Y-62428000D03*
X113109000Y-65222000D03*
X104981000Y-65222000D03*
X113617000Y-62047000D03*
X115649000Y-63317000D03*
X109553000Y-61666000D03*
X107013000Y-61666000D03*
X114633000Y-60523000D03*
X117173000Y-63317000D03*
X99901000Y-65222000D03*
X106505000Y-64460000D03*
X109045000Y-60523000D03*
X100409000Y-63698000D03*
X120221000Y-61285000D03*
X114125000Y-64460000D03*
X101425000Y-65222000D03*
X112093000Y-64460000D03*
X99393000Y-65603000D03*
X101425000Y-62047000D03*
X110569000Y-62047000D03*
X121745000Y-62428000D03*
X113109000Y-63317000D03*
X111585000Y-61285000D03*
X112601000Y-63698000D03*
X110061000Y-65603000D03*
X108029000Y-62047000D03*
X103965000Y-60523000D03*
X106505000Y-65603000D03*
X99393000Y-61285000D03*
X117681000Y-61666000D03*
X102949000Y-62047000D03*
X102949000Y-65222000D03*
X112093000Y-65222000D03*
X105489000Y-64079000D03*
X101933000Y-62428000D03*
X108029000Y-63317000D03*
X111077000Y-64460000D03*
X105997000Y-60904000D03*
X116157000Y-60904000D03*
X108029000Y-65603000D03*
X102949000Y-61285000D03*
X117173000Y-60904000D03*
X100917000Y-64079000D03*
X114633000Y-63698000D03*
X110061000Y-62809000D03*
X107013000Y-65222000D03*
X113617000Y-64841000D03*
X105997000Y-64841000D03*
X110569000Y-64460000D03*
X116157000Y-65603000D03*
X102949000Y-64841000D03*
X101933000Y-61666000D03*
X106505000Y-61666000D03*
X101425000Y-61666000D03*
X113617000Y-62428000D03*
X114633000Y-61285000D03*
X106505000Y-64841000D03*
X108537000Y-61666000D03*
X101425000Y-64841000D03*
X116665000Y-65603000D03*
X101933000Y-61285000D03*
X112093000Y-64079000D03*
X121745000Y-61285000D03*
X113109000Y-64079000D03*
X116157000Y-64079000D03*
X112601000Y-61285000D03*
X105997000Y-62809000D03*
X100409000Y-64841000D03*
X99901000Y-62428000D03*
X120729000Y-60904000D03*
X99393000Y-60904000D03*
X110061000Y-61285000D03*
X118189000Y-60904000D03*
X117681000Y-61285000D03*
X104981000Y-61666000D03*
X104981000Y-61285000D03*
X105997000Y-61666000D03*
X117681000Y-62809000D03*
X107013000Y-60523000D03*
X105997000Y-62047000D03*
X108537000Y-60523000D03*
X103965000Y-64841000D03*
X117681000Y-60904000D03*
X121745000Y-60523000D03*
X114125000Y-61285000D03*
X115649000Y-61666000D03*
X115141000Y-65222000D03*
X118189000Y-61666000D03*
X107013000Y-63317000D03*
X103965000Y-62809000D03*
X103457000Y-64460000D03*
X99901000Y-61666000D03*
X119713000Y-60904000D03*
X120729000Y-61285000D03*
X111077000Y-61666000D03*
X107013000Y-61285000D03*
X104981000Y-62428000D03*
X112093000Y-65603000D03*
X104981000Y-64460000D03*
X110061000Y-61666000D03*
X110569000Y-62809000D03*
X108537000Y-62809000D03*
X109553000Y-60523000D03*
X122634000Y-65730000D03*
D11*
X90868500Y-69342000D02*
X91503500Y-68707000D01*
X90868500Y-68707000D02*
X91503500Y-69342000D01*
X93789500Y-69342000D02*
X94424500Y-68707000D01*
X93789500Y-68707000D02*
X94424500Y-69342000D01*
X92329000Y-68707000D02*
X92964000Y-69342000D01*
X92329000Y-69342000D02*
X92964000Y-68707000D01*
D12*
X121745000Y-62428000D02*
X121745000Y-62809000D01*
X109045000Y-61666000D02*
X109045000Y-62047000D01*
X100917000Y-60904000D02*
X100917000Y-61285000D01*
X116665000Y-62428000D02*
X116665000Y-62809000D01*
D11*
X138128000Y-65730000D02*
X157686000Y-65730000D01*
D12*
X117173000Y-61666000D02*
X117173000Y-62047000D01*
D11*
X157686000Y-66746000D02*
X157686000Y-67000000D01*
D12*
X109045000Y-64079000D02*
X109045000Y-64460000D01*
X103965000Y-60904000D02*
X103965000Y-61285000D01*
X109045000Y-63317000D02*
X109045000Y-63698000D01*
D11*
X138128000Y-66238000D02*
X157686000Y-66238000D01*
D12*
X108537000Y-60904000D02*
X108537000Y-61285000D01*
X104981000Y-60523000D02*
X104473000Y-60523000D01*
D11*
X138128000Y-68016000D02*
X138128000Y-68270000D01*
X138128000Y-65984000D02*
X138128000Y-66238000D01*
D12*
X104981000Y-61666000D02*
X104981000Y-62047000D01*
X112093000Y-60523000D02*
X111585000Y-60523000D01*
X99393000Y-64079000D02*
X99393000Y-64460000D01*
X100409000Y-63317000D02*
X100409000Y-63698000D01*
X115649000Y-64841000D02*
X115649000Y-65222000D01*
X102441000Y-63317000D02*
X102441000Y-63698000D01*
X100409000Y-64079000D02*
X100409000Y-64460000D01*
X116665000Y-64841000D02*
X116665000Y-65222000D01*
X102441000Y-64079000D02*
X102441000Y-64460000D01*
X105489000Y-63317000D02*
X105489000Y-63698000D01*
X107013000Y-60523000D02*
X106505000Y-60523000D01*
X106505000Y-64079000D02*
X106505000Y-64460000D01*
X104981000Y-64841000D02*
X104981000Y-65222000D01*
X103965000Y-63317000D02*
X103965000Y-63698000D01*
X104473000Y-65603000D02*
X104981000Y-65603000D01*
X120221000Y-60904000D02*
X120221000Y-61285000D01*
X119205000Y-60904000D02*
X119205000Y-61285000D01*
X105997000Y-60523000D02*
X105489000Y-60523000D01*
X115649000Y-63317000D02*
X115649000Y-63698000D01*
X112601000Y-64841000D02*
X112601000Y-65222000D01*
X102949000Y-60904000D02*
X102949000Y-61285000D01*
X108537000Y-65603000D02*
X109045000Y-65603000D01*
X108537000Y-61666000D02*
X108537000Y-62047000D01*
X112601000Y-61666000D02*
X112601000Y-62047000D01*
D11*
X137670800Y-68066800D02*
X137366000Y-67762000D01*
X138128000Y-69032000D02*
X138128000Y-69286000D01*
D12*
X118189000Y-60523000D02*
X117681000Y-60523000D01*
X108029000Y-60904000D02*
X108029000Y-61285000D01*
D11*
X157686000Y-65222000D02*
X157686000Y-65476000D01*
D12*
X103457000Y-63317000D02*
X103457000Y-63698000D01*
X102949000Y-62428000D02*
X102949000Y-62809000D01*
D11*
X138128000Y-62936000D02*
X138128000Y-63190000D01*
D12*
X105489000Y-62428000D02*
X105489000Y-62809000D01*
X107013000Y-64841000D02*
X107013000Y-65222000D01*
X116157000Y-62428000D02*
X116157000Y-62809000D01*
X113617000Y-63317000D02*
X113617000Y-63698000D01*
X101933000Y-64841000D02*
X101933000Y-65222000D01*
X110569000Y-64079000D02*
X110569000Y-64460000D01*
D11*
X138128000Y-66746000D02*
X157686000Y-66746000D01*
D12*
X107013000Y-60904000D02*
X107013000Y-61285000D01*
D11*
X157686000Y-68016000D02*
X138128000Y-68016000D01*
D12*
X100917000Y-61666000D02*
X100917000Y-62047000D01*
X114125000Y-62428000D02*
X114125000Y-62809000D01*
X104981000Y-64079000D02*
X104981000Y-64460000D01*
D11*
X158168600Y-61513600D02*
X158067000Y-61412000D01*
D12*
X111077000Y-63317000D02*
X111077000Y-63698000D01*
D11*
X157686000Y-67000000D02*
X138128000Y-67000000D01*
D12*
X101933000Y-60904000D02*
X101933000Y-61285000D01*
D11*
X138128000Y-69286000D02*
X157686000Y-69286000D01*
D12*
X121237000Y-61666000D02*
X121237000Y-62047000D01*
X108537000Y-64079000D02*
X108537000Y-64460000D01*
D11*
X138128000Y-63698000D02*
X157686000Y-63698000D01*
X157686000Y-65730000D02*
X157686000Y-65984000D01*
D12*
X110061000Y-61666000D02*
X110061000Y-62047000D01*
D11*
X138128000Y-67000000D02*
X138128000Y-67254000D01*
X157686000Y-61666000D02*
X157686000Y-61920000D01*
X157686000Y-67508000D02*
X138128000Y-67508000D01*
D12*
X110569000Y-61666000D02*
X110569000Y-62047000D01*
X119713000Y-60904000D02*
X119713000Y-61285000D01*
X113617000Y-65603000D02*
X114125000Y-65603000D01*
X109553000Y-63317000D02*
X109553000Y-63698000D01*
X116665000Y-65603000D02*
X117173000Y-65603000D01*
X102949000Y-64841000D02*
X102949000Y-65222000D01*
X108537000Y-62428000D02*
X108537000Y-62809000D01*
X101933000Y-61666000D02*
X101933000Y-62047000D01*
X109553000Y-64841000D02*
X109553000Y-65222000D01*
D11*
X157686000Y-69286000D02*
X157686000Y-69540000D01*
X157686000Y-65476000D02*
X138128000Y-65476000D01*
D12*
X113109000Y-63317000D02*
X113109000Y-63698000D01*
X99901000Y-64841000D02*
X99901000Y-65222000D01*
X106505000Y-60904000D02*
X106505000Y-61285000D01*
D11*
X138128000Y-62682000D02*
X157686000Y-62682000D01*
D12*
X115141000Y-60523000D02*
X114633000Y-60523000D01*
X107521000Y-64079000D02*
X107521000Y-64460000D01*
X102441000Y-61666000D02*
X102441000Y-62047000D01*
X110061000Y-60523000D02*
X109553000Y-60523000D01*
X101425000Y-62428000D02*
X101425000Y-62809000D01*
X121745000Y-60523000D02*
X122761000Y-60523000D01*
X112093000Y-64079000D02*
X112093000Y-64460000D01*
X104473000Y-61666000D02*
X104473000Y-62047000D01*
X120729000Y-60904000D02*
X120729000Y-61285000D01*
D11*
X138128000Y-63190000D02*
X157686000Y-63190000D01*
D12*
X110061000Y-62428000D02*
X110061000Y-62809000D01*
X115141000Y-61666000D02*
X115141000Y-62047000D01*
X101933000Y-62428000D02*
X101933000Y-62809000D01*
X102441000Y-62428000D02*
X102441000Y-62809000D01*
X103457000Y-60904000D02*
X103457000Y-61285000D01*
X104473000Y-64079000D02*
X104473000Y-64460000D01*
X107521000Y-64841000D02*
X107521000Y-65222000D01*
X120729000Y-61666000D02*
X120729000Y-62047000D01*
X112601000Y-63317000D02*
X112601000Y-63698000D01*
X105489000Y-65603000D02*
X105997000Y-65603000D01*
X110569000Y-63317000D02*
X110569000Y-63698000D01*
X118189000Y-60904000D02*
X118189000Y-61285000D01*
X106505000Y-61666000D02*
X106505000Y-62047000D01*
X106505000Y-63317000D02*
X106505000Y-63698000D01*
X109553000Y-61666000D02*
X109553000Y-62047000D01*
X118697000Y-62428000D02*
X118697000Y-62809000D01*
X101425000Y-64841000D02*
X101425000Y-65222000D01*
D11*
X157686000Y-62428000D02*
X138128000Y-62428000D01*
D12*
X103965000Y-61666000D02*
X103965000Y-62047000D01*
X102441000Y-64841000D02*
X102441000Y-65222000D01*
D11*
X157686000Y-68524000D02*
X138128000Y-68524000D01*
D12*
X109045000Y-62428000D02*
X109045000Y-62809000D01*
X106505000Y-64841000D02*
X106505000Y-65222000D01*
X99901000Y-60904000D02*
X99901000Y-61285000D01*
X102949000Y-63317000D02*
X102949000Y-63698000D01*
X108029000Y-63317000D02*
X108029000Y-63698000D01*
X110569000Y-65603000D02*
X111077000Y-65603000D01*
X102441000Y-65603000D02*
X102949000Y-65603000D01*
X99901000Y-60523000D02*
X99393000Y-60523000D01*
X108537000Y-64841000D02*
X108537000Y-65222000D01*
D11*
X138128000Y-67762000D02*
X157686000Y-67762000D01*
D12*
X112093000Y-62428000D02*
X112093000Y-62809000D01*
X111585000Y-64841000D02*
X111585000Y-65222000D01*
X119205000Y-60523000D02*
X118697000Y-60523000D01*
X122761000Y-60523000D02*
X122888000Y-60650000D01*
X113109000Y-64079000D02*
X113109000Y-64460000D01*
X120221000Y-62428000D02*
X120221000Y-62809000D01*
X102949000Y-64079000D02*
X102949000Y-64460000D01*
X116665000Y-61666000D02*
X116665000Y-62047000D01*
D11*
X138128000Y-61412000D02*
X138128000Y-61666000D01*
D12*
X108029000Y-64841000D02*
X108029000Y-65222000D01*
D11*
X157686000Y-62682000D02*
X157686000Y-62936000D01*
D12*
X120221000Y-60523000D02*
X119713000Y-60523000D01*
X121237000Y-62428000D02*
X121237000Y-62809000D01*
X111585000Y-60904000D02*
X111585000Y-61285000D01*
X104981000Y-63317000D02*
X104981000Y-63698000D01*
D11*
X157686000Y-64206000D02*
X157686000Y-64460000D01*
X138128000Y-65222000D02*
X157686000Y-65222000D01*
D12*
X111585000Y-61666000D02*
X111585000Y-62047000D01*
D11*
X138128000Y-64206000D02*
X157686000Y-64206000D01*
D12*
X107521000Y-65603000D02*
X108029000Y-65603000D01*
X113617000Y-61666000D02*
X113617000Y-62047000D01*
X116665000Y-64079000D02*
X116665000Y-64460000D01*
X101933000Y-63317000D02*
X101933000Y-63698000D01*
X101425000Y-61666000D02*
X101425000Y-62047000D01*
X117681000Y-62428000D02*
X117681000Y-62809000D01*
X117173000Y-63317000D02*
X117173000Y-63698000D01*
X115141000Y-64079000D02*
X115141000Y-64460000D01*
X104473000Y-64841000D02*
X104473000Y-65222000D01*
X112601000Y-65603000D02*
X113109000Y-65603000D01*
X101425000Y-60904000D02*
X101425000Y-61285000D01*
X111077000Y-62428000D02*
X111077000Y-62809000D01*
X120221000Y-61666000D02*
X120221000Y-62047000D01*
D11*
X138128000Y-66492000D02*
X138128000Y-66746000D01*
D12*
X104473000Y-63317000D02*
X104473000Y-63698000D01*
X115649000Y-64079000D02*
X115649000Y-64460000D01*
X115649000Y-62428000D02*
X115649000Y-62809000D01*
X109553000Y-60904000D02*
X109553000Y-61285000D01*
D11*
X157686000Y-69540000D02*
X137924800Y-69540000D01*
D12*
X111585000Y-64079000D02*
X111585000Y-64460000D01*
X103965000Y-64079000D02*
X103965000Y-64460000D01*
X106505000Y-65603000D02*
X107013000Y-65603000D01*
X113617000Y-64079000D02*
X113617000Y-64460000D01*
X108029000Y-61666000D02*
X108029000Y-62047000D01*
X99393000Y-61666000D02*
X99393000Y-62047000D01*
X109045000Y-64841000D02*
X109045000Y-65222000D01*
X108029000Y-60523000D02*
X107521000Y-60523000D01*
D11*
X138128000Y-68270000D02*
X157686000Y-68270000D01*
X157686000Y-69032000D02*
X138128000Y-69032000D01*
D12*
X121237000Y-60523000D02*
X120729000Y-60523000D01*
X111585000Y-65603000D02*
X112093000Y-65603000D01*
D11*
X157686000Y-62174000D02*
X157686000Y-62428000D01*
D12*
X99393000Y-65603000D02*
X99901000Y-65603000D01*
X117173000Y-62428000D02*
X117173000Y-62809000D01*
X108537000Y-63317000D02*
X108537000Y-63698000D01*
X114125000Y-64841000D02*
X114125000Y-65222000D01*
D11*
X138128000Y-64714000D02*
X157686000Y-64714000D01*
D12*
X112601000Y-60904000D02*
X112601000Y-61285000D01*
X105997000Y-64841000D02*
X105997000Y-65222000D01*
X113109000Y-62428000D02*
X113109000Y-62809000D01*
X101933000Y-60523000D02*
X101425000Y-60523000D01*
X114125000Y-61666000D02*
X114125000Y-62047000D01*
D11*
X157686000Y-64714000D02*
X157686000Y-64968000D01*
D12*
X113617000Y-60904000D02*
X113617000Y-61285000D01*
X110569000Y-62428000D02*
X110569000Y-62809000D01*
X121745000Y-61666000D02*
X121745000Y-62047000D01*
X112093000Y-60904000D02*
X112093000Y-61285000D01*
X110061000Y-60904000D02*
X110061000Y-61285000D01*
X107013000Y-61666000D02*
X107013000Y-62047000D01*
X105997000Y-60904000D02*
X105997000Y-61285000D01*
X118697000Y-60904000D02*
X118697000Y-61285000D01*
X104981000Y-62428000D02*
X104981000Y-62809000D01*
X121745000Y-60904000D02*
X121745000Y-61285000D01*
D11*
X138128000Y-65476000D02*
X138128000Y-65730000D01*
X157686000Y-65984000D02*
X138128000Y-65984000D01*
D12*
X114125000Y-63317000D02*
X114125000Y-63698000D01*
X109045000Y-60523000D02*
X108537000Y-60523000D01*
D11*
X157686000Y-61920000D02*
X138128000Y-61920000D01*
D12*
X116157000Y-64841000D02*
X116157000Y-65222000D01*
X115141000Y-63317000D02*
X115141000Y-63698000D01*
X100409000Y-64841000D02*
X100409000Y-65222000D01*
X104473000Y-62428000D02*
X104473000Y-62809000D01*
X108029000Y-62428000D02*
X108029000Y-62809000D01*
X110061000Y-64079000D02*
X110061000Y-64460000D01*
X107013000Y-64079000D02*
X107013000Y-64460000D01*
X113109000Y-64841000D02*
X113109000Y-65222000D01*
D11*
X138128000Y-62428000D02*
X138128000Y-62682000D01*
D12*
X122888000Y-60650000D02*
X122888000Y-62682000D01*
X106505000Y-62428000D02*
X106505000Y-62809000D01*
X119205000Y-62428000D02*
X119205000Y-62809000D01*
X111077000Y-60904000D02*
X111077000Y-61285000D01*
X119713000Y-61666000D02*
X119713000Y-62047000D01*
X99393000Y-60904000D02*
X99393000Y-61285000D01*
X112093000Y-64841000D02*
X112093000Y-65222000D01*
X116157000Y-60904000D02*
X116157000Y-61285000D01*
X102441000Y-60904000D02*
X102441000Y-61285000D01*
X113109000Y-60904000D02*
X113109000Y-61285000D01*
D11*
X157686000Y-63952000D02*
X138128000Y-63952000D01*
D12*
X117681000Y-61666000D02*
X117681000Y-62047000D01*
D11*
X138128000Y-61666000D02*
X157686000Y-61666000D01*
D12*
X116157000Y-64079000D02*
X116157000Y-64460000D01*
X114125000Y-60523000D02*
X113617000Y-60523000D01*
D11*
X157686000Y-64968000D02*
X138128000Y-64968000D01*
X138128000Y-64968000D02*
X138128000Y-65222000D01*
D12*
X104473000Y-60904000D02*
X104473000Y-61285000D01*
X112601000Y-62428000D02*
X112601000Y-62809000D01*
X103965000Y-62428000D02*
X103965000Y-62809000D01*
X114633000Y-60904000D02*
X114633000Y-61285000D01*
X112601000Y-64079000D02*
X112601000Y-64460000D01*
X100409000Y-62428000D02*
X100409000Y-62809000D01*
X115649000Y-65603000D02*
X116157000Y-65603000D01*
X110569000Y-60904000D02*
X110569000Y-61285000D01*
X99901000Y-63317000D02*
X99901000Y-63698000D01*
X107521000Y-62428000D02*
X107521000Y-62809000D01*
X107013000Y-63317000D02*
X107013000Y-63698000D01*
X100917000Y-64079000D02*
X100917000Y-64460000D01*
X116157000Y-61666000D02*
X116157000Y-62047000D01*
X99901000Y-61666000D02*
X99901000Y-62047000D01*
X115141000Y-60904000D02*
X115141000Y-61285000D01*
X117173000Y-64841000D02*
X117173000Y-65222000D01*
D11*
X157686000Y-66492000D02*
X138128000Y-66492000D01*
D12*
X100917000Y-63317000D02*
X100917000Y-63698000D01*
X115141000Y-62428000D02*
X115141000Y-62809000D01*
X104981000Y-60904000D02*
X104981000Y-61285000D01*
X99393000Y-64841000D02*
X99393000Y-65222000D01*
D11*
X157686000Y-68270000D02*
X157686000Y-68524000D01*
D12*
X101933000Y-64079000D02*
X101933000Y-64460000D01*
D11*
X138128000Y-67508000D02*
X138128000Y-67762000D01*
D12*
X100409000Y-65603000D02*
X100917000Y-65603000D01*
X100409000Y-61666000D02*
X100409000Y-62047000D01*
X118189000Y-61666000D02*
X118189000Y-62047000D01*
X108029000Y-64079000D02*
X108029000Y-64460000D01*
X115649000Y-61666000D02*
X115649000Y-62047000D01*
X110061000Y-64841000D02*
X110061000Y-65222000D01*
X115141000Y-64841000D02*
X115141000Y-65222000D01*
X118697000Y-61666000D02*
X118697000Y-62047000D01*
X103457000Y-65603000D02*
X103965000Y-65603000D01*
X114633000Y-61666000D02*
X114633000Y-62047000D01*
X101425000Y-63317000D02*
X101425000Y-63698000D01*
X121237000Y-60904000D02*
X121237000Y-61285000D01*
X119713000Y-62428000D02*
X119713000Y-62809000D01*
X105489000Y-64079000D02*
X105489000Y-64460000D01*
X99901000Y-64079000D02*
X99901000Y-64460000D01*
D11*
X137670800Y-69286000D02*
X137670800Y-68066800D01*
X137924800Y-69540000D02*
X137670800Y-69286000D01*
D12*
X114633000Y-62428000D02*
X114633000Y-62809000D01*
X103965000Y-64841000D02*
X103965000Y-65222000D01*
X105997000Y-64079000D02*
X105997000Y-64460000D01*
X107521000Y-63317000D02*
X107521000Y-63698000D01*
X102949000Y-60523000D02*
X102441000Y-60523000D01*
X105997000Y-63317000D02*
X105997000Y-63698000D01*
X114633000Y-63317000D02*
X114633000Y-63698000D01*
X113617000Y-64841000D02*
X113617000Y-65222000D01*
X114633000Y-64841000D02*
X114633000Y-65222000D01*
D11*
X157686000Y-62936000D02*
X138128000Y-62936000D01*
X157686000Y-63444000D02*
X138128000Y-63444000D01*
D12*
X119205000Y-61666000D02*
X119205000Y-62047000D01*
X111585000Y-63317000D02*
X111585000Y-63698000D01*
X103457000Y-61666000D02*
X103457000Y-62047000D01*
X116665000Y-63317000D02*
X116665000Y-63698000D01*
D11*
X138128000Y-63444000D02*
X138128000Y-63698000D01*
X138128000Y-63952000D02*
X138128000Y-64206000D01*
D12*
X110061000Y-63317000D02*
X110061000Y-63698000D01*
X113617000Y-62428000D02*
X113617000Y-62809000D01*
D11*
X157686000Y-63190000D02*
X157686000Y-63444000D01*
D12*
X116665000Y-60904000D02*
X116665000Y-61285000D01*
D11*
X158067000Y-61412000D02*
X138128000Y-61412000D01*
D12*
X111585000Y-62428000D02*
X111585000Y-62809000D01*
X116157000Y-60523000D02*
X115649000Y-60523000D01*
X99393000Y-63317000D02*
X99393000Y-63698000D01*
D11*
X138128000Y-61920000D02*
X138128000Y-62174000D01*
D12*
X111077000Y-64841000D02*
X111077000Y-65222000D01*
X103457000Y-62428000D02*
X103457000Y-62809000D01*
X100917000Y-60523000D02*
X100409000Y-60523000D01*
X109553000Y-65603000D02*
X110061000Y-65603000D01*
X109553000Y-64079000D02*
X109553000Y-64460000D01*
X103457000Y-64079000D02*
X103457000Y-64460000D01*
X105997000Y-62428000D02*
X105997000Y-62809000D01*
D11*
X157686000Y-67762000D02*
X157686000Y-68016000D01*
D12*
X117681000Y-60904000D02*
X117681000Y-61285000D01*
X111077000Y-64079000D02*
X111077000Y-64460000D01*
X112093000Y-63317000D02*
X112093000Y-63698000D01*
D11*
X138128000Y-68778000D02*
X157686000Y-68778000D01*
D12*
X120729000Y-62428000D02*
X120729000Y-62809000D01*
X103965000Y-60523000D02*
X103457000Y-60523000D01*
X99901000Y-62428000D02*
X99901000Y-62809000D01*
X111077000Y-60523000D02*
X110569000Y-60523000D01*
X114125000Y-60904000D02*
X114125000Y-61285000D01*
X100917000Y-62428000D02*
X100917000Y-62809000D01*
X117173000Y-60904000D02*
X117173000Y-61285000D01*
X105489000Y-61666000D02*
X105489000Y-62047000D01*
X115649000Y-60904000D02*
X115649000Y-61285000D01*
X105997000Y-61666000D02*
X105997000Y-62047000D01*
X117173000Y-60523000D02*
X116665000Y-60523000D01*
X110569000Y-64841000D02*
X110569000Y-65222000D01*
X109045000Y-60904000D02*
X109045000Y-61285000D01*
X114125000Y-64079000D02*
X114125000Y-64460000D01*
X105489000Y-60904000D02*
X105489000Y-61285000D01*
D11*
X158168600Y-66492000D02*
X158168600Y-61513600D01*
D12*
X114633000Y-64079000D02*
X114633000Y-64460000D01*
X102949000Y-61666000D02*
X102949000Y-62047000D01*
X103457000Y-64841000D02*
X103457000Y-65222000D01*
X107521000Y-60904000D02*
X107521000Y-61285000D01*
X117173000Y-64079000D02*
X117173000Y-64460000D01*
D11*
X138128000Y-62174000D02*
X157686000Y-62174000D01*
D12*
X118189000Y-62428000D02*
X118189000Y-62809000D01*
X111077000Y-61666000D02*
X111077000Y-62047000D01*
X100409000Y-60904000D02*
X100409000Y-61285000D01*
X109553000Y-62428000D02*
X109553000Y-62809000D01*
X113109000Y-60523000D02*
X112601000Y-60523000D01*
X101425000Y-65603000D02*
X101933000Y-65603000D01*
X113109000Y-61666000D02*
X113109000Y-62047000D01*
X105489000Y-64841000D02*
X105489000Y-65222000D01*
D11*
X157686000Y-63698000D02*
X157686000Y-63952000D01*
X138128000Y-68524000D02*
X138128000Y-68778000D01*
D12*
X107521000Y-61666000D02*
X107521000Y-62047000D01*
D11*
X157686000Y-64460000D02*
X138128000Y-64460000D01*
X138128000Y-67254000D02*
X157686000Y-67254000D01*
D12*
X100917000Y-64841000D02*
X100917000Y-65222000D01*
X116157000Y-63317000D02*
X116157000Y-63698000D01*
X101425000Y-64079000D02*
X101425000Y-64460000D01*
X112093000Y-61666000D02*
X112093000Y-62047000D01*
D11*
X157686000Y-66238000D02*
X157686000Y-66492000D01*
X138128000Y-64460000D02*
X138128000Y-64714000D01*
D12*
X114633000Y-65603000D02*
X115141000Y-65603000D01*
D11*
X157686000Y-67254000D02*
X157686000Y-67508000D01*
D12*
X99393000Y-62428000D02*
X99393000Y-62809000D01*
X107013000Y-62428000D02*
X107013000Y-62809000D01*
D11*
X157686000Y-68778000D02*
X157686000Y-69032000D01*
D13*
X122126000Y-66238000D02*
X122634000Y-65730000D01*
G04 #@! TA.AperFunction,Conductor*
G36*
X122481694Y-66018306D02*
G01*
X122500000Y-66062500D01*
X122500000Y-69437500D01*
X122481694Y-69481694D01*
X122437500Y-69500000D01*
X99062500Y-69500000D01*
X99018306Y-69481694D01*
X99000000Y-69437500D01*
X99000000Y-66062500D01*
X99018306Y-66018306D01*
X99062500Y-66000000D01*
X122437500Y-66000000D01*
X122481694Y-66018306D01*
G37*
G04 #@! TD.AperFunction*
G04 #@! TA.AperFunction,NonConductor*
G36*
X90612519Y-67774028D02*
G01*
X90614372Y-67777238D01*
X90618560Y-67780752D01*
X90618561Y-67780753D01*
X90681568Y-67833622D01*
X90701268Y-67863575D01*
X90701268Y-67899425D01*
X90681568Y-67929378D01*
X90618561Y-67982246D01*
X90618558Y-67982249D01*
X90614372Y-67985762D01*
X90612519Y-67988971D01*
X90581676Y-68008620D01*
X90544124Y-68006981D01*
X90514303Y-67984099D01*
X90503000Y-67948250D01*
X90503000Y-67814750D01*
X90514303Y-67778901D01*
X90544124Y-67756019D01*
X90581676Y-67754380D01*
X90612519Y-67774028D01*
G37*
G04 #@! TD.AperFunction*
G04 #@! TA.AperFunction,NonConductor*
G36*
X91240126Y-67761224D02*
G01*
X91249372Y-67777238D01*
X91253560Y-67780752D01*
X91316568Y-67833622D01*
X91336268Y-67863575D01*
X91336268Y-67899425D01*
X91316568Y-67929378D01*
X91253560Y-67982247D01*
X91253557Y-67982249D01*
X91249372Y-67985762D01*
X91246640Y-67990492D01*
X91246637Y-67990497D01*
X91240126Y-68001775D01*
X91207376Y-68029255D01*
X91164624Y-68029255D01*
X91131874Y-68001775D01*
X91125362Y-67990497D01*
X91125361Y-67990496D01*
X91122628Y-67985762D01*
X91118442Y-67982249D01*
X91118440Y-67982247D01*
X91070243Y-67941806D01*
X91055429Y-67929376D01*
X91035731Y-67899425D01*
X91035731Y-67863575D01*
X91055429Y-67833623D01*
X91122628Y-67777238D01*
X91131873Y-67761224D01*
X91164624Y-67733744D01*
X91207376Y-67733744D01*
X91240126Y-67761224D01*
G37*
G04 #@! TD.AperFunction*
G04 #@! TA.AperFunction,NonConductor*
G36*
X92764126Y-67761224D02*
G01*
X92773372Y-67777238D01*
X92777560Y-67780752D01*
X92840568Y-67833622D01*
X92860268Y-67863575D01*
X92860268Y-67899425D01*
X92840568Y-67929378D01*
X92777560Y-67982247D01*
X92777557Y-67982249D01*
X92773372Y-67985762D01*
X92770640Y-67990492D01*
X92770637Y-67990497D01*
X92764126Y-68001775D01*
X92731376Y-68029255D01*
X92688624Y-68029255D01*
X92655874Y-68001775D01*
X92649362Y-67990497D01*
X92649361Y-67990496D01*
X92646628Y-67985762D01*
X92642442Y-67982249D01*
X92642440Y-67982247D01*
X92594243Y-67941806D01*
X92579429Y-67929376D01*
X92559731Y-67899425D01*
X92559731Y-67863575D01*
X92579429Y-67833623D01*
X92646628Y-67777238D01*
X92655873Y-67761224D01*
X92688624Y-67733744D01*
X92731376Y-67733744D01*
X92764126Y-67761224D01*
G37*
G04 #@! TD.AperFunction*
G04 #@! TA.AperFunction,NonConductor*
G36*
X94161126Y-67761224D02*
G01*
X94170372Y-67777238D01*
X94174560Y-67780752D01*
X94237568Y-67833622D01*
X94257268Y-67863575D01*
X94257268Y-67899425D01*
X94237568Y-67929378D01*
X94174560Y-67982247D01*
X94174557Y-67982249D01*
X94170372Y-67985762D01*
X94167640Y-67990492D01*
X94167637Y-67990497D01*
X94161126Y-68001775D01*
X94128376Y-68029255D01*
X94085624Y-68029255D01*
X94052874Y-68001775D01*
X94046362Y-67990497D01*
X94046361Y-67990496D01*
X94043628Y-67985762D01*
X94039442Y-67982249D01*
X94039440Y-67982247D01*
X93991243Y-67941806D01*
X93976429Y-67929376D01*
X93956731Y-67899425D01*
X93956731Y-67863575D01*
X93976429Y-67833623D01*
X94043628Y-67777238D01*
X94052873Y-67761224D01*
X94085624Y-67733744D01*
X94128376Y-67733744D01*
X94161126Y-67761224D01*
G37*
G04 #@! TD.AperFunction*
G04 #@! TA.AperFunction,NonConductor*
G36*
X93448674Y-67596682D02*
G01*
X93470051Y-67633707D01*
X93476302Y-67669163D01*
X93477766Y-67677462D01*
X93480500Y-67682197D01*
X93532638Y-67772504D01*
X93532640Y-67772507D01*
X93535372Y-67777238D01*
X93539560Y-67780752D01*
X93602568Y-67833622D01*
X93622268Y-67863575D01*
X93622268Y-67899425D01*
X93602568Y-67929378D01*
X93539560Y-67982247D01*
X93539557Y-67982249D01*
X93535372Y-67985762D01*
X93532642Y-67990489D01*
X93532638Y-67990495D01*
X93484930Y-68073129D01*
X93477766Y-68085538D01*
X93476817Y-68090919D01*
X93476814Y-68090928D01*
X93470050Y-68129292D01*
X93448674Y-68166317D01*
X93408500Y-68180939D01*
X93368326Y-68166317D01*
X93346950Y-68129292D01*
X93340185Y-68090928D01*
X93340183Y-68090922D01*
X93339234Y-68085538D01*
X93293879Y-68006981D01*
X93284361Y-67990495D01*
X93284359Y-67990493D01*
X93281628Y-67985762D01*
X93277442Y-67982249D01*
X93277440Y-67982247D01*
X93229243Y-67941806D01*
X93214429Y-67929376D01*
X93194731Y-67899425D01*
X93194731Y-67863575D01*
X93214429Y-67833623D01*
X93281628Y-67777238D01*
X93339234Y-67677462D01*
X93346949Y-67633706D01*
X93368326Y-67596682D01*
X93408500Y-67582060D01*
X93448674Y-67596682D01*
G37*
G04 #@! TD.AperFunction*
G04 #@! TA.AperFunction,NonConductor*
G36*
X90612519Y-68917028D02*
G01*
X90614372Y-68920238D01*
X90681569Y-68976623D01*
X90701268Y-69006573D01*
X90701268Y-69042424D01*
X90681569Y-69072376D01*
X90618561Y-69125246D01*
X90618558Y-69125249D01*
X90614372Y-69128762D01*
X90612519Y-69131971D01*
X90581676Y-69151620D01*
X90544124Y-69149981D01*
X90514303Y-69127099D01*
X90503000Y-69091250D01*
X90503000Y-68957750D01*
X90514303Y-68921901D01*
X90544124Y-68899019D01*
X90581676Y-68897380D01*
X90612519Y-68917028D01*
G37*
G04 #@! TD.AperFunction*
G04 #@! TA.AperFunction,NonConductor*
G36*
X93448674Y-68231682D02*
G01*
X93470050Y-68268706D01*
X93477766Y-68312462D01*
X93480500Y-68317197D01*
X93532638Y-68407504D01*
X93532640Y-68407507D01*
X93535372Y-68412238D01*
X93537557Y-68414071D01*
X93551726Y-68452996D01*
X93537559Y-68491926D01*
X93535372Y-68493762D01*
X93532643Y-68498487D01*
X93532640Y-68498492D01*
X93485484Y-68580170D01*
X93477766Y-68593538D01*
X93476817Y-68598918D01*
X93476816Y-68598922D01*
X93463272Y-68675737D01*
X93457760Y-68707000D01*
X93458709Y-68712382D01*
X93463336Y-68738627D01*
X93477766Y-68820462D01*
X93480500Y-68825197D01*
X93532638Y-68915504D01*
X93532640Y-68915507D01*
X93535372Y-68920238D01*
X93602569Y-68976623D01*
X93622268Y-69006573D01*
X93622268Y-69042424D01*
X93602569Y-69072376D01*
X93539560Y-69125247D01*
X93539557Y-69125249D01*
X93535372Y-69128762D01*
X93532642Y-69133489D01*
X93532638Y-69133495D01*
X93480500Y-69223802D01*
X93477766Y-69228538D01*
X93476817Y-69233918D01*
X93476816Y-69233922D01*
X93470268Y-69271062D01*
X93457760Y-69342000D01*
X93458709Y-69347382D01*
X93476206Y-69446618D01*
X93477766Y-69455462D01*
X93480500Y-69460197D01*
X93509109Y-69509750D01*
X93516532Y-69551853D01*
X93495156Y-69588878D01*
X93454982Y-69603500D01*
X93298518Y-69603500D01*
X93258344Y-69588878D01*
X93236968Y-69551853D01*
X93244391Y-69509750D01*
X93252095Y-69496405D01*
X93275734Y-69455462D01*
X93295740Y-69342000D01*
X93275734Y-69228538D01*
X93230379Y-69149981D01*
X93220861Y-69133495D01*
X93220859Y-69133493D01*
X93218128Y-69128762D01*
X93150930Y-69072376D01*
X93131231Y-69042424D01*
X93131231Y-69006573D01*
X93150930Y-68976623D01*
X93218128Y-68920238D01*
X93275734Y-68820462D01*
X93295740Y-68707000D01*
X93275734Y-68593538D01*
X93273000Y-68588802D01*
X93272998Y-68588797D01*
X93233366Y-68520154D01*
X93225942Y-68478050D01*
X93247317Y-68441027D01*
X93281628Y-68412238D01*
X93339234Y-68312462D01*
X93346949Y-68268706D01*
X93368326Y-68231682D01*
X93408500Y-68217060D01*
X93448674Y-68231682D01*
G37*
G04 #@! TD.AperFunction*
G04 #@! TA.AperFunction,NonConductor*
G36*
X99043512Y-60406282D02*
G01*
X99066556Y-60433745D01*
X99070719Y-60469353D01*
X99061260Y-60523000D01*
X99062209Y-60528382D01*
X99079590Y-60626960D01*
X99081266Y-60636462D01*
X99084000Y-60641197D01*
X99107701Y-60682249D01*
X99116074Y-60713498D01*
X99107701Y-60744748D01*
X99084001Y-60785799D01*
X99083999Y-60785804D01*
X99081266Y-60790538D01*
X99080317Y-60795918D01*
X99080316Y-60795922D01*
X99062923Y-60894566D01*
X99061260Y-60904000D01*
X99081266Y-61017462D01*
X99084000Y-61022197D01*
X99104727Y-61058098D01*
X99113100Y-61089348D01*
X99113100Y-61099652D01*
X99104726Y-61130902D01*
X99081266Y-61171538D01*
X99080317Y-61176918D01*
X99080316Y-61176922D01*
X99064018Y-61269358D01*
X99061260Y-61285000D01*
X99062209Y-61290382D01*
X99079090Y-61386126D01*
X99081266Y-61398462D01*
X99084000Y-61403197D01*
X99084001Y-61403199D01*
X99107701Y-61444248D01*
X99116075Y-61475497D01*
X99107702Y-61506747D01*
X99084001Y-61547799D01*
X99083999Y-61547803D01*
X99081266Y-61552538D01*
X99080317Y-61557918D01*
X99080316Y-61557922D01*
X99072368Y-61603000D01*
X99061260Y-61666000D01*
X99062209Y-61671382D01*
X99078478Y-61763654D01*
X99081266Y-61779462D01*
X99089082Y-61793000D01*
X99104727Y-61820098D01*
X99113100Y-61851348D01*
X99113100Y-61861652D01*
X99104726Y-61892902D01*
X99081266Y-61933538D01*
X99080317Y-61938918D01*
X99080316Y-61938922D01*
X99075966Y-61963595D01*
X99061260Y-62047000D01*
X99062209Y-62052382D01*
X99072459Y-62110518D01*
X99081266Y-62160462D01*
X99084000Y-62165197D01*
X99084001Y-62165199D01*
X99107701Y-62206248D01*
X99116075Y-62237497D01*
X99107702Y-62268747D01*
X99084001Y-62309799D01*
X99083999Y-62309803D01*
X99081266Y-62314538D01*
X99080317Y-62319918D01*
X99080316Y-62319922D01*
X99065055Y-62406479D01*
X99061260Y-62428000D01*
X99081266Y-62541462D01*
X99089082Y-62555000D01*
X99104727Y-62582098D01*
X99113100Y-62613348D01*
X99113100Y-62623652D01*
X99104726Y-62654902D01*
X99081266Y-62695538D01*
X99080317Y-62700918D01*
X99080316Y-62700922D01*
X99066434Y-62779654D01*
X99061260Y-62809000D01*
X99062209Y-62814382D01*
X99077207Y-62899445D01*
X99081266Y-62922462D01*
X99084000Y-62927197D01*
X99136138Y-63017504D01*
X99136140Y-63017507D01*
X99138872Y-63022238D01*
X99141058Y-63024072D01*
X99155226Y-63063000D01*
X99141058Y-63101927D01*
X99138872Y-63103762D01*
X99136142Y-63108489D01*
X99136138Y-63108495D01*
X99103055Y-63165798D01*
X99081266Y-63203538D01*
X99080317Y-63208918D01*
X99080316Y-63208922D01*
X99066434Y-63287654D01*
X99061260Y-63317000D01*
X99062209Y-63322382D01*
X99077207Y-63407445D01*
X99081266Y-63430462D01*
X99084000Y-63435197D01*
X99104727Y-63471098D01*
X99113100Y-63502348D01*
X99113100Y-63512652D01*
X99104727Y-63543902D01*
X99103365Y-63546262D01*
X99081266Y-63584538D01*
X99080317Y-63589918D01*
X99080316Y-63589922D01*
X99072453Y-63634518D01*
X99061260Y-63698000D01*
X99062209Y-63703382D01*
X99078478Y-63795654D01*
X99081266Y-63811462D01*
X99089082Y-63824999D01*
X99107701Y-63857249D01*
X99116074Y-63888498D01*
X99107701Y-63919748D01*
X99084001Y-63960799D01*
X99084001Y-63960800D01*
X99081266Y-63965538D01*
X99080317Y-63970918D01*
X99080316Y-63970922D01*
X99075966Y-63995595D01*
X99061260Y-64079000D01*
X99062209Y-64084382D01*
X99072459Y-64142518D01*
X99081266Y-64192462D01*
X99084000Y-64197197D01*
X99104727Y-64233098D01*
X99113100Y-64264348D01*
X99113100Y-64274652D01*
X99104727Y-64305902D01*
X99103365Y-64308262D01*
X99081266Y-64346538D01*
X99080317Y-64351918D01*
X99080316Y-64351922D01*
X99065055Y-64438479D01*
X99061260Y-64460000D01*
X99081266Y-64573462D01*
X99084000Y-64578197D01*
X99084001Y-64578200D01*
X99107701Y-64619251D01*
X99116074Y-64650500D01*
X99107701Y-64681749D01*
X99084001Y-64722799D01*
X99084000Y-64722803D01*
X99081266Y-64727538D01*
X99080317Y-64732918D01*
X99080316Y-64732922D01*
X99066434Y-64811654D01*
X99061260Y-64841000D01*
X99062209Y-64846382D01*
X99077207Y-64931445D01*
X99081266Y-64954462D01*
X99084000Y-64959197D01*
X99104727Y-64995098D01*
X99113100Y-65026348D01*
X99113100Y-65036652D01*
X99104727Y-65067902D01*
X99103365Y-65070262D01*
X99081266Y-65108538D01*
X99080317Y-65113918D01*
X99080316Y-65113922D01*
X99072453Y-65158518D01*
X99061260Y-65222000D01*
X99062209Y-65227382D01*
X99078478Y-65319654D01*
X99081266Y-65335462D01*
X99089082Y-65348999D01*
X99107701Y-65381249D01*
X99116074Y-65412498D01*
X99107701Y-65443748D01*
X99084001Y-65484799D01*
X99084001Y-65484800D01*
X99081266Y-65489538D01*
X99080317Y-65494918D01*
X99080316Y-65494922D01*
X99062209Y-65597615D01*
X99062209Y-65597617D01*
X99061260Y-65603000D01*
X99061742Y-65605738D01*
X99053838Y-65635247D01*
X99030962Y-65658126D01*
X98999710Y-65666500D01*
X98770431Y-65666500D01*
X98758000Y-65666500D01*
X98758000Y-65678931D01*
X98758000Y-66993016D01*
X98747717Y-67027361D01*
X98720253Y-67050405D01*
X98688606Y-67054103D01*
X98688606Y-67054300D01*
X98573394Y-67054300D01*
X98568259Y-67056168D01*
X98568253Y-67056170D01*
X98465130Y-67093705D01*
X98464814Y-67092839D01*
X98440500Y-67099352D01*
X98416185Y-67092839D01*
X98415870Y-67093705D01*
X98312746Y-67056170D01*
X98312741Y-67056169D01*
X98307606Y-67054300D01*
X98192394Y-67054300D01*
X98187259Y-67056168D01*
X98187253Y-67056170D01*
X98084130Y-67093705D01*
X98083814Y-67092839D01*
X98059500Y-67099352D01*
X98035185Y-67092839D01*
X98034870Y-67093705D01*
X97931746Y-67056170D01*
X97931741Y-67056169D01*
X97926606Y-67054300D01*
X97811394Y-67054300D01*
X97806259Y-67056168D01*
X97806253Y-67056170D01*
X97703130Y-67093705D01*
X97702814Y-67092839D01*
X97678500Y-67099352D01*
X97654185Y-67092839D01*
X97653870Y-67093705D01*
X97550746Y-67056170D01*
X97550741Y-67056169D01*
X97545606Y-67054300D01*
X97430394Y-67054300D01*
X97425259Y-67056168D01*
X97425253Y-67056170D01*
X97322130Y-67093705D01*
X97321814Y-67092839D01*
X97297500Y-67099352D01*
X97273185Y-67092839D01*
X97272870Y-67093705D01*
X97169746Y-67056170D01*
X97169741Y-67056169D01*
X97164606Y-67054300D01*
X97049394Y-67054300D01*
X97044259Y-67056168D01*
X97044253Y-67056170D01*
X96941130Y-67093705D01*
X96940814Y-67092839D01*
X96916500Y-67099352D01*
X96892185Y-67092839D01*
X96891870Y-67093705D01*
X96788746Y-67056170D01*
X96788741Y-67056169D01*
X96783606Y-67054300D01*
X96668394Y-67054300D01*
X96663259Y-67056168D01*
X96663253Y-67056170D01*
X96560130Y-67093705D01*
X96559814Y-67092839D01*
X96535500Y-67099352D01*
X96511185Y-67092839D01*
X96510870Y-67093705D01*
X96407746Y-67056170D01*
X96407741Y-67056169D01*
X96402606Y-67054300D01*
X96287394Y-67054300D01*
X96282259Y-67056168D01*
X96282253Y-67056170D01*
X96179130Y-67093705D01*
X96178814Y-67092839D01*
X96154500Y-67099352D01*
X96130185Y-67092839D01*
X96129870Y-67093705D01*
X96026746Y-67056170D01*
X96026741Y-67056169D01*
X96021606Y-67054300D01*
X95906394Y-67054300D01*
X95901259Y-67056168D01*
X95901253Y-67056170D01*
X95798130Y-67093705D01*
X95797814Y-67092839D01*
X95773500Y-67099352D01*
X95749185Y-67092839D01*
X95748870Y-67093705D01*
X95645746Y-67056170D01*
X95645741Y-67056169D01*
X95640606Y-67054300D01*
X95525394Y-67054300D01*
X95520259Y-67056168D01*
X95520253Y-67056170D01*
X95422269Y-67091834D01*
X95422266Y-67091835D01*
X95417130Y-67093705D01*
X95412945Y-67097216D01*
X95412939Y-67097220D01*
X95333060Y-67164247D01*
X95333057Y-67164249D01*
X95328872Y-67167762D01*
X95326142Y-67172489D01*
X95326138Y-67172495D01*
X95287644Y-67239170D01*
X95271266Y-67267538D01*
X95270317Y-67272918D01*
X95270316Y-67272922D01*
X95256434Y-67351654D01*
X95251260Y-67381000D01*
X95252209Y-67386382D01*
X95267207Y-67471445D01*
X95271266Y-67494462D01*
X95274000Y-67499197D01*
X95326138Y-67589504D01*
X95326140Y-67589507D01*
X95328872Y-67594238D01*
X95333060Y-67597752D01*
X95412939Y-67664779D01*
X95412941Y-67664780D01*
X95417130Y-67668295D01*
X95459903Y-67683863D01*
X95517604Y-67704865D01*
X95525394Y-67707700D01*
X95635135Y-67707700D01*
X95640606Y-67707700D01*
X95748870Y-67668295D01*
X95749186Y-67669163D01*
X95773491Y-67662647D01*
X95797814Y-67669161D01*
X95798130Y-67668295D01*
X95898604Y-67704865D01*
X95906394Y-67707700D01*
X96016135Y-67707700D01*
X96021606Y-67707700D01*
X96129870Y-67668295D01*
X96130186Y-67669163D01*
X96154491Y-67662647D01*
X96178814Y-67669161D01*
X96179130Y-67668295D01*
X96279604Y-67704865D01*
X96287394Y-67707700D01*
X96397135Y-67707700D01*
X96402606Y-67707700D01*
X96510870Y-67668295D01*
X96511186Y-67669163D01*
X96535491Y-67662647D01*
X96559814Y-67669161D01*
X96560130Y-67668295D01*
X96660604Y-67704865D01*
X96668394Y-67707700D01*
X96778135Y-67707700D01*
X96783606Y-67707700D01*
X96891870Y-67668295D01*
X96892186Y-67669163D01*
X96916491Y-67662647D01*
X96940814Y-67669161D01*
X96941130Y-67668295D01*
X97041604Y-67704865D01*
X97049394Y-67707700D01*
X97159135Y-67707700D01*
X97164606Y-67707700D01*
X97272870Y-67668295D01*
X97273186Y-67669163D01*
X97297491Y-67662647D01*
X97321814Y-67669161D01*
X97322130Y-67668295D01*
X97422604Y-67704865D01*
X97430394Y-67707700D01*
X97540135Y-67707700D01*
X97545606Y-67707700D01*
X97653870Y-67668295D01*
X97654186Y-67669163D01*
X97678491Y-67662647D01*
X97702814Y-67669161D01*
X97703130Y-67668295D01*
X97803604Y-67704865D01*
X97811394Y-67707700D01*
X97921135Y-67707700D01*
X97926606Y-67707700D01*
X98034870Y-67668295D01*
X98035186Y-67669163D01*
X98059491Y-67662647D01*
X98083814Y-67669161D01*
X98084130Y-67668295D01*
X98184604Y-67704865D01*
X98192394Y-67707700D01*
X98302135Y-67707700D01*
X98307606Y-67707700D01*
X98415870Y-67668295D01*
X98416186Y-67669163D01*
X98440491Y-67662647D01*
X98464814Y-67669161D01*
X98465130Y-67668295D01*
X98565604Y-67704865D01*
X98573394Y-67707700D01*
X98683136Y-67707700D01*
X98686920Y-67707700D01*
X98688606Y-67707700D01*
X98688606Y-67707897D01*
X98720253Y-67711595D01*
X98747717Y-67734639D01*
X98758000Y-67768984D01*
X98758000Y-68678257D01*
X98745085Y-68716305D01*
X98711676Y-68738627D01*
X98671582Y-68735999D01*
X98641373Y-68709507D01*
X98633861Y-68696495D01*
X98633859Y-68696493D01*
X98631128Y-68691762D01*
X98626939Y-68688247D01*
X98547060Y-68621220D01*
X98547056Y-68621218D01*
X98542870Y-68617705D01*
X98537730Y-68615834D01*
X98439746Y-68580170D01*
X98439741Y-68580169D01*
X98434606Y-68578300D01*
X98319394Y-68578300D01*
X98314259Y-68580168D01*
X98314253Y-68580170D01*
X98211130Y-68617705D01*
X98210814Y-68616839D01*
X98186500Y-68623352D01*
X98162185Y-68616839D01*
X98161870Y-68617705D01*
X98058746Y-68580170D01*
X98058741Y-68580169D01*
X98053606Y-68578300D01*
X97938394Y-68578300D01*
X97933259Y-68580168D01*
X97933253Y-68580170D01*
X97830130Y-68617705D01*
X97829814Y-68616839D01*
X97805500Y-68623352D01*
X97781185Y-68616839D01*
X97780870Y-68617705D01*
X97677746Y-68580170D01*
X97677741Y-68580169D01*
X97672606Y-68578300D01*
X97557394Y-68578300D01*
X97552259Y-68580168D01*
X97552253Y-68580170D01*
X97449130Y-68617705D01*
X97448814Y-68616839D01*
X97424500Y-68623352D01*
X97400185Y-68616839D01*
X97399870Y-68617705D01*
X97296746Y-68580170D01*
X97296741Y-68580169D01*
X97291606Y-68578300D01*
X97176394Y-68578300D01*
X97171259Y-68580168D01*
X97171253Y-68580170D01*
X97068130Y-68617705D01*
X97067814Y-68616839D01*
X97043500Y-68623352D01*
X97019185Y-68616839D01*
X97018870Y-68617705D01*
X96915746Y-68580170D01*
X96915741Y-68580169D01*
X96910606Y-68578300D01*
X96795394Y-68578300D01*
X96790259Y-68580168D01*
X96790253Y-68580170D01*
X96687130Y-68617705D01*
X96686814Y-68616839D01*
X96662500Y-68623352D01*
X96638185Y-68616839D01*
X96637870Y-68617705D01*
X96534746Y-68580170D01*
X96534741Y-68580169D01*
X96529606Y-68578300D01*
X96414394Y-68578300D01*
X96409259Y-68580168D01*
X96409253Y-68580170D01*
X96306130Y-68617705D01*
X96305814Y-68616839D01*
X96281500Y-68623352D01*
X96257185Y-68616839D01*
X96256870Y-68617705D01*
X96153746Y-68580170D01*
X96153741Y-68580169D01*
X96148606Y-68578300D01*
X96033394Y-68578300D01*
X96028259Y-68580168D01*
X96028253Y-68580170D01*
X95925130Y-68617705D01*
X95924814Y-68616839D01*
X95900500Y-68623352D01*
X95876185Y-68616839D01*
X95875870Y-68617705D01*
X95772746Y-68580170D01*
X95772741Y-68580169D01*
X95767606Y-68578300D01*
X95652394Y-68578300D01*
X95647259Y-68580168D01*
X95647253Y-68580170D01*
X95544130Y-68617705D01*
X95543814Y-68616839D01*
X95519500Y-68623352D01*
X95495185Y-68616839D01*
X95494870Y-68617705D01*
X95391746Y-68580170D01*
X95391741Y-68580169D01*
X95386606Y-68578300D01*
X95271394Y-68578300D01*
X95266259Y-68580168D01*
X95266253Y-68580170D01*
X95168269Y-68615834D01*
X95168266Y-68615835D01*
X95163130Y-68617705D01*
X95158945Y-68621216D01*
X95158939Y-68621220D01*
X95079060Y-68688247D01*
X95079057Y-68688249D01*
X95074872Y-68691762D01*
X95072142Y-68696489D01*
X95072138Y-68696495D01*
X95037507Y-68756479D01*
X95017266Y-68791538D01*
X95016317Y-68796918D01*
X95016316Y-68796922D01*
X95012166Y-68820462D01*
X94997260Y-68905000D01*
X94998209Y-68910382D01*
X95015169Y-69006573D01*
X95017266Y-69018462D01*
X95020000Y-69023197D01*
X95072138Y-69113504D01*
X95072140Y-69113507D01*
X95074872Y-69118238D01*
X95079060Y-69121752D01*
X95158939Y-69188779D01*
X95158941Y-69188780D01*
X95163130Y-69192295D01*
X95203216Y-69206885D01*
X95263604Y-69228865D01*
X95271394Y-69231700D01*
X95381135Y-69231700D01*
X95386606Y-69231700D01*
X95494870Y-69192295D01*
X95495185Y-69193163D01*
X95519500Y-69186647D01*
X95543814Y-69193163D01*
X95544130Y-69192295D01*
X95644604Y-69228865D01*
X95652394Y-69231700D01*
X95762135Y-69231700D01*
X95767606Y-69231700D01*
X95875870Y-69192295D01*
X95876185Y-69193163D01*
X95900500Y-69186647D01*
X95924814Y-69193163D01*
X95925130Y-69192295D01*
X96025604Y-69228865D01*
X96033394Y-69231700D01*
X96143135Y-69231700D01*
X96148606Y-69231700D01*
X96256870Y-69192295D01*
X96257185Y-69193163D01*
X96281500Y-69186647D01*
X96305814Y-69193163D01*
X96306130Y-69192295D01*
X96406604Y-69228865D01*
X96414394Y-69231700D01*
X96524135Y-69231700D01*
X96529606Y-69231700D01*
X96637870Y-69192295D01*
X96638185Y-69193163D01*
X96662500Y-69186647D01*
X96686814Y-69193163D01*
X96687130Y-69192295D01*
X96787604Y-69228865D01*
X96795394Y-69231700D01*
X96905135Y-69231700D01*
X96910606Y-69231700D01*
X97018870Y-69192295D01*
X97019185Y-69193163D01*
X97043500Y-69186647D01*
X97067814Y-69193163D01*
X97068130Y-69192295D01*
X97168604Y-69228865D01*
X97176394Y-69231700D01*
X97286135Y-69231700D01*
X97291606Y-69231700D01*
X97399870Y-69192295D01*
X97400185Y-69193163D01*
X97424500Y-69186647D01*
X97448814Y-69193163D01*
X97449130Y-69192295D01*
X97549604Y-69228865D01*
X97557394Y-69231700D01*
X97667135Y-69231700D01*
X97672606Y-69231700D01*
X97780870Y-69192295D01*
X97781185Y-69193163D01*
X97805500Y-69186647D01*
X97829814Y-69193163D01*
X97830130Y-69192295D01*
X97930604Y-69228865D01*
X97938394Y-69231700D01*
X98048135Y-69231700D01*
X98053606Y-69231700D01*
X98161870Y-69192295D01*
X98162185Y-69193163D01*
X98186500Y-69186647D01*
X98210814Y-69193163D01*
X98211130Y-69192295D01*
X98311604Y-69228865D01*
X98319394Y-69231700D01*
X98429135Y-69231700D01*
X98434606Y-69231700D01*
X98542870Y-69192295D01*
X98631128Y-69118238D01*
X98641373Y-69100492D01*
X98671582Y-69074001D01*
X98711676Y-69071373D01*
X98745085Y-69093695D01*
X98758000Y-69131743D01*
X98758000Y-69541000D01*
X98739694Y-69585194D01*
X98695500Y-69603500D01*
X94759018Y-69603500D01*
X94718844Y-69588878D01*
X94697468Y-69551853D01*
X94704891Y-69509750D01*
X94712595Y-69496405D01*
X94736234Y-69455462D01*
X94756240Y-69342000D01*
X94736234Y-69228538D01*
X94690879Y-69149981D01*
X94681361Y-69133495D01*
X94681359Y-69133493D01*
X94678628Y-69128762D01*
X94611430Y-69072376D01*
X94591731Y-69042424D01*
X94591731Y-69006573D01*
X94611430Y-68976623D01*
X94678628Y-68920238D01*
X94736234Y-68820462D01*
X94756240Y-68707000D01*
X94736234Y-68593538D01*
X94678628Y-68493762D01*
X94676440Y-68491926D01*
X94662273Y-68452996D01*
X94676444Y-68414070D01*
X94678628Y-68412238D01*
X94736234Y-68312462D01*
X94756240Y-68199000D01*
X94736234Y-68085538D01*
X94690879Y-68006981D01*
X94681361Y-67990495D01*
X94681359Y-67990493D01*
X94678628Y-67985762D01*
X94674442Y-67982249D01*
X94674440Y-67982247D01*
X94626243Y-67941806D01*
X94611429Y-67929376D01*
X94591731Y-67899425D01*
X94591731Y-67863575D01*
X94611429Y-67833623D01*
X94678628Y-67777238D01*
X94736234Y-67677462D01*
X94756240Y-67564000D01*
X94736234Y-67450538D01*
X94687873Y-67366775D01*
X94681361Y-67355495D01*
X94681359Y-67355493D01*
X94678628Y-67350762D01*
X94664614Y-67339003D01*
X94594560Y-67280220D01*
X94594556Y-67280218D01*
X94590370Y-67276705D01*
X94585230Y-67274834D01*
X94487246Y-67239170D01*
X94487241Y-67239169D01*
X94482106Y-67237300D01*
X94366894Y-67237300D01*
X94361759Y-67239168D01*
X94361753Y-67239170D01*
X94263769Y-67274834D01*
X94263766Y-67274835D01*
X94258630Y-67276705D01*
X94254445Y-67280216D01*
X94254439Y-67280220D01*
X94174560Y-67347247D01*
X94174557Y-67347249D01*
X94170372Y-67350762D01*
X94167640Y-67355492D01*
X94167637Y-67355497D01*
X94161126Y-67366775D01*
X94128376Y-67394255D01*
X94085624Y-67394255D01*
X94052874Y-67366775D01*
X94046362Y-67355497D01*
X94046361Y-67355496D01*
X94043628Y-67350762D01*
X94029614Y-67339003D01*
X93959560Y-67280220D01*
X93959556Y-67280218D01*
X93955370Y-67276705D01*
X93950230Y-67274834D01*
X93852246Y-67239170D01*
X93852241Y-67239169D01*
X93847106Y-67237300D01*
X93731894Y-67237300D01*
X93726759Y-67239168D01*
X93726753Y-67239170D01*
X93628769Y-67274834D01*
X93628766Y-67274835D01*
X93623630Y-67276705D01*
X93619445Y-67280216D01*
X93619439Y-67280220D01*
X93539560Y-67347247D01*
X93539557Y-67347249D01*
X93535372Y-67350762D01*
X93532642Y-67355489D01*
X93532638Y-67355495D01*
X93480500Y-67445802D01*
X93477766Y-67450538D01*
X93476817Y-67455919D01*
X93476814Y-67455928D01*
X93470050Y-67494292D01*
X93448674Y-67531317D01*
X93408500Y-67545939D01*
X93368326Y-67531317D01*
X93346950Y-67494292D01*
X93340185Y-67455928D01*
X93340183Y-67455922D01*
X93339234Y-67450538D01*
X93290873Y-67366775D01*
X93284361Y-67355495D01*
X93284359Y-67355493D01*
X93281628Y-67350762D01*
X93267614Y-67339003D01*
X93197560Y-67280220D01*
X93197556Y-67280218D01*
X93193370Y-67276705D01*
X93188230Y-67274834D01*
X93090246Y-67239170D01*
X93090241Y-67239169D01*
X93085106Y-67237300D01*
X92969894Y-67237300D01*
X92964759Y-67239168D01*
X92964753Y-67239170D01*
X92866769Y-67274834D01*
X92866766Y-67274835D01*
X92861630Y-67276705D01*
X92857445Y-67280216D01*
X92857439Y-67280220D01*
X92777560Y-67347247D01*
X92777557Y-67347249D01*
X92773372Y-67350762D01*
X92770640Y-67355492D01*
X92770637Y-67355497D01*
X92764126Y-67366775D01*
X92731376Y-67394255D01*
X92688624Y-67394255D01*
X92655874Y-67366775D01*
X92649362Y-67355497D01*
X92649361Y-67355496D01*
X92646628Y-67350762D01*
X92632614Y-67339003D01*
X92562560Y-67280220D01*
X92562556Y-67280218D01*
X92558370Y-67276705D01*
X92553230Y-67274834D01*
X92455246Y-67239170D01*
X92455241Y-67239169D01*
X92450106Y-67237300D01*
X92334894Y-67237300D01*
X92329759Y-67239168D01*
X92329753Y-67239170D01*
X92231769Y-67274834D01*
X92231766Y-67274835D01*
X92226630Y-67276705D01*
X92222445Y-67280216D01*
X92222439Y-67280220D01*
X92142560Y-67347247D01*
X92142557Y-67347249D01*
X92138372Y-67350762D01*
X92135642Y-67355489D01*
X92135638Y-67355495D01*
X92083500Y-67445802D01*
X92080766Y-67450538D01*
X92079817Y-67455918D01*
X92079816Y-67455922D01*
X92073051Y-67494292D01*
X92060760Y-67564000D01*
X92061709Y-67569382D01*
X92079302Y-67669163D01*
X92080766Y-67677462D01*
X92083500Y-67682197D01*
X92135638Y-67772504D01*
X92135640Y-67772507D01*
X92138372Y-67777238D01*
X92142560Y-67780752D01*
X92205568Y-67833622D01*
X92225268Y-67863575D01*
X92225268Y-67899425D01*
X92205568Y-67929378D01*
X92142560Y-67982247D01*
X92142557Y-67982249D01*
X92138372Y-67985762D01*
X92135642Y-67990489D01*
X92135638Y-67990495D01*
X92087930Y-68073129D01*
X92080766Y-68085538D01*
X92079817Y-68090918D01*
X92079816Y-68090922D01*
X92066523Y-68166317D01*
X92060760Y-68199000D01*
X92061709Y-68204382D01*
X92066522Y-68231682D01*
X92080766Y-68312462D01*
X92083500Y-68317197D01*
X92123133Y-68385844D01*
X92130557Y-68427946D01*
X92109181Y-68464971D01*
X92079061Y-68490245D01*
X92079055Y-68490251D01*
X92074872Y-68493762D01*
X92072140Y-68498492D01*
X92072138Y-68498496D01*
X92024984Y-68580170D01*
X92017266Y-68593538D01*
X92016317Y-68598918D01*
X92016316Y-68598922D01*
X92002772Y-68675737D01*
X91997260Y-68707000D01*
X91998209Y-68712382D01*
X92002836Y-68738627D01*
X92017266Y-68820462D01*
X92020000Y-68825197D01*
X92072138Y-68915504D01*
X92072140Y-68915507D01*
X92074872Y-68920238D01*
X92142069Y-68976623D01*
X92161768Y-69006573D01*
X92161768Y-69042424D01*
X92142069Y-69072376D01*
X92079060Y-69125247D01*
X92079057Y-69125249D01*
X92074872Y-69128762D01*
X92072142Y-69133489D01*
X92072138Y-69133495D01*
X92020000Y-69223802D01*
X92017266Y-69228538D01*
X92016317Y-69233918D01*
X92016316Y-69233922D01*
X92009768Y-69271062D01*
X91997260Y-69342000D01*
X91998209Y-69347382D01*
X92015706Y-69446618D01*
X92017266Y-69455462D01*
X92020000Y-69460197D01*
X92048609Y-69509750D01*
X92056032Y-69551853D01*
X92034656Y-69588878D01*
X91994482Y-69603500D01*
X91838018Y-69603500D01*
X91797844Y-69588878D01*
X91776468Y-69551853D01*
X91783891Y-69509750D01*
X91791595Y-69496405D01*
X91815234Y-69455462D01*
X91835240Y-69342000D01*
X91815234Y-69228538D01*
X91769879Y-69149981D01*
X91760361Y-69133495D01*
X91760359Y-69133493D01*
X91757628Y-69128762D01*
X91690430Y-69072376D01*
X91670731Y-69042424D01*
X91670731Y-69006573D01*
X91690430Y-68976623D01*
X91757628Y-68920238D01*
X91815234Y-68820462D01*
X91835240Y-68707000D01*
X91815234Y-68593538D01*
X91757628Y-68493762D01*
X91755440Y-68491926D01*
X91741273Y-68452996D01*
X91755444Y-68414070D01*
X91757628Y-68412238D01*
X91815234Y-68312462D01*
X91835240Y-68199000D01*
X91815234Y-68085538D01*
X91769879Y-68006981D01*
X91760361Y-67990495D01*
X91760359Y-67990493D01*
X91757628Y-67985762D01*
X91753442Y-67982249D01*
X91753440Y-67982247D01*
X91705243Y-67941806D01*
X91690429Y-67929376D01*
X91670731Y-67899425D01*
X91670731Y-67863575D01*
X91690429Y-67833623D01*
X91757628Y-67777238D01*
X91815234Y-67677462D01*
X91835240Y-67564000D01*
X91815234Y-67450538D01*
X91766873Y-67366775D01*
X91760361Y-67355495D01*
X91760359Y-67355493D01*
X91757628Y-67350762D01*
X91743614Y-67339003D01*
X91673560Y-67280220D01*
X91673556Y-67280218D01*
X91669370Y-67276705D01*
X91664230Y-67274834D01*
X91566246Y-67239170D01*
X91566241Y-67239169D01*
X91561106Y-67237300D01*
X91445894Y-67237300D01*
X91440759Y-67239168D01*
X91440753Y-67239170D01*
X91342769Y-67274834D01*
X91342766Y-67274835D01*
X91337630Y-67276705D01*
X91333445Y-67280216D01*
X91333439Y-67280220D01*
X91253560Y-67347247D01*
X91253557Y-67347249D01*
X91249372Y-67350762D01*
X91246640Y-67355492D01*
X91246637Y-67355497D01*
X91240126Y-67366775D01*
X91207376Y-67394255D01*
X91164624Y-67394255D01*
X91131874Y-67366775D01*
X91125362Y-67355497D01*
X91125361Y-67355496D01*
X91122628Y-67350762D01*
X91108614Y-67339003D01*
X91038560Y-67280220D01*
X91038556Y-67280218D01*
X91034370Y-67276705D01*
X91029230Y-67274834D01*
X90931246Y-67239170D01*
X90931241Y-67239169D01*
X90926106Y-67237300D01*
X90810894Y-67237300D01*
X90805759Y-67239168D01*
X90805753Y-67239170D01*
X90707769Y-67274834D01*
X90707766Y-67274835D01*
X90702630Y-67276705D01*
X90698445Y-67280216D01*
X90698439Y-67280220D01*
X90618561Y-67347246D01*
X90618558Y-67347249D01*
X90614372Y-67350762D01*
X90612519Y-67353971D01*
X90581676Y-67373620D01*
X90544124Y-67371981D01*
X90514303Y-67349099D01*
X90503000Y-67313250D01*
X90503000Y-60458500D01*
X90521306Y-60414306D01*
X90565500Y-60396000D01*
X99009168Y-60396000D01*
X99043512Y-60406282D01*
G37*
G04 #@! TD.AperFunction*
G04 #@! TA.AperFunction,NonConductor*
G36*
X164843194Y-60414306D02*
G01*
X164861500Y-60458500D01*
X164861500Y-69604500D01*
X164843194Y-69648694D01*
X164799000Y-69667000D01*
X157934728Y-69667000D01*
X157899520Y-69656140D01*
X157876548Y-69627333D01*
X157873795Y-69590591D01*
X157873943Y-69589941D01*
X157877000Y-69583595D01*
X157877000Y-69496405D01*
X157877000Y-69264479D01*
X157877000Y-69242405D01*
X157872914Y-69233922D01*
X157870479Y-69228865D01*
X157865854Y-69215647D01*
X157864078Y-69207863D01*
X157864077Y-69207862D01*
X157862511Y-69200997D01*
X157858119Y-69195490D01*
X157855065Y-69189147D01*
X157856729Y-69188345D01*
X157846459Y-69158996D01*
X157856730Y-69129657D01*
X157855064Y-69128855D01*
X157858119Y-69122509D01*
X157862511Y-69117003D01*
X157865856Y-69102342D01*
X157870481Y-69089129D01*
X157873943Y-69081942D01*
X157873943Y-69081941D01*
X157877000Y-69075595D01*
X157877000Y-68988405D01*
X157877000Y-68756479D01*
X157877000Y-68734405D01*
X157870479Y-68720865D01*
X157865854Y-68707647D01*
X157864078Y-68699863D01*
X157864077Y-68699862D01*
X157862511Y-68692997D01*
X157858119Y-68687490D01*
X157855065Y-68681147D01*
X157856729Y-68680345D01*
X157846459Y-68650996D01*
X157856730Y-68621657D01*
X157855064Y-68620855D01*
X157858119Y-68614509D01*
X157862511Y-68609003D01*
X157865856Y-68594342D01*
X157870481Y-68581129D01*
X157873943Y-68573942D01*
X157873943Y-68573941D01*
X157877000Y-68567595D01*
X157877000Y-68480405D01*
X157877000Y-68248479D01*
X157877000Y-68226405D01*
X157872499Y-68217060D01*
X157870479Y-68212865D01*
X157865854Y-68199647D01*
X157864078Y-68191863D01*
X157864077Y-68191862D01*
X157862511Y-68184997D01*
X157858119Y-68179490D01*
X157855065Y-68173147D01*
X157856729Y-68172345D01*
X157846459Y-68142996D01*
X157856730Y-68113657D01*
X157855064Y-68112855D01*
X157858119Y-68106509D01*
X157862511Y-68101003D01*
X157865856Y-68086342D01*
X157870481Y-68073129D01*
X157873943Y-68065942D01*
X157873943Y-68065941D01*
X157877000Y-68059595D01*
X157877000Y-67972405D01*
X157877000Y-67740479D01*
X157877000Y-67718405D01*
X157873720Y-67711595D01*
X157870479Y-67704865D01*
X157865854Y-67691647D01*
X157864078Y-67683863D01*
X157864077Y-67683862D01*
X157862511Y-67676997D01*
X157858119Y-67671490D01*
X157855065Y-67665147D01*
X157856729Y-67664345D01*
X157846459Y-67634996D01*
X157856730Y-67605657D01*
X157855064Y-67604855D01*
X157858119Y-67598509D01*
X157862511Y-67593003D01*
X157865856Y-67578342D01*
X157870481Y-67565129D01*
X157873943Y-67557942D01*
X157873943Y-67557941D01*
X157877000Y-67551595D01*
X157877000Y-67464405D01*
X157877000Y-67232479D01*
X157877000Y-67210405D01*
X157870479Y-67196865D01*
X157865854Y-67183647D01*
X157864078Y-67175863D01*
X157864077Y-67175862D01*
X157862511Y-67168997D01*
X157858119Y-67163490D01*
X157855065Y-67157147D01*
X157856729Y-67156345D01*
X157846459Y-67126996D01*
X157856730Y-67097657D01*
X157855064Y-67096855D01*
X157858119Y-67090509D01*
X157862511Y-67085003D01*
X157865856Y-67070342D01*
X157870481Y-67057129D01*
X157873943Y-67049942D01*
X157873943Y-67049941D01*
X157877000Y-67043595D01*
X157877000Y-66956405D01*
X157877000Y-66807827D01*
X157894039Y-66764937D01*
X157935866Y-66745433D01*
X157979674Y-66759949D01*
X157998539Y-66775779D01*
X157998541Y-66775780D01*
X158002730Y-66779295D01*
X158110994Y-66818700D01*
X158220735Y-66818700D01*
X158226206Y-66818700D01*
X158334470Y-66779295D01*
X158422728Y-66705238D01*
X158480334Y-66605462D01*
X158500340Y-66492000D01*
X158480334Y-66378538D01*
X158432181Y-66295135D01*
X158425461Y-66283495D01*
X158425459Y-66283493D01*
X158422728Y-66278762D01*
X158417711Y-66274552D01*
X158381926Y-66244525D01*
X158365456Y-66223061D01*
X158359600Y-66196647D01*
X158359600Y-61556671D01*
X158360860Y-61549258D01*
X158360166Y-61549180D01*
X158360954Y-61542181D01*
X158363280Y-61535535D01*
X158359992Y-61506361D01*
X158359600Y-61499364D01*
X158359600Y-61495592D01*
X158359600Y-61492079D01*
X158357977Y-61484973D01*
X158356803Y-61478060D01*
X158356514Y-61475498D01*
X158353518Y-61448894D01*
X158349770Y-61442930D01*
X158348438Y-61439122D01*
X158346679Y-61435469D01*
X158345111Y-61428597D01*
X158326797Y-61405632D01*
X158322756Y-61399938D01*
X158318875Y-61393760D01*
X158313721Y-61388606D01*
X158309051Y-61383380D01*
X158302723Y-61375445D01*
X158290749Y-61360430D01*
X158284402Y-61357373D01*
X158278898Y-61352983D01*
X158279332Y-61352438D01*
X158273200Y-61348085D01*
X158232514Y-61307399D01*
X158228165Y-61301266D01*
X158227618Y-61301703D01*
X158223224Y-61296194D01*
X158220170Y-61289851D01*
X158197209Y-61271540D01*
X158191992Y-61266877D01*
X158189320Y-61264205D01*
X158186840Y-61261725D01*
X158180663Y-61257843D01*
X158174954Y-61253792D01*
X158157507Y-61239878D01*
X158157505Y-61239877D01*
X158152003Y-61235489D01*
X158145141Y-61233922D01*
X158141498Y-61232168D01*
X158137667Y-61230827D01*
X158131706Y-61227082D01*
X158124708Y-61226293D01*
X158124707Y-61226293D01*
X158102530Y-61223794D01*
X158095628Y-61222621D01*
X158091949Y-61221781D01*
X158091936Y-61221779D01*
X158088521Y-61221000D01*
X158085011Y-61221000D01*
X158081236Y-61221000D01*
X158074238Y-61220607D01*
X158052062Y-61218108D01*
X158052060Y-61218108D01*
X158045065Y-61217320D01*
X158038419Y-61219645D01*
X158031420Y-61220434D01*
X158031341Y-61219739D01*
X158023929Y-61221000D01*
X138171595Y-61221000D01*
X138084405Y-61221000D01*
X138078067Y-61224052D01*
X138078059Y-61224054D01*
X138070857Y-61227523D01*
X138057653Y-61232143D01*
X138049863Y-61233921D01*
X138049859Y-61233922D01*
X138042997Y-61235489D01*
X138037494Y-61239877D01*
X138037492Y-61239878D01*
X138031240Y-61244864D01*
X138019396Y-61252306D01*
X138012195Y-61255774D01*
X138012193Y-61255775D01*
X138005851Y-61258830D01*
X138001461Y-61264333D01*
X138001459Y-61264336D01*
X137996476Y-61270585D01*
X137986585Y-61280476D01*
X137980336Y-61285459D01*
X137980333Y-61285461D01*
X137974830Y-61289851D01*
X137971775Y-61296193D01*
X137971774Y-61296195D01*
X137968306Y-61303396D01*
X137960864Y-61315240D01*
X137955878Y-61321492D01*
X137955877Y-61321494D01*
X137951489Y-61326997D01*
X137949922Y-61333859D01*
X137949921Y-61333863D01*
X137948143Y-61341653D01*
X137943523Y-61354857D01*
X137940054Y-61362059D01*
X137940052Y-61362067D01*
X137937000Y-61368405D01*
X137937000Y-61390479D01*
X137937000Y-61622405D01*
X137937000Y-61709595D01*
X137940054Y-61715938D01*
X137940055Y-61715939D01*
X137943521Y-61723135D01*
X137948144Y-61736347D01*
X137949921Y-61744136D01*
X137949922Y-61744138D01*
X137951489Y-61751003D01*
X137955879Y-61756509D01*
X137958935Y-61762853D01*
X137957271Y-61763654D01*
X137967540Y-61792990D01*
X137957273Y-61822347D01*
X137958934Y-61823147D01*
X137955878Y-61829492D01*
X137951489Y-61834997D01*
X137949922Y-61841859D01*
X137949921Y-61841863D01*
X137948143Y-61849653D01*
X137943523Y-61862857D01*
X137940054Y-61870059D01*
X137940052Y-61870067D01*
X137937000Y-61876405D01*
X137937000Y-61898479D01*
X137937000Y-62130405D01*
X137937000Y-62217595D01*
X137940054Y-62223938D01*
X137940055Y-62223939D01*
X137943521Y-62231135D01*
X137948144Y-62244347D01*
X137949921Y-62252136D01*
X137949922Y-62252138D01*
X137951489Y-62259003D01*
X137955879Y-62264509D01*
X137958935Y-62270853D01*
X137957271Y-62271654D01*
X137967540Y-62300990D01*
X137957273Y-62330347D01*
X137958934Y-62331147D01*
X137955878Y-62337492D01*
X137951489Y-62342997D01*
X137949922Y-62349859D01*
X137949921Y-62349863D01*
X137948143Y-62357653D01*
X137943523Y-62370857D01*
X137940054Y-62378059D01*
X137940052Y-62378067D01*
X137937000Y-62384405D01*
X137937000Y-62406479D01*
X137937000Y-62638405D01*
X137937000Y-62725595D01*
X137940054Y-62731938D01*
X137940055Y-62731939D01*
X137943521Y-62739135D01*
X137948144Y-62752347D01*
X137949921Y-62760136D01*
X137949922Y-62760138D01*
X137951489Y-62767003D01*
X137955879Y-62772509D01*
X137958935Y-62778853D01*
X137957271Y-62779654D01*
X137967540Y-62808990D01*
X137957273Y-62838347D01*
X137958934Y-62839147D01*
X137955878Y-62845492D01*
X137951489Y-62850997D01*
X137949922Y-62857859D01*
X137949921Y-62857863D01*
X137948143Y-62865653D01*
X137943523Y-62878857D01*
X137940054Y-62886059D01*
X137940052Y-62886067D01*
X137937000Y-62892405D01*
X137937000Y-62914479D01*
X137937000Y-63146405D01*
X137937000Y-63233595D01*
X137940054Y-63239938D01*
X137940055Y-63239939D01*
X137943521Y-63247135D01*
X137948144Y-63260347D01*
X137949921Y-63268136D01*
X137949922Y-63268138D01*
X137951489Y-63275003D01*
X137955879Y-63280509D01*
X137958935Y-63286853D01*
X137957271Y-63287654D01*
X137967540Y-63316990D01*
X137957273Y-63346347D01*
X137958934Y-63347147D01*
X137955878Y-63353492D01*
X137951489Y-63358997D01*
X137949922Y-63365859D01*
X137949921Y-63365863D01*
X137948143Y-63373653D01*
X137943523Y-63386857D01*
X137940054Y-63394059D01*
X137940052Y-63394067D01*
X137937000Y-63400405D01*
X137937000Y-63422479D01*
X137937000Y-63654405D01*
X137937000Y-63741595D01*
X137940054Y-63747938D01*
X137940055Y-63747939D01*
X137943521Y-63755135D01*
X137948144Y-63768347D01*
X137949921Y-63776136D01*
X137949922Y-63776138D01*
X137951489Y-63783003D01*
X137955879Y-63788509D01*
X137958935Y-63794853D01*
X137957271Y-63795654D01*
X137967540Y-63824990D01*
X137957273Y-63854347D01*
X137958934Y-63855147D01*
X137955878Y-63861492D01*
X137951489Y-63866997D01*
X137949922Y-63873859D01*
X137949921Y-63873863D01*
X137948143Y-63881653D01*
X137943523Y-63894857D01*
X137940054Y-63902059D01*
X137940052Y-63902067D01*
X137937000Y-63908405D01*
X137937000Y-63930479D01*
X137937000Y-64162405D01*
X137937000Y-64249595D01*
X137940054Y-64255938D01*
X137940055Y-64255939D01*
X137943521Y-64263135D01*
X137948144Y-64276347D01*
X137949921Y-64284136D01*
X137949922Y-64284138D01*
X137951489Y-64291003D01*
X137955879Y-64296509D01*
X137958935Y-64302853D01*
X137957271Y-64303654D01*
X137967540Y-64332990D01*
X137957273Y-64362347D01*
X137958934Y-64363147D01*
X137955878Y-64369492D01*
X137951489Y-64374997D01*
X137949922Y-64381859D01*
X137949921Y-64381863D01*
X137948143Y-64389653D01*
X137943523Y-64402857D01*
X137940054Y-64410059D01*
X137940052Y-64410067D01*
X137937000Y-64416405D01*
X137937000Y-64438479D01*
X137937000Y-64670405D01*
X137937000Y-64757595D01*
X137940054Y-64763938D01*
X137940055Y-64763939D01*
X137943521Y-64771135D01*
X137948144Y-64784347D01*
X137949921Y-64792136D01*
X137949922Y-64792138D01*
X137951489Y-64799003D01*
X137955879Y-64804509D01*
X137958935Y-64810853D01*
X137957271Y-64811654D01*
X137967540Y-64840990D01*
X137957273Y-64870347D01*
X137958934Y-64871147D01*
X137955878Y-64877492D01*
X137951489Y-64882997D01*
X137949922Y-64889859D01*
X137949921Y-64889863D01*
X137948143Y-64897653D01*
X137943523Y-64910857D01*
X137940054Y-64918059D01*
X137940052Y-64918067D01*
X137937000Y-64924405D01*
X137937000Y-64946479D01*
X137937000Y-65178405D01*
X137937000Y-65265595D01*
X137940054Y-65271938D01*
X137940055Y-65271939D01*
X137943521Y-65279135D01*
X137948144Y-65292347D01*
X137949921Y-65300136D01*
X137949922Y-65300138D01*
X137951489Y-65307003D01*
X137955879Y-65312509D01*
X137958935Y-65318853D01*
X137957271Y-65319654D01*
X137967540Y-65348990D01*
X137957273Y-65378347D01*
X137958934Y-65379147D01*
X137955878Y-65385492D01*
X137951489Y-65390997D01*
X137949922Y-65397859D01*
X137949921Y-65397863D01*
X137948143Y-65405653D01*
X137943523Y-65418857D01*
X137940054Y-65426059D01*
X137940052Y-65426067D01*
X137937000Y-65432405D01*
X137937000Y-65454479D01*
X137937000Y-65686405D01*
X137937000Y-65773595D01*
X137940054Y-65779938D01*
X137940055Y-65779939D01*
X137943521Y-65787135D01*
X137948144Y-65800347D01*
X137949921Y-65808136D01*
X137949922Y-65808138D01*
X137951489Y-65815003D01*
X137955879Y-65820509D01*
X137958935Y-65826853D01*
X137957271Y-65827654D01*
X137967540Y-65856990D01*
X137957273Y-65886347D01*
X137958934Y-65887147D01*
X137955878Y-65893492D01*
X137951489Y-65898997D01*
X137949922Y-65905859D01*
X137949921Y-65905863D01*
X137948143Y-65913653D01*
X137943523Y-65926857D01*
X137940054Y-65934059D01*
X137940052Y-65934067D01*
X137937000Y-65940405D01*
X137937000Y-65962479D01*
X137937000Y-66194405D01*
X137937000Y-66281595D01*
X137940054Y-66287938D01*
X137940055Y-66287939D01*
X137943521Y-66295135D01*
X137948144Y-66308347D01*
X137949921Y-66316136D01*
X137949922Y-66316138D01*
X137951489Y-66323003D01*
X137955879Y-66328509D01*
X137958935Y-66334853D01*
X137957271Y-66335654D01*
X137967540Y-66364990D01*
X137957273Y-66394347D01*
X137958934Y-66395147D01*
X137955878Y-66401492D01*
X137951489Y-66406997D01*
X137949922Y-66413859D01*
X137949921Y-66413863D01*
X137948143Y-66421653D01*
X137943523Y-66434857D01*
X137940054Y-66442059D01*
X137940052Y-66442067D01*
X137937000Y-66448405D01*
X137937000Y-66470479D01*
X137937000Y-66702405D01*
X137937000Y-66789595D01*
X137940054Y-66795938D01*
X137940055Y-66795939D01*
X137943521Y-66803135D01*
X137948144Y-66816347D01*
X137949921Y-66824136D01*
X137949922Y-66824138D01*
X137951489Y-66831003D01*
X137955879Y-66836509D01*
X137958935Y-66842853D01*
X137957271Y-66843654D01*
X137967540Y-66872990D01*
X137957273Y-66902347D01*
X137958934Y-66903147D01*
X137955878Y-66909492D01*
X137951489Y-66914997D01*
X137949922Y-66921859D01*
X137949921Y-66921863D01*
X137948143Y-66929653D01*
X137943523Y-66942857D01*
X137940054Y-66950059D01*
X137940052Y-66950067D01*
X137937000Y-66956405D01*
X137937000Y-66978479D01*
X137937000Y-67210405D01*
X137937000Y-67297595D01*
X137940054Y-67303938D01*
X137940055Y-67303939D01*
X137943521Y-67311135D01*
X137948144Y-67324347D01*
X137949921Y-67332136D01*
X137949922Y-67332138D01*
X137951489Y-67339003D01*
X137955879Y-67344509D01*
X137958935Y-67350853D01*
X137957271Y-67351654D01*
X137967540Y-67380990D01*
X137957273Y-67410347D01*
X137958934Y-67411147D01*
X137955878Y-67417492D01*
X137951489Y-67422997D01*
X137949922Y-67429859D01*
X137949921Y-67429863D01*
X137948143Y-67437653D01*
X137943523Y-67450857D01*
X137940054Y-67458059D01*
X137940052Y-67458067D01*
X137937000Y-67464405D01*
X137937000Y-67486479D01*
X137937000Y-67718405D01*
X137937000Y-67805595D01*
X137940054Y-67811938D01*
X137940055Y-67811939D01*
X137943521Y-67819135D01*
X137948144Y-67832347D01*
X137949921Y-67840136D01*
X137949922Y-67840138D01*
X137951489Y-67847003D01*
X137955879Y-67852509D01*
X137958935Y-67858853D01*
X137957271Y-67859654D01*
X137967540Y-67888990D01*
X137957273Y-67918347D01*
X137958934Y-67919147D01*
X137955877Y-67925493D01*
X137951489Y-67930997D01*
X137949923Y-67937857D01*
X137949921Y-67937862D01*
X137948170Y-67945534D01*
X137922444Y-67983263D01*
X137877923Y-67993424D01*
X137838375Y-67970592D01*
X137838305Y-67970504D01*
X137828997Y-67958832D01*
X137824956Y-67953138D01*
X137821075Y-67946960D01*
X137815920Y-67941805D01*
X137811251Y-67936580D01*
X137806799Y-67930997D01*
X137792949Y-67913630D01*
X137786602Y-67910573D01*
X137781098Y-67906183D01*
X137781532Y-67905638D01*
X137775400Y-67901285D01*
X137711508Y-67837393D01*
X137696094Y-67811992D01*
X137694152Y-67782346D01*
X137697740Y-67762000D01*
X137677734Y-67648538D01*
X137628926Y-67564000D01*
X137622861Y-67553495D01*
X137622859Y-67553493D01*
X137620128Y-67548762D01*
X137555416Y-67494462D01*
X137536060Y-67478220D01*
X137536056Y-67478218D01*
X137531870Y-67474705D01*
X137526730Y-67472834D01*
X137428746Y-67437170D01*
X137428741Y-67437169D01*
X137423606Y-67435300D01*
X137308394Y-67435300D01*
X137303259Y-67437168D01*
X137303253Y-67437170D01*
X137205269Y-67472834D01*
X137205266Y-67472835D01*
X137200130Y-67474705D01*
X137195945Y-67478216D01*
X137195939Y-67478220D01*
X137116060Y-67545247D01*
X137116057Y-67545249D01*
X137111872Y-67548762D01*
X137109142Y-67553489D01*
X137109138Y-67553495D01*
X137062082Y-67635000D01*
X137054266Y-67648538D01*
X137053317Y-67653918D01*
X137053316Y-67653922D01*
X137041947Y-67718405D01*
X137034260Y-67762000D01*
X137035209Y-67767382D01*
X137051478Y-67859654D01*
X137054266Y-67875462D01*
X137062082Y-67889000D01*
X137109138Y-67970504D01*
X137109140Y-67970507D01*
X137111872Y-67975238D01*
X137116060Y-67978752D01*
X137195939Y-68045779D01*
X137195941Y-68045780D01*
X137200130Y-68049295D01*
X137265613Y-68073129D01*
X137301942Y-68086352D01*
X137308394Y-68088700D01*
X137396697Y-68088700D01*
X137440891Y-68107006D01*
X137461494Y-68127609D01*
X137479800Y-68171803D01*
X137479800Y-69242929D01*
X137478539Y-69250341D01*
X137479234Y-69250420D01*
X137478445Y-69257419D01*
X137476120Y-69264065D01*
X137476908Y-69271060D01*
X137476908Y-69271062D01*
X137479407Y-69293238D01*
X137479800Y-69300236D01*
X137479800Y-69307521D01*
X137480579Y-69310936D01*
X137480581Y-69310949D01*
X137481421Y-69314628D01*
X137482594Y-69321530D01*
X137484901Y-69342000D01*
X137485882Y-69350706D01*
X137489627Y-69356667D01*
X137490968Y-69360498D01*
X137492722Y-69364141D01*
X137494289Y-69371003D01*
X137498677Y-69376505D01*
X137498678Y-69376507D01*
X137512592Y-69393954D01*
X137516643Y-69399663D01*
X137520525Y-69405840D01*
X137523005Y-69408319D01*
X137523005Y-69408320D01*
X137525677Y-69410992D01*
X137530340Y-69416209D01*
X137548651Y-69439170D01*
X137554994Y-69442224D01*
X137560503Y-69446618D01*
X137560066Y-69447165D01*
X137566199Y-69451514D01*
X137674991Y-69560306D01*
X137693297Y-69604500D01*
X137674991Y-69648694D01*
X137630797Y-69667000D01*
X122823500Y-69667000D01*
X122779306Y-69648694D01*
X122761000Y-69604500D01*
X122761000Y-66074725D01*
X122769373Y-66043475D01*
X122792249Y-66020599D01*
X122794732Y-66019164D01*
X122799870Y-66017295D01*
X122888128Y-65943238D01*
X122945734Y-65843462D01*
X122965740Y-65730000D01*
X122945734Y-65616538D01*
X122888128Y-65516762D01*
X122850036Y-65484799D01*
X122804060Y-65446220D01*
X122804056Y-65446218D01*
X122799870Y-65442705D01*
X122794730Y-65440834D01*
X122696746Y-65405170D01*
X122696741Y-65405169D01*
X122691606Y-65403300D01*
X122576394Y-65403300D01*
X122571259Y-65405168D01*
X122571253Y-65405170D01*
X122473269Y-65440834D01*
X122473266Y-65440835D01*
X122468130Y-65442705D01*
X122463945Y-65446216D01*
X122463939Y-65446220D01*
X122384060Y-65513247D01*
X122384057Y-65513249D01*
X122379872Y-65516762D01*
X122377142Y-65521489D01*
X122377138Y-65521495D01*
X122324998Y-65611804D01*
X122324995Y-65611809D01*
X122322266Y-65616538D01*
X122321316Y-65621921D01*
X122320060Y-65625375D01*
X122297178Y-65655196D01*
X122261329Y-65666500D01*
X117566290Y-65666500D01*
X117535038Y-65658126D01*
X117512162Y-65635247D01*
X117504257Y-65605738D01*
X117504740Y-65603000D01*
X117484734Y-65489538D01*
X117481999Y-65484802D01*
X117481999Y-65484800D01*
X117458298Y-65443749D01*
X117449924Y-65412498D01*
X117458298Y-65381249D01*
X117484734Y-65335462D01*
X117504740Y-65222000D01*
X117484734Y-65108538D01*
X117461273Y-65067902D01*
X117452900Y-65036652D01*
X117452900Y-65026348D01*
X117461273Y-64995098D01*
X117464752Y-64989071D01*
X117484734Y-64954462D01*
X117504740Y-64841000D01*
X117484734Y-64727538D01*
X117458297Y-64681749D01*
X117449924Y-64650500D01*
X117458298Y-64619249D01*
X117462635Y-64611737D01*
X117484734Y-64573462D01*
X117504740Y-64460000D01*
X117484734Y-64346538D01*
X117461273Y-64305902D01*
X117452900Y-64274652D01*
X117452900Y-64264348D01*
X117461273Y-64233098D01*
X117464752Y-64227071D01*
X117484734Y-64192462D01*
X117504740Y-64079000D01*
X117484734Y-63965538D01*
X117481999Y-63960802D01*
X117481999Y-63960800D01*
X117458298Y-63919749D01*
X117449924Y-63888498D01*
X117458298Y-63857249D01*
X117484734Y-63811462D01*
X117504740Y-63698000D01*
X117484734Y-63584538D01*
X117461273Y-63543902D01*
X117452900Y-63512652D01*
X117452900Y-63502348D01*
X117461273Y-63471098D01*
X117464752Y-63465071D01*
X117484734Y-63430462D01*
X117504740Y-63317000D01*
X117484734Y-63203538D01*
X117481999Y-63198802D01*
X117480130Y-63193665D01*
X117482018Y-63192977D01*
X117475979Y-63165798D01*
X117490354Y-63131058D01*
X117522058Y-63110851D01*
X117559619Y-63112488D01*
X117610640Y-63131058D01*
X117623394Y-63135700D01*
X117733135Y-63135700D01*
X117738606Y-63135700D01*
X117846870Y-63096295D01*
X117894826Y-63056054D01*
X117935000Y-63041433D01*
X117975173Y-63056054D01*
X118023130Y-63096295D01*
X118131394Y-63135700D01*
X118241135Y-63135700D01*
X118246606Y-63135700D01*
X118354870Y-63096295D01*
X118402826Y-63056054D01*
X118443000Y-63041433D01*
X118483173Y-63056054D01*
X118531130Y-63096295D01*
X118639394Y-63135700D01*
X118749135Y-63135700D01*
X118754606Y-63135700D01*
X118862870Y-63096295D01*
X118910826Y-63056054D01*
X118951000Y-63041433D01*
X118991173Y-63056054D01*
X119039130Y-63096295D01*
X119147394Y-63135700D01*
X119257135Y-63135700D01*
X119262606Y-63135700D01*
X119370870Y-63096295D01*
X119418826Y-63056054D01*
X119459000Y-63041433D01*
X119499173Y-63056054D01*
X119547130Y-63096295D01*
X119655394Y-63135700D01*
X119765135Y-63135700D01*
X119770606Y-63135700D01*
X119878870Y-63096295D01*
X119926826Y-63056054D01*
X119967000Y-63041433D01*
X120007173Y-63056054D01*
X120055130Y-63096295D01*
X120163394Y-63135700D01*
X120273135Y-63135700D01*
X120278606Y-63135700D01*
X120386870Y-63096295D01*
X120434826Y-63056054D01*
X120475000Y-63041433D01*
X120515173Y-63056054D01*
X120563130Y-63096295D01*
X120671394Y-63135700D01*
X120781135Y-63135700D01*
X120786606Y-63135700D01*
X120894870Y-63096295D01*
X120942826Y-63056054D01*
X120983000Y-63041433D01*
X121023173Y-63056054D01*
X121071130Y-63096295D01*
X121179394Y-63135700D01*
X121289135Y-63135700D01*
X121294606Y-63135700D01*
X121402870Y-63096295D01*
X121450826Y-63056054D01*
X121491000Y-63041433D01*
X121531173Y-63056054D01*
X121579130Y-63096295D01*
X121687394Y-63135700D01*
X121797135Y-63135700D01*
X121802606Y-63135700D01*
X121910870Y-63096295D01*
X121999128Y-63022238D01*
X122056734Y-62922462D01*
X122076740Y-62809000D01*
X122056734Y-62695538D01*
X122033273Y-62654902D01*
X122024900Y-62623652D01*
X122024900Y-62613348D01*
X122033273Y-62582098D01*
X122037993Y-62573922D01*
X122056734Y-62541462D01*
X122076740Y-62428000D01*
X122056734Y-62314538D01*
X122030296Y-62268746D01*
X122021923Y-62237498D01*
X122030298Y-62206248D01*
X122056734Y-62160462D01*
X122076740Y-62047000D01*
X122056734Y-61933538D01*
X122033273Y-61892902D01*
X122024900Y-61861652D01*
X122024900Y-61851348D01*
X122033273Y-61820098D01*
X122036752Y-61814071D01*
X122056734Y-61779462D01*
X122076740Y-61666000D01*
X122056734Y-61552538D01*
X122030296Y-61506746D01*
X122021923Y-61475498D01*
X122030298Y-61444248D01*
X122056734Y-61398462D01*
X122076740Y-61285000D01*
X122056734Y-61171538D01*
X122033273Y-61130902D01*
X122024900Y-61099652D01*
X122024900Y-61089348D01*
X122033273Y-61058098D01*
X122036752Y-61052071D01*
X122056734Y-61017462D01*
X122076740Y-60904000D01*
X122075791Y-60898616D01*
X122071848Y-60876252D01*
X122076011Y-60840644D01*
X122099055Y-60813182D01*
X122133399Y-60802900D01*
X122545600Y-60802900D01*
X122589794Y-60821206D01*
X122608100Y-60865400D01*
X122608100Y-62496652D01*
X122599727Y-62527902D01*
X122589165Y-62546197D01*
X122576266Y-62568538D01*
X122575317Y-62573918D01*
X122575316Y-62573922D01*
X122568365Y-62613348D01*
X122556260Y-62682000D01*
X122557209Y-62687382D01*
X122573478Y-62779654D01*
X122576266Y-62795462D01*
X122584082Y-62808999D01*
X122631138Y-62890504D01*
X122631140Y-62890507D01*
X122633872Y-62895238D01*
X122638060Y-62898752D01*
X122717939Y-62965779D01*
X122717941Y-62965780D01*
X122722130Y-62969295D01*
X122830394Y-63008700D01*
X122940135Y-63008700D01*
X122945606Y-63008700D01*
X123053870Y-62969295D01*
X123142128Y-62895238D01*
X123199734Y-62795462D01*
X123219740Y-62682000D01*
X123199734Y-62568538D01*
X123176273Y-62527902D01*
X123167900Y-62496652D01*
X123167900Y-60701152D01*
X123168380Y-60694221D01*
X123170017Y-60689340D01*
X123167967Y-60644991D01*
X123167900Y-60642105D01*
X123167900Y-60626960D01*
X123167900Y-60624065D01*
X123167366Y-60621210D01*
X123167163Y-60619024D01*
X123166502Y-60613325D01*
X123165452Y-60590595D01*
X123165185Y-60584807D01*
X123160096Y-60573281D01*
X123155834Y-60559516D01*
X123154584Y-60552829D01*
X123154583Y-60552828D01*
X123153520Y-60547137D01*
X123138484Y-60522855D01*
X123134454Y-60515211D01*
X123122916Y-60489078D01*
X123122915Y-60489077D01*
X123123642Y-60488755D01*
X123114411Y-60450820D01*
X123135047Y-60411669D01*
X123176437Y-60396000D01*
X164799000Y-60396000D01*
X164843194Y-60414306D01*
G37*
G04 #@! TD.AperFunction*
M02*
