#VRML V2.0 utf8
#Exported from Wings 3D 2.1.6
DEF STL_object Transform {
  children [
    Shape {
      appearance Appearance {
        material DEF default Material {
          diffuseColor 0.7898538076923077 0.8133333333333334 0.6940444444444445
          emissiveColor 0.0 0.0 0.0
          specularColor 0.0 0.0 0.0
          ambientIntensity 0.765743861823362
          transparency 0.0
          shininess 0.0
        }
      }
      geometry IndexedFaceSet {
        normalPerVertex TRUE
        colorPerVertex TRUE
        coord Coordinate { point [
          16.23771095275879 2.500000238418579 0.06464789062738419,
          16.242460250854492 2.500000238418579 -1.1375199392205104e-4,
          16.245723724365234 2.0 0.06526309996843338,
          13.0 -1.030000851828057e-15 -1.1015131601908304e-17,
          13.0 0.0 1.600000023841858,
          13.0 1.600000023841858 0.0,
          13.0 1.600000023841858 1.600000023841858,
          13.0 3.9000003337860107 0.0,
          13.0 3.9000003337860107 1.600000023841858,
          13.0 5.500000476837158 -5.507565800954152e-18,
          13.0 5.500000476837158 1.600000023841858,
          13.297643661499023 1.6391854286193848 0.0,
          13.297643661499023 1.6391854286193848 1.600000023841858,
          13.297643661499023 3.8608150482177734 0.0,
          13.297643661499023 3.8608150482177734 1.600000023841858,
          13.344286918640137 0.007445471361279488 -1.1002719756816946e-17,
          13.575000762939453 1.7540708780288696 0.0,
          13.575000762939453 1.7540708780288696 1.600000023841858,
          13.575000762939453 3.74592924118042 0.0,
          13.575000762939453 3.74592924118042 1.600000023841858,
          13.655829429626465 0.01418286096304655 9.138845263079785e-18,
          13.711752891540527 0.0937039852142334 1.600000023841858,
          13.711752891540527 5.406296253204346 1.600000023841858,
          13.767677307128906 5.326775550842285 -5.6320994965352356e-18,
          13.813173294067383 1.936827301979065 0.0,
          13.813173294067383 1.936827301979065 1.600000023841858,
          13.813173294067383 3.5631728172302246 0.0,
          13.813173294067383 3.5631728172302246 1.600000023841858,
          13.995930671691895 2.174999952316284 0.0,
          13.995930671691895 2.174999952316284 1.600000023841858,
          13.995930671691895 3.325000286102295 0.0,
          13.995930671691895 3.325000286102295 1.600000023841858,
          14.11081600189209 2.4523584842681885 0.0,
          14.11081600189209 2.4523584842681885 1.600000023841858,
          14.11081600189209 3.0476419925689697 0.0,
          14.11081600189209 3.0476419925689697 1.600000023841858,
          14.15000057220459 0.27523210644721985 1.600000023841858,
          14.15000057220459 2.750000238418579 0.0,
          14.15000057220459 2.750000238418579 1.600000023841858,
          14.285639762878418 0.19762329757213593 1.9301250433577586e-17,
          14.375000953674316 0.36843016743659973 1.600000023841858,
          14.375000953674316 5.131570339202881 1.600000023841858,
          14.454495429992676 0.30004197359085083 -1.0844810977880573e-17,
          14.464361190795898 4.960763454437256 6.136750394134956e-18,
          14.546465873718262 5.000000476837158 1.600000023841858,
          14.846511840820313 0.5378201007843018 9.400293893650645e-18,
          14.944544792175293 0.8054563999176025 1.600000023841858,
          14.944544792175293 4.694544315338135 1.600000023841858,
          15.042576789855957 4.426907539367676 -3.679709594520905e-19,
          15.300223350524902 1.011589527130127 9.62028175037851e-18,
          15.381569862365723 1.3750001192092896 1.600000023841858,
          15.381569862365723 4.125 1.600000023841858,
          15.462918281555176 3.761589765548706 -9.641661680876015e-19,
          15.61585521697998 1.5866448879241943 9.88105622875014e-18,
          15.65629768371582 2.03824782371521 1.600000023841858,
          15.65629768371582 3.4617526531219482 1.600000023841858,
          15.696738243103027 3.0101494789123535 1.646392663393087e-17,
          15.717087745666504 2.0 5.32228342122937e-32,
          15.717087745666504 2.0 0.5,
          15.717087745666504 2.500000238418579 2.203026320381661e-17,
          15.717087745666504 2.500000238418579 0.5,
          15.75 2.0 -1.0,
          15.75 2.0 0.0,
          15.75 2.250000238418579 0.5,
          15.75 2.500000238418579 -1.0,
          15.75 2.500000238418579 0.0,
          15.75 2.750000238418579 1.600000023841858,
          15.9413423538208 2.0 0.4619397819042206,
          15.9413423538208 2.500000238418579 0.4619397819042206,
          16.0 2.0 0.4330127239227295,
          16.0 2.500000238418579 0.4330127239227295,
          16.05438232421875 2.0 0.3966766893863678,
          16.05438232421875 2.500000238418579 0.3966766893863678,
          16.103553771972656 2.0 0.3535534143447876,
          16.103553771972656 2.500000238418579 0.3535534143447876,
          16.146678924560547 2.0 0.30438071489334106,
          16.146678924560547 2.500000238418579 0.30438071489334106,
          16.183015823364258 2.0 0.25,
          16.183015823364258 2.500000238418579 0.25,
          16.211942672729492 2.0 0.19134174287319183,
          16.211942672729492 2.500000238418579 0.19134174287319183,
          16.23296356201172 2.0 0.129409521818161,
          16.23296356201172 2.500000238418579 0.129409521818161,
          16.23533821105957 2.500000238418579 0.0970287099480629,
          16.23771095275879 2.500000238418579 0.06464789062738419,
          16.239343643188477 2.0 0.0973363146185875,
          16.242460250854492 2.500000238418579 -1.1375199392205104e-4,
          16.245723724365234 2.0 0.06526309996843338,
          16.250001907348633 2.0 -1.0,
          16.250001907348633 2.0 8.812395787357772e-17,
          16.250001907348633 2.500000238418579 -1.0,
          2.2507519721984863 2.9900002479553223 -1.0,
          2.2507519721984863 3.4900002479553223 -1.0,
          2.2670371532440186 2.9900002479553223 1.2294095754623413,
          2.2670371532440186 3.4900002479553223 1.2294095754623413,
          2.288060188293457 2.9900002479553223 1.2913419008255005,
          2.288060188293457 3.4900002479553223 1.2913419008255005,
          2.3169872760772705 2.9900002479553223 1.3500001430511475,
          2.3169872760772705 3.4900002479553223 1.3500001430511475,
          2.353323459625244 2.9900002479553223 1.4043807983398438,
          2.353323459625244 3.4900002479553223 1.4043807983398438,
          2.396446704864502 2.9900002479553223 1.453553557395935,
          2.396446704864502 3.4900002479553223 1.453553557395935,
          2.445619583129883 2.9900002479553223 1.4966768026351929,
          2.445619583129883 3.4900002479553223 1.4966768026351929,
          2.500000238418579 2.9900002479553223 1.533012866973877,
          2.500000238418579 3.4900002479553223 1.533012866973877,
          2.5586583614349365 2.9900002479553223 1.5619398355484009,
          2.5586583614349365 3.4900002479553223 1.5619398355484009,
          2.750000238418579 2.750000238418579 0.0,
          2.750000238418579 2.9900002479553223 -1.0,
          2.750000238418579 2.9900002479553223 0.0,
          2.750000238418579 3.240000009536743 1.600000023841858,
          2.750000238418579 3.4900002479553223 -1.0,
          2.750000238418579 3.4900002479553223 0.0,
          2.758021116256714 2.9894614219665527 0.7799901366233826,
          2.7606747150421143 2.8310813903808594 0.0,
          2.7829132080078125 2.500000238418579 0.0,
          2.7829132080078125 2.9900002479553223 1.600000023841858,
          2.7829132080078125 3.000000238418579 0.0,
          2.7829132080078125 3.4900002479553223 1.600000023841858,
          2.8040714263916016 2.480818748474121 1.600000023841858,
          2.8437039852142334 2.03824782371521 0.0,
          2.8437039852142334 3.4617526531219482 0.0,
          2.8833370208740234 3.9043233394622803 1.600000023841858,
          3.038710355758667 1.7311424016952515 1.600000023841858,
          3.1184306144714355 1.3750001192092896 0.0,
          3.1184306144714355 4.125 0.0,
          3.198150157928467 4.481142520904541 1.600000023841858,
          3.4593846797943115 1.0677399635314941 1.600000023841858,
          3.5554566383361816 0.8054563999176025 0.0,
          3.5554566383361816 4.694544315338135 0.0,
          3.6515283584594727 4.956827640533447 1.600000023841858,
          4.037426471710205 0.5358209013938904 1.600000023841858,
          4.125 0.36843016743659973 0.0,
          4.125 5.131570339202881 0.0,
          4.212574005126953 5.298961162567139 1.600000023841858,
          4.273542881011963 0.41227445006370544 1.600000023841858,
          4.349999904632568 2.750000238418579 0.0,
          4.349999904632568 2.750000238418579 1.600000023841858,
          4.389185428619385 2.4523584842681885 0.0,
          4.389185428619385 2.4523584842681885 1.600000023841858,
          4.389185428619385 3.0476419925689697 0.0,
          4.389185428619385 3.0476419925689697 1.600000023841858,
          4.504071235656738 2.174999952316284 0.0,
          4.504071235656738 2.174999952316284 1.600000023841858,
          4.504071235656738 3.325000286102295 0.0,
          4.504071235656738 3.325000286102295 1.600000023841858,
          4.686827182769775 1.936827301979065 0.0,
          4.686827182769775 1.936827301979065 1.600000023841858,
          4.686827182769775 3.5631728172302246 0.0,
          4.686827182769775 3.5631728172302246 1.600000023841858,
          4.733442306518555 0.17163468897342682 1.600000023841858,
          4.788248062133789 0.0937039852142334 0.0,
          4.788248062133789 5.406296253204346 0.0,
          4.843053340911865 5.484227180480957 1.600000023841858,
          4.925000190734863 1.7540708780288696 0.0,
          4.925000190734863 1.7540708780288696 1.600000023841858,
          4.925000190734863 3.74592924118042 0.0,
          4.925000190734863 3.74592924118042 1.600000023841858,
          5.202358722686768 1.6391854286193848 0.0,
          5.202358722686768 1.6391854286193848 1.600000023841858,
          5.202358722686768 3.8608150482177734 0.0,
          5.202358722686768 3.8608150482177734 1.600000023841858,
          5.500000476837158 3.524958314943109e-16 0.0,
          5.500000476837158 2.2373975078654766e-15 1.600000023841858,
          5.500000476837158 1.600000023841858 0.0,
          5.500000476837158 1.600000023841858 1.600000023841858,
          5.500000476837158 3.9000003337860107 0.0,
          5.500000476837158 3.9000003337860107 1.600000023841858,
          5.500000476837158 5.500000476837158 0.0,
          5.500000476837158 5.500000476837158 1.600000023841858,
          2.2507519721984863 1.790000081062317 -1.7000000476837158,
          2.2507519721984863 1.790000081062317 -1.2000000476837158,
          2.2507519721984863 2.7899999618530273 -1.7000000476837158,
          2.2507519721984863 2.7899999618530273 -1.2000000476837158,
          2.2507519721984863 2.816105604171753 -1.1982890367507935,
          2.2507519721984863 2.841764211654663 -1.1931852102279663,
          2.2507519721984863 2.866536855697632 -1.184775948524475,
          2.2507519721984863 2.881368637084961 -1.6940115690231323,
          2.2507519721984863 2.890000343322754 -1.1732052564620972,
          2.2507519721984863 2.911752223968506 -1.1586707830429077,
          2.2507519721984863 2.9314215183258057 -1.1414214372634888,
          2.2507519721984863 2.9486708641052246 -1.121752381324768,
          2.2507519721984863 2.963205337524414 -1.1000001430511475,
          2.2507519721984863 2.9711735248565674 -1.6761481761932373,
          2.2507519721984863 2.974776029586792 -1.0765368938446045,
          2.2507519721984863 2.983185291290283 -1.051763892173767,
          2.2507519721984863 2.9882893562316895 -1.0261054039001465,
          2.2507519721984863 2.9900002479553223 -1.0,
          2.2507519721984863 3.0578784942626953 -1.6467156410217285,
          2.2507519721984863 3.140000104904175 -1.6062179803848267,
          2.2507519721984863 3.2161331176757813 -1.5553474426269531,
          2.2507519721984863 3.284975051879883 -1.4949748516082764,
          2.2507519721984863 3.3453476428985596 -1.4261330366134644,
          2.2507519721984863 3.3962180614471436 -1.3500001430511475,
          2.2507519721984863 3.436715841293335 -1.2678784132003784,
          2.2507519721984863 3.4661483764648438 -1.1811734437942505,
          2.2507519721984863 3.484011650085449 -1.0913684368133545,
          2.2507519721984863 3.4900002479553223 -1.0,
          2.750000238418579 1.790000081062317 -1.7000000476837158,
          2.750000238418579 1.790000081062317 -1.2000000476837158,
          2.750000238418579 2.7899999618530273 -1.7000000476837158,
          2.750000238418579 2.7899999618530273 -1.2000000476837158,
          2.750000238418579 2.816105604171753 -1.1982890367507935,
          2.750000238418579 2.841764211654663 -1.1931852102279663,
          2.750000238418579 2.866536855697632 -1.184775948524475,
          2.750000238418579 2.881368637084961 -1.6940115690231323,
          2.750000238418579 2.890000343322754 -1.1732052564620972,
          2.750000238418579 2.911752223968506 -1.1586707830429077,
          2.750000238418579 2.9314215183258057 -1.1414214372634888,
          2.750000238418579 2.9486708641052246 -1.121752381324768,
          2.750000238418579 2.963205337524414 -1.1000001430511475,
          2.750000238418579 2.9711735248565674 -1.6761481761932373,
          2.750000238418579 2.974776029586792 -1.0765368938446045,
          2.750000238418579 2.983185291290283 -1.051763892173767,
          2.750000238418579 2.9882893562316895 -1.0261054039001465,
          2.750000238418579 2.9900002479553223 -1.0,
          2.750000238418579 3.0578784942626953 -1.6467156410217285,
          2.750000238418579 3.140000104904175 -1.6062179803848267,
          2.750000238418579 3.2161331176757813 -1.5553474426269531,
          2.750000238418579 3.284975051879883 -1.4949748516082764,
          2.750000238418579 3.3453476428985596 -1.4261330366134644,
          2.750000238418579 3.3962180614471436 -1.3500001430511475,
          2.750000238418579 3.436715841293335 -1.2678784132003784,
          2.750000238418579 3.4661483764648438 -1.1811734437942505,
          2.750000238418579 3.484011650085449 -1.0913684368133545,
          2.750000238418579 3.4900002479553223 -1.0,
          15.75 2.0 -1.0,
          15.75 2.500000238418579 -1.0,
          15.750752449035645 2.005988836288452 -1.0913684368133545,
          15.750752449035645 2.0238518714904785 -1.1811734437942505,
          15.750752449035645 2.0532846450805664 -1.2678784132003784,
          15.750752449035645 2.093782424926758 -1.3500001430511475,
          15.750752449035645 2.1446526050567627 -1.4261330366134644,
          15.750752449035645 2.2050254344940186 -1.4949748516082764,
          15.750752449035645 2.273867130279541 -1.5553474426269531,
          15.750752449035645 2.3500001430511475 -1.6062179803848267,
          15.750752449035645 2.432121992111206 -1.6467156410217285,
          15.750752449035645 2.501711368560791 -1.0261054039001465,
          15.750752449035645 2.506814956665039 -1.051763892173767,
          15.750752449035645 2.5152242183685303 -1.0765368938446045,
          15.750752449035645 2.518826723098755 -1.6761481761932373,
          15.750752449035645 2.526794910430908 -1.1000001430511475,
          15.750752449035645 2.5413293838500977 -1.121752381324768,
          15.750752449035645 2.5585787296295166 -1.1414214372634888,
          15.750752449035645 2.5782477855682373 -1.1586707830429077,
          15.750752449035645 2.6000001430511475 -1.1732052564620972,
          15.750752449035645 2.6086320877075195 -1.6940115690231323,
          15.750752449035645 2.6234636306762695 -1.184775948524475,
          15.750752449035645 2.6482362747192383 -1.1931852102279663,
          15.750752449035645 2.6738948822021484 -1.1982890367507935,
          15.750752449035645 2.700000286102295 -1.7000000476837158,
          15.750752449035645 2.700000286102295 -1.2000000476837158,
          15.750752449035645 3.700000524520874 -1.7000000476837158,
          15.750752449035645 3.700000524520874 -1.2000000476837158,
          16.250001907348633 2.0 -1.0,
          16.250001907348633 2.005988836288452 -1.0913684368133545,
          16.250001907348633 2.0238518714904785 -1.1811734437942505,
          16.250001907348633 2.0532846450805664 -1.2678784132003784,
          16.250001907348633 2.093782424926758 -1.3500001430511475,
          16.250001907348633 2.1446526050567627 -1.4261330366134644,
          16.250001907348633 2.2050254344940186 -1.4949748516082764,
          16.250001907348633 2.273867130279541 -1.5553474426269531,
          16.250001907348633 2.3500001430511475 -1.6062179803848267,
          16.250001907348633 2.432121992111206 -1.6467156410217285,
          16.250001907348633 2.500000238418579 -1.0,
          16.250001907348633 2.501711368560791 -1.0261054039001465,
          16.250001907348633 2.506814956665039 -1.051763892173767,
          16.250001907348633 2.5152242183685303 -1.0765368938446045,
          16.250001907348633 2.518826723098755 -1.6761481761932373,
          16.250001907348633 2.526794910430908 -1.1000001430511475,
          16.250001907348633 2.5413293838500977 -1.121752381324768,
          16.250001907348633 2.5585787296295166 -1.1414214372634888,
          16.250001907348633 2.5782477855682373 -1.1586707830429077,
          16.250001907348633 2.6000001430511475 -1.1732052564620972,
          16.250001907348633 2.6086320877075195 -1.6940115690231323,
          16.250001907348633 2.6234636306762695 -1.184775948524475,
          16.250001907348633 2.6482362747192383 -1.1931852102279663,
          16.250001907348633 2.6738948822021484 -1.1982890367507935,
          16.250001907348633 2.700000286102295 -1.7000000476837158,
          16.250001907348633 2.700000286102295 -1.2000000476837158,
          16.250001907348633 3.700000524520874 -1.7000000476837158,
          16.250001907348633 3.700000524520874 -1.2000000476837158,
          15.750752449035645 2.5585787296295166 -1.1414214372634888,
          5.500000476837158 3.524958314943109e-16 0.0,
          5.500000476837158 2.2373975078654766e-15 1.600000023841858,
          5.500000476837158 1.600000023841858 0.0,
          5.500000476837158 1.600000023841858 1.600000023841858,
          8.913230895996094 1.7624791574715544e-16 0.0,
          9.011200904846191 1.600000023841858 0.0,
          12.326462745666504 0.0 0.0,
          13.0 -1.030000851828057e-15 -1.1015131601908304e-17,
          13.0 0.0 1.600000023841858,
          13.0 1.600000023841858 0.0,
          13.0 1.600000023841858 1.600000023841858,
          5.500000476837158 3.9000003337860107 0.0,
          5.500000476837158 3.9000003337860107 1.600000023841858,
          5.500000476837158 5.500000476837158 0.0,
          5.500000476837158 5.500000476837158 1.600000023841858,
          9.152031898498535 3.9000003337860107 0.0,
          9.250000953674316 5.500000476837158 0.0,
          13.0 3.9000003337860107 0.0,
          13.0 3.9000003337860107 1.600000023841858,
          13.0 5.500000476837158 -5.507565800954152e-18,
          13.0 5.500000476837158 1.600000023841858,
          2.750000238418579 2.750000238418579 0.0,
          2.758021116256714 2.9894614219665527 0.7799901366233826,
          2.7606747150421143 2.8310813903808594 0.0,
          16.23771095275879 2.500000238418579 0.06464789062738419,
          16.242460250854492 2.500000238418579 -1.1375199392205104e-4,
          16.245723724365234 2.0 0.06526309996843338,
          16.250001907348633 2.0 8.812395787357772e-17,
          2.750000238418579 3.240000009536743 1.600000023841858,
          2.758021116256714 2.9894614219665527 0.7799901366233826,
          2.7606747150421143 2.8310813903808594 0.0,
          2.7829132080078125 3.000000238418579 0.0,
          2.7829132080078125 3.4900002479553223 1.600000023841858,
          13.0 3.9000003337860107 0.0,
          13.0 3.9000003337860107 1.600000023841858,
          13.0 5.500000476837158 -5.507565800954152e-18,
          13.0 5.500000476837158 1.600000023841858,
          13.0 -1.030000851828057e-15 -1.1015131601908304e-17,
          13.0 0.0 1.600000023841858,
          13.0 1.600000023841858 0.0,
          13.0 1.600000023841858 1.600000023841858,
          15.75 2.0 -1.0,
          15.75 2.500000238418579 -1.0,
          16.250001907348633 2.0 -1.0,
          16.250001907348633 2.500000238418579 -1.0,
          5.500000476837158 3.9000003337860107 0.0,
          5.500000476837158 3.9000003337860107 1.600000023841858,
          5.500000476837158 5.500000476837158 0.0,
          5.500000476837158 5.500000476837158 1.600000023841858,
          5.500000476837158 3.524958314943109e-16 0.0,
          5.500000476837158 2.2373975078654766e-15 1.600000023841858,
          5.500000476837158 1.600000023841858 0.0,
          5.500000476837158 1.600000023841858 1.600000023841858,
          2.2507519721984863 2.9900002479553223 -1.0,
          2.2507519721984863 3.4900002479553223 -1.0,
          2.750000238418579 2.9900002479553223 -1.0,
          2.750000238418579 3.4900002479553223 -1.0,
          16.242460250854492 2.500000238418579 -1.1375199392205104e-4,
          16.245723724365234 2.0 0.06526309996843338,
          16.250001907348633 2.0 8.812395787357772e-17 ] }
        coordIndex [
          0, 2, 1, -1,
          3, 5, 11, -1,
          3, 11, 15, -1,
          3, 15, 21, -1,
          3, 21, 4, -1,
          4, 21, 6, -1,
          5, 6, 11, -1,
          6, 12, 11, -1,
          6, 21, 12, -1,
          7, 9, 23, -1,
          7, 13, 14, -1,
          7, 14, 8, -1,
          7, 23, 13, -1,
          8, 14, 10, -1,
          9, 10, 23, -1,
          10, 14, 22, -1,
          10, 22, 23, -1,
          11, 12, 16, -1,
          11, 16, 15, -1,
          12, 17, 16, -1,
          12, 21, 17, -1,
          13, 18, 19, -1,
          13, 19, 14, -1,
          13, 23, 18, -1,
          14, 19, 22, -1,
          15, 16, 20, -1,
          15, 20, 21, -1,
          16, 17, 24, -1,
          16, 24, 20, -1,
          17, 21, 25, -1,
          17, 25, 24, -1,
          18, 23, 26, -1,
          18, 26, 27, -1,
          18, 27, 19, -1,
          19, 27, 22, -1,
          20, 24, 39, -1,
          20, 39, 40, -1,
          20, 40, 21, -1,
          21, 36, 25, -1,
          21, 40, 36, -1,
          22, 27, 41, -1,
          22, 41, 43, -1,
          22, 43, 23, -1,
          23, 43, 26, -1,
          24, 25, 29, -1,
          24, 28, 39, -1,
          24, 29, 28, -1,
          25, 36, 29, -1,
          26, 30, 27, -1,
          26, 43, 30, -1,
          27, 30, 31, -1,
          27, 31, 41, -1,
          28, 29, 33, -1,
          28, 32, 39, -1,
          28, 33, 32, -1,
          29, 36, 33, -1,
          30, 34, 31, -1,
          30, 43, 34, -1,
          31, 34, 35, -1,
          31, 35, 41, -1,
          32, 33, 38, -1,
          32, 37, 39, -1,
          32, 38, 37, -1,
          33, 36, 38, -1,
          34, 37, 35, -1,
          34, 43, 37, -1,
          35, 37, 38, -1,
          35, 38, 41, -1,
          36, 40, 38, -1,
          37, 43, 39, -1,
          38, 40, 41, -1,
          39, 42, 45, -1,
          39, 43, 42, -1,
          39, 45, 46, -1,
          39, 46, 40, -1,
          40, 46, 41, -1,
          41, 44, 47, -1,
          41, 46, 44, -1,
          41, 47, 48, -1,
          41, 48, 43, -1,
          42, 43, 45, -1,
          43, 48, 45, -1,
          44, 46, 47, -1,
          45, 48, 49, -1,
          45, 49, 46, -1,
          46, 49, 50, -1,
          46, 50, 47, -1,
          47, 50, 51, -1,
          47, 51, 48, -1,
          48, 51, 52, -1,
          48, 52, 49, -1,
          49, 52, 53, -1,
          49, 53, 50, -1,
          50, 53, 54, -1,
          50, 54, 51, -1,
          51, 54, 55, -1,
          51, 55, 52, -1,
          52, 55, 56, -1,
          52, 56, 53, -1,
          53, 56, 57, -1,
          53, 57, 58, -1,
          53, 58, 54, -1,
          54, 58, 63, -1,
          54, 63, 66, -1,
          54, 66, 55, -1,
          55, 60, 56, -1,
          55, 66, 60, -1,
          56, 59, 57, -1,
          56, 60, 59, -1,
          57, 59, 65, -1,
          57, 62, 89, -1,
          57, 65, 62, -1,
          57, 89, 58, -1,
          58, 67, 63, -1,
          58, 69, 67, -1,
          58, 71, 69, -1,
          58, 73, 71, -1,
          58, 75, 73, -1,
          58, 77, 75, -1,
          58, 79, 77, -1,
          58, 81, 79, -1,
          58, 85, 81, -1,
          58, 87, 85, -1,
          58, 89, 87, -1,
          59, 60, 84, -1,
          59, 84, 65, -1,
          60, 63, 68, -1,
          60, 66, 63, -1,
          60, 68, 70, -1,
          60, 70, 72, -1,
          60, 72, 74, -1,
          60, 74, 76, -1,
          60, 76, 78, -1,
          60, 78, 80, -1,
          60, 80, 82, -1,
          60, 82, 83, -1,
          60, 83, 84, -1,
          61, 62, 65, -1,
          61, 65, 64, -1,
          61, 88, 89, -1,
          61, 89, 62, -1,
          63, 67, 68, -1,
          64, 65, 86, -1,
          64, 86, 90, -1,
          65, 84, 86, -1,
          67, 69, 68, -1,
          68, 69, 70, -1,
          69, 71, 70, -1,
          70, 71, 72, -1,
          71, 73, 72, -1,
          72, 73, 74, -1,
          73, 75, 76, -1,
          73, 76, 74, -1,
          75, 77, 78, -1,
          75, 78, 76, -1,
          77, 79, 80, -1,
          77, 80, 78, -1,
          79, 81, 82, -1,
          79, 82, 80, -1,
          81, 83, 82, -1,
          81, 85, 83, -1,
          83, 85, 84, -1,
          84, 85, 87, -1,
          86, 89, 90, -1,
          88, 90, 89, -1,
          91, 93, 92, -1,
          91, 110, 111, -1,
          91, 111, 93, -1,
          92, 93, 94, -1,
          92, 94, 114, -1,
          92, 114, 113, -1,
          93, 95, 96, -1,
          93, 96, 94, -1,
          93, 111, 115, -1,
          93, 115, 118, -1,
          93, 118, 95, -1,
          94, 96, 120, -1,
          94, 120, 114, -1,
          95, 97, 98, -1,
          95, 98, 96, -1,
          95, 118, 97, -1,
          96, 98, 120, -1,
          97, 99, 98, -1,
          97, 118, 99, -1,
          98, 99, 100, -1,
          98, 100, 120, -1,
          99, 101, 100, -1,
          99, 118, 101, -1,
          100, 101, 102, -1,
          100, 102, 120, -1,
          101, 103, 104, -1,
          101, 104, 102, -1,
          101, 118, 103, -1,
          102, 104, 120, -1,
          103, 105, 106, -1,
          103, 106, 104, -1,
          103, 118, 105, -1,
          104, 106, 120, -1,
          105, 107, 108, -1,
          105, 108, 106, -1,
          105, 118, 107, -1,
          106, 108, 120, -1,
          107, 112, 108, -1,
          107, 118, 112, -1,
          108, 112, 120, -1,
          109, 116, 117, -1,
          109, 117, 118, -1,
          109, 118, 115, -1,
          110, 113, 111, -1,
          111, 113, 114, -1,
          111, 114, 119, -1,
          111, 116, 115, -1,
          111, 119, 116, -1,
          112, 118, 120, -1,
          114, 120, 119, -1,
          116, 119, 117, -1,
          117, 119, 123, -1,
          117, 122, 118, -1,
          117, 123, 122, -1,
          118, 121, 124, -1,
          118, 122, 121, -1,
          118, 124, 120, -1,
          119, 120, 124, -1,
          119, 124, 123, -1,
          121, 122, 126, -1,
          121, 125, 124, -1,
          121, 126, 125, -1,
          122, 123, 127, -1,
          122, 127, 126, -1,
          123, 124, 128, -1,
          123, 128, 127, -1,
          124, 125, 128, -1,
          125, 126, 130, -1,
          125, 129, 128, -1,
          125, 130, 129, -1,
          126, 127, 131, -1,
          126, 131, 130, -1,
          127, 128, 132, -1,
          127, 132, 131, -1,
          128, 129, 132, -1,
          129, 130, 133, -1,
          129, 133, 132, -1,
          130, 131, 135, -1,
          130, 134, 133, -1,
          130, 135, 134, -1,
          131, 132, 135, -1,
          132, 133, 136, -1,
          132, 136, 135, -1,
          133, 134, 152, -1,
          133, 137, 136, -1,
          133, 152, 137, -1,
          134, 135, 138, -1,
          134, 138, 140, -1,
          134, 140, 153, -1,
          134, 153, 152, -1,
          135, 136, 154, -1,
          135, 142, 138, -1,
          135, 154, 142, -1,
          136, 137, 139, -1,
          136, 139, 143, -1,
          136, 143, 155, -1,
          136, 155, 154, -1,
          137, 141, 139, -1,
          137, 152, 141, -1,
          138, 139, 141, -1,
          138, 141, 140, -1,
          138, 142, 139, -1,
          139, 142, 143, -1,
          140, 141, 145, -1,
          140, 144, 153, -1,
          140, 145, 144, -1,
          141, 152, 145, -1,
          142, 146, 143, -1,
          142, 154, 146, -1,
          143, 146, 147, -1,
          143, 147, 155, -1,
          144, 145, 149, -1,
          144, 148, 153, -1,
          144, 149, 148, -1,
          145, 152, 149, -1,
          146, 150, 147, -1,
          146, 154, 150, -1,
          147, 150, 151, -1,
          147, 151, 155, -1,
          148, 149, 156, -1,
          148, 156, 153, -1,
          149, 152, 157, -1,
          149, 157, 156, -1,
          150, 154, 158, -1,
          150, 158, 159, -1,
          150, 159, 151, -1,
          151, 159, 155, -1,
          152, 153, 165, -1,
          152, 165, 157, -1,
          153, 156, 164, -1,
          153, 164, 165, -1,
          154, 155, 170, -1,
          154, 170, 158, -1,
          155, 159, 171, -1,
          155, 171, 170, -1,
          156, 157, 160, -1,
          156, 160, 164, -1,
          157, 161, 160, -1,
          157, 165, 161, -1,
          158, 162, 163, -1,
          158, 163, 159, -1,
          158, 170, 162, -1,
          159, 163, 171, -1,
          160, 161, 166, -1,
          160, 166, 164, -1,
          161, 165, 167, -1,
          161, 167, 166, -1,
          162, 168, 169, -1,
          162, 169, 163, -1,
          162, 170, 168, -1,
          163, 169, 171, -1,
          172, 173, 175, -1,
          172, 174, 202, -1,
          172, 175, 174, -1,
          172, 200, 201, -1,
          172, 201, 173, -1,
          172, 202, 200, -1,
          173, 201, 203, -1,
          173, 203, 175, -1,
          174, 175, 176, -1,
          174, 176, 179, -1,
          174, 179, 213, -1,
          174, 213, 202, -1,
          175, 203, 176, -1,
          176, 177, 179, -1,
          176, 203, 177, -1,
          177, 178, 179, -1,
          177, 203, 178, -1,
          178, 180, 179, -1,
          178, 203, 206, -1,
          178, 206, 180, -1,
          179, 180, 185, -1,
          179, 185, 213, -1,
          180, 181, 185, -1,
          180, 206, 181, -1,
          181, 182, 185, -1,
          181, 206, 182, -1,
          182, 183, 185, -1,
          182, 206, 183, -1,
          183, 184, 185, -1,
          183, 206, 211, -1,
          183, 211, 212, -1,
          183, 212, 184, -1,
          184, 186, 185, -1,
          184, 212, 214, -1,
          184, 214, 186, -1,
          185, 186, 190, -1,
          185, 190, 219, -1,
          185, 219, 213, -1,
          186, 187, 190, -1,
          186, 214, 215, -1,
          186, 215, 187, -1,
          187, 188, 190, -1,
          187, 215, 216, -1,
          187, 216, 188, -1,
          188, 189, 190, -1,
          188, 216, 217, -1,
          188, 217, 189, -1,
          189, 199, 190, -1,
          190, 191, 219, -1,
          190, 199, 191, -1,
          191, 192, 221, -1,
          191, 199, 192, -1,
          191, 221, 219, -1,
          192, 193, 221, -1,
          192, 199, 193, -1,
          193, 194, 222, -1,
          193, 199, 194, -1,
          193, 222, 221, -1,
          194, 195, 223, -1,
          194, 199, 195, -1,
          194, 223, 222, -1,
          195, 196, 224, -1,
          195, 199, 196, -1,
          195, 224, 223, -1,
          196, 197, 225, -1,
          196, 199, 197, -1,
          196, 225, 224, -1,
          197, 198, 226, -1,
          197, 199, 198, -1,
          197, 226, 225, -1,
          198, 199, 227, -1,
          198, 227, 226, -1,
          200, 202, 203, -1,
          200, 203, 201, -1,
          202, 204, 203, -1,
          202, 207, 204, -1,
          202, 213, 207, -1,
          203, 204, 206, -1,
          204, 205, 206, -1,
          204, 207, 205, -1,
          205, 207, 206, -1,
          206, 207, 208, -1,
          206, 208, 211, -1,
          207, 213, 208, -1,
          208, 209, 211, -1,
          208, 213, 209, -1,
          209, 210, 211, -1,
          209, 213, 210, -1,
          210, 213, 211, -1,
          211, 213, 212, -1,
          212, 213, 214, -1,
          213, 218, 214, -1,
          213, 219, 218, -1,
          214, 218, 215, -1,
          215, 218, 216, -1,
          216, 218, 217, -1,
          217, 218, 227, -1,
          218, 219, 227, -1,
          219, 220, 227, -1,
          219, 221, 220, -1,
          220, 221, 227, -1,
          221, 222, 227, -1,
          222, 223, 227, -1,
          223, 224, 227, -1,
          224, 225, 227, -1,
          225, 226, 227, -1,
          228, 229, 230, -1,
          228, 230, 256, -1,
          229, 231, 230, -1,
          229, 232, 231, -1,
          229, 233, 232, -1,
          229, 234, 233, -1,
          229, 235, 234, -1,
          229, 236, 235, -1,
          229, 237, 236, -1,
          229, 238, 237, -1,
          229, 239, 242, -1,
          229, 242, 238, -1,
          229, 266, 239, -1,
          230, 231, 257, -1,
          230, 257, 256, -1,
          231, 232, 258, -1,
          231, 258, 257, -1,
          232, 233, 259, -1,
          232, 259, 258, -1,
          233, 234, 260, -1,
          233, 260, 259, -1,
          234, 235, 261, -1,
          234, 261, 260, -1,
          235, 236, 264, -1,
          235, 262, 261, -1,
          235, 263, 262, -1,
          235, 264, 263, -1,
          236, 237, 264, -1,
          237, 238, 242, -1,
          237, 242, 264, -1,
          239, 240, 242, -1,
          239, 266, 267, -1,
          239, 267, 240, -1,
          240, 241, 242, -1,
          240, 267, 268, -1,
          240, 268, 241, -1,
          241, 243, 242, -1,
          241, 268, 269, -1,
          241, 269, 243, -1,
          242, 243, 248, -1,
          242, 248, 280, -1,
          242, 270, 264, -1,
          242, 276, 270, -1,
          242, 280, 276, -1,
          243, 244, 248, -1,
          243, 269, 271, -1,
          243, 271, 244, -1,
          244, 245, 248, -1,
          244, 271, 272, -1,
          245, 246, 248, -1,
          246, 247, 248, -1,
          246, 249, 247, -1,
          246, 277, 249, -1,
          247, 249, 248, -1,
          248, 249, 252, -1,
          248, 252, 280, -1,
          249, 250, 252, -1,
          249, 251, 250, -1,
          249, 253, 251, -1,
          249, 277, 278, -1,
          249, 278, 281, -1,
          249, 281, 253, -1,
          250, 251, 252, -1,
          251, 253, 252, -1,
          252, 253, 255, -1,
          252, 254, 282, -1,
          252, 255, 254, -1,
          252, 282, 280, -1,
          253, 281, 283, -1,
          253, 283, 255, -1,
          254, 255, 283, -1,
          254, 283, 282, -1,
          256, 257, 266, -1,
          257, 258, 266, -1,
          258, 259, 266, -1,
          259, 260, 266, -1,
          260, 261, 266, -1,
          261, 262, 266, -1,
          262, 263, 266, -1,
          263, 264, 266, -1,
          264, 265, 266, -1,
          264, 270, 265, -1,
          265, 270, 266, -1,
          266, 270, 267, -1,
          267, 270, 268, -1,
          268, 270, 269, -1,
          269, 270, 271, -1,
          270, 276, 271, -1,
          271, 276, 272, -1,
          272, 273, 275, -1,
          272, 275, 284, -1,
          272, 276, 273, -1,
          273, 274, 275, -1,
          273, 276, 274, -1,
          274, 276, 275, -1,
          275, 276, 277, -1,
          275, 277, 284, -1,
          276, 280, 277, -1,
          277, 280, 278, -1,
          278, 279, 281, -1,
          278, 280, 279, -1,
          279, 280, 281, -1,
          280, 282, 283, -1,
          280, 283, 281, -1,
          285, 287, 290, -1,
          285, 289, 293, -1,
          285, 290, 289, -1,
          285, 293, 286, -1,
          286, 293, 288, -1,
          287, 288, 290, -1,
          288, 293, 295, -1,
          288, 294, 290, -1,
          288, 295, 294, -1,
          289, 290, 291, -1,
          289, 291, 293, -1,
          290, 294, 291, -1,
          291, 292, 293, -1,
          291, 294, 292, -1,
          296, 298, 301, -1,
          296, 300, 303, -1,
          296, 301, 300, -1,
          296, 303, 297, -1,
          297, 303, 305, -1,
          297, 305, 299, -1,
          298, 299, 301, -1,
          299, 305, 301, -1,
          300, 301, 302, -1,
          300, 302, 303, -1,
          301, 304, 302, -1,
          301, 305, 304, -1,
          306, 307, 308, -1,
          306, 308, 307, -1,
          309, 311, 310, -1,
          310, 311, 312, -1,
          313, 316, 314, -1,
          313, 317, 316, -1,
          314, 316, 315, -1,
          318, 319, 321, -1,
          318, 321, 320, -1,
          322, 323, 324, -1,
          323, 325, 324, -1,
          326, 328, 327, -1,
          327, 328, 329, -1,
          330, 332, 331, -1,
          331, 332, 333, -1,
          334, 336, 335, -1,
          335, 336, 337, -1,
          338, 340, 339, -1,
          339, 340, 341, -1,
          342, 343, 344, -1 ]
        normal Normal { vector [
          0.9971929898068309 0.01607053121399103 0.07312919462577035,
          0.9971929898068309 0.01607053121399103 0.07312919462577035,
          0.9971929898068309 0.01607053121399103 0.07312919462577035,
          0.054502319802986275 -0.7129884238325751 -0.6990543645646118,
          0.09229589694740095 -0.7010573923771679 0.7071067811865477,
          -0.09229566241769165 0.7010574232535303 -0.7071067811865475,
          -0.09229566241769165 0.7010574232535303 0.7071067811865475,
          -0.09229538642075134 -0.7010574595890441 -0.7071067811865475,
          -0.09229538642075134 -0.7010574595890441 0.7071067811865475,
          0.15564402799178265 0.6897644065552332 -0.7071067811865475,
          0.1254138651274896 0.7034172280632492 0.6996253037859613,
          -0.152307786750855 0.6877407841237401 -0.7097992335498253,
          -0.2497894130619537 0.7916140247876091 0.5576311369370681,
          -0.2497898862564431 -0.7916138518539215 -0.5576311704675329,
          -0.1523078492227321 -0.6877407385686379 0.709799264284072,
          0.012258434262302852 -0.5668419606798338 -0.8237353473064505,
          -0.3251189948091731 0.6248861901823666 -0.709799188879249,
          -0.4461629349316474 0.6999901463331109 0.5576310882023424,
          -0.4461631986729441 -0.699989997901944 -0.5576310635062965,
          -0.3831295991600662 -0.7363825821271737 0.5576310635062965,
          0.1666927338136561 -0.7028571827770167 -0.6915239063926024,
          0.07626063672529952 -0.5363748684266886 0.8405274033644022,
          0.20107418016545023 0.5756333609499366 0.7926004086753125,
          0.13878256493988864 0.48521042544057885 -0.8633135251532191,
          -0.563928203315033 0.5639294882272913 -0.6032980306727217,
          -0.389899591332501 0.3899004797199969 0.8342397284910764,
          -0.3898995485247131 -0.38990053116324136 -0.8342397244550557,
          -0.5639281384213202 -0.5639295596528093 0.603298024567007,
          -0.7363830627025896 0.38312849358726786 -0.5576311884806167,
          -0.6999897324475991 0.44616345894933357 0.5576311884806165,
          -0.6999896162093712 -0.4461636430604528 -0.5576311870852294,
          -0.7363829549758717 -0.3831287026717279 0.5576311870852294,
          -0.8104527944963982 0.1794820035921361 -0.5576311310172087,
          -0.7916145539100221 0.24978774941598947 0.5576311310172086,
          -0.7916144987369311 -0.24978790904332795 -0.5576311378368675,
          -0.810452771980841 -0.1794820840734015 0.5576311378368675,
          0.0 0.0 1.0,
          -0.7037268921700623 -0.030881908090872077 -0.7097991046692946,
          -0.5964952713140673 0.026176223120530168 0.8021896263621848,
          0.25058806621053625 -0.4644644259490809 -0.8493988568986037,
          0.2482254764728558 -0.5226843530109653 0.815588854722361,
          0.1999122319538658 0.29350470281591506 0.9348208860205066,
          2.415965810894095e-11 -3.983147044583618e-11 -1.0,
          0.17586385384617195 0.2930782829890681 -0.9397749863401091,
          0.0 0.0 1.0,
          0.4604489352621656 -0.5736564150980907 -0.6774253430694374,
          0.4495501357608177 -0.5015292381050236 0.7391705478191246,
          0.32294884445936933 0.32281589387453463 0.8896594531191941,
          0.5692748811250169 0.5196213014214421 -0.637118366419604,
          0.5871693885496132 -0.4372578048078081 -0.6812031424508627,
          0.5872753336543158 -0.33336289710927025 0.7375478705223997,
          0.6229224684806052 0.3707946547856777 0.6888243043363086,
          0.6244893593484763 0.2782302407934612 -0.7297951583619492,
          0.7654859583002688 -0.2901085783335198 -0.574341588623376,
          0.7493175885915736 -0.18509140118303127 0.6358178391924932,
          0.8841601331505241 0.19671542123287308 0.4237498106152036,
          0.6926308928538302 0.09083799219491545 -0.7155493731661725,
          0.22596985028606292 -0.28798884365680555 -0.930591238240996,
          0.25332478387222096 -0.9630711248224499 0.09121711686582562,
          0.33015701112194773 0.6740088814131412 -0.6608391451656206,
          0.3698897010254063 0.9257640107535663 0.07837477571774117,
          -0.7071067811865475 -0.7071067811865475 0.0,
          -0.5773502691896258 -0.5773502691896258 -0.5773502691896258,
          0.7576275317727429 -0.028214104296675827 0.6520770563504575,
          -0.4472135954999579 0.8944271909999159 0.0,
          -0.48507125007266616 0.7276068751089989 -0.48507125007266594,
          0.952457769490369 0.041796715160362735 0.30179004612351723,
          0.2558614312770832 -0.3249742801579242 0.9104540873765582,
          0.304785774153281 0.24980597346210262 0.9190770411105026,
          0.39995064686862636 -0.5554315236516734 0.7290646765571267,
          0.4314065153884526 0.5554315236516734 0.7109038198057268,
          0.4916886566604764 -0.5554320138433388 0.6706247407524936,
          0.520514520917165 0.5554320138433388 0.648505907075878,
          0.6321813138745788 -0.44798036532770025 0.6321869807807429,
          0.4994619075059202 0.7078637817382966 0.49946638470842564,
          0.6706152785345239 -0.5554318383174491 0.49170176039888464,
          0.6484986148337943 0.5554318383174491 0.5205237934445929,
          0.7290630544587743 -0.555431877588023 0.3999531122297784,
          0.71089752283605 0.5554318775880229 0.43141643615491865,
          0.7750374886113156 -0.5554320595275479 0.3013504911163271,
          0.7611331597290244 0.5554320595275479 0.3349202000624895,
          0.8152911493014087 -0.5552378942456707 0.16435091318402106,
          0.8058635883713919 0.5574589880778381 0.19955789522947043,
          0.8241539970686158 0.5584194871971813 0.09454028471641639,
          0.4403427237522585 0.8958428849070612 0.05969766494458576,
          0.8256397219408307 -0.5491885478192419 0.12927098861562208,
          0.31476175447864674 0.9491677415452118 0.0023740950878209837,
          0.4413899373140882 -0.8930093339404883 0.08780235038443188,
          0.7071067811865475 -0.7071067811865475 0.0,
          0.4485401007302149 -0.893761107381743 0.0016914398272460346,
          0.8917030387757137 0.45260842186490297 0.003362602432661282,
          -0.44720166460339766 -0.8944271909999159 0.0032666765910070125,
          -0.7070879167827183 0.7071067811865475 0.005165069203368237,
          -0.6929462165349037 -0.7114425590895923 0.11694026725646926,
          -0.5420943169521185 0.8353174068517568 0.09153459094065387,
          -0.7611291876949343 -0.555431755481844 0.33492973090068684,
          -0.7750311954699927 0.555431755481844 0.3013672361931722,
          -0.611715259276012 -0.7078641920762438 0.35317520743269626,
          -0.7742634332670882 0.44798078136259956 0.44702276836333066,
          -0.6706218648848179 -0.5554316824252773 0.49169295347466074,
          -0.6485080074039441 0.5554316824252773 0.5205122577722755,
          -0.6321836124345633 -0.44798080287365616 0.6321843721778165,
          -0.4994635401807111 0.7078642132927283 0.4994641404241331,
          -0.4916920057551041 -0.5554316859336341 0.6706225568361412,
          -0.5205114092546281 0.5554316859336341 0.6485086854442905,
          -0.3999519438302699 -0.5554317361839236 0.7290638031517549,
          -0.43141229398112746 0.5554317361839236 0.7109001470260458,
          -0.25586009389946024 -0.3249743389452918 0.910454442230269,
          -0.30478373247194884 0.24980599773931825 0.9190777115749957,
          -0.9022547170453092 -0.08884924825490813 -0.42195051446114673,
          0.7071067811865475 -0.7071067811865475 0.0,
          0.26395582792637495 -0.8090813403733922 -0.5250854269195603,
          -0.13283198139862384 -1.0529532703579502e-8 0.9911385698870344,
          0.8944271909999159 0.4472135954999579 0.0,
          0.5257025604284923 0.80715811438507 -0.2685751223424566,
          -0.683548437924832 -0.7297733313589165 0.013871476050919734,
          -0.31647150948311875 -0.021257186098317903 -0.9483638097927702,
          -0.45028630010977133 -0.059281136906545344 -0.8909141343252559,
          -0.4060221863478002 -0.8217091856108605 0.3999249910621849,
          -0.22729039631033726 0.10205430133100293 -0.9684647620460595,
          -0.015780751042447964 0.9444533381864961 0.32826644648047776,
          -0.7927890980034246 -0.19903773365162036 0.5760810938311924,
          -0.7031459078096727 -0.13367736626771926 -0.6983668048226788,
          -0.6438689485555085 0.2285001104087919 -0.7302194715489267,
          -0.5879009484908497 0.1746426708051015 0.7898559440161353,
          -0.5984033375993301 -0.33292915495840825 0.7287466111953197,
          -0.6538091872605049 -0.3155408195714133 -0.6877263538922723,
          -0.5581280469063722 0.3841500981573618 -0.7354738508894573,
          -0.6251033861310195 0.3837721793841149 0.6796798297568498,
          -0.4114095392927875 -0.343626288978819 0.8441937955834203,
          -0.6066249877880991 -0.55470339923177 -0.5694824519436995,
          -0.37641319256685407 0.3762645577011991 -0.8466038572316745,
          -0.5530120880614088 0.6155587439356468 0.5614846954479965,
          -0.3393100863362375 -0.46845153478557156 0.8157339179337448,
          -0.29845685465447946 -0.5339978203987319 -0.7910561508004086,
          -0.25057656425051894 0.4261105786376243 -0.8692762278019079,
          -0.20860121090752426 0.4817746571774933 0.8511044087004975,
          0.0 0.0 1.0,
          0.7037267288263088 0.030882652526694646 -0.7097992342263678,
          0.7037267288263088 -0.030882652526694646 0.7097992342263678,
          0.671754782052124 0.21196843552483624 -0.7097991935267726,
          0.6877407352635162 0.15230819389626227 0.7097991935267726,
          0.6877407138026904 -0.15230826167056466 -0.7097991997776955,
          0.6717547329330276 -0.21196857025752688 0.7097991997776955,
          0.6999907113518318 0.44616207031126165 -0.5576310707239379,
          0.7363832357010789 0.3831283324705754 0.5576310707239379,
          0.7363831279742441 -0.38312854155540055 -0.5576310693285479,
          0.6999905951139821 -0.4461622544226184 0.5576310693285479,
          0.4978475443010822 0.4978472779887565 -0.7101379516914779,
          0.6313623353595934 0.6313619976265387 0.4502928263278318,
          0.6313622610868322 -0.6313620759734311 -0.4502928206154766,
          0.49784748812356105 -0.49784734215626547 0.7101379460900558,
          -0.1558383239849105 -0.4077782107895428 0.8996840265242311,
          -0.12697689577047672 -0.501757695852187 -0.8556378220915657,
          -0.13329621682064782 0.4820651033178401 -0.865936114701577,
          -0.07582471866294276 0.5126921857199529 0.8552177118964404,
          0.3786080879745782 0.5940042105709932 -0.7097992064972778,
          0.3251180241835576 0.6248866751714381 0.7097992064972778,
          0.3251184949646948 -0.6248864559442316 -0.7097991838607238,
          0.37860831647502 -0.5940040919779944 0.7097991838607238,
          0.24978867619662692 0.7916142992326954 -0.5576310774107421,
          0.17948360442464356 0.8104524768599779 0.5576310774107422,
          0.17948368106168797 -0.8104524368175121 -0.5576311109408287,
          0.24978914938855404 -0.7916141263005858 0.5576311109408287,
          -0.04127600710538145 -0.3135223935182886 -0.9486832980505138,
          -0.09590550637725656 -0.5406374786785647 0.8357710514815684,
          0.11674653994231184 0.8867751944047025 -0.4472135954999579,
          0.09229624379038202 0.7010573467143656 0.7071067811865475,
          0.09229596779176347 -0.7010573830503333 -0.7071067811865475,
          0.11674619082860556 -0.88677524036647 0.4472135954999579,
          -0.04241922351869398 0.5467652967843117 -0.8362106909795132,
          -0.007590439002898943 0.3161366559507822 0.9486832980505138,
          -0.5773502691896258 -0.5773502691896258 -0.5773502691896258,
          -0.4082482904638631 -0.4082482904638631 0.8164965809277261,
          -0.7048101009008187 0.046396254604074746 -0.7078771851295191,
          -0.8321873584869242 -0.018142095681641355 0.5541976765909739,
          -0.8331823673533386 -0.0721800174579677 0.5482674418668811,
          -0.7126658182502694 -0.1815595767161613 0.6776013220178384,
          -0.560823719208011 -0.26612976353922996 0.783997260793842,
          -0.9281544321310563 0.04858459612193472 -0.3690106870202339,
          -0.8331825647102556 -0.2764993646415232 0.4789101327135132,
          -0.7126655231342542 -0.42704683788548015 0.5565418675964929,
          -0.7185406020339565 -0.49177086675428044 0.4917934707175595,
          -0.4577202361868914 -0.6781206239381997 0.5750170473774521,
          -0.555431795358097 -0.7290643720484089 0.39995082462090314,
          -0.9191458324089701 0.11846580034747271 -0.37568177080243637,
          -0.7077798749242529 -0.6584087980785441 0.2560185603915775,
          -0.5554315925281715 -0.8077355975366325 0.19763337393709224,
          -0.5554319010429771 -0.8266220414097333 0.09050637524169086,
          -0.8944271909999159 -0.4462562406827671 0.029246669069899138,
          -0.9485208271703576 0.12120414878071299 -0.2926051857749679,
          -0.5513957754674014 0.44826138616836186 -0.7035797243149648,
          -0.7036507354839042 0.43255813626766676 -0.5637101216064895,
          -0.555431744088644 0.6007063924035466 -0.5750194846995736,
          -0.5554317132367468 0.6706223909611727 -0.49169220115069184,
          -0.5554317472451576 0.72906426256499 -0.399951091013337,
          -0.5554316851893347 0.7750306750893361 -0.3013687040127157,
          -0.5554317487072566 0.8077367222466589 -0.19762833820639872,
          -0.31677022898144686 0.9428676147478293 -0.1032341178621705,
          -0.9938837346736188 0.11019508416274365 -0.007222560320644931,
          0.8164965809277261 -0.4082482904638631 -0.4082482904638631,
          0.4082482904638631 -0.8164965809277261 0.4082482904638631,
          0.5554317185073435 0.03624907325814987 -0.8307716959333078,
          0.5548367644141495 -0.10850942182336998 0.8248526354628417,
          1.0 0.0 0.0,
          1.0 0.0 0.0,
          0.6433208821615632 -0.41895514258888106 0.6407923462972998,
          1.0 0.0 0.0,
          1.0 0.0 0.0,
          1.0 0.0 0.0,
          1.0 0.0 0.0,
          0.9301804528551157 -0.2679345648727232 0.25094898699280693,
          0.555431795358097 -0.7109000004517021 0.43141245932755695,
          0.7846136287550967 0.12083009259498775 -0.6080966553889652,
          0.7077798749242529 -0.6465991845838363 0.2845296876386133,
          0.5554315925281715 -0.7983341712280507 0.23271935259286144,
          0.5554319010429771 -0.8218797595670946 0.1265269304050302,
          0.7071067811865475 -0.7055930703109189 0.04624304411703978,
          1.0 0.0 0.0,
          0.006028267351395336 0.4420992709068758 -0.896945870527508,
          1.0 0.0 0.0,
          0.24909713132620737 0.6265204507603621 -0.738527415837819,
          0.5554317132367468 0.6485080859645262 -0.5205121270148458,
          0.5554317472451576 0.710900500469119 -0.4314116973204917,
          0.5554316851893347 0.7611293081329311 -0.33492957377457927,
          0.5554317487072566 0.7983344272564494 -0.2327181015415771,
          0.31677022898144686 0.9374592267026595 -0.1443150037282798,
          0.9761870601839528 0.21646599396432864 -0.014187916917117026,
          -0.7068924570469489 -0.7054027480760391 -0.052057825318576716,
          -0.9894459197924523 0.14477894150989284 0.005985808328284852,
          -0.5551172154273374 -0.8265763778754153 -0.09282439697923098,
          -0.5550507769375324 -0.8079797566072915 -0.1977052046200699,
          -0.5550568317557142 -0.7752571926584653 -0.3014766968649883,
          -0.5550651110839734 -0.7292711338577059 -0.40008291113122074,
          -0.5550749727545312 -0.6708053292663961 -0.49184548879638834,
          -0.3727930244950027 -0.6299276738121147 -0.6813343427815204,
          -0.7031870764957404 -0.4328282429009562 -0.5640812420180665,
          -0.4484904201173632 -0.421362453414641 -0.7882322157304569,
          -0.9999970846574311 -9.268960729051356e-4 -0.002229695115659411,
          -0.4498428848805581 0.8890466051532022 0.08507357279380554,
          -0.5554317924394033 0.8077378253752202 0.19762370658820733,
          -0.555431700179929 0.7750314704186673 0.30136663102591776,
          -0.7050795926058128 -0.09230148062533976 -0.703095444989648,
          -0.7077799624543546 0.6193585581376915 0.3397683051870974,
          -0.7071067811865475 0.587936646559322 0.3928492072444321,
          -1.0 0.0 0.0,
          -0.9486832980505138 0.15811290697518587 0.2738618422633139,
          -1.0 0.0 0.0,
          -0.9614412722239857 -0.03589332145378987 -0.2726579350382799,
          -0.8344898857574063 0.1598056764565842 0.5273412333023508,
          -1.0 0.0 0.0,
          -1.0 0.0 0.0,
          -0.8945123128163307 -0.00975047328187363 -0.44693696478447426,
          -0.7086212862828123 0.046081752775525134 0.7040826263216753,
          -0.4082482904638631 0.8164965809277261 -0.4082482904638631,
          -0.8164965809277261 0.4082482904638631 0.4082482904638631,
          0.4472135954999579 -0.8925120054726583 -0.05850059903260393,
          0.5554316601581972 -0.8218807078398805 -0.1265218280555793,
          0.5554318048420335 -0.7983342060883204 -0.23271872627541706,
          0.5554316576168841 -0.7611290502419221 -0.33493020555750136,
          0.5554317230335226 -0.7109011375630435 -0.4314106786573354,
          0.5554317593412154 -0.6485077568971632 -0.5205124878034457,
          0.7078641497776366 -0.49946361079300566 -0.49946415982850756,
          0.7036507189663033 -0.4325586302830552 -0.5637097631457624,
          0.19766494711042581 -0.5011806740673345 -0.8424645396841607,
          1.0 0.0 0.0,
          0.9838699100999074 0.1785023898797379 0.011700290903308664,
          0.5554315994250668 0.8218810852030489 0.1265196433190149,
          0.5554317924394033 0.7983354271238894 0.232714567112737,
          0.5554317001799292 0.7611300430097528 0.33492787889813697,
          0.9290924881660012 -0.10736098657467857 -0.3539219786834674,
          0.7077799624543546 0.6039274666827569 0.36649575677524604,
          0.8336630614871526 0.4152211469452321 0.3641391204489761,
          1.0 0.0 0.0,
          1.0 0.0 0.0,
          0.8965720650621416 0.24606397069488986 0.3682540624026727,
          0.9614412709327037 -0.03589844143345125 -0.2726572655367113,
          0.7106968667357202 0.2973306870443653 0.6375769962551627,
          0.834154282948827 0.12524169618067704 0.5371230303905387,
          1.0 0.0 0.0,
          0.8327373404462524 -0.04522035037644249 -0.5518184862238072,
          0.7094905263898953 0.07674408651647972 0.7005237598738109,
          0.4082482904638631 0.4082482904638631 -0.8164965809277261,
          0.5773502691896258 0.5773502691896258 0.5773502691896258,
          0.006838781977612134 0.5555642228995051 0.8314455035028644,
          -1.2372826298611303e-16 -0.7071067811865478 -0.7071067811865474,
          -2.1094387341432487e-16 -0.7071067811865471 0.7071067811865479,
          0.0 0.7071067811865475 -0.7071067811865475,
          0.0 0.8320502943378437 0.5547001962252291,
          -3.6512644906535525e-17 -0.7071067811865475 -0.7071067811865475,
          0.0 0.4472135954999579 -0.8944271909999159,
          -4.4299242983656945e-16 -0.5547001962252291 -0.8320502943378436,
          -1.0929008848001055e-15 -0.7071067811865478 -0.7071067811865474,
          -4.3174763950360464e-16 -0.8944271909999156 0.4472135954999582,
          -5.78206639741044e-18 0.7071067811865475 -0.7071067811865475,
          0.0 0.7071067811865475 0.7071067811865475,
          0.0 -0.7071067811865475 -0.7071067811865475,
          0.0 -0.4472135954999579 0.8944271909999159,
          0.0 0.7071067811865475 -0.7071067811865475,
          0.0 0.8944271909999159 0.4472135954999579,
          0.0 -0.7071067811865475 -0.7071067811865475,
          -2.937369174187158e-19 0.6 -0.8,
          -6.568157148494906e-19 -0.4472135954999579 -0.8944271909999159,
          0.0 -0.9486832980505138 0.31622776601683794,
          -1.0385168309580343e-18 0.7071067811865475 -0.7071067811865475,
          0.0 0.7071067811865475 0.7071067811865475,
          0.0 0.0 0.0,
          0.0 0.0 0.0,
          0.0 0.0 0.0,
          0.9971929898068309 0.01607053121399103 0.07312919462577035,
          0.9974766397041739 0.015567471318082825 0.06926764815720522,
          0.9974766397041739 0.015567471318082825 0.06926764815720522,
          0.9977450830026633 0.015064174095021211 0.06540504569865786,
          -0.994372033376569 0.09984423461654977 -0.0354314556909973,
          -0.9945366708634058 0.09986630877464153 -0.030389647573828248,
          -0.991002738541299 0.13046742673213815 -0.02986340177441103,
          -0.9933567759859605 0.11006725324879585 -0.03357849557446022,
          -0.9906538025485739 0.13042130952750536 -0.03994152622499498,
          -1.0 -2.7968104665669615e-17 0.0,
          -1.0 0.0 0.0,
          -1.0 -5.593620933133923e-17 0.0,
          -1.0 -2.7968104665669615e-17 0.0,
          -1.0 0.0 0.0,
          -1.0 0.0 0.0,
          -1.0 0.0 0.0,
          -1.0 0.0 0.0,
          0.0 0.0 1.0,
          0.0 0.0 1.0,
          0.0 0.0 1.0,
          0.0 0.0 1.0,
          1.0 0.0 0.0,
          1.0 0.0 0.0,
          1.0 0.0 0.0,
          1.0 0.0 0.0,
          1.0 0.0 0.0,
          1.0 0.0 0.0,
          1.0 0.0 0.0,
          1.0 0.0 0.0,
          0.0 0.0 1.0,
          0.0 0.0 1.0,
          0.0 0.0 1.0,
          0.0 0.0 1.0,
          0.9977450830026633 0.015064174095021211 0.06540504569865786,
          0.9977450830026633 0.015064174095021211 0.06540504569865786,
          0.9977450830026633 0.015064174095021211 0.06540504569865786 ] }
        normalIndex [
          0, 2, 1, -1,
          3, 5, 11, -1,
          3, 11, 15, -1,
          3, 15, 21, -1,
          3, 21, 4, -1,
          4, 21, 6, -1,
          5, 6, 11, -1,
          6, 12, 11, -1,
          6, 21, 12, -1,
          7, 9, 23, -1,
          7, 13, 14, -1,
          7, 14, 8, -1,
          7, 23, 13, -1,
          8, 14, 10, -1,
          9, 10, 23, -1,
          10, 14, 22, -1,
          10, 22, 23, -1,
          11, 12, 16, -1,
          11, 16, 15, -1,
          12, 17, 16, -1,
          12, 21, 17, -1,
          13, 18, 19, -1,
          13, 19, 14, -1,
          13, 23, 18, -1,
          14, 19, 22, -1,
          15, 16, 20, -1,
          15, 20, 21, -1,
          16, 17, 24, -1,
          16, 24, 20, -1,
          17, 21, 25, -1,
          17, 25, 24, -1,
          18, 23, 26, -1,
          18, 26, 27, -1,
          18, 27, 19, -1,
          19, 27, 22, -1,
          20, 24, 39, -1,
          20, 39, 40, -1,
          20, 40, 21, -1,
          21, 36, 25, -1,
          21, 40, 36, -1,
          22, 27, 41, -1,
          22, 41, 43, -1,
          22, 43, 23, -1,
          23, 43, 26, -1,
          24, 25, 29, -1,
          24, 28, 39, -1,
          24, 29, 28, -1,
          25, 36, 29, -1,
          26, 30, 27, -1,
          26, 43, 30, -1,
          27, 30, 31, -1,
          27, 31, 41, -1,
          28, 29, 33, -1,
          28, 32, 39, -1,
          28, 33, 32, -1,
          29, 36, 33, -1,
          30, 34, 31, -1,
          30, 43, 34, -1,
          31, 34, 35, -1,
          31, 35, 41, -1,
          32, 33, 38, -1,
          32, 37, 39, -1,
          32, 38, 37, -1,
          33, 36, 38, -1,
          34, 37, 35, -1,
          34, 43, 37, -1,
          35, 37, 38, -1,
          35, 38, 41, -1,
          36, 40, 38, -1,
          37, 43, 39, -1,
          38, 40, 41, -1,
          39, 42, 45, -1,
          39, 43, 42, -1,
          39, 45, 46, -1,
          39, 46, 40, -1,
          40, 46, 41, -1,
          41, 44, 47, -1,
          41, 46, 44, -1,
          41, 47, 48, -1,
          41, 48, 43, -1,
          42, 43, 45, -1,
          43, 48, 45, -1,
          44, 46, 47, -1,
          45, 48, 49, -1,
          45, 49, 46, -1,
          46, 49, 50, -1,
          46, 50, 47, -1,
          47, 50, 51, -1,
          47, 51, 48, -1,
          48, 51, 52, -1,
          48, 52, 49, -1,
          49, 52, 53, -1,
          49, 53, 50, -1,
          50, 53, 54, -1,
          50, 54, 51, -1,
          51, 54, 55, -1,
          51, 55, 52, -1,
          52, 55, 56, -1,
          52, 56, 53, -1,
          53, 56, 57, -1,
          53, 57, 58, -1,
          53, 58, 54, -1,
          54, 58, 63, -1,
          54, 63, 66, -1,
          54, 66, 55, -1,
          55, 60, 56, -1,
          55, 66, 60, -1,
          56, 59, 57, -1,
          56, 60, 59, -1,
          57, 59, 65, -1,
          57, 62, 89, -1,
          57, 65, 62, -1,
          57, 89, 58, -1,
          58, 67, 63, -1,
          58, 69, 67, -1,
          58, 71, 69, -1,
          58, 73, 71, -1,
          58, 75, 73, -1,
          58, 77, 75, -1,
          58, 79, 77, -1,
          58, 81, 79, -1,
          58, 85, 81, -1,
          58, 87, 85, -1,
          58, 89, 87, -1,
          59, 60, 84, -1,
          59, 84, 65, -1,
          60, 63, 68, -1,
          60, 66, 63, -1,
          60, 68, 70, -1,
          60, 70, 72, -1,
          60, 72, 74, -1,
          60, 74, 76, -1,
          60, 76, 78, -1,
          60, 78, 80, -1,
          60, 80, 82, -1,
          60, 82, 83, -1,
          60, 83, 84, -1,
          61, 62, 65, -1,
          61, 65, 64, -1,
          61, 88, 89, -1,
          61, 89, 62, -1,
          63, 67, 68, -1,
          64, 65, 86, -1,
          64, 86, 90, -1,
          65, 84, 86, -1,
          67, 69, 68, -1,
          68, 69, 70, -1,
          69, 71, 70, -1,
          70, 71, 72, -1,
          71, 73, 72, -1,
          72, 73, 74, -1,
          73, 75, 76, -1,
          73, 76, 74, -1,
          75, 77, 78, -1,
          75, 78, 76, -1,
          77, 79, 80, -1,
          77, 80, 78, -1,
          79, 81, 82, -1,
          79, 82, 80, -1,
          81, 83, 82, -1,
          81, 85, 83, -1,
          83, 85, 84, -1,
          84, 85, 87, -1,
          86, 89, 90, -1,
          88, 90, 89, -1,
          91, 93, 92, -1,
          91, 110, 111, -1,
          91, 111, 93, -1,
          92, 93, 94, -1,
          92, 94, 114, -1,
          92, 114, 113, -1,
          93, 95, 96, -1,
          93, 96, 94, -1,
          93, 111, 115, -1,
          93, 115, 118, -1,
          93, 118, 95, -1,
          94, 96, 120, -1,
          94, 120, 114, -1,
          95, 97, 98, -1,
          95, 98, 96, -1,
          95, 118, 97, -1,
          96, 98, 120, -1,
          97, 99, 98, -1,
          97, 118, 99, -1,
          98, 99, 100, -1,
          98, 100, 120, -1,
          99, 101, 100, -1,
          99, 118, 101, -1,
          100, 101, 102, -1,
          100, 102, 120, -1,
          101, 103, 104, -1,
          101, 104, 102, -1,
          101, 118, 103, -1,
          102, 104, 120, -1,
          103, 105, 106, -1,
          103, 106, 104, -1,
          103, 118, 105, -1,
          104, 106, 120, -1,
          105, 107, 108, -1,
          105, 108, 106, -1,
          105, 118, 107, -1,
          106, 108, 120, -1,
          107, 112, 108, -1,
          107, 118, 112, -1,
          108, 112, 120, -1,
          109, 116, 117, -1,
          109, 117, 118, -1,
          109, 118, 115, -1,
          110, 113, 111, -1,
          111, 113, 114, -1,
          111, 114, 119, -1,
          111, 116, 115, -1,
          111, 119, 116, -1,
          112, 118, 120, -1,
          114, 120, 119, -1,
          116, 119, 117, -1,
          117, 119, 123, -1,
          117, 122, 118, -1,
          117, 123, 122, -1,
          118, 121, 124, -1,
          118, 122, 121, -1,
          118, 124, 120, -1,
          119, 120, 124, -1,
          119, 124, 123, -1,
          121, 122, 126, -1,
          121, 125, 124, -1,
          121, 126, 125, -1,
          122, 123, 127, -1,
          122, 127, 126, -1,
          123, 124, 128, -1,
          123, 128, 127, -1,
          124, 125, 128, -1,
          125, 126, 130, -1,
          125, 129, 128, -1,
          125, 130, 129, -1,
          126, 127, 131, -1,
          126, 131, 130, -1,
          127, 128, 132, -1,
          127, 132, 131, -1,
          128, 129, 132, -1,
          129, 130, 133, -1,
          129, 133, 132, -1,
          130, 131, 135, -1,
          130, 134, 133, -1,
          130, 135, 134, -1,
          131, 132, 135, -1,
          132, 133, 136, -1,
          132, 136, 135, -1,
          133, 134, 152, -1,
          133, 137, 136, -1,
          133, 152, 137, -1,
          134, 135, 138, -1,
          134, 138, 140, -1,
          134, 140, 153, -1,
          134, 153, 152, -1,
          135, 136, 154, -1,
          135, 142, 138, -1,
          135, 154, 142, -1,
          136, 137, 139, -1,
          136, 139, 143, -1,
          136, 143, 155, -1,
          136, 155, 154, -1,
          137, 141, 139, -1,
          137, 152, 141, -1,
          138, 139, 141, -1,
          138, 141, 140, -1,
          138, 142, 139, -1,
          139, 142, 143, -1,
          140, 141, 145, -1,
          140, 144, 153, -1,
          140, 145, 144, -1,
          141, 152, 145, -1,
          142, 146, 143, -1,
          142, 154, 146, -1,
          143, 146, 147, -1,
          143, 147, 155, -1,
          144, 145, 149, -1,
          144, 148, 153, -1,
          144, 149, 148, -1,
          145, 152, 149, -1,
          146, 150, 147, -1,
          146, 154, 150, -1,
          147, 150, 151, -1,
          147, 151, 155, -1,
          148, 149, 156, -1,
          148, 156, 153, -1,
          149, 152, 157, -1,
          149, 157, 156, -1,
          150, 154, 158, -1,
          150, 158, 159, -1,
          150, 159, 151, -1,
          151, 159, 155, -1,
          152, 153, 165, -1,
          152, 165, 157, -1,
          153, 156, 164, -1,
          153, 164, 165, -1,
          154, 155, 170, -1,
          154, 170, 158, -1,
          155, 159, 171, -1,
          155, 171, 170, -1,
          156, 157, 160, -1,
          156, 160, 164, -1,
          157, 161, 160, -1,
          157, 165, 161, -1,
          158, 162, 163, -1,
          158, 163, 159, -1,
          158, 170, 162, -1,
          159, 163, 171, -1,
          160, 161, 166, -1,
          160, 166, 164, -1,
          161, 165, 167, -1,
          161, 167, 166, -1,
          162, 168, 169, -1,
          162, 169, 163, -1,
          162, 170, 168, -1,
          163, 169, 171, -1,
          172, 173, 175, -1,
          172, 174, 202, -1,
          172, 175, 174, -1,
          172, 200, 201, -1,
          172, 201, 173, -1,
          172, 202, 200, -1,
          173, 201, 203, -1,
          173, 203, 175, -1,
          174, 175, 176, -1,
          174, 176, 179, -1,
          174, 179, 213, -1,
          174, 213, 202, -1,
          175, 203, 176, -1,
          176, 177, 179, -1,
          176, 203, 177, -1,
          177, 178, 179, -1,
          177, 203, 178, -1,
          178, 180, 179, -1,
          178, 203, 206, -1,
          178, 206, 180, -1,
          179, 180, 185, -1,
          179, 185, 213, -1,
          180, 181, 185, -1,
          180, 206, 181, -1,
          181, 182, 185, -1,
          181, 206, 182, -1,
          182, 183, 185, -1,
          182, 206, 183, -1,
          183, 184, 185, -1,
          183, 206, 211, -1,
          183, 211, 212, -1,
          183, 212, 184, -1,
          184, 186, 185, -1,
          184, 212, 214, -1,
          184, 214, 186, -1,
          185, 186, 190, -1,
          185, 190, 219, -1,
          185, 219, 213, -1,
          186, 187, 190, -1,
          186, 214, 215, -1,
          186, 215, 187, -1,
          187, 188, 190, -1,
          187, 215, 216, -1,
          187, 216, 188, -1,
          188, 189, 190, -1,
          188, 216, 217, -1,
          188, 217, 189, -1,
          189, 199, 190, -1,
          190, 191, 219, -1,
          190, 199, 191, -1,
          191, 192, 221, -1,
          191, 199, 192, -1,
          191, 221, 219, -1,
          192, 193, 221, -1,
          192, 199, 193, -1,
          193, 194, 222, -1,
          193, 199, 194, -1,
          193, 222, 221, -1,
          194, 195, 223, -1,
          194, 199, 195, -1,
          194, 223, 222, -1,
          195, 196, 224, -1,
          195, 199, 196, -1,
          195, 224, 223, -1,
          196, 197, 225, -1,
          196, 199, 197, -1,
          196, 225, 224, -1,
          197, 198, 226, -1,
          197, 199, 198, -1,
          197, 226, 225, -1,
          198, 199, 227, -1,
          198, 227, 226, -1,
          200, 202, 203, -1,
          200, 203, 201, -1,
          202, 204, 203, -1,
          202, 207, 204, -1,
          202, 213, 207, -1,
          203, 204, 206, -1,
          204, 205, 206, -1,
          204, 207, 205, -1,
          205, 207, 206, -1,
          206, 207, 208, -1,
          206, 208, 211, -1,
          207, 213, 208, -1,
          208, 209, 211, -1,
          208, 213, 209, -1,
          209, 210, 211, -1,
          209, 213, 210, -1,
          210, 213, 211, -1,
          211, 213, 212, -1,
          212, 213, 214, -1,
          213, 218, 214, -1,
          213, 219, 218, -1,
          214, 218, 215, -1,
          215, 218, 216, -1,
          216, 218, 217, -1,
          217, 218, 227, -1,
          218, 219, 227, -1,
          219, 220, 227, -1,
          219, 221, 220, -1,
          220, 221, 227, -1,
          221, 222, 227, -1,
          222, 223, 227, -1,
          223, 224, 227, -1,
          224, 225, 227, -1,
          225, 226, 227, -1,
          228, 229, 230, -1,
          228, 230, 256, -1,
          229, 231, 230, -1,
          229, 232, 231, -1,
          229, 233, 232, -1,
          229, 234, 233, -1,
          229, 235, 234, -1,
          229, 236, 235, -1,
          229, 237, 236, -1,
          229, 238, 237, -1,
          229, 239, 242, -1,
          229, 242, 238, -1,
          229, 266, 239, -1,
          230, 231, 257, -1,
          230, 257, 256, -1,
          231, 232, 258, -1,
          231, 258, 257, -1,
          232, 233, 259, -1,
          232, 259, 258, -1,
          233, 234, 260, -1,
          233, 260, 259, -1,
          234, 235, 261, -1,
          234, 261, 260, -1,
          235, 236, 264, -1,
          235, 262, 261, -1,
          235, 263, 262, -1,
          235, 264, 263, -1,
          236, 237, 264, -1,
          237, 238, 242, -1,
          237, 242, 264, -1,
          239, 240, 242, -1,
          239, 266, 267, -1,
          239, 267, 240, -1,
          240, 241, 242, -1,
          240, 267, 268, -1,
          240, 268, 241, -1,
          241, 243, 242, -1,
          241, 268, 269, -1,
          241, 269, 243, -1,
          242, 243, 248, -1,
          242, 248, 280, -1,
          242, 270, 264, -1,
          242, 276, 270, -1,
          242, 280, 276, -1,
          243, 244, 248, -1,
          243, 269, 271, -1,
          243, 271, 244, -1,
          244, 245, 248, -1,
          244, 271, 272, -1,
          245, 246, 248, -1,
          246, 247, 248, -1,
          246, 249, 247, -1,
          246, 277, 249, -1,
          247, 249, 248, -1,
          248, 249, 252, -1,
          248, 252, 280, -1,
          249, 250, 252, -1,
          249, 251, 250, -1,
          249, 253, 251, -1,
          249, 277, 278, -1,
          249, 278, 281, -1,
          249, 281, 253, -1,
          250, 251, 252, -1,
          251, 253, 252, -1,
          252, 253, 255, -1,
          252, 254, 282, -1,
          252, 255, 254, -1,
          252, 282, 280, -1,
          253, 281, 283, -1,
          253, 283, 255, -1,
          254, 255, 283, -1,
          254, 283, 282, -1,
          256, 257, 266, -1,
          257, 258, 266, -1,
          258, 259, 266, -1,
          259, 260, 266, -1,
          260, 261, 266, -1,
          261, 262, 266, -1,
          262, 263, 266, -1,
          263, 264, 266, -1,
          264, 265, 266, -1,
          264, 270, 265, -1,
          265, 270, 266, -1,
          266, 270, 267, -1,
          267, 270, 268, -1,
          268, 270, 269, -1,
          269, 270, 271, -1,
          270, 276, 271, -1,
          271, 276, 272, -1,
          272, 273, 275, -1,
          272, 275, 284, -1,
          272, 276, 273, -1,
          273, 274, 275, -1,
          273, 276, 274, -1,
          274, 276, 275, -1,
          275, 276, 277, -1,
          275, 277, 284, -1,
          276, 280, 277, -1,
          277, 280, 278, -1,
          278, 279, 281, -1,
          278, 280, 279, -1,
          279, 280, 281, -1,
          280, 282, 283, -1,
          280, 283, 281, -1,
          285, 287, 290, -1,
          285, 289, 293, -1,
          285, 290, 289, -1,
          285, 293, 286, -1,
          286, 293, 288, -1,
          287, 288, 290, -1,
          288, 293, 295, -1,
          288, 294, 290, -1,
          288, 295, 294, -1,
          289, 290, 291, -1,
          289, 291, 293, -1,
          290, 294, 291, -1,
          291, 292, 293, -1,
          291, 294, 292, -1,
          296, 298, 301, -1,
          296, 300, 303, -1,
          296, 301, 300, -1,
          296, 303, 297, -1,
          297, 303, 305, -1,
          297, 305, 299, -1,
          298, 299, 301, -1,
          299, 305, 301, -1,
          300, 301, 302, -1,
          300, 302, 303, -1,
          301, 304, 302, -1,
          301, 305, 304, -1,
          306, 307, 308, -1,
          306, 308, 307, -1,
          309, 311, 310, -1,
          310, 311, 312, -1,
          313, 316, 314, -1,
          313, 317, 316, -1,
          314, 316, 315, -1,
          318, 319, 321, -1,
          318, 321, 320, -1,
          322, 323, 324, -1,
          323, 325, 324, -1,
          326, 328, 327, -1,
          327, 328, 329, -1,
          330, 332, 331, -1,
          331, 332, 333, -1,
          334, 336, 335, -1,
          335, 336, 337, -1,
          338, 340, 339, -1,
          339, 340, 341, -1,
          342, 343, 344, -1 ]
        color Color { color [
          0.5725490196078431 0.5725490196078431 0.5725490196078431,
          1.0 0.6 0.23922,
          1.0 1.0 1.0 ] }
        colorIndex [
          1, 1, 1, -1,
          1, 1, 1, -1,
          1, 1, 1, -1,
          1, 1, 1, -1,
          1, 1, 1, -1,
          1, 1, 1, -1,
          1, 1, 1, -1,
          1, 1, 1, -1,
          1, 1, 1, -1,
          1, 1, 1, -1,
          1, 1, 1, -1,
          1, 1, 1, -1,
          1, 1, 1, -1,
          1, 1, 1, -1,
          1, 1, 1, -1,
          1, 1, 1, -1,
          1, 1, 1, -1,
          1, 1, 1, -1,
          1, 1, 1, -1,
          1, 1, 1, -1,
          1, 1, 1, -1,
          1, 1, 1, -1,
          1, 1, 1, -1,
          1, 1, 1, -1,
          1, 1, 1, -1,
          1, 1, 1, -1,
          1, 1, 1, -1,
          1, 1, 1, -1,
          1, 1, 1, -1,
          1, 1, 1, -1,
          1, 1, 1, -1,
          1, 1, 1, -1,
          1, 1, 1, -1,
          1, 1, 1, -1,
          1, 1, 1, -1,
          1, 1, 1, -1,
          1, 1, 1, -1,
          1, 1, 1, -1,
          1, 1, 1, -1,
          1, 1, 1, -1,
          1, 1, 1, -1,
          1, 1, 1, -1,
          1, 1, 1, -1,
          1, 1, 1, -1,
          1, 1, 1, -1,
          1, 1, 1, -1,
          1, 1, 1, -1,
          1, 1, 1, -1,
          1, 1, 1, -1,
          1, 1, 1, -1,
          1, 1, 1, -1,
          1, 1, 1, -1,
          1, 1, 1, -1,
          1, 1, 1, -1,
          1, 1, 1, -1,
          1, 1, 1, -1,
          1, 1, 1, -1,
          1, 1, 1, -1,
          1, 1, 1, -1,
          1, 1, 1, -1,
          1, 1, 1, -1,
          1, 1, 1, -1,
          1, 1, 1, -1,
          1, 1, 1, -1,
          1, 1, 1, -1,
          1, 1, 1, -1,
          1, 1, 1, -1,
          1, 1, 1, -1,
          1, 1, 1, -1,
          1, 1, 1, -1,
          1, 1, 1, -1,
          1, 1, 1, -1,
          1, 1, 1, -1,
          1, 1, 1, -1,
          1, 1, 1, -1,
          1, 1, 1, -1,
          1, 1, 1, -1,
          1, 1, 1, -1,
          1, 1, 1, -1,
          1, 1, 1, -1,
          1, 1, 1, -1,
          1, 1, 1, -1,
          1, 1, 1, -1,
          1, 1, 1, -1,
          1, 1, 1, -1,
          1, 1, 1, -1,
          1, 1, 1, -1,
          1, 1, 1, -1,
          1, 1, 1, -1,
          1, 1, 1, -1,
          1, 1, 1, -1,
          1, 1, 1, -1,
          1, 1, 1, -1,
          1, 1, 1, -1,
          1, 1, 1, -1,
          1, 1, 1, -1,
          1, 1, 1, -1,
          1, 1, 1, -1,
          1, 1, 1, -1,
          1, 1, 1, -1,
          1, 1, 1, -1,
          1, 1, 1, -1,
          1, 1, 1, -1,
          1, 1, 1, -1,
          1, 1, 1, -1,
          1, 1, 1, -1,
          1, 1, 1, -1,
          1, 1, 1, -1,
          1, 1, 1, -1,
          1, 1, 1, -1,
          1, 1, 1, -1,
          1, 1, 1, -1,
          1, 1, 1, -1,
          1, 1, 1, -1,
          1, 1, 1, -1,
          1, 1, 1, -1,
          1, 1, 1, -1,
          1, 1, 1, -1,
          1, 1, 1, -1,
          1, 1, 1, -1,
          1, 1, 1, -1,
          1, 1, 1, -1,
          1, 1, 1, -1,
          1, 1, 1, -1,
          1, 1, 1, -1,
          1, 1, 1, -1,
          1, 1, 1, -1,
          1, 1, 1, -1,
          1, 1, 1, -1,
          1, 1, 1, -1,
          1, 1, 1, -1,
          1, 1, 1, -1,
          1, 1, 1, -1,
          1, 1, 1, -1,
          1, 1, 1, -1,
          1, 1, 1, -1,
          1, 1, 1, -1,
          1, 1, 1, -1,
          1, 1, 1, -1,
          1, 1, 1, -1,
          1, 1, 1, -1,
          1, 1, 1, -1,
          1, 1, 1, -1,
          1, 1, 1, -1,
          1, 1, 1, -1,
          1, 1, 1, -1,
          1, 1, 1, -1,
          1, 1, 1, -1,
          1, 1, 1, -1,
          1, 1, 1, -1,
          1, 1, 1, -1,
          1, 1, 1, -1,
          1, 1, 1, -1,
          1, 1, 1, -1,
          1, 1, 1, -1,
          1, 1, 1, -1,
          1, 1, 1, -1,
          1, 1, 1, -1,
          1, 1, 1, -1,
          1, 1, 1, -1,
          1, 1, 1, -1,
          1, 1, 1, -1,
          1, 1, 1, -1,
          1, 1, 1, -1,
          1, 1, 1, -1,
          1, 1, 1, -1,
          1, 1, 1, -1,
          1, 1, 1, -1,
          1, 1, 1, -1,
          1, 1, 1, -1,
          1, 1, 1, -1,
          1, 1, 1, -1,
          1, 1, 1, -1,
          1, 1, 1, -1,
          1, 1, 1, -1,
          1, 1, 1, -1,
          1, 1, 1, -1,
          1, 1, 1, -1,
          1, 1, 1, -1,
          1, 1, 1, -1,
          1, 1, 1, -1,
          1, 1, 1, -1,
          1, 1, 1, -1,
          1, 1, 1, -1,
          1, 1, 1, -1,
          1, 1, 1, -1,
          1, 1, 1, -1,
          1, 1, 1, -1,
          1, 1, 1, -1,
          1, 1, 1, -1,
          1, 1, 1, -1,
          1, 1, 1, -1,
          1, 1, 1, -1,
          1, 1, 1, -1,
          1, 1, 1, -1,
          1, 1, 1, -1,
          1, 1, 1, -1,
          1, 1, 1, -1,
          1, 1, 1, -1,
          1, 1, 1, -1,
          1, 1, 1, -1,
          1, 1, 1, -1,
          1, 1, 1, -1,
          1, 1, 1, -1,
          1, 1, 1, -1,
          1, 1, 1, -1,
          1, 1, 1, -1,
          1, 1, 1, -1,
          1, 1, 1, -1,
          1, 1, 1, -1,
          1, 1, 1, -1,
          1, 1, 1, -1,
          1, 1, 1, -1,
          1, 1, 1, -1,
          1, 1, 1, -1,
          1, 1, 1, -1,
          1, 1, 1, -1,
          1, 1, 1, -1,
          1, 1, 1, -1,
          1, 1, 1, -1,
          1, 1, 1, -1,
          1, 1, 1, -1,
          1, 1, 1, -1,
          1, 1, 1, -1,
          1, 1, 1, -1,
          1, 1, 1, -1,
          1, 1, 1, -1,
          1, 1, 1, -1,
          1, 1, 1, -1,
          1, 1, 1, -1,
          1, 1, 1, -1,
          1, 1, 1, -1,
          1, 1, 1, -1,
          1, 1, 1, -1,
          1, 1, 1, -1,
          1, 1, 1, -1,
          1, 1, 1, -1,
          1, 1, 1, -1,
          1, 1, 1, -1,
          1, 1, 1, -1,
          1, 1, 1, -1,
          1, 1, 1, -1,
          1, 1, 1, -1,
          1, 1, 1, -1,
          1, 1, 1, -1,
          1, 1, 1, -1,
          1, 1, 1, -1,
          1, 1, 1, -1,
          1, 1, 1, -1,
          1, 1, 1, -1,
          1, 1, 1, -1,
          1, 1, 1, -1,
          1, 1, 1, -1,
          1, 1, 1, -1,
          1, 1, 1, -1,
          1, 1, 1, -1,
          1, 1, 1, -1,
          1, 1, 1, -1,
          1, 1, 1, -1,
          1, 1, 1, -1,
          1, 1, 1, -1,
          1, 1, 1, -1,
          1, 1, 1, -1,
          1, 1, 1, -1,
          1, 1, 1, -1,
          1, 1, 1, -1,
          1, 1, 1, -1,
          1, 1, 1, -1,
          1, 1, 1, -1,
          1, 1, 1, -1,
          1, 1, 1, -1,
          1, 1, 1, -1,
          1, 1, 1, -1,
          1, 1, 1, -1,
          1, 1, 1, -1,
          1, 1, 1, -1,
          1, 1, 1, -1,
          1, 1, 1, -1,
          1, 1, 1, -1,
          1, 1, 1, -1,
          1, 1, 1, -1,
          1, 1, 1, -1,
          1, 1, 1, -1,
          1, 1, 1, -1,
          1, 1, 1, -1,
          1, 1, 1, -1,
          1, 1, 1, -1,
          1, 1, 1, -1,
          1, 1, 1, -1,
          1, 1, 1, -1,
          1, 1, 1, -1,
          1, 1, 1, -1,
          1, 1, 1, -1,
          1, 1, 1, -1,
          1, 1, 1, -1,
          1, 1, 1, -1,
          1, 1, 1, -1,
          1, 1, 1, -1,
          1, 1, 1, -1,
          1, 1, 1, -1,
          1, 1, 1, -1,
          1, 1, 1, -1,
          1, 1, 1, -1,
          1, 1, 1, -1,
          1, 1, 1, -1,
          1, 1, 1, -1,
          1, 1, 1, -1,
          1, 1, 1, -1,
          1, 1, 1, -1,
          1, 1, 1, -1,
          1, 1, 1, -1,
          1, 1, 1, -1,
          1, 1, 1, -1,
          1, 1, 1, -1,
          1, 1, 1, -1,
          1, 1, 1, -1,
          0, 0, 0, -1,
          0, 0, 0, -1,
          0, 0, 0, -1,
          0, 0, 0, -1,
          0, 0, 0, -1,
          0, 0, 0, -1,
          1, 1, 1, -1,
          1, 1, 1, -1,
          0, 0, 0, -1,
          0, 0, 0, -1,
          0, 0, 0, -1,
          0, 0, 0, -1,
          1, 1, 1, -1,
          0, 0, 0, -1,
          1, 1, 1, -1,
          0, 0, 0, -1,
          1, 1, 1, -1,
          0, 0, 0, -1,
          1, 1, 1, -1,
          1, 1, 1, -1,
          0, 0, 0, -1,
          0, 0, 0, -1,
          0, 0, 0, -1,
          1, 1, 1, -1,
          0, 0, 0, -1,
          1, 1, 1, -1,
          0, 0, 0, -1,
          1, 1, 1, -1,
          0, 0, 0, -1,
          1, 1, 1, -1,
          1, 1, 1, -1,
          1, 1, 1, -1,
          0, 0, 0, -1,
          1, 1, 1, -1,
          1, 1, 1, -1,
          0, 0, 0, -1,
          0, 0, 0, -1,
          0, 0, 0, -1,
          0, 0, 0, -1,
          1, 1, 1, -1,
          1, 1, 1, -1,
          0, 0, 0, -1,
          1, 1, 1, -1,
          1, 1, 1, -1,
          0, 0, 0, -1,
          1, 1, 1, -1,
          1, 1, 1, -1,
          0, 0, 0, -1,
          0, 0, 0, -1,
          0, 0, 0, -1,
          0, 0, 0, -1,
          0, 0, 0, -1,
          0, 0, 0, -1,
          0, 0, 0, -1,
          0, 0, 0, -1,
          0, 0, 0, -1,
          0, 0, 0, -1,
          0, 0, 0, -1,
          0, 0, 0, -1,
          0, 0, 0, -1,
          0, 0, 0, -1,
          0, 0, 0, -1,
          0, 0, 0, -1,
          0, 0, 0, -1,
          0, 0, 0, -1,
          0, 0, 0, -1,
          0, 0, 0, -1,
          1, 1, 1, -1,
          1, 1, 1, -1,
          1, 1, 1, -1,
          1, 1, 1, -1,
          1, 1, 1, -1,
          0, 0, 0, -1,
          0, 0, 0, -1,
          0, 0, 0, -1,
          0, 0, 0, -1,
          0, 0, 0, -1,
          1, 1, 1, -1,
          1, 1, 1, -1,
          0, 0, 0, -1,
          0, 0, 0, -1,
          0, 0, 0, -1,
          1, 1, 1, -1,
          0, 0, 0, -1,
          1, 1, 1, -1,
          0, 0, 0, -1,
          1, 1, 1, -1,
          0, 0, 0, -1,
          0, 0, 0, -1,
          0, 0, 0, -1,
          0, 0, 0, -1,
          0, 0, 0, -1,
          0, 0, 0, -1,
          0, 0, 0, -1,
          0, 0, 0, -1,
          0, 0, 0, -1,
          0, 0, 0, -1,
          0, 0, 0, -1,
          0, 0, 0, -1,
          0, 0, 0, -1,
          0, 0, 0, -1,
          0, 0, 0, -1,
          0, 0, 0, -1,
          0, 0, 0, -1,
          0, 0, 0, -1,
          1, 1, 1, -1,
          1, 1, 1, -1,
          1, 1, 1, -1,
          0, 0, 0, -1,
          0, 0, 0, -1,
          0, 0, 0, -1,
          0, 0, 0, -1,
          0, 0, 0, -1,
          0, 0, 0, -1,
          0, 0, 0, -1,
          0, 0, 0, -1,
          0, 0, 0, -1,
          0, 0, 0, -1,
          1, 1, 1, -1,
          0, 0, 0, -1,
          1, 1, 1, -1,
          0, 0, 0, -1,
          0, 0, 0, -1,
          0, 0, 0, -1,
          0, 0, 0, -1,
          0, 0, 0, -1,
          0, 0, 0, -1,
          0, 0, 0, -1,
          0, 0, 0, -1,
          0, 0, 0, -1,
          0, 0, 0, -1,
          0, 0, 0, -1,
          0, 0, 0, -1,
          0, 0, 0, -1,
          0, 0, 0, -1,
          0, 0, 0, -1,
          0, 0, 0, -1,
          1, 1, 1, -1,
          1, 1, 1, -1,
          0, 0, 0, -1,
          1, 1, 1, -1,
          1, 1, 1, -1,
          0, 0, 0, -1,
          1, 1, 1, -1,
          1, 1, 1, -1,
          0, 0, 0, -1,
          0, 0, 0, -1,
          0, 0, 0, -1,
          0, 0, 0, -1,
          0, 0, 0, -1,
          0, 0, 0, -1,
          1, 1, 1, -1,
          1, 1, 1, -1,
          0, 0, 0, -1,
          1, 1, 1, -1,
          0, 0, 0, -1,
          0, 0, 0, -1,
          0, 0, 0, -1,
          0, 0, 0, -1,
          0, 0, 0, -1,
          0, 0, 0, -1,
          0, 0, 0, -1,
          0, 0, 0, -1,
          0, 0, 0, -1,
          0, 0, 0, -1,
          0, 0, 0, -1,
          0, 0, 0, -1,
          0, 0, 0, -1,
          0, 0, 0, -1,
          0, 0, 0, -1,
          0, 0, 0, -1,
          0, 0, 0, -1,
          0, 0, 0, -1,
          0, 0, 0, -1,
          0, 0, 0, -1,
          0, 0, 0, -1,
          0, 0, 0, -1,
          0, 0, 0, -1,
          1, 1, 1, -1,
          0, 0, 0, -1,
          0, 0, 0, -1,
          0, 0, 0, -1,
          0, 0, 0, -1,
          0, 0, 0, -1,
          0, 0, 0, -1,
          0, 0, 0, -1,
          0, 0, 0, -1,
          0, 0, 0, -1,
          0, 0, 0, -1,
          0, 0, 0, -1,
          0, 0, 0, -1,
          0, 0, 0, -1,
          0, 0, 0, -1,
          0, 0, 0, -1,
          0, 0, 0, -1,
          1, 1, 1, -1,
          1, 1, 1, -1,
          0, 0, 0, -1,
          1, 1, 1, -1,
          0, 0, 0, -1,
          0, 0, 0, -1,
          0, 0, 0, -1,
          0, 0, 0, -1,
          0, 0, 0, -1,
          0, 0, 0, -1,
          0, 0, 0, -1,
          0, 0, 0, -1,
          0, 0, 0, -1,
          0, 0, 0, -1,
          0, 0, 0, -1,
          1, 1, 1, -1,
          1, 1, 1, -1,
          1, 1, 1, -1,
          1, 1, 1, -1,
          1, 1, 1, -1,
          1, 1, 1, -1,
          1, 1, 1, -1,
          1, 1, 1, -1,
          1, 1, 1, -1,
          1, 1, 1, -1,
          1, 1, 1, -1,
          1, 1, 1, -1,
          1, 1, 1, -1,
          1, 1, 1, -1,
          1, 1, 1, -1,
          1, 1, 1, -1,
          1, 1, 1, -1,
          1, 1, 1, -1,
          1, 1, 1, -1,
          1, 1, 1, -1,
          1, 1, 1, -1,
          1, 1, 1, -1,
          1, 1, 1, -1,
          1, 1, 1, -1,
          1, 1, 1, -1,
          1, 1, 1, -1,
          1, 1, 1, -1,
          1, 1, 1, -1,
          1, 1, 1, -1,
          1, 1, 1, -1,
          1, 1, 1, -1,
          1, 1, 1, -1,
          1, 1, 1, -1,
          1, 1, 1, -1,
          1, 1, 1, -1,
          1, 1, 1, -1,
          1, 1, 1, -1,
          1, 1, 1, -1,
          1, 1, 1, -1,
          1, 1, 1, -1,
          1, 1, 1, -1,
          1, 1, 1, -1,
          1, 1, 1, -1,
          1, 1, 1, -1,
          1, 1, 1, -1,
          1, 1, 1, -1 ]
      }
    }
  ]
}

