EESchema Schematic File Version 4
LIBS:pbv3-cache
EELAYER 26 0
EELAYER END
$Descr A4 11693 8268
encoding utf-8
Sheet 3 4
Title "Powerboard v3"
Date "2017-10-23"
Rev "A"
Comp "LBNL"
Comment1 "Timon Heim"
Comment2 ""
Comment3 ""
Comment4 ""
$EndDescr
$Comp
L pbv3-rescue:R R14
U 1 1 59F08275
P 3150 3500
F 0 "R14" V 3230 3500 50  0000 C CNN
F 1 "499" V 3150 3500 50  0000 C CNN
F 2 "Resistors_SMD:R_0201" V 3080 3500 50  0001 C CNN
F 3 "" H 3150 3500 50  0000 C CNN
F 4 "RC0201FR-07499RL" V 3150 3500 60  0001 C CNN "Part"
	1    3150 3500
	0    1    1    0   
$EndComp
$Comp
L pbv3-rescue:C C19
U 1 1 59F0827C
P 3500 3650
AR Path="/59F0827C" Ref="C19"  Part="1" 
AR Path="/59F07AAA/59F0827C" Ref="C19"  Part="1" 
F 0 "C19" H 3525 3750 50  0000 L CNN
F 1 "1nF" H 3525 3550 50  0000 L CNN
F 2 "Capacitors_SMD:C_0402" H 3538 3500 50  0001 C CNN
F 3 "" H 3500 3650 50  0000 C CNN
F 4 "GCM155L81H102KA37D" H 3500 3650 60  0001 C CNN "Part"
	1    3500 3650
	1    0    0    -1  
$EndComp
$Comp
L pbv3-rescue:C C20
U 1 1 59F08283
P 3850 3500
AR Path="/59F08283" Ref="C20"  Part="1" 
AR Path="/59F07AAA/59F08283" Ref="C20"  Part="1" 
F 0 "C20" H 3875 3600 50  0000 L CNN
F 1 "47nF/1kV" H 3875 3400 50  0000 L CNN
F 2 "Capacitors_SMD:C_1210" H 3888 3350 50  0001 C CNN
F 3 "" H 3850 3500 50  0000 C CNN
F 4 "C1210C683KDRACTU" H 3850 3500 60  0001 C CNN "Part"
F 5 "May choose: VJ1210Y473KXGAT5Z but due to high derating use 68nF" H 3850 3500 60  0001 C CNN "Comment"
	1    3850 3500
	0    1    1    0   
$EndComp
$Comp
L pbv3-rescue:C C24
U 1 1 59F0829F
P 6000 4050
AR Path="/59F0829F" Ref="C24"  Part="1" 
AR Path="/59F07AAA/59F0829F" Ref="C24"  Part="1" 
F 0 "C24" H 6025 4150 50  0000 L CNN
F 1 "1uF" H 6025 3950 50  0000 L CNN
F 2 "Capacitors_SMD:C_0603" H 6038 3900 50  0001 C CNN
F 3 "" H 6000 4050 50  0000 C CNN
F 4 " C0603C105K9PAC " H 6000 4050 60  0001 C CNN "Part"
	1    6000 4050
	1    0    0    -1  
$EndComp
$Comp
L pbv3-rescue:C C21
U 1 1 59F082A6
P 3850 4900
AR Path="/59F082A6" Ref="C21"  Part="1" 
AR Path="/59F07AAA/59F082A6" Ref="C21"  Part="1" 
F 0 "C21" H 3875 5000 50  0000 L CNN
F 1 "47nF/1kV" H 3875 4800 50  0000 L CNN
F 2 "Capacitors_SMD:C_1210" H 3888 4750 50  0001 C CNN
F 3 "" H 3850 4900 50  0000 C CNN
F 4 "C1210C683KDRACTU" H 3850 4900 60  0001 C CNN "Part"
F 5 "May choose: VJ1210Y473KXGAT5Z but due to high derating use 68nF" H 3850 4900 60  0001 C CNN "Comment"
	1    3850 4900
	0    1    1    0   
$EndComp
Wire Wire Line
	3000 3500 2700 3500
Wire Wire Line
	3300 3500 3500 3500
Connection ~ 3500 3500
$Comp
L power:GND #PWR0302
U 1 1 59F082B8
P 3500 3900
F 0 "#PWR0302" H 3500 3650 50  0001 C CNN
F 1 "GND" H 3500 3750 50  0000 C CNN
F 2 "" H 3500 3900 50  0000 C CNN
F 3 "" H 3500 3900 50  0000 C CNN
	1    3500 3900
	1    0    0    -1  
$EndComp
$Comp
L power:GND #PWR0301
U 1 1 59F082BE
P 3450 4950
F 0 "#PWR0301" H 3450 4700 50  0001 C CNN
F 1 "GND" H 3450 4800 50  0000 C CNN
F 2 "" H 3450 4950 50  0000 C CNN
F 3 "" H 3450 4950 50  0000 C CNN
	1    3450 4950
	1    0    0    -1  
$EndComp
Wire Wire Line
	3500 3900 3500 3800
Wire Wire Line
	2700 4900 3450 4900
Wire Wire Line
	3450 4900 3450 4950
$Comp
L pbv3-rescue:R R15
U 1 1 59F082D5
P 5700 3850
F 0 "R15" V 5780 3850 50  0000 C CNN
F 1 "100" V 5700 3850 50  0000 C CNN
F 2 "Resistors_SMD:R_0201" V 5630 3850 50  0001 C CNN
F 3 "" H 5700 3850 50  0000 C CNN
F 4 "RC0402JR-07100RP" V 5700 3850 60  0001 C CNN "Part"
	1    5700 3850
	0    1    1    0   
$EndComp
$Comp
L pbv3-rescue:R R16
U 1 1 59F082DC
P 5700 4250
F 0 "R16" V 5780 4250 50  0000 C CNN
F 1 "0" V 5700 4250 50  0000 C CNN
F 2 "Resistors_SMD:R_0201" V 5630 4250 50  0001 C CNN
F 3 "" H 5700 4250 50  0000 C CNN
F 4 "AF0402JR-070RL" V 5700 4250 60  0001 C CNN "Part"
	1    5700 4250
	0    1    1    0   
$EndComp
$Comp
L pbv3-rescue:Q_NMOS_DGS Q1
U 1 1 59F082EA
P 6800 3850
AR Path="/59F082EA" Ref="Q1"  Part="1" 
AR Path="/59F07AAA/59F082EA" Ref="Q1"  Part="1" 
F 0 "Q1" H 7100 3900 50  0000 R CNN
F 1 "HVmux" H 6850 4050 50  0000 R CNN
F 2 "pbv3:HVmux" H 7000 3950 50  0001 C CNN
F 3 "" H 6800 3850 50  0000 C CNN
	1    6800 3850
	1    0    0    -1  
$EndComp
$Comp
L pbv3-rescue:R R17
U 1 1 59F082F1
P 6550 4050
F 0 "R17" V 6630 4050 50  0000 C CNN
F 1 "20k" V 6550 4050 50  0000 C CNN
F 2 "Resistors_SMD:R_0201" V 6480 4050 50  0001 C CNN
F 3 "" H 6550 4050 50  0000 C CNN
F 4 "RC0402FR-1320KL" V 6550 4050 60  0001 C CNN "Part"
	1    6550 4050
	1    0    0    -1  
$EndComp
$Comp
L pbv3-rescue:D_Zener D2
U 1 1 59F082F8
P 6350 4050
F 0 "D2" H 6350 4150 50  0000 C CNN
F 1 "VDZT2R4.7B" H 6350 3950 50  0000 C CNN
F 2 "Diodes_SMD:D_0603" H 6350 4050 50  0001 C CNN
F 3 "" H 6350 4050 50  0000 C CNN
	1    6350 4050
	0    1    1    0   
$EndComp
Wire Wire Line
	5850 3850 6000 3850
Wire Wire Line
	6000 3850 6000 3900
Wire Wire Line
	5850 4250 6000 4250
Wire Wire Line
	6000 4250 6000 4200
Connection ~ 6000 4250
Connection ~ 6000 3850
Wire Wire Line
	6900 4050 6900 4250
Connection ~ 6900 4250
Connection ~ 6350 3850
Connection ~ 6350 4250
Wire Wire Line
	6550 4200 6550 4250
Connection ~ 6550 4250
Wire Wire Line
	6550 3900 6550 3850
Connection ~ 6550 3850
$Comp
L pbv3-rescue:R R18
U 1 1 59F08314
P 7300 2900
F 0 "R18" V 7380 2900 50  0000 C CNN
F 1 "4M7-400V" V 7200 2900 50  0000 C CNN
F 2 "Resistors_SMD:R_0805" V 7230 2900 50  0001 C CNN
F 3 "" H 7300 2900 50  0000 C CNN
	1    7300 2900
	1    0    0    -1  
$EndComp
$Comp
L pbv3-rescue:R R19
U 1 1 59F0831B
P 7300 3300
F 0 "R19" V 7380 3300 50  0000 C CNN
F 1 "4M7-400V" V 7200 3250 50  0000 C CNN
F 2 "Resistors_SMD:R_0805" V 7230 3300 50  0001 C CNN
F 3 "" H 7300 3300 50  0000 C CNN
F 4 "RV0805JR-074M7L" V 7300 3300 60  0001 C CNN "Part"
	1    7300 3300
	1    0    0    -1  
$EndComp
$Comp
L pbv3-rescue:R R20
U 1 1 59F08322
P 7650 2700
F 0 "R20" V 7730 2700 50  0000 C CNN
F 1 "5k" V 7650 2700 50  0000 C CNN
F 2 "Resistors_SMD:R_0603" V 7580 2700 50  0001 C CNN
F 3 "" H 7650 2700 50  0000 C CNN
F 4 "AC0603FR-074K99L" V 7650 2700 60  0001 C CNN "Part"
	1    7650 2700
	0    1    1    0   
$EndComp
$Comp
L pbv3-rescue:R R21
U 1 1 59F08329
P 8050 2700
F 0 "R21" V 8130 2700 50  0000 C CNN
F 1 "5k" V 8050 2700 50  0000 C CNN
F 2 "Resistors_SMD:R_0603" V 7980 2700 50  0001 C CNN
F 3 "" H 8050 2700 50  0000 C CNN
F 4 "AC0603FR-074K99L" V 8050 2700 60  0001 C CNN "Part"
	1    8050 2700
	0    1    1    0   
$EndComp
$Comp
L pbv3-rescue:C C26
U 1 1 59F08330
P 7850 3100
AR Path="/59F08330" Ref="C26"  Part="1" 
AR Path="/59F07AAA/59F08330" Ref="C26"  Part="1" 
F 0 "C26" H 7875 3200 50  0000 L CNN
F 1 "22nF/1kV" H 7875 3000 50  0000 L CNN
F 2 "Capacitors_SMD:C_1210" H 7888 2950 50  0001 C CNN
F 3 "" H 7850 3100 50  0000 C CNN
F 4 "C1210C683KDRACTU" H 7850 3100 60  0001 C CNN "Part"
F 5 "Due to high derating use 68nF nominal" H 7850 3100 60  0001 C CNN "Comment"
	1    7850 3100
	1    0    0    -1  
$EndComp
$Comp
L pbv3-rescue:C C27
U 1 1 59F08337
P 8250 3100
AR Path="/59F08337" Ref="C27"  Part="1" 
AR Path="/59F07AAA/59F08337" Ref="C27"  Part="1" 
F 0 "C27" H 8275 3200 50  0000 L CNN
F 1 "22nF/1kV" H 8275 3000 50  0000 L CNN
F 2 "Capacitors_SMD:C_1210" H 8288 2950 50  0001 C CNN
F 3 "" H 8250 3100 50  0000 C CNN
F 4 "C1210C683KDRACTU" H 8250 3100 60  0001 C CNN "Part"
F 5 "Due to high derating use 68nF nominal" H 8250 3100 60  0001 C CNN "Comment"
	1    8250 3100
	1    0    0    -1  
$EndComp
Wire Wire Line
	6900 2700 6900 3650
Wire Wire Line
	6900 2700 7300 2700
Wire Wire Line
	7300 2750 7300 2700
Connection ~ 7300 2700
Wire Wire Line
	7300 3150 7300 3050
Wire Wire Line
	7300 3450 7300 3500
Wire Wire Line
	7200 3500 7300 3500
Wire Wire Line
	8250 3500 8250 3250
Wire Wire Line
	7850 3250 7850 3500
Connection ~ 7850 3500
Wire Wire Line
	7800 2700 7850 2700
Wire Wire Line
	7850 2950 7850 2700
Connection ~ 7850 2700
Wire Wire Line
	8250 2950 8250 2700
Wire Wire Line
	8200 2700 8250 2700
Connection ~ 8250 2700
Wire Wire Line
	7200 4500 7200 3500
Connection ~ 7300 3500
Text Label 2700 3500 0    60   ~ 0
HVOSC
Wire Wire Line
	5450 4900 5450 4250
Wire Wire Line
	5450 4250 5550 4250
Wire Wire Line
	5450 3850 5550 3850
Text Notes 2500 2550 0    260  ~ 0
HVmux + HV filter
Text HLabel 2700 3500 0    60   Input ~ 0
HVOSC
Text HLabel 2700 4900 0    60   Input ~ 0
GND
Connection ~ 3450 4900
Text HLabel 6900 4500 3    60   Input ~ 0
HV_IN
Text HLabel 7200 4500 3    60   Input ~ 0
HV_IN_RTN
Text HLabel 8450 3500 2    60   Input ~ 0
HV_OUT_RTN
Text HLabel 8450 2700 2    60   Input ~ 0
HV_OUT
Connection ~ 8250 3500
Wire Wire Line
	6350 3850 6350 3900
Wire Wire Line
	6350 4200 6350 4250
Wire Wire Line
	3500 3500 3700 3500
Wire Wire Line
	6000 4250 6350 4250
Wire Wire Line
	6000 3850 6350 3850
Wire Wire Line
	6900 4250 6900 4500
Wire Wire Line
	6350 3850 6550 3850
Wire Wire Line
	6350 4250 6550 4250
Wire Wire Line
	6550 4250 6900 4250
Wire Wire Line
	6550 3850 6600 3850
Wire Wire Line
	7300 2700 7500 2700
Wire Wire Line
	7850 3500 8250 3500
Wire Wire Line
	7850 2700 7900 2700
Wire Wire Line
	8250 2700 8450 2700
Wire Wire Line
	7300 3500 7850 3500
Wire Wire Line
	3450 4900 3700 4900
Wire Wire Line
	8250 3500 8450 3500
$Comp
L Diode:BAT54S D1
U 1 1 5C07D8D5
P 4700 4050
F 0 "D1" V 4746 4137 50  0000 L CNN
F 1 "BAT54S" V 4655 4137 50  0000 L CNN
F 2 "pbv3:SOT523" H 4775 4175 50  0001 L CNN
F 3 "https://www.diodes.com/assets/Datasheets/ds11005.pdf" H 4580 4050 50  0001 C CNN
	1    4700 4050
	0    1    -1   0   
$EndComp
Wire Wire Line
	4000 4900 4700 4900
Wire Wire Line
	4700 4350 4700 4900
Connection ~ 4700 4900
Wire Wire Line
	4700 4900 5450 4900
Wire Wire Line
	4500 4050 4500 3500
Wire Wire Line
	4500 3500 4000 3500
Wire Wire Line
	5450 3750 5450 3850
Wire Wire Line
	4700 3750 5450 3750
$EndSCHEMATC
