EESchema Schematic File Version 4
LIBS:pbv3-cache
EELAYER 29 0
EELAYER END
$Descr A4 11693 8268
encoding utf-8
Sheet 1 3
Title "Powerboard v3"
Date "2017-10-23"
Rev "A"
Comp "LBNL"
Comment1 "Timon Heim"
Comment2 ""
Comment3 ""
Comment4 ""
$EndDescr
$Comp
L pbv3:BondPad J1
U 1 1 59EEE934
P 1600 1600
F 0 "J1" H 1600 1700 60  0000 C CNN
F 1 "VIN" H 1600 1500 60  0000 C CNN
F 2 "pbv3:pad" H 1600 1600 60  0001 C CNN
F 3 "" H 1600 1600 60  0001 C CNN
	1    1600 1600
	1    0    0    -1  
$EndComp
$Comp
L pbv3:BondPad J2
U 1 1 59EEE968
P 1600 1950
F 0 "J2" H 1600 2050 60  0000 C CNN
F 1 "VIN_RTN" H 1600 1850 60  0000 C CNN
F 2 "pbv3:pad" H 1600 1950 60  0001 C CNN
F 3 "" H 1600 1950 60  0001 C CNN
	1    1600 1950
	1    0    0    -1  
$EndComp
$Comp
L pbv3:BondPad J11
U 1 1 59EEFE53
P 5150 1400
F 0 "J11" H 5150 1500 60  0000 C CNN
F 1 "VOUT_X" H 5150 1300 60  0000 C CNN
F 2 "pbv3:pad" H 5150 1400 60  0001 C CNN
F 3 "" H 5150 1400 60  0001 C CNN
	1    5150 1400
	-1   0    0    1   
$EndComp
$Comp
L pbv3:BondPad J12
U 1 1 59EEFEB2
P 5150 1700
F 0 "J12" H 5150 1800 60  0000 C CNN
F 1 "VOUT_Y" H 5150 1600 60  0000 C CNN
F 2 "pbv3:pad" H 5150 1700 60  0001 C CNN
F 3 "" H 5150 1700 60  0001 C CNN
	1    5150 1700
	-1   0    0    1   
$EndComp
$Comp
L pbv3:BondPad J13
U 1 1 59EEFF0F
P 5850 1400
F 0 "J13" H 5850 1500 60  0000 C CNN
F 1 "VOUT_RTN_X" H 5850 1300 60  0000 C CNN
F 2 "pbv3:pad" H 5850 1400 60  0001 C CNN
F 3 "" H 5850 1400 60  0001 C CNN
	1    5850 1400
	-1   0    0    1   
$EndComp
$Comp
L pbv3:BondPad J14
U 1 1 59EEFF8B
P 5850 1700
F 0 "J14" H 5850 1800 60  0000 C CNN
F 1 "VOUT_RTN_Y" H 5850 1600 60  0000 C CNN
F 2 "pbv3:pad" H 5850 1700 60  0001 C CNN
F 3 "" H 5850 1700 60  0001 C CNN
	1    5850 1700
	-1   0    0    1   
$EndComp
Text Notes 7200 950  0    260  ~ 0
AMAC
$Sheet
S 2700 1600 1200 1450
U 59EFEA3A
F0 "Power" 60
F1 "pbv3_power.sch" 60
F2 "VOUT" I R 3900 1700 60 
F3 "VIN" I L 2700 1700 60 
F4 "VIN_RTN" I L 2700 1850 60 
F5 "PTAT" I R 3900 2950 60 
F6 "DCDCEN" I L 2700 2400 60 
F7 "PGOOD" I R 3900 2800 60 
F8 "FVOUT" I R 3900 2500 60 
F9 "VCC3V3" I R 3900 2000 60 
F10 "VCC1V4" I R 3900 1850 60 
F11 "LREGEN" I L 2700 2250 60 
F12 "NTCp" I L 2700 2800 60 
F13 "NTCn" I L 2700 2950 60 
F14 "FVIN" I R 3900 2650 60 
F15 "Bit1_VOUT" I R 3900 2200 60 
F16 "Bit2_VOUT" I R 3900 2350 60 
$EndSheet
$Comp
L power:GND #PWR0105
U 1 1 59F05EAA
P 5450 1650
F 0 "#PWR0105" H 5450 1400 50  0001 C CNN
F 1 "GND" H 5450 1500 50  0000 C CNN
F 2 "" H 5450 1650 50  0000 C CNN
F 3 "" H 5450 1650 50  0000 C CNN
	1    5450 1650
	1    0    0    -1  
$EndComp
$Comp
L power:GND #PWR0101
U 1 1 59F064E3
P 2000 2000
F 0 "#PWR0101" H 2000 1750 50  0001 C CNN
F 1 "GND" H 2000 1850 50  0000 C CNN
F 2 "" H 2000 2000 50  0000 C CNN
F 3 "" H 2000 2000 50  0000 C CNN
	1    2000 2000
	1    0    0    -1  
$EndComp
$Comp
L pbv3:BondPad J3
U 1 1 59F06B61
P 1600 2250
F 0 "J3" H 1600 2350 60  0000 C CNN
F 1 "OFin" H 1600 2150 60  0000 C CNN
F 2 "pbv3:pad" H 1600 2250 60  0001 C CNN
F 3 "" H 1600 2250 60  0001 C CNN
	1    1600 2250
	1    0    0    -1  
$EndComp
Text Notes 5650 950  0    260  ~ 0
POWER
$Comp
L power:GND #PWR0106
U 1 1 59F2094A
P 7750 2150
F 0 "#PWR0106" H 7750 1900 50  0001 C CNN
F 1 "GND" H 7750 2000 50  0000 C CNN
F 2 "" H 7750 2150 50  0000 C CNN
F 3 "" H 7750 2150 50  0000 C CNN
	1    7750 2150
	1    0    0    -1  
$EndComp
Text Label 4350 1550 0    60   ~ 0
VOUT
Text Label 2250 1700 0    60   ~ 0
VIN
Text Label 8000 2450 0    60   ~ 0
FVOUT
Text Label 8000 2700 0    60   ~ 0
FVIN
Text Label 4450 2500 0    60   ~ 0
FVOUT
Text Label 4450 2650 0    60   ~ 0
FVIN
Text Label 4450 2800 0    60   ~ 0
PGOOD
Text Label 4450 2950 0    60   ~ 0
PTAT
Text Label 2100 2400 0    60   ~ 0
DCDCEN
Text Label 2100 2800 0    60   ~ 0
NTCPBp
Text Label 2100 2950 0    60   ~ 0
NTCPBn
Text Label 8000 2350 0    60   ~ 0
VOUT
Text Label 8000 2600 0    60   ~ 0
VIN
Text Label 9850 1850 0    60   ~ 0
DCDCEN
Text Label 9850 1950 0    60   ~ 0
PGOOD
Text Label 9850 2050 0    60   ~ 0
PTAT
Text Label 9850 2150 0    60   ~ 0
NTCPBn
Text Label 9850 2250 0    60   ~ 0
NTCPBp
NoConn ~ 9450 5900
Text Notes 1900 1400 0    60   ~ 0
Fuse?
Text Notes 7600 2700 0    60   ~ 0
50mOhm
Text Notes 7600 2450 0    60   ~ 0
10mOhm
Text Label 1950 2550 1    60   ~ 0
OFin
$Sheet
S 8450 1750 1000 4450
U 59F0798F
F0 "AMAC" 60
F1 "amac.sch" 60
F2 "VDCDC" I L 8450 1850 60 
F3 "VLREG" I L 8450 1950 60 
F4 "GND" I L 8450 2150 60 
F5 "CUR1Vp" I L 8450 2350 60 
F6 "CUR1Vn" I L 8450 2450 60 
F7 "DCDCEN" I R 9450 1850 60 
F8 "NTCPBn" I R 9450 2150 60 
F9 "NTCPBp" I R 9450 2250 60 
F10 "CUR10Vn" I L 8450 2700 60 
F11 "CUR10Vp" I L 8450 2600 60 
F12 "PGOOD" I R 9450 1950 60 
F13 "PTAT" I R 9450 2050 60 
F14 "SSSHy" I R 9450 2950 60 
F15 "HRSTBy" I R 9450 3150 60 
F16 "LDy0EN" I R 9450 3350 60 
F17 "HREFy" I R 9450 3550 60 
F18 "NTCyN" I R 9450 3750 60 
F19 "NTCyP" I R 9450 3950 60 
F20 "LDy1EN" I R 9450 4150 60 
F21 "LDy2EN" I R 9450 4350 60 
F22 "SHUNTy" I R 9450 4550 60 
F23 "CALy" I R 9450 4750 60 
F24 "OFout" I R 9450 6050 60 
F25 "GPO2" I R 9450 2350 60 
F26 "HVret1" I L 8450 4900 60 
F27 "CMDin_P" I L 8450 5500 60 
F28 "CMDin_N" I L 8450 5600 60 
F29 "CMDout_P" O R 9450 5500 60 
F30 "CMDout_N" I R 9450 5600 60 
F31 "HVOSC0" I L 8450 5150 60 
F32 "VDDHI" I L 8450 2050 60 
F33 "LAM" I R 9450 5900 60 
F34 "HVret2" I R 9450 4900 60 
F35 "LDx0EN" I L 8450 3350 60 
F36 "HRSTBx" I L 8450 3150 60 
F37 "SSSHx" I L 8450 2950 60 
F38 "HREFx" I L 8450 3550 60 
F39 "NTCxP" I L 8450 3750 60 
F40 "NTCxN" I L 8450 3950 60 
F41 "LDx1EN" I L 8450 4150 60 
F42 "LDx2EN" I L 8450 4350 60 
F43 "SHUNTx" I L 8450 4550 60 
F44 "CALx" I L 8450 4750 60 
F45 "OFin" I L 8450 6050 60 
F46 "CAL" I L 8450 5900 60 
F47 "GPO1" I R 9450 2450 60 
F48 "HVOSC1" I L 8450 5250 60 
F49 "HVOSC2" I R 9450 5150 60 
F50 "HVOSC3" I R 9450 5250 60 
$EndSheet
Text Label 9850 2450 0    60   ~ 0
GPO1
Text Label 9850 2350 0    60   ~ 0
GPO2
$Comp
L pbv3:BondPad J5
U 1 1 5AABF9E9
P 5250 2400
F 0 "J5" H 5250 2500 60  0000 C CNN
F 1 "T1V4" H 5250 2300 60  0000 C CNN
F 2 "pbv3:pad" H 5250 2400 60  0001 C CNN
F 3 "" H 5250 2400 60  0001 C CNN
	1    5250 2400
	0    -1   -1   0   
$EndComp
$Comp
L pbv3:BondPad J6
U 1 1 5AABFC0C
P 5550 2400
F 0 "J6" H 5550 2500 60  0000 C CNN
F 1 "T3V3" H 5550 2300 60  0000 C CNN
F 2 "pbv3:pad" H 5550 2400 60  0001 C CNN
F 3 "" H 5550 2400 60  0001 C CNN
	1    5550 2400
	0    -1   -1   0   
$EndComp
Wire Wire Line
	4900 1400 4900 1550
Connection ~ 4900 1550
Wire Wire Line
	5600 1400 5600 1550
Connection ~ 5600 1550
Wire Notes Line
	600  600  7000 600 
Wire Notes Line
	600  4500 600  600 
Wire Notes Line
	6900 4600 6900 7700
Wire Notes Line
	6900 7700 600  7700
Wire Notes Line
	600  7700 600  4600
Wire Notes Line
	7100 600  11100 600 
Wire Notes Line
	11100 600  11100 6400
Wire Notes Line
	11100 6400 7100 6400
Wire Notes Line
	7100 6400 7100 600 
Wire Wire Line
	3900 1700 4250 1700
Wire Wire Line
	4250 1550 4250 1700
Wire Wire Line
	4250 1550 4900 1550
Wire Wire Line
	5600 1550 5450 1550
Wire Wire Line
	5450 1550 5450 1650
Wire Wire Line
	1850 1950 2000 1950
Wire Wire Line
	2000 1850 2000 1950
Wire Wire Line
	2000 1850 2700 1850
Wire Wire Line
	1850 1600 2000 1600
Wire Wire Line
	2000 1600 2000 1700
Wire Wire Line
	2000 1700 2700 1700
Connection ~ 2000 1950
Wire Wire Line
	1850 2250 1950 2250
Wire Notes Line
	7000 600  7000 4500
Wire Wire Line
	4250 1850 8450 1850
Connection ~ 4250 1700
Wire Wire Line
	3900 1850 4150 1850
Wire Wire Line
	4150 1850 4150 1950
Wire Wire Line
	4150 1950 5250 1950
Wire Wire Line
	3900 2000 4100 2000
Wire Wire Line
	4100 2000 4100 2050
Wire Wire Line
	4100 2050 5550 2050
Wire Wire Line
	7750 2150 8450 2150
Wire Wire Line
	8000 2450 8450 2450
Wire Wire Line
	8000 2700 8450 2700
Wire Wire Line
	3900 2500 4450 2500
Wire Wire Line
	3900 2650 4450 2650
Wire Wire Line
	3900 2800 4450 2800
Wire Wire Line
	3900 2950 4450 2950
Wire Wire Line
	2700 2400 2100 2400
Wire Wire Line
	2700 2800 2100 2800
Wire Wire Line
	2700 2950 2100 2950
Wire Wire Line
	8000 2350 8450 2350
Wire Wire Line
	8000 2600 8450 2600
Wire Wire Line
	9450 1850 9850 1850
Wire Wire Line
	9450 1950 9850 1950
Wire Wire Line
	9450 2050 9850 2050
Wire Wire Line
	9450 2150 9850 2150
Wire Wire Line
	9450 2250 9850 2250
Wire Wire Line
	8300 2950 8450 2950
Wire Wire Line
	8300 3150 8450 3150
Wire Wire Line
	8300 3350 8450 3350
Wire Wire Line
	8300 3550 8450 3550
Wire Wire Line
	8300 3750 8450 3750
Wire Wire Line
	8300 3950 8450 3950
Wire Wire Line
	8300 4150 8450 4150
Wire Wire Line
	9450 2950 9600 2950
Wire Wire Line
	9450 3150 9600 3150
Wire Wire Line
	9450 3350 9600 3350
Wire Wire Line
	9450 3550 9600 3550
Wire Wire Line
	9450 3750 9600 3750
Wire Wire Line
	9450 3950 9600 3950
Wire Wire Line
	9450 4150 9600 4150
Wire Wire Line
	9450 4350 9600 4350
Wire Wire Line
	9450 4550 9600 4550
Wire Wire Line
	9450 4750 9600 4750
Wire Wire Line
	9450 5500 9550 5500
Wire Wire Line
	9550 5500 9550 5450
Wire Wire Line
	9550 5450 9600 5450
Wire Wire Line
	9450 5600 9550 5600
Wire Wire Line
	9550 5600 9550 5650
Wire Wire Line
	9550 5650 9600 5650
Wire Wire Line
	8450 5500 8350 5500
Wire Wire Line
	8350 5500 8350 5450
Wire Wire Line
	8350 5450 8300 5450
Wire Wire Line
	8450 5600 8350 5600
Wire Wire Line
	8350 5600 8350 5650
Wire Wire Line
	8350 5650 8300 5650
Wire Wire Line
	8300 5900 8450 5900
Wire Wire Line
	8300 4350 8450 4350
Wire Wire Line
	8300 4550 8450 4550
Wire Wire Line
	8300 4750 8450 4750
Wire Wire Line
	1950 2250 1950 2550
Connection ~ 1950 2250
Wire Wire Line
	9450 2350 9850 2350
Wire Wire Line
	9450 2450 9850 2450
Wire Wire Line
	5250 2150 5250 1950
Connection ~ 5250 1950
Wire Wire Line
	5550 2150 5550 2050
Connection ~ 5550 2050
Wire Wire Line
	8200 1950 8200 1500
Wire Wire Line
	8200 1500 10450 1500
Wire Wire Line
	10450 1500 10450 5900
Wire Wire Line
	10450 5900 9450 5900
Connection ~ 8200 1950
Text Label 8250 1500 0    60   ~ 0
VCC1V4
Wire Wire Line
	4900 1550 4900 1700
Wire Wire Line
	5600 1550 5600 1700
Wire Wire Line
	2000 1950 2000 2000
Wire Wire Line
	4250 1700 4250 1850
Wire Wire Line
	1950 2250 2700 2250
Wire Wire Line
	5250 1950 8200 1950
Wire Wire Line
	5550 2050 8450 2050
Wire Wire Line
	8200 1950 8450 1950
$Comp
L conn_2rows-75pins:Conn_2Rows-75Pins J101
U 1 1 5C13F7EF
P 2400 5900
F 0 "J101" H 2450 7778 50  0000 C CNN
F 1 "Conn_2Rows-75Pins" H 2450 7687 50  0000 C CNN
F 2 "pbv3:M.2-MKey" H 2400 5900 50  0001 C CNN
F 3 "~" H 2400 5900 50  0001 C CNN
	1    2400 5900
	1    0    0    1   
$EndComp
Text Notes 3000 4550 0    60   ~ 0
M Keying option
Text Notes 2800 3750 0    60   ~ 0
Towards Powerboard
Text Notes 1100 3800 0    60   ~ 0
No PB on this side
NoConn ~ 2200 4700
NoConn ~ 2200 4600
NoConn ~ 2200 4500
NoConn ~ 2200 4400
NoConn ~ 2700 4400
NoConn ~ 2700 4500
NoConn ~ 2700 4600
NoConn ~ 2700 4700
Text Label 2700 6700 0    60   ~ 0
CALy
Text Label 2700 6600 0    60   ~ 0
SHUNTy
Text Label 2700 6500 0    60   ~ 0
LDy2EN
Text Label 2700 6300 0    60   ~ 0
NTCyP
Text Label 2700 6200 0    60   ~ 0
NTCyN
Text Label 2700 6100 0    60   ~ 0
HREFy
Text Label 2700 6000 0    60   ~ 0
LDy0EN
Text Label 2700 5900 0    60   ~ 0
HRSTBy
Text Label 2700 5800 0    60   ~ 0
SSSHy
Text Notes 3200 5800 0    60   ~ 0
R0H1\n
Text Label 2700 5700 0    60   ~ 0
LDx0EN
Text Label 2700 5600 0    60   ~ 0
HRSTBx
Text Label 2700 5500 0    60   ~ 0
SSSHx
Text Label 2700 5400 0    60   ~ 0
HREFx
Text Label 2700 5300 0    60   ~ 0
NTCxP
Text Label 2700 5200 0    60   ~ 0
NTCxN
Text Label 2700 5100 0    60   ~ 0
LDx1EN
Text Label 2700 5000 0    60   ~ 0
LDx2EN
Text Label 2700 4900 0    60   ~ 0
SHUNTx
Text Label 2700 4800 0    60   ~ 0
CALx
Text Label 2700 6400 0    60   ~ 0
LDy1EN
Text Label 2700 4300 0    60   ~ 0
LEDxR
Text Label 2700 4200 0    60   ~ 0
LEDxG
Text Label 2700 4100 0    60   ~ 0
LEDxB
Text Label 2700 6800 0    60   ~ 0
LEDyB
Text Label 2700 6900 0    60   ~ 0
LEDyG
Text Label 2700 7000 0    60   ~ 0
LEDyR
Text Label 2700 7100 0    60   ~ 0
CMDin_N
Text Label 2700 7200 0    60   ~ 0
CMDin_P
Text Label 2700 7300 0    60   ~ 0
CMDout_P
Text Label 2700 7400 0    60   ~ 0
CMDout_N
Text Label 2700 7500 0    60   ~ 0
CAL
Text Label 2700 7600 0    60   ~ 0
OFin
Text Label 1950 3900 0    60   ~ 0
VIN
Wire Wire Line
	1950 3900 2200 3900
Text Label 1900 4800 0    60   ~ 0
VOUT
$Comp
L power:GND #PWR0102
U 1 1 5C1B6294
P 2000 7050
F 0 "#PWR0102" H 2000 6800 50  0001 C CNN
F 1 "GND" H 2000 6900 50  0000 C CNN
F 2 "" H 2000 7050 50  0000 C CNN
F 3 "" H 2000 7050 50  0000 C CNN
	1    2000 7050
	1    0    0    -1  
$EndComp
Wire Wire Line
	1900 4800 2200 4800
Connection ~ 2200 4200
Connection ~ 2200 4100
Wire Wire Line
	2200 4100 2200 4200
Connection ~ 2200 4000
Connection ~ 2200 3900
Wire Wire Line
	2200 4000 2200 4100
Wire Wire Line
	2200 3900 2200 4000
Connection ~ 2200 4800
Connection ~ 2200 4900
Connection ~ 2200 5000
Connection ~ 2200 5100
Connection ~ 2200 5200
Connection ~ 2200 5300
Connection ~ 2200 5400
Connection ~ 2200 5500
Connection ~ 2200 5600
Connection ~ 2200 7500
Connection ~ 2200 7400
Connection ~ 2200 7300
Wire Wire Line
	2200 7600 2200 7500
Wire Wire Line
	2200 7500 2200 7400
Wire Wire Line
	2200 7400 2200 7300
Wire Wire Line
	2200 7300 2200 7200
Wire Wire Line
	2200 5600 2200 5700
Wire Wire Line
	2200 5500 2200 5600
Wire Wire Line
	2200 5400 2200 5500
Wire Wire Line
	2200 5300 2200 5400
Wire Wire Line
	2200 5200 2200 5300
Wire Wire Line
	2200 5100 2200 5200
Wire Wire Line
	2200 5000 2200 5100
Wire Wire Line
	2200 4900 2200 5000
Wire Wire Line
	2200 4800 2200 4900
Wire Wire Line
	2200 4200 2200 4300
Wire Wire Line
	2200 7200 2200 7100
Connection ~ 2200 7200
Wire Wire Line
	2200 7100 2200 7050
Connection ~ 2200 7100
Wire Wire Line
	2200 7000 2200 6900
Connection ~ 2200 7000
Wire Wire Line
	2200 6900 2200 6800
Connection ~ 2200 6900
Wire Wire Line
	2200 6800 2200 6700
Connection ~ 2200 6800
Wire Wire Line
	2200 6700 2200 6600
Connection ~ 2200 6700
Wire Wire Line
	2200 6600 2200 6500
Connection ~ 2200 6600
Wire Wire Line
	2200 5700 2200 5800
Connection ~ 2200 5700
Wire Wire Line
	2200 5800 2200 5900
Connection ~ 2200 5800
Wire Wire Line
	2200 6500 2200 6400
Connection ~ 2200 6500
Connection ~ 2200 6400
Wire Wire Line
	2200 5900 2200 6000
Connection ~ 2200 5900
Wire Wire Line
	2200 6000 2200 6100
Connection ~ 2200 6000
Wire Wire Line
	2200 6200 2200 6300
Connection ~ 2200 6300
Wire Wire Line
	2200 6300 2200 6400
Wire Wire Line
	2000 7050 2200 7050
Connection ~ 2200 7050
Wire Wire Line
	2200 7050 2200 7000
Text Notes 3200 4800 0    60   ~ 0
R0H0
Text Label 9600 2950 0    60   ~ 0
SSSHy
Text Label 9600 3150 0    60   ~ 0
HRSTBy
Text Label 9600 3350 0    60   ~ 0
LDy0EN
Text Label 9600 3550 0    60   ~ 0
HREFy
Text Label 9600 3750 0    60   ~ 0
NTCyN
Text Label 9600 3950 0    60   ~ 0
NTCyP
Text Label 9600 4150 0    60   ~ 0
LDy1EN
Text Label 9600 4350 0    60   ~ 0
LDy2EN
Text Label 9600 4550 0    60   ~ 0
SHUNTy
Text Label 9600 4750 0    60   ~ 0
CALy
Text Label 8300 2950 0    60   ~ 0
SSSHx
Text Label 8300 3150 0    60   ~ 0
HRSTBx
Text Label 8300 3350 0    60   ~ 0
LDx0EN
Text Label 8300 3550 0    60   ~ 0
HREFx
Text Label 8300 3750 0    60   ~ 0
NTCxP
Text Label 8300 3950 0    60   ~ 0
NTCxN
Text Label 8300 4150 0    60   ~ 0
LDx1EN
Text Label 8300 4350 0    60   ~ 0
LDx2EN
Text Label 8300 4550 0    60   ~ 0
SHUNTx
Text Label 8300 4750 0    60   ~ 0
CALx
Text Label 8300 5450 0    60   ~ 0
CMDin_P
Text Label 8300 5650 0    60   ~ 0
CMDin_N
Text Label 9600 5450 0    60   ~ 0
CMDout_P
Text Label 9600 5650 0    60   ~ 0
CMDout_N
Text Label 8300 6050 0    60   ~ 0
OFin
Wire Wire Line
	8450 6050 8300 6050
Text Label 8300 5900 0    60   ~ 0
CAL
$Comp
L Device:R R101
U 1 1 5C16E13F
P 4250 3350
F 0 "R101" V 4043 3350 50  0000 C CNN
F 1 "10k" V 4134 3350 50  0000 C CNN
F 2 "Resistors_SMD:R_0402" V 4180 3350 50  0001 C CNN
F 3 "~" H 4250 3350 50  0001 C CNN
	1    4250 3350
	0    1    1    0   
$EndComp
$Comp
L power:GND #PWR0103
U 1 1 5C17AE8A
P 4600 3900
F 0 "#PWR0103" H 4600 3650 50  0001 C CNN
F 1 "GND" H 4600 3750 50  0000 C CNN
F 2 "" H 4600 3900 50  0000 C CNN
F 3 "" H 4600 3900 50  0000 C CNN
	1    4600 3900
	1    0    0    -1  
$EndComp
Wire Wire Line
	4600 3800 4600 3900
Wire Wire Line
	4400 3350 4600 3350
Wire Wire Line
	4600 3350 4600 3400
Text Label 4950 3600 0    60   ~ 0
GPO1
Text Label 3850 3350 0    60   ~ 0
LEDxB
Wire Wire Line
	3850 3350 4100 3350
Wire Wire Line
	4900 3600 4950 3600
$Comp
L Device:R R102
U 1 1 5C199A1E
P 4250 4250
F 0 "R102" V 4043 4250 50  0000 C CNN
F 1 "10k" V 4134 4250 50  0000 C CNN
F 2 "Resistors_SMD:R_0402" V 4180 4250 50  0001 C CNN
F 3 "~" H 4250 4250 50  0001 C CNN
	1    4250 4250
	0    1    1    0   
$EndComp
$Comp
L power:GND #PWR0104
U 1 1 5C199A25
P 4600 4800
F 0 "#PWR0104" H 4600 4550 50  0001 C CNN
F 1 "GND" H 4600 4650 50  0000 C CNN
F 2 "" H 4600 4800 50  0000 C CNN
F 3 "" H 4600 4800 50  0000 C CNN
	1    4600 4800
	1    0    0    -1  
$EndComp
Wire Wire Line
	4600 4700 4600 4800
Wire Wire Line
	4400 4250 4600 4250
Wire Wire Line
	4600 4250 4600 4300
Text Label 4950 4500 0    60   ~ 0
HVOSC0
Text Label 3850 4250 0    60   ~ 0
LEDxG
Wire Wire Line
	3850 4250 4100 4250
Wire Wire Line
	4900 4500 4950 4500
$Comp
L Device:R R103
U 1 1 5C19E90D
P 4250 5050
F 0 "R103" V 4043 5050 50  0000 C CNN
F 1 "10k" V 4134 5050 50  0000 C CNN
F 2 "Resistors_SMD:R_0402" V 4180 5050 50  0001 C CNN
F 3 "~" H 4250 5050 50  0001 C CNN
	1    4250 5050
	0    1    1    0   
$EndComp
$Comp
L power:GND #PWR0108
U 1 1 5C19E914
P 4600 5600
F 0 "#PWR0108" H 4600 5350 50  0001 C CNN
F 1 "GND" H 4600 5450 50  0000 C CNN
F 2 "" H 4600 5600 50  0000 C CNN
F 3 "" H 4600 5600 50  0000 C CNN
	1    4600 5600
	1    0    0    -1  
$EndComp
Wire Wire Line
	4600 5500 4600 5600
Wire Wire Line
	4400 5050 4600 5050
Wire Wire Line
	4600 5050 4600 5100
Text Label 4950 5300 0    60   ~ 0
HVOSC1
Text Label 3850 5050 0    60   ~ 0
LEDxR
Wire Wire Line
	3850 5050 4100 5050
Wire Wire Line
	4900 5300 4950 5300
$Comp
L Device:R R104
U 1 1 5C1A999A
P 5850 3550
F 0 "R104" V 5643 3550 50  0000 C CNN
F 1 "10k" V 5734 3550 50  0000 C CNN
F 2 "Resistors_SMD:R_0402" V 5780 3550 50  0001 C CNN
F 3 "~" H 5850 3550 50  0001 C CNN
	1    5850 3550
	0    1    1    0   
$EndComp
$Comp
L power:GND #PWR0109
U 1 1 5C1A99A1
P 6200 4100
F 0 "#PWR0109" H 6200 3850 50  0001 C CNN
F 1 "GND" H 6200 3950 50  0000 C CNN
F 2 "" H 6200 4100 50  0000 C CNN
F 3 "" H 6200 4100 50  0000 C CNN
	1    6200 4100
	1    0    0    -1  
$EndComp
Wire Wire Line
	6200 4000 6200 4100
Wire Wire Line
	6000 3550 6200 3550
Wire Wire Line
	6200 3550 6200 3600
Text Label 6550 3800 0    60   ~ 0
GPO2
Text Label 5450 3550 0    60   ~ 0
LEDyB
Wire Wire Line
	5450 3550 5700 3550
Wire Wire Line
	6500 3800 6550 3800
$Comp
L Device:R R105
U 1 1 5C1A99B5
P 5850 4450
F 0 "R105" V 5643 4450 50  0000 C CNN
F 1 "10k" V 5734 4450 50  0000 C CNN
F 2 "Resistors_SMD:R_0402" V 5780 4450 50  0001 C CNN
F 3 "~" H 5850 4450 50  0001 C CNN
	1    5850 4450
	0    1    1    0   
$EndComp
$Comp
L power:GND #PWR0110
U 1 1 5C1A99BC
P 6200 5000
F 0 "#PWR0110" H 6200 4750 50  0001 C CNN
F 1 "GND" H 6200 4850 50  0000 C CNN
F 2 "" H 6200 5000 50  0000 C CNN
F 3 "" H 6200 5000 50  0000 C CNN
	1    6200 5000
	1    0    0    -1  
$EndComp
Wire Wire Line
	6200 4900 6200 5000
Wire Wire Line
	6000 4450 6200 4450
Wire Wire Line
	6200 4450 6200 4500
Text Label 6550 4700 0    60   ~ 0
HVOSC2
Text Label 5450 4450 0    60   ~ 0
LEDyG
Wire Wire Line
	5450 4450 5700 4450
Wire Wire Line
	6500 4700 6550 4700
$Comp
L Device:R R106
U 1 1 5C1A99D0
P 5850 5250
F 0 "R106" V 5643 5250 50  0000 C CNN
F 1 "10k" V 5734 5250 50  0000 C CNN
F 2 "Resistors_SMD:R_0402" V 5780 5250 50  0001 C CNN
F 3 "~" H 5850 5250 50  0001 C CNN
	1    5850 5250
	0    1    1    0   
$EndComp
$Comp
L power:GND #PWR0111
U 1 1 5C1A99D7
P 6200 5800
F 0 "#PWR0111" H 6200 5550 50  0001 C CNN
F 1 "GND" H 6200 5650 50  0000 C CNN
F 2 "" H 6200 5800 50  0000 C CNN
F 3 "" H 6200 5800 50  0000 C CNN
	1    6200 5800
	1    0    0    -1  
$EndComp
Wire Wire Line
	6200 5700 6200 5800
Wire Wire Line
	6000 5250 6200 5250
Wire Wire Line
	6200 5250 6200 5300
Text Label 6550 5500 0    60   ~ 0
HVOSC3
Text Label 5450 5250 0    60   ~ 0
LEDyR
Wire Wire Line
	5450 5250 5700 5250
Wire Wire Line
	6500 5500 6550 5500
Text Label 9450 5150 0    60   ~ 0
HVOSC3
Text Label 9450 5250 0    60   ~ 0
HVOSC2
Text Label 8050 5150 0    60   ~ 0
HVOSC0
Text Label 8050 5250 0    60   ~ 0
HVOSC1
Wire Wire Line
	8450 5150 8050 5150
Wire Wire Line
	8050 5250 8450 5250
$Comp
L Transistor_FET:FDG1024NZ Q101
U 1 1 5C1CBF8D
P 4700 3600
F 0 "Q101" H 4906 3646 50  0000 L CNN
F 1 "EM6K34T2CR" H 4906 3555 50  0000 L CNN
F 2 "TO_SOT_Packages_SMD:SOT-666" H 4900 3525 50  0001 L CIN
F 3 "http://www.fairchildsemi.com/ds/FD/FDG1024NZ.pdf" H 4700 3600 50  0001 L CNN
	1    4700 3600
	-1   0    0    -1  
$EndComp
$Comp
L Transistor_FET:FDG1024NZ Q102
U 2 1 5C1CC188
P 6300 4700
F 0 "Q102" H 6506 4746 50  0000 L CNN
F 1 "EM6K34T2CR" H 6506 4655 50  0000 L CNN
F 2 "TO_SOT_Packages_SMD:SOT-666" H 6500 4625 50  0001 L CIN
F 3 "http://www.fairchildsemi.com/ds/FD/FDG1024NZ.pdf" H 6300 4700 50  0001 L CNN
	2    6300 4700
	-1   0    0    -1  
$EndComp
$Comp
L Transistor_FET:FDG1024NZ Q101
U 2 1 5C1D98E1
P 6300 3800
F 0 "Q101" H 6506 3846 50  0000 L CNN
F 1 "EM6K34T2CR" H 6506 3755 50  0000 L CNN
F 2 "TO_SOT_Packages_SMD:SOT-666" H 6500 3725 50  0001 L CIN
F 3 "http://www.fairchildsemi.com/ds/FD/FDG1024NZ.pdf" H 6300 3800 50  0001 L CNN
	2    6300 3800
	-1   0    0    -1  
$EndComp
$Comp
L Transistor_FET:FDG1024NZ Q102
U 1 1 5C1D9937
P 4700 4500
F 0 "Q102" H 4906 4546 50  0000 L CNN
F 1 "EM6K34T2CR" H 4906 4455 50  0000 L CNN
F 2 "TO_SOT_Packages_SMD:SOT-666" H 4900 4425 50  0001 L CIN
F 3 "http://www.fairchildsemi.com/ds/FD/FDG1024NZ.pdf" H 4700 4500 50  0001 L CNN
	1    4700 4500
	-1   0    0    -1  
$EndComp
$Comp
L Transistor_FET:FDG1024NZ Q103
U 1 1 5C1D9995
P 4700 5300
F 0 "Q103" H 4906 5346 50  0000 L CNN
F 1 "EM6K34T2CR" H 4906 5255 50  0000 L CNN
F 2 "TO_SOT_Packages_SMD:SOT-666" H 4900 5225 50  0001 L CIN
F 3 "http://www.fairchildsemi.com/ds/FD/FDG1024NZ.pdf" H 4700 5300 50  0001 L CNN
	1    4700 5300
	-1   0    0    -1  
$EndComp
$Comp
L Transistor_FET:FDG1024NZ Q103
U 2 1 5C1D99EF
P 6300 5500
F 0 "Q103" H 6506 5546 50  0000 L CNN
F 1 "EM6K34T2CR" H 6506 5455 50  0000 L CNN
F 2 "TO_SOT_Packages_SMD:SOT-666" H 6500 5425 50  0001 L CIN
F 3 "http://www.fairchildsemi.com/ds/FD/FDG1024NZ.pdf" H 6300 5500 50  0001 L CNN
	2    6300 5500
	-1   0    0    -1  
$EndComp
$EndSCHEMATC
