G04 #@! TF.GenerationSoftware,KiCad,Pcbnew,7.0.2*
G04 #@! TF.CreationDate,2023-07-12T19:24:59+02:00*
G04 #@! TF.ProjectId,pbv3,70627633-2e6b-4696-9361-645f70636258,A*
G04 #@! TF.SameCoordinates,Original*
G04 #@! TF.FileFunction,Copper,L3,Inr*
G04 #@! TF.FilePolarity,Positive*
%FSLAX46Y46*%
G04 Gerber Fmt 4.6, Leading zero omitted, Abs format (unit mm)*
G04 Created by KiCad (PCBNEW 7.0.2) date 2023-07-12 19:24:59*
%MOMM*%
%LPD*%
G01*
G04 APERTURE LIST*
G04 #@! TA.AperFunction,ViaPad*
%ADD10C,0.350000*%
G04 #@! TD*
G04 #@! TA.AperFunction,Conductor*
%ADD11C,1.000000*%
G04 #@! TD*
G04 #@! TA.AperFunction,Conductor*
%ADD12C,0.254000*%
G04 #@! TD*
G04 #@! TA.AperFunction,Conductor*
%ADD13C,0.508000*%
G04 #@! TD*
G04 #@! TA.AperFunction,Conductor*
%ADD14C,0.127000*%
G04 #@! TD*
G04 APERTURE END LIST*
D10*
X68280000Y-104290000D03*
X67905000Y-103915000D03*
X68280000Y-103540000D03*
X77080000Y-98115000D03*
X77980000Y-98115000D03*
X75480000Y-99290000D03*
X75030000Y-98915000D03*
X77080000Y-98890000D03*
X74580000Y-99290000D03*
X77530000Y-99265000D03*
X77980000Y-98890000D03*
X79903329Y-99313646D03*
X83780000Y-101320000D03*
X75030000Y-98140000D03*
X75480000Y-98515000D03*
X103980000Y-100965000D03*
X103280000Y-100265000D03*
X102955000Y-99915000D03*
X101205000Y-99640000D03*
X101205000Y-98240000D03*
X101255000Y-101765000D03*
X101205000Y-100340000D03*
X101255000Y-102465000D03*
X101205000Y-101040000D03*
X101255000Y-103165000D03*
X101255000Y-103865000D03*
X101205000Y-98940000D03*
X69855000Y-105965000D03*
X43047937Y-103153511D03*
X47495227Y-101573223D03*
X42648875Y-97447370D03*
X42571436Y-96249871D03*
X48912913Y-101491567D03*
X42746917Y-98653557D03*
X42622416Y-97038224D03*
X56234255Y-104375114D03*
X60593210Y-104063170D03*
X47572993Y-104945233D03*
X42870520Y-100719888D03*
X42793081Y-99522389D03*
X42844061Y-100310742D03*
X59496252Y-98412181D03*
X59419459Y-97224661D03*
X52681675Y-104604849D03*
X51144240Y-104694249D03*
X59704046Y-101625469D03*
X55445902Y-104426094D03*
X52272530Y-104631307D03*
X43176356Y-105139363D03*
X53479363Y-104543244D03*
X49147961Y-99702670D03*
X48167908Y-100818240D03*
X49588137Y-104804899D03*
X48390638Y-104882338D03*
X53070217Y-104569702D03*
X48404247Y-99049301D03*
X55855047Y-104399636D03*
X54657548Y-104477075D03*
X43021479Y-102744366D03*
X43353289Y-95788454D03*
X50355887Y-104745230D03*
X45180000Y-105100000D03*
X42564936Y-95839435D03*
X58421459Y-94808518D03*
X54267716Y-104492263D03*
X56643400Y-104348656D03*
X43702560Y-95765868D03*
X49801974Y-98968935D03*
X48730931Y-98677444D03*
X49429472Y-98632272D03*
X49892320Y-100366017D03*
X50735095Y-104720708D03*
X46976583Y-99131603D03*
X43072459Y-103532719D03*
X46067264Y-95607428D03*
X44400000Y-105140000D03*
X53858571Y-104518722D03*
X50817342Y-95300254D03*
X59209813Y-94757537D03*
X49474645Y-99330813D03*
X48077563Y-99421158D03*
X42934061Y-101547512D03*
X49178992Y-104831357D03*
X47112746Y-101237205D03*
X52014841Y-95222815D03*
X47264763Y-95529989D03*
X45688056Y-95631950D03*
X57603169Y-94861434D03*
X48053116Y-95479009D03*
X45570000Y-105060000D03*
X51226488Y-95273796D03*
X49619844Y-95377693D03*
X51484177Y-104682288D03*
X44111705Y-95739410D03*
X43590664Y-105192738D03*
X48776104Y-99375985D03*
X59532690Y-98820681D03*
X49847147Y-99667476D03*
X49102788Y-99004129D03*
X47448764Y-100854724D03*
X48866449Y-100773067D03*
X55577400Y-94992435D03*
X47021755Y-99830144D03*
X42985041Y-102335866D03*
X49611454Y-101446394D03*
X47066928Y-100528685D03*
X59653066Y-100837115D03*
X48422345Y-95455132D03*
X46476410Y-95580970D03*
X47313246Y-98759101D03*
X50028989Y-95351235D03*
X49519818Y-100029354D03*
X54789047Y-95043416D03*
X53172423Y-95147958D03*
X44900058Y-95688429D03*
X43125376Y-104351010D03*
X46364870Y-105013338D03*
X46855617Y-95556447D03*
X52394049Y-95198293D03*
X50438135Y-95324776D03*
X49238951Y-101109731D03*
X45278911Y-95658409D03*
X42597894Y-96659016D03*
X42819539Y-99931534D03*
X48032391Y-98722617D03*
X51893322Y-104655829D03*
X57022608Y-104324133D03*
X53960777Y-95096977D03*
X59804857Y-104114151D03*
X47695727Y-99095119D03*
X49210698Y-95404151D03*
X44800000Y-105120000D03*
X48494593Y-100446383D03*
X59395712Y-104140609D03*
X47740900Y-99793660D03*
X42773375Y-99062702D03*
X42695936Y-97865204D03*
X58218816Y-104226736D03*
X59007170Y-104175756D03*
X59627253Y-100437949D03*
X58012314Y-94834976D03*
X46784639Y-104996214D03*
X48799784Y-104855879D03*
X57809671Y-104253194D03*
X59678234Y-101226303D03*
X47403591Y-100156183D03*
X47982138Y-104918775D03*
X42722395Y-98274349D03*
X59558503Y-99219847D03*
X59609483Y-100008200D03*
X47193785Y-104969756D03*
X47831890Y-101200721D03*
X55986545Y-94965977D03*
X49564990Y-100727895D03*
X51605696Y-95249274D03*
X58800667Y-94783996D03*
X48540410Y-101154903D03*
X55198192Y-95016957D03*
X56814815Y-94912415D03*
X54369922Y-95070519D03*
X43999810Y-105166280D03*
X49193133Y-100401210D03*
X42958583Y-101926720D03*
X48821277Y-100074526D03*
X55066694Y-104450617D03*
X60184065Y-104089628D03*
X44490913Y-95714888D03*
X56405670Y-94938873D03*
X57431754Y-104297675D03*
X48214372Y-101536739D03*
X47643971Y-95505467D03*
X48122736Y-100119699D03*
X59470439Y-98013014D03*
X52803195Y-95171835D03*
X58598024Y-104202214D03*
X59445272Y-97623827D03*
X48831490Y-95428673D03*
X45980000Y-105030000D03*
X53570000Y-95100000D03*
X49946741Y-104771688D03*
X57194023Y-94887893D03*
X43098917Y-103941864D03*
X48449420Y-99747842D03*
X47786072Y-100492201D03*
X42907602Y-101138367D03*
X42944144Y-95814913D03*
X59583670Y-99609034D03*
X47358419Y-99457642D03*
X43151834Y-104760155D03*
X49938138Y-101074537D03*
X56220000Y-99150000D03*
X54050000Y-101180000D03*
X57610000Y-100730000D03*
X50850000Y-98510000D03*
X53750000Y-103740000D03*
X58100000Y-99990000D03*
X58570000Y-99990000D03*
X65020000Y-98245000D03*
X44710000Y-99050000D03*
X63970000Y-97895000D03*
X50570000Y-97360000D03*
X83990000Y-105600000D03*
X63620000Y-98250000D03*
X73139490Y-101065000D03*
X53980000Y-100110000D03*
X79547011Y-99763646D03*
X55420000Y-99200000D03*
X77080000Y-99640000D03*
X54975000Y-103374996D03*
X83340000Y-105600000D03*
X80455000Y-105190000D03*
X53930000Y-99760000D03*
X52390000Y-97310000D03*
X80805000Y-105540000D03*
X77980000Y-101140000D03*
X74580000Y-98515000D03*
X65020000Y-98955000D03*
X77530000Y-98490000D03*
X75480000Y-100790000D03*
X63620000Y-98955000D03*
X66420000Y-98245000D03*
X58420000Y-101040000D03*
X54005000Y-100810000D03*
X57190000Y-100070000D03*
X54880000Y-99480000D03*
X79547011Y-98863646D03*
X63970000Y-98600000D03*
X57200000Y-100620000D03*
X65720000Y-98245000D03*
X67905000Y-103165000D03*
X102275000Y-100620000D03*
X45650000Y-98080000D03*
X52210000Y-98590000D03*
X75030000Y-101165000D03*
X45150000Y-100380000D03*
X53920000Y-99410000D03*
X77080000Y-100390000D03*
X55820000Y-99175000D03*
X74580000Y-100040000D03*
X66420000Y-98955000D03*
X71255000Y-105965000D03*
X55570000Y-98285000D03*
X103980000Y-100265000D03*
X47620000Y-97380000D03*
X54800000Y-103700000D03*
X54890000Y-99830000D03*
X58750000Y-100370000D03*
X58770000Y-100790000D03*
X103630000Y-100615000D03*
X77980000Y-100390000D03*
X79903329Y-100188646D03*
X103280000Y-100965000D03*
X80105000Y-105540000D03*
X65720000Y-98955000D03*
X65370000Y-97890000D03*
X77980000Y-99640000D03*
X45990000Y-99640000D03*
X65370000Y-98600000D03*
X72855000Y-99990000D03*
X74580000Y-101540000D03*
X102600000Y-100270000D03*
X79547011Y-100638646D03*
X49400000Y-97390000D03*
X73139490Y-99290000D03*
X83370000Y-106120000D03*
X54930000Y-100200000D03*
X46470000Y-97470000D03*
X103630000Y-99915000D03*
X77530000Y-100765000D03*
X77530000Y-101515000D03*
X75030000Y-100415000D03*
X75030000Y-99665000D03*
X53925000Y-103414996D03*
X57680000Y-100010000D03*
X64670000Y-98600000D03*
X55970000Y-98260000D03*
X64320000Y-98955000D03*
X77530000Y-100015000D03*
X54940000Y-100570000D03*
X53830000Y-97880000D03*
X70555000Y-105965000D03*
X75480000Y-101540000D03*
X77080000Y-101140000D03*
X84350000Y-100980000D03*
X74580000Y-100790000D03*
X58020000Y-100720000D03*
X55170000Y-98310000D03*
X102600000Y-100970000D03*
X54775000Y-103050000D03*
X56410000Y-98270000D03*
X75480000Y-100040000D03*
X66070000Y-97890000D03*
X102275000Y-99920000D03*
X64670000Y-97890000D03*
X53725000Y-103090000D03*
X69155000Y-105965000D03*
X54960000Y-100940000D03*
X84020000Y-106120000D03*
X54005000Y-100460000D03*
X66070000Y-98600000D03*
X83270000Y-100950000D03*
X102955000Y-100615000D03*
X64320000Y-98250000D03*
X73136161Y-99746354D03*
X66070000Y-98955000D03*
X103630000Y-100260000D03*
X77076671Y-100771354D03*
X102600000Y-100615000D03*
X75476671Y-99671354D03*
X77526671Y-98121354D03*
X69510000Y-105970000D03*
X74576671Y-100421354D03*
X102275000Y-100965000D03*
X75476671Y-101171354D03*
X80450000Y-105540000D03*
X77526671Y-98896354D03*
X67905000Y-103545000D03*
X68280000Y-103920000D03*
X63620000Y-98600000D03*
X77076671Y-98496354D03*
X75026671Y-101546354D03*
X72851671Y-99096354D03*
X73136161Y-98846354D03*
X75476671Y-100421354D03*
X103630000Y-100960000D03*
X80100000Y-105190000D03*
X72876671Y-100871354D03*
X75026671Y-100046354D03*
X66420000Y-98600000D03*
X102600000Y-99915000D03*
X73136161Y-100171354D03*
X75026671Y-99296354D03*
X83630000Y-100990000D03*
X77526671Y-99646354D03*
X103980000Y-99910000D03*
X75476671Y-98146354D03*
X73146671Y-101566354D03*
X63970000Y-98955000D03*
X64670000Y-98245000D03*
X77076671Y-100021354D03*
X72856671Y-100396354D03*
X75026671Y-100796354D03*
X66420000Y-97890000D03*
X102955000Y-100960000D03*
X79900000Y-98870000D03*
X70210000Y-105970000D03*
X72851671Y-99546354D03*
X64670000Y-98955000D03*
X79543682Y-101095000D03*
X75476671Y-98921354D03*
X84130000Y-101320000D03*
X77976671Y-98496354D03*
X73136161Y-100621354D03*
X79543682Y-100195000D03*
X65720000Y-97890000D03*
X74576671Y-98921354D03*
X75026671Y-98521354D03*
X103980000Y-100610000D03*
X64320000Y-97895000D03*
X64320000Y-98600000D03*
X77976671Y-101521354D03*
X72876671Y-101321354D03*
X102275000Y-100265000D03*
X70910000Y-105970000D03*
X65370000Y-98245000D03*
X65020000Y-98600000D03*
X79543682Y-99320000D03*
X67905000Y-104295000D03*
X103280000Y-100610000D03*
X79900000Y-100645000D03*
X102955000Y-100260000D03*
X63620000Y-97895000D03*
X77976671Y-100771354D03*
X77526671Y-100396354D03*
X74576671Y-101171354D03*
X65370000Y-98955000D03*
X68280000Y-103170000D03*
X79900000Y-99770000D03*
X77526671Y-101146354D03*
X65020000Y-97890000D03*
X83990000Y-100990000D03*
X77976671Y-100021354D03*
X103280000Y-99910000D03*
X68810000Y-105970000D03*
X77076671Y-101521354D03*
X65720000Y-98600000D03*
X77076671Y-99271354D03*
X74576671Y-99671354D03*
X80800000Y-105190000D03*
X74576671Y-98146354D03*
X77976671Y-99271354D03*
X63970000Y-98250000D03*
X66070000Y-98245000D03*
X70640000Y-95520000D03*
X67130000Y-95390000D03*
X67550000Y-100400000D03*
X61660000Y-103030000D03*
X72870000Y-95060000D03*
X51775000Y-104045000D03*
X78350000Y-105510000D03*
X65530000Y-101530000D03*
X65860000Y-101251011D03*
X103195000Y-94840000D03*
X78731000Y-105509999D03*
X103550000Y-94840000D03*
X79440000Y-105630000D03*
X103540000Y-95340000D03*
X103188608Y-95335106D03*
X79400000Y-105980000D03*
X75030000Y-95800000D03*
X72506762Y-105928688D03*
X74432699Y-95102699D03*
X72130000Y-106400000D03*
X74980000Y-95000000D03*
X71963827Y-106846589D03*
X72893504Y-105401742D03*
X75363610Y-94649848D03*
X76156634Y-94635489D03*
X73283019Y-104800000D03*
X73752946Y-104878888D03*
X76721211Y-94635489D03*
X74360000Y-105590000D03*
X77547367Y-95013535D03*
X78355720Y-95005996D03*
X74880000Y-105590000D03*
X75440000Y-105810000D03*
X78755678Y-95362451D03*
X75650000Y-106590000D03*
X79331570Y-95921455D03*
X80140000Y-96510000D03*
X103180000Y-94350000D03*
X103532492Y-94350000D03*
X80115000Y-96135000D03*
X68160000Y-99570000D03*
X45094857Y-102450428D03*
X68570000Y-99030000D03*
X44620000Y-102490000D03*
X48480000Y-96680000D03*
X49800000Y-104130000D03*
X49650000Y-103810000D03*
X48153922Y-96814301D03*
X71830000Y-95000000D03*
X44270000Y-104030000D03*
X49580000Y-96610000D03*
X68820000Y-96190000D03*
X68570000Y-100370000D03*
X68990000Y-100380000D03*
X51414736Y-96897300D03*
X51751637Y-97016011D03*
X73450000Y-94550000D03*
X46210000Y-104390000D03*
X99650000Y-95184919D03*
X85568500Y-100390000D03*
X98950000Y-95190000D03*
X85567000Y-99690000D03*
X99650000Y-94708416D03*
X85091500Y-100390000D03*
X98950000Y-94710000D03*
X85090000Y-99690000D03*
X82194431Y-101962275D03*
X82720000Y-102430000D03*
X98970000Y-96670000D03*
X98267046Y-96666131D03*
X82310000Y-101500000D03*
X98960000Y-96190000D03*
X98257046Y-96186131D03*
X82852301Y-101957699D03*
D11*
X100580000Y-104690000D02*
X99400000Y-105870000D01*
X101205000Y-103395000D02*
X101205000Y-104065000D01*
D12*
X101255000Y-103865000D02*
X101255000Y-104015000D01*
D11*
X99120000Y-106150000D02*
X84880000Y-106150000D01*
D13*
X83340000Y-105600000D02*
X83990000Y-105600000D01*
D12*
X84600000Y-105870000D02*
X84030000Y-106440000D01*
D11*
X84880000Y-106150000D02*
X83250000Y-106150000D01*
D12*
X83030000Y-106440000D02*
X83680000Y-106440000D01*
D11*
X101205000Y-104065000D02*
X100580000Y-104690000D01*
D13*
X71250000Y-105970000D02*
X71255000Y-105965000D01*
D11*
X99400000Y-105870000D02*
X99120000Y-106150000D01*
D13*
X68810000Y-105970000D02*
X71250000Y-105970000D01*
D11*
X101205000Y-98240000D02*
X101205000Y-103395000D01*
D12*
X84030000Y-106440000D02*
X83680000Y-106440000D01*
D14*
X70640000Y-95580000D02*
X70450000Y-95390000D01*
X70450000Y-95390000D02*
X67300000Y-95390000D01*
X67130000Y-95390000D02*
X67300000Y-95390000D01*
X67390000Y-100560000D02*
X65550000Y-100560000D01*
X65550000Y-100560000D02*
X63080000Y-103030000D01*
X63080000Y-103030000D02*
X61660000Y-103030000D01*
X67550000Y-100400000D02*
X67390000Y-100560000D01*
X57450000Y-103850000D02*
X57690000Y-103610000D01*
X70594292Y-99554932D02*
X70594292Y-97683732D01*
X51835500Y-104105500D02*
X54944500Y-104105500D01*
X54944500Y-104105500D02*
X55200000Y-103850000D01*
X72870000Y-95060000D02*
X72870000Y-95400000D01*
X72870000Y-95400000D02*
X72874012Y-95404012D01*
X65640000Y-100840000D02*
X69309224Y-100840000D01*
X51775000Y-104045000D02*
X51835500Y-104105500D01*
X55200000Y-103850000D02*
X57450000Y-103850000D01*
X62870000Y-103610000D02*
X65640000Y-100840000D01*
X57690000Y-103610000D02*
X62870000Y-103610000D01*
X70594292Y-97683732D02*
X72874012Y-95404012D01*
X69309224Y-100840000D02*
X70594292Y-99554932D01*
X78732171Y-105154766D02*
X78732171Y-105542171D01*
X102780000Y-94840000D02*
X102290000Y-94840000D01*
X69038448Y-101470000D02*
X72100991Y-98407457D01*
X79580000Y-103290000D02*
X80630000Y-103290000D01*
X93840000Y-103290000D02*
X80596937Y-103290000D01*
X102780000Y-94840000D02*
X103550000Y-94840000D01*
X74389511Y-94270489D02*
X78520489Y-94270489D01*
X79749500Y-95499500D02*
X79749500Y-96180500D01*
X66078989Y-101470000D02*
X65860000Y-101251011D01*
X72100991Y-96559009D02*
X74389511Y-94270489D01*
X66078989Y-101470000D02*
X69038448Y-101470000D01*
X78380000Y-105510000D02*
X78732171Y-105157829D01*
X79749500Y-96180500D02*
X79130000Y-96800000D01*
X102290000Y-94840000D02*
X93840000Y-103290000D01*
X78520489Y-94270489D02*
X79749500Y-95499500D01*
X65530000Y-101530000D02*
X65590000Y-101470000D01*
X78732171Y-105157829D02*
X78732171Y-105154766D01*
X79130000Y-96800000D02*
X79130000Y-102840000D01*
X79130000Y-102840000D02*
X79580000Y-103290000D01*
X72100991Y-98407457D02*
X72100991Y-96559009D01*
X65590000Y-101470000D02*
X66078989Y-101470000D01*
X80596937Y-103290000D02*
X78732171Y-105154766D01*
X82150000Y-104930000D02*
X93126491Y-104930000D01*
X81090000Y-105990000D02*
X82150000Y-104930000D01*
X79798141Y-105988141D02*
X79798141Y-105990000D01*
X102711597Y-95344894D02*
X102784894Y-95344894D01*
X79400000Y-105980000D02*
X79790000Y-105980000D01*
X79440000Y-105630000D02*
X79798141Y-105988141D01*
X93126491Y-104930000D02*
X102711597Y-95344894D01*
X79798141Y-105990000D02*
X81090000Y-105990000D01*
X79790000Y-105980000D02*
X79798141Y-105988141D01*
X102784894Y-95344894D02*
X103535106Y-95344894D01*
X103535106Y-95344894D02*
X103540000Y-95340000D01*
X72506762Y-105928688D02*
X72506762Y-103861658D01*
X74063022Y-102305398D02*
X74063022Y-96776978D01*
X74500000Y-96330000D02*
X75030000Y-95800000D01*
X74500000Y-96340000D02*
X74500000Y-96330000D01*
X72506762Y-103861658D02*
X74063022Y-102305398D01*
X74063022Y-96776978D02*
X74500000Y-96340000D01*
X74432699Y-95102699D02*
X74275721Y-95102699D01*
X72130000Y-103879210D02*
X72130000Y-106400000D01*
X74275721Y-95102699D02*
X73809011Y-95569409D01*
X73809011Y-95569409D02*
X73809011Y-102200199D01*
X73809011Y-102200199D02*
X72130000Y-103879210D01*
X71963827Y-106846589D02*
X71963827Y-106750723D01*
X74319605Y-94699605D02*
X74679605Y-94699605D01*
X73555001Y-95464209D02*
X74319605Y-94699605D01*
X71750000Y-103900000D02*
X73555001Y-102094999D01*
X71750000Y-106536896D02*
X71750000Y-103900000D01*
X73555001Y-102094999D02*
X73555001Y-95464209D01*
X74679605Y-94699605D02*
X74980000Y-95000000D01*
X71963827Y-106750723D02*
X71750000Y-106536896D01*
X75238081Y-102298815D02*
X74428815Y-102298815D01*
X75363610Y-94649848D02*
X75363610Y-95383610D01*
X75942967Y-101593929D02*
X75238081Y-102298815D01*
X72918019Y-103809611D02*
X72918019Y-105377227D01*
X75942967Y-95962967D02*
X75942967Y-101593929D01*
X72918019Y-105377227D02*
X72893504Y-105401742D01*
X74428815Y-102298815D02*
X72918019Y-103809611D01*
X75363610Y-95383610D02*
X75942967Y-95962967D01*
X73283019Y-104616981D02*
X73283019Y-104800000D01*
X76196979Y-94675834D02*
X76196979Y-101703021D01*
X76196979Y-101703021D02*
X73283019Y-104616981D01*
X76156634Y-94635489D02*
X76196979Y-94675834D01*
X73752946Y-104559032D02*
X73752946Y-104878888D01*
X76450989Y-95738272D02*
X76450989Y-101860989D01*
X76450989Y-101860989D02*
X73752946Y-104559032D01*
X76450498Y-95737781D02*
X76450989Y-95738272D01*
X76721211Y-94635489D02*
X76450498Y-94906202D01*
X76450498Y-94906202D02*
X76450498Y-95737781D01*
X77547367Y-95147633D02*
X76704989Y-95990011D01*
X74360000Y-104311188D02*
X74360000Y-105590000D01*
X76704989Y-101966199D02*
X74360000Y-104311188D01*
X77547367Y-95013535D02*
X77547367Y-95147633D01*
X76704989Y-95990011D02*
X76704989Y-101966199D01*
X78367967Y-95018243D02*
X78367967Y-101826779D01*
X74880000Y-105314746D02*
X74880000Y-105590000D01*
X78355720Y-95005996D02*
X78367967Y-95018243D01*
X78367967Y-101826779D02*
X74880000Y-105314746D01*
X75440000Y-105113956D02*
X75440000Y-105810000D01*
X78621978Y-101931978D02*
X75440000Y-105113956D01*
X78755678Y-95362451D02*
X78621978Y-95496151D01*
X78621978Y-95496151D02*
X78621978Y-101931978D01*
X75650000Y-106470000D02*
X78875989Y-103244011D01*
X78875989Y-103244011D02*
X78875989Y-96384011D01*
X79331570Y-95928430D02*
X79331570Y-95921455D01*
X75650000Y-106590000D02*
X75650000Y-106470000D01*
X78875989Y-96384011D02*
X79331570Y-95928430D01*
X82314023Y-95090000D02*
X82494023Y-94910000D01*
X82494023Y-94910000D02*
X82375624Y-95028399D01*
X80140000Y-96510000D02*
X80140000Y-95755000D01*
X82125623Y-95278400D02*
X82314023Y-95090000D01*
X102786584Y-94343416D02*
X103525908Y-94343416D01*
X80616600Y-95278400D02*
X80247500Y-95647500D01*
X82125623Y-95278400D02*
X80616600Y-95278400D01*
X103525908Y-94343416D02*
X103532492Y-94350000D01*
X80140000Y-95755000D02*
X80247500Y-95647500D01*
X83060607Y-94343416D02*
X82125623Y-95278400D01*
X102786584Y-94343416D02*
X83060607Y-94343416D01*
X68160000Y-99570000D02*
X68160000Y-98270000D01*
X44985500Y-102341071D02*
X44985500Y-102338604D01*
X54148837Y-96785906D02*
X66675906Y-96785906D01*
X44985500Y-102338604D02*
X44771396Y-102124500D01*
X68160000Y-98270000D02*
X68155000Y-98265000D01*
X45094857Y-102450428D02*
X44985500Y-102341071D01*
X44768929Y-102124500D02*
X44659845Y-102015416D01*
X50515539Y-98046823D02*
X52887920Y-98046823D01*
X44550959Y-100322454D02*
X46573020Y-98300393D01*
X52887920Y-98046823D02*
X54148837Y-96785906D01*
X66675906Y-96785906D02*
X68155000Y-98265000D01*
X44659845Y-102015416D02*
X44550959Y-100322454D01*
X46573020Y-98300393D02*
X50515539Y-98046823D01*
X44771396Y-102124500D02*
X44768929Y-102124500D01*
X52788949Y-97786584D02*
X50604391Y-97786584D01*
X68524829Y-98115171D02*
X66917203Y-96507546D01*
X44423186Y-102293186D02*
X44290108Y-100224095D01*
X46714926Y-98036741D02*
X46444773Y-98054116D01*
X63711963Y-96508037D02*
X54067496Y-96508037D01*
X54067496Y-96508037D02*
X52788949Y-97786584D01*
X44290108Y-100224095D02*
X46333387Y-98180816D01*
X68570000Y-98160342D02*
X68524829Y-98115171D01*
X46333387Y-98180816D02*
X46441495Y-98057846D01*
X66917203Y-96507546D02*
X63712454Y-96507546D01*
X63712454Y-96507546D02*
X63711963Y-96508037D01*
X46444773Y-98054116D02*
X46333387Y-98180816D01*
X50604391Y-97786584D02*
X46714926Y-98036741D01*
X68570000Y-99030000D02*
X68570000Y-98160342D01*
X44620000Y-102490000D02*
X44423186Y-102293186D01*
X46529873Y-98048643D02*
X46714926Y-98036741D01*
X46384140Y-104047244D02*
X46361396Y-104024500D01*
X46361396Y-104024500D02*
X46058604Y-104024500D01*
X46035860Y-104047244D02*
X44871048Y-104047244D01*
X48458263Y-96658263D02*
X47997884Y-96658263D01*
X49792756Y-104047244D02*
X49352756Y-104047244D01*
X48480000Y-96680000D02*
X48458263Y-96658263D01*
X46058604Y-104024500D02*
X46035860Y-104047244D01*
X49352756Y-104047244D02*
X49412756Y-104047244D01*
X44214462Y-103005299D02*
X43905344Y-98199117D01*
X44240961Y-103417157D02*
X44240961Y-103031798D01*
X45189432Y-96738498D02*
X46436936Y-96658263D01*
X44871048Y-104047244D02*
X44240961Y-103417157D01*
X44240961Y-103031798D02*
X44214462Y-103005299D01*
X49412756Y-104047244D02*
X49650000Y-103810000D01*
X43905344Y-98199117D02*
X45189432Y-96738498D01*
X46436936Y-96658263D02*
X47997884Y-96658263D01*
X49352756Y-104047244D02*
X46384140Y-104047244D01*
X48153922Y-96814301D02*
X47997884Y-96658263D01*
X53598157Y-95746004D02*
X65872876Y-95746004D01*
X53380188Y-95963973D02*
X53598157Y-95746004D01*
X66618580Y-95000300D02*
X71619700Y-95000300D01*
X45068135Y-96491775D02*
X49043502Y-96236093D01*
X65872876Y-95746004D02*
X66618580Y-95000300D01*
X43645115Y-98110426D02*
X45068135Y-96491775D01*
X44270000Y-104009865D02*
X44270000Y-104030000D01*
X49043513Y-96236082D02*
X53274308Y-95963973D01*
X71829700Y-95000300D02*
X71619700Y-95000300D01*
X53274308Y-95963973D02*
X53380188Y-95963973D01*
X44007676Y-103747541D02*
X44270000Y-104009865D01*
X71830000Y-95000000D02*
X71829700Y-95000300D01*
X44007676Y-103747541D02*
X43645115Y-98110426D01*
X49043502Y-96236093D02*
X49043513Y-96236082D01*
X53703371Y-96000015D02*
X68599985Y-96000015D01*
X49580000Y-96610000D02*
X49744477Y-96445523D01*
X68820000Y-96190000D02*
X68789970Y-96190000D01*
X68789970Y-96190000D02*
X68599985Y-96000015D01*
X53282460Y-96217973D02*
X53485413Y-96217973D01*
X49744477Y-96445523D02*
X53282460Y-96217973D01*
X53485413Y-96217973D02*
X53703371Y-96000015D01*
X53629106Y-96479106D02*
X53210912Y-96897300D01*
X68990000Y-97818364D02*
X67425662Y-96254026D01*
X68570000Y-100370000D02*
X68740000Y-100370000D01*
X68990000Y-100120000D02*
X68990000Y-97818364D01*
X53210912Y-96897300D02*
X51414736Y-96897300D01*
X68740000Y-100370000D02*
X68990000Y-100120000D01*
X67425662Y-96254026D02*
X53826983Y-96254026D01*
X53826983Y-96254026D02*
X53629106Y-96479106D01*
X68990000Y-100380000D02*
X68990000Y-100120000D01*
X43384564Y-98016909D02*
X43753676Y-103755898D01*
X43753676Y-104030572D02*
X44118604Y-104395500D01*
X46204500Y-104395500D02*
X46210000Y-104390000D01*
X44118604Y-104395500D02*
X46204500Y-104395500D01*
X61489557Y-95491995D02*
X53484134Y-95491995D01*
X44942012Y-96245351D02*
X43384564Y-98016909D01*
X73450000Y-94550000D02*
X62431552Y-94550000D01*
X53266156Y-95709973D02*
X44942012Y-96245351D01*
X62431552Y-94550000D02*
X61489557Y-95491995D01*
X43753676Y-103755898D02*
X43753676Y-104030572D01*
X53484134Y-95491995D02*
X53266156Y-95709973D01*
X98840000Y-95090000D02*
X98313000Y-95617000D01*
X85567000Y-99532314D02*
X85567000Y-99690000D01*
X85457000Y-100278500D02*
X85457000Y-99800000D01*
X99650000Y-95184919D02*
X99555081Y-95090000D01*
X99555081Y-95090000D02*
X98840000Y-95090000D01*
X85568500Y-100390000D02*
X85457000Y-100278500D01*
X85457000Y-99800000D02*
X85567000Y-99690000D01*
X89482314Y-95617000D02*
X85567000Y-99532314D01*
X98313000Y-95617000D02*
X89482314Y-95617000D01*
X99538416Y-94820000D02*
X98750790Y-94820000D01*
X85203000Y-99803000D02*
X85090000Y-99690000D01*
X98750790Y-94820000D02*
X98207790Y-95363000D01*
X85090000Y-99650104D02*
X85090000Y-99690000D01*
X99650000Y-94708416D02*
X99538416Y-94820000D01*
X89377104Y-95363000D02*
X85090000Y-99650104D01*
X85203000Y-100278500D02*
X85203000Y-99803000D01*
X98207790Y-95363000D02*
X89377104Y-95363000D01*
X85091500Y-100390000D02*
X85203000Y-100278500D01*
X82720000Y-102360000D02*
X82720000Y-102430000D01*
X83115197Y-102211699D02*
X82896896Y-102430000D01*
X97141000Y-96554000D02*
X91483301Y-102211699D01*
X82896896Y-102430000D02*
X82720000Y-102430000D01*
X98854000Y-96554000D02*
X97141000Y-96554000D01*
X82194431Y-101962275D02*
X82322275Y-101962275D01*
X91483301Y-102211699D02*
X83115197Y-102211699D01*
X98970000Y-96670000D02*
X98854000Y-96554000D01*
X82322275Y-101962275D02*
X82720000Y-102360000D01*
X91362301Y-101957699D02*
X82852301Y-101957699D01*
X98960000Y-96190000D02*
X98850000Y-96300000D01*
X82310000Y-101560000D02*
X82707699Y-101957699D01*
X82310000Y-101500000D02*
X82310000Y-101560000D01*
X97020000Y-96300000D02*
X91362301Y-101957699D01*
X98850000Y-96300000D02*
X97020000Y-96300000D01*
X82707699Y-101957699D02*
X82852301Y-101957699D01*
G04 #@! TA.AperFunction,Conductor*
G36*
X80984342Y-104799743D02*
G01*
X81052419Y-104819884D01*
X81098802Y-104873634D01*
X81110082Y-104925660D01*
X81110536Y-105617104D01*
X81090579Y-105685238D01*
X81036954Y-105731766D01*
X80984279Y-105743187D01*
X79937952Y-105741055D01*
X79869872Y-105720914D01*
X79823489Y-105667164D01*
X79812210Y-105615143D01*
X79811754Y-104923692D01*
X79831711Y-104855560D01*
X79885336Y-104809032D01*
X79938008Y-104797611D01*
X80984342Y-104799743D01*
G37*
G04 #@! TD.AperFunction*
G04 #@! TA.AperFunction,Conductor*
G36*
X104102121Y-99740002D02*
G01*
X104148614Y-99793658D01*
X104160000Y-99846000D01*
X104159999Y-101063395D01*
X104139997Y-101131516D01*
X104086341Y-101178009D01*
X104033396Y-101189394D01*
X102194540Y-101180595D01*
X102126516Y-101160267D01*
X102080280Y-101106389D01*
X102069147Y-101055463D01*
X102060868Y-99846863D01*
X102080404Y-99778607D01*
X102133740Y-99731748D01*
X102186866Y-99720000D01*
X104034000Y-99720000D01*
X104102121Y-99740002D01*
G37*
G04 #@! TD.AperFunction*
G04 #@! TA.AperFunction,Conductor*
G36*
X59597918Y-94095502D02*
G01*
X59644411Y-94149158D01*
X59655292Y-94190226D01*
X59711118Y-94811658D01*
X59697291Y-94881295D01*
X59648010Y-94932403D01*
X59593754Y-94948669D01*
X54149521Y-95300732D01*
X54141390Y-95300995D01*
X53537995Y-95300995D01*
X53512241Y-95296619D01*
X53484615Y-95299732D01*
X53480436Y-95300203D01*
X53466330Y-95300995D01*
X53462612Y-95300995D01*
X53458979Y-95301824D01*
X53445058Y-95304189D01*
X53413260Y-95307772D01*
X53403980Y-95311616D01*
X53383977Y-95327567D01*
X53318246Y-95354399D01*
X53313552Y-95354790D01*
X42808008Y-96034154D01*
X42808007Y-96034154D01*
X43412133Y-104988833D01*
X43412134Y-104988834D01*
X54114192Y-104296762D01*
X54122323Y-104296500D01*
X54890639Y-104296500D01*
X54916392Y-104300875D01*
X54922564Y-104300179D01*
X54922565Y-104300180D01*
X54948197Y-104297291D01*
X54962304Y-104296500D01*
X54966019Y-104296500D01*
X54966021Y-104296500D01*
X54969643Y-104295672D01*
X54983576Y-104293305D01*
X55009206Y-104290418D01*
X55009207Y-104290416D01*
X55015385Y-104289721D01*
X55024639Y-104285888D01*
X55029499Y-104282011D01*
X55029503Y-104282011D01*
X55049679Y-104265919D01*
X55061185Y-104257756D01*
X55064340Y-104255775D01*
X55064342Y-104255772D01*
X55073603Y-104249955D01*
X55132494Y-104230912D01*
X60650128Y-103874103D01*
X60719397Y-103889667D01*
X60769256Y-103940211D01*
X60783996Y-103991709D01*
X60817746Y-104513620D01*
X60802182Y-104582890D01*
X60751638Y-104632748D01*
X60700140Y-104647488D01*
X42714858Y-105810543D01*
X42645589Y-105794979D01*
X42595730Y-105744435D01*
X42580981Y-105692789D01*
X41917459Y-95236644D01*
X41933107Y-95167396D01*
X41983710Y-95117598D01*
X42035738Y-95102889D01*
X59348512Y-94075720D01*
X59355974Y-94075500D01*
X59529797Y-94075500D01*
X59597918Y-94095502D01*
G37*
G04 #@! TD.AperFunction*
G04 #@! TA.AperFunction,Conductor*
G36*
X59655187Y-96996908D02*
G01*
X59701680Y-97050564D01*
X59712761Y-97094149D01*
X60037637Y-101757588D01*
X60022418Y-101826935D01*
X59972123Y-101877044D01*
X59920073Y-101892082D01*
X59820914Y-101898494D01*
X59820914Y-101898495D01*
X59073470Y-101946831D01*
X58727118Y-96976906D01*
X59587066Y-96976906D01*
X59655187Y-96996908D01*
G37*
G04 #@! TD.AperFunction*
G04 #@! TA.AperFunction,Conductor*
G36*
X49217263Y-96436343D02*
G01*
X49267104Y-96486904D01*
X49281697Y-96556385D01*
X49280172Y-96568373D01*
X49272832Y-96609998D01*
X49291357Y-96715057D01*
X49344695Y-96807442D01*
X49426416Y-96876015D01*
X49526660Y-96912500D01*
X49526661Y-96912500D01*
X49633340Y-96912500D01*
X49733583Y-96876015D01*
X49765155Y-96849523D01*
X49815304Y-96807443D01*
X49868643Y-96715057D01*
X49868642Y-96715057D01*
X49879752Y-96695816D01*
X49881108Y-96696599D01*
X49898333Y-96661841D01*
X49959245Y-96625368D01*
X49982807Y-96621588D01*
X51037614Y-96553747D01*
X51106877Y-96569335D01*
X51156718Y-96619896D01*
X51171311Y-96689377D01*
X51154819Y-96742486D01*
X51126093Y-96792240D01*
X51107568Y-96897300D01*
X51126093Y-97002357D01*
X51179431Y-97094742D01*
X51261152Y-97163315D01*
X51361396Y-97199800D01*
X51454201Y-97199800D01*
X51522322Y-97219802D01*
X51535193Y-97229279D01*
X51598054Y-97282026D01*
X51698297Y-97318511D01*
X51698298Y-97318511D01*
X51804977Y-97318511D01*
X51905220Y-97282026D01*
X51916546Y-97272521D01*
X51986941Y-97213454D01*
X52015889Y-97163315D01*
X52022826Y-97151300D01*
X52074208Y-97102307D01*
X52131945Y-97088300D01*
X52912926Y-97088300D01*
X52981047Y-97108302D01*
X53027540Y-97161958D01*
X53037644Y-97232232D01*
X53008150Y-97296812D01*
X53002022Y-97303395D01*
X52746739Y-97558679D01*
X52684426Y-97592704D01*
X52657643Y-97595584D01*
X50629829Y-97595584D01*
X50615784Y-97594457D01*
X50602305Y-97595324D01*
X50594218Y-97595584D01*
X50580695Y-97595584D01*
X50566741Y-97597610D01*
X46681197Y-97847514D01*
X46681187Y-97847516D01*
X46486260Y-97860052D01*
X46460283Y-97857339D01*
X46428778Y-97862956D01*
X46414753Y-97864652D01*
X46411034Y-97864891D01*
X46407457Y-97865953D01*
X46393727Y-97869204D01*
X46362227Y-97874820D01*
X46353205Y-97879256D01*
X46329524Y-97900767D01*
X46318562Y-97909657D01*
X46315532Y-97911844D01*
X46313067Y-97914648D01*
X46303173Y-97924704D01*
X46279480Y-97946227D01*
X46265767Y-97968451D01*
X46231271Y-98007691D01*
X46196649Y-98047071D01*
X46191116Y-98052970D01*
X44411427Y-99832659D01*
X44349115Y-99866685D01*
X44278300Y-99861620D01*
X44221464Y-99819073D01*
X44196653Y-99752553D01*
X44196592Y-99751651D01*
X44104377Y-98317888D01*
X44119965Y-98248627D01*
X44135481Y-98226619D01*
X45246182Y-96963221D01*
X45306182Y-96925267D01*
X45332722Y-96920675D01*
X46439031Y-96849522D01*
X46447118Y-96849263D01*
X47752063Y-96849263D01*
X47820184Y-96869265D01*
X47861182Y-96912263D01*
X47918616Y-97011743D01*
X48000338Y-97080316D01*
X48100582Y-97116801D01*
X48100583Y-97116801D01*
X48207262Y-97116801D01*
X48307506Y-97080315D01*
X48388947Y-97011979D01*
X48453987Y-96983514D01*
X48469938Y-96982500D01*
X48533340Y-96982500D01*
X48633583Y-96946015D01*
X48658309Y-96925267D01*
X48715304Y-96877443D01*
X48768643Y-96785057D01*
X48787167Y-96680000D01*
X48770452Y-96585204D01*
X48778321Y-96514649D01*
X48823088Y-96459545D01*
X48886449Y-96437588D01*
X48991494Y-96430832D01*
X49004825Y-96432658D01*
X49021564Y-96430772D01*
X49021567Y-96430773D01*
X49057340Y-96426741D01*
X49063335Y-96426211D01*
X49077238Y-96425318D01*
X49077240Y-96425317D01*
X49091790Y-96424382D01*
X49091882Y-96424365D01*
X49148001Y-96420755D01*
X49217263Y-96436343D01*
G37*
G04 #@! TD.AperFunction*
G04 #@! TA.AperFunction,Conductor*
G36*
X59820914Y-101898494D02*
G01*
X59820914Y-101898495D01*
X59902199Y-103059905D01*
X59917898Y-103284203D01*
X59902700Y-103353554D01*
X59852422Y-103403680D01*
X59792205Y-103419000D01*
X57743861Y-103419000D01*
X57718107Y-103414624D01*
X57690481Y-103417737D01*
X57686302Y-103418208D01*
X57672196Y-103419000D01*
X57668478Y-103419000D01*
X57664845Y-103419829D01*
X57650924Y-103422194D01*
X57619126Y-103425777D01*
X57609846Y-103429621D01*
X57584821Y-103449577D01*
X57573310Y-103457745D01*
X57570159Y-103459724D01*
X57567522Y-103462362D01*
X57557000Y-103471764D01*
X57531976Y-103491720D01*
X57516860Y-103513023D01*
X57407790Y-103622095D01*
X57345478Y-103656120D01*
X57318694Y-103659000D01*
X55253860Y-103659000D01*
X55228107Y-103654624D01*
X55196300Y-103658208D01*
X55182195Y-103659000D01*
X55178479Y-103659000D01*
X55174850Y-103659828D01*
X55160939Y-103662190D01*
X55129134Y-103665774D01*
X55119847Y-103669621D01*
X55094820Y-103689578D01*
X55083322Y-103697737D01*
X55080162Y-103699723D01*
X55077526Y-103702359D01*
X55067004Y-103711761D01*
X55041973Y-103731723D01*
X55026858Y-103753026D01*
X54913809Y-103866074D01*
X54851497Y-103900099D01*
X54832170Y-103902757D01*
X54637809Y-103914279D01*
X54630353Y-103914500D01*
X52121700Y-103914500D01*
X52053579Y-103894498D01*
X52012581Y-103851501D01*
X52010304Y-103847557D01*
X51928583Y-103778984D01*
X51828340Y-103742500D01*
X51828339Y-103742500D01*
X51721661Y-103742500D01*
X51621418Y-103778985D01*
X51539695Y-103847557D01*
X51486357Y-103939942D01*
X51474926Y-104004767D01*
X51443398Y-104068379D01*
X51382483Y-104104848D01*
X51358296Y-104108665D01*
X50228435Y-104175637D01*
X50159250Y-104159701D01*
X50109663Y-104108890D01*
X50096894Y-104071740D01*
X50088643Y-104024943D01*
X50076994Y-104004767D01*
X50035304Y-103932557D01*
X50004092Y-103906367D01*
X49964766Y-103847258D01*
X49960997Y-103831724D01*
X49953025Y-103786511D01*
X49938643Y-103704943D01*
X49935630Y-103699725D01*
X49885304Y-103612557D01*
X49803583Y-103543984D01*
X49703340Y-103507500D01*
X49703339Y-103507500D01*
X49596661Y-103507500D01*
X49496418Y-103543985D01*
X49414695Y-103612557D01*
X49361357Y-103704942D01*
X49353038Y-103752123D01*
X49321511Y-103815736D01*
X49260597Y-103852205D01*
X49228952Y-103856244D01*
X46496760Y-103856244D01*
X46468711Y-103853082D01*
X46456396Y-103850270D01*
X46432274Y-103840277D01*
X46408354Y-103837582D01*
X46400466Y-103836693D01*
X46386547Y-103834328D01*
X46382917Y-103833500D01*
X46382915Y-103833500D01*
X46379200Y-103833500D01*
X46365093Y-103832708D01*
X46356360Y-103831724D01*
X46333288Y-103829124D01*
X46307535Y-103833500D01*
X46112465Y-103833500D01*
X46086711Y-103829124D01*
X46063640Y-103831724D01*
X46054906Y-103832708D01*
X46040800Y-103833500D01*
X46037082Y-103833500D01*
X46033449Y-103834329D01*
X46019528Y-103836694D01*
X45987732Y-103840276D01*
X45963602Y-103850272D01*
X45951291Y-103853083D01*
X45923243Y-103856244D01*
X45002353Y-103856244D01*
X44934232Y-103836242D01*
X44913257Y-103819339D01*
X44468865Y-103374946D01*
X44434840Y-103312634D01*
X44431961Y-103285851D01*
X44431961Y-103085659D01*
X44436336Y-103059905D01*
X44432753Y-103028101D01*
X44431961Y-103013993D01*
X44431961Y-103010277D01*
X44431134Y-103006655D01*
X44428765Y-102992712D01*
X44422660Y-102938510D01*
X44424085Y-102938349D01*
X44418076Y-102917093D01*
X44438765Y-102849177D01*
X44492887Y-102803228D01*
X44544444Y-102796345D01*
X44544444Y-102792500D01*
X44673340Y-102792500D01*
X44773580Y-102756016D01*
X44773581Y-102756015D01*
X44773584Y-102756014D01*
X44801482Y-102732604D01*
X44866520Y-102704141D01*
X44925566Y-102710726D01*
X45041517Y-102752928D01*
X45041518Y-102752928D01*
X45148197Y-102752928D01*
X45248440Y-102716443D01*
X45282244Y-102688078D01*
X45330161Y-102647871D01*
X45383500Y-102555485D01*
X45402024Y-102450428D01*
X45383500Y-102345371D01*
X45330161Y-102252985D01*
X45330160Y-102252985D01*
X45248440Y-102184412D01*
X45148197Y-102147928D01*
X45148196Y-102147928D01*
X45117129Y-102147928D01*
X45049008Y-102127926D01*
X45028034Y-102111023D01*
X44944539Y-102027528D01*
X44929424Y-102006226D01*
X44924566Y-102002352D01*
X44924566Y-102002351D01*
X44904388Y-101986259D01*
X44893870Y-101976859D01*
X44891236Y-101974225D01*
X44891233Y-101974223D01*
X44881194Y-101964183D01*
X44884194Y-101961182D01*
X44854310Y-101927379D01*
X44842657Y-101881986D01*
X44750768Y-100453295D01*
X44766356Y-100384031D01*
X44787409Y-100356117D01*
X46623557Y-98519969D01*
X46685867Y-98485945D01*
X46704554Y-98483327D01*
X50517634Y-98238082D01*
X50525721Y-98237823D01*
X52834059Y-98237823D01*
X52859812Y-98242198D01*
X52865984Y-98241502D01*
X52865985Y-98241503D01*
X52891617Y-98238614D01*
X52905724Y-98237823D01*
X52909439Y-98237823D01*
X52909441Y-98237823D01*
X52913063Y-98236995D01*
X52926996Y-98234628D01*
X52952626Y-98231741D01*
X52952627Y-98231739D01*
X52958805Y-98231044D01*
X52968059Y-98227211D01*
X52972919Y-98223334D01*
X52972923Y-98223334D01*
X52993099Y-98207242D01*
X53004617Y-98199072D01*
X53007760Y-98197098D01*
X53010389Y-98194468D01*
X53020922Y-98185054D01*
X53041090Y-98168972D01*
X53041090Y-98168970D01*
X53045948Y-98165097D01*
X53061065Y-98143792D01*
X54191047Y-97013811D01*
X54253359Y-96979785D01*
X54280142Y-96976906D01*
X59476462Y-96976906D01*
X59820914Y-101898494D01*
G37*
G04 #@! TD.AperFunction*
G04 #@! TA.AperFunction,Conductor*
G36*
X75694088Y-97514856D02*
G01*
X75740581Y-97568512D01*
X75751967Y-97620854D01*
X75751967Y-101462623D01*
X75731965Y-101530744D01*
X75715062Y-101551717D01*
X75195869Y-102070911D01*
X75133559Y-102104935D01*
X75106776Y-102107815D01*
X74482676Y-102107815D01*
X74456922Y-102103439D01*
X74429296Y-102106552D01*
X74425117Y-102107023D01*
X74411011Y-102107815D01*
X74393099Y-102107815D01*
X74393099Y-102106723D01*
X74337190Y-102103295D01*
X74279925Y-102061328D01*
X74254441Y-101995062D01*
X74254022Y-101984799D01*
X74254022Y-97620854D01*
X74274024Y-97552733D01*
X74327680Y-97506240D01*
X74380022Y-97494854D01*
X75625967Y-97494854D01*
X75694088Y-97514856D01*
G37*
G04 #@! TD.AperFunction*
G04 #@! TA.AperFunction,Conductor*
G36*
X78119088Y-97514856D02*
G01*
X78165581Y-97568512D01*
X78176967Y-97620854D01*
X78176967Y-101695473D01*
X78156965Y-101763594D01*
X78140061Y-101784568D01*
X76455641Y-103468990D01*
X76243682Y-103680949D01*
X76181370Y-103714974D01*
X76154587Y-103717854D01*
X75527639Y-103717854D01*
X75459518Y-103697852D01*
X75413025Y-103644196D01*
X75402921Y-103573922D01*
X75432415Y-103509342D01*
X75438544Y-103502759D01*
X76801958Y-102139344D01*
X76823263Y-102124227D01*
X76827136Y-102119369D01*
X76827138Y-102119369D01*
X76843220Y-102099201D01*
X76852634Y-102088668D01*
X76855264Y-102086039D01*
X76857238Y-102082896D01*
X76865408Y-102071378D01*
X76881500Y-102051202D01*
X76881500Y-102051198D01*
X76885377Y-102046338D01*
X76889210Y-102037084D01*
X76889905Y-102030906D01*
X76889907Y-102030905D01*
X76892794Y-102005275D01*
X76895161Y-101991342D01*
X76895989Y-101987720D01*
X76895989Y-101984002D01*
X76896781Y-101969896D01*
X76897480Y-101963692D01*
X76899669Y-101944264D01*
X76899668Y-101944261D01*
X76900363Y-101938094D01*
X76895989Y-101912340D01*
X76895989Y-97620854D01*
X76915991Y-97552733D01*
X76969647Y-97506240D01*
X77021989Y-97494854D01*
X78050967Y-97494854D01*
X78119088Y-97514856D01*
G37*
G04 #@! TD.AperFunction*
G04 #@! TA.AperFunction,Conductor*
G36*
X73306122Y-98657855D02*
G01*
X73352615Y-98711511D01*
X73364001Y-98763853D01*
X73364001Y-101963692D01*
X73343999Y-102031813D01*
X73327096Y-102052787D01*
X72968935Y-102410948D01*
X72906623Y-102444974D01*
X72879840Y-102447853D01*
X72496093Y-102447853D01*
X72427972Y-102427851D01*
X72381479Y-102374195D01*
X72370093Y-102321853D01*
X72370093Y-98763853D01*
X72390095Y-98695732D01*
X72443751Y-98649239D01*
X72496093Y-98637853D01*
X73238001Y-98637853D01*
X73306122Y-98657855D01*
G37*
G04 #@! TD.AperFunction*
G04 #@! TA.AperFunction,Conductor*
G36*
X80059213Y-98657855D02*
G01*
X80105706Y-98711511D01*
X80117092Y-98763853D01*
X80117092Y-102321853D01*
X80097090Y-102389974D01*
X80043434Y-102436467D01*
X79991092Y-102447853D01*
X79447000Y-102447853D01*
X79378879Y-102427851D01*
X79332386Y-102374195D01*
X79321000Y-102321853D01*
X79321000Y-98763853D01*
X79341002Y-98695732D01*
X79394658Y-98649239D01*
X79446998Y-98637853D01*
X79991095Y-98637853D01*
X80059213Y-98657855D01*
G37*
G04 #@! TD.AperFunction*
G04 #@! TA.AperFunction,Conductor*
G36*
X69397121Y-102685002D02*
G01*
X69443614Y-102738658D01*
X69455000Y-102791000D01*
X69455000Y-104666290D01*
X69434998Y-104734411D01*
X69381342Y-104780904D01*
X69331312Y-104792269D01*
X66858312Y-104837645D01*
X66789835Y-104818896D01*
X66742366Y-104766102D01*
X66730000Y-104711666D01*
X66730000Y-102791000D01*
X66750002Y-102722879D01*
X66803658Y-102676386D01*
X66856000Y-102665000D01*
X69329000Y-102665000D01*
X69397121Y-102685002D01*
G37*
G04 #@! TD.AperFunction*
G04 #@! TA.AperFunction,Conductor*
G36*
X66552121Y-97710002D02*
G01*
X66598614Y-97763658D01*
X66610000Y-97816000D01*
X66610000Y-99014393D01*
X66589998Y-99082514D01*
X66536342Y-99129007D01*
X66484394Y-99140392D01*
X63536394Y-99149605D01*
X63468211Y-99129816D01*
X63421551Y-99076306D01*
X63410000Y-99023606D01*
X63410000Y-97816000D01*
X63430002Y-97747879D01*
X63483658Y-97701386D01*
X63536000Y-97690000D01*
X66484000Y-97690000D01*
X66552121Y-97710002D01*
G37*
G04 #@! TD.AperFunction*
G04 #@! TA.AperFunction,Conductor*
G36*
X84394949Y-100796781D02*
G01*
X84462482Y-100818680D01*
X84507456Y-100873615D01*
X84517179Y-100914872D01*
X84527142Y-101074278D01*
X84511428Y-101143514D01*
X84502824Y-101156881D01*
X84286990Y-101449799D01*
X84230478Y-101492775D01*
X84187653Y-101501039D01*
X83716615Y-101508889D01*
X83648170Y-101490024D01*
X83611577Y-101455568D01*
X83410000Y-101170000D01*
X83212965Y-101170000D01*
X83144844Y-101149998D01*
X83098351Y-101096342D01*
X83087002Y-101047073D01*
X83083237Y-100892736D01*
X83101572Y-100824148D01*
X83154078Y-100776360D01*
X83212720Y-100763712D01*
X84394949Y-100796781D01*
G37*
G04 #@! TD.AperFunction*
M02*
