M48
; DRILL file {KiCad 7.0.2} date Wed 12 Jul 2023 07:25:02 PM CEST
; FORMAT={-:-/ absolute / inch / decimal}
; #@! TF.CreationDate,2023-07-12T19:25:02+02:00
; #@! TF.GenerationSoftware,Kicad,Pcbnew,7.0.2
; #@! TF.FileFunction,Plated,1,2,Blind
FMAT,2
INCH
; #@! TA.AperFunction,Plated,Buried,ViaDrill
T1C0.0060
; #@! TA.AperFunction,Plated,Buried,ViaDrill
T2C0.0060
%
G90
G05
T1
X1.6587Y-3.7589
X1.6597Y-3.7742
X1.6607Y-3.7907
X1.6618Y-3.8065
X1.6628Y-3.8218
X1.6638Y-3.8375
X1.6656Y-3.8543
X1.6667Y-3.8701
X1.6677Y-3.8854
X1.6687Y-3.9011
X1.6695Y-3.9196
X1.6705Y-3.9353
X1.6715Y-3.9506
X1.6725Y-3.9663
X1.674Y-3.9832
X1.6744Y-3.7579
X1.675Y-3.9989
X1.676Y-4.0142
X1.677Y-4.03
X1.6785Y-4.0464
X1.6795Y-4.0622
X1.6805Y-4.0775
X1.6815Y-4.0932
X1.6826Y-4.1097
X1.6836Y-4.1254
X1.6846Y-4.1407
X1.6856Y-4.1564
X1.6897Y-3.7569
X1.7009Y-4.1555
X1.7054Y-3.7559
X1.7167Y-3.7978
X1.7176Y-4.1567
X1.7196Y-3.755
X1.7306Y-3.7969
X1.7333Y-4.1557
X1.7353Y-3.754
X1.7486Y-4.1547
X1.7506Y-3.753
X1.7543Y-4.1043
X1.7563Y-4.0492
X1.7643Y-4.1537
X1.7663Y-3.752
X1.775Y-4.0474
X1.7796Y-4.1527
X1.7817Y-3.7514
X1.7953Y-4.1517
X1.7974Y-3.7503
X1.8107Y-4.1507
X1.8127Y-3.7494
X1.8264Y-4.1497
X1.8284Y-3.7483
X1.8331Y-4.1102
X1.8433Y-4.149
X1.8438Y-3.7481
X1.8486Y-3.8891
X1.8504Y-3.9166
X1.8521Y-3.9441
X1.8539Y-3.9716
X1.8557Y-3.9999
X1.859Y-4.148
X1.8595Y-3.7471
X1.8636Y-3.9019
X1.8654Y-3.9294
X1.8672Y-3.9569
X1.869Y-3.9848
X1.8743Y-4.147
X1.8748Y-3.7461
X1.8769Y-3.8876
X1.8787Y-3.9151
X1.8805Y-3.9426
X1.8822Y-3.9701
X1.8841Y-3.9984
X1.8901Y-4.146
X1.8906Y-3.7451
X1.8917Y-3.8316
X1.8919Y-3.9005
X1.8937Y-3.928
X1.8955Y-3.9555
X1.8973Y-3.9834
X1.9016Y-4.0598
X1.9048Y-3.8858
X1.9054Y-3.7434
X1.9065Y-4.1445
X1.9066Y-3.9133
X1.9068Y-3.8202
X1.9083Y-3.9408
X1.9101Y-3.9683
X1.912Y-3.9966
X1.9194Y-3.8987
X1.9197Y-3.815
X1.9212Y-3.7423
X1.9212Y-3.9262
X1.9222Y-4.1435
X1.923Y-3.9537
X1.9248Y-3.9816
X1.9313Y-3.7987
X1.9323Y-3.884
X1.9341Y-3.9116
X1.9348Y-3.8269
X1.9358Y-3.9391
X1.9365Y-3.7414
X1.9376Y-4.1425
X1.9376Y-3.9666
X1.9395Y-3.9948
X1.9469Y-3.8969
X1.9487Y-3.9244
X1.9505Y-3.9519
X1.9522Y-3.7403
X1.9523Y-3.9798
X1.9533Y-4.1415
X1.9586Y-3.8127
X1.9598Y-3.8827
X1.9616Y-3.9102
X1.9634Y-3.9377
X1.9652Y-3.9652
X1.967Y-3.9935
X1.9678Y-4.1402
X1.9687Y-3.7393
X1.9689Y-4.0878
X1.9748Y-4.1004
X1.9835Y-4.1392
X1.9844Y-3.7383
X1.9988Y-4.1382
X1.9997Y-3.7373
X2.0131Y-3.8237
X2.0145Y-4.1371
X2.0154Y-3.7362
X2.0264Y-3.8283
X2.0283Y-4.1366
X2.0308Y-3.7353
X2.0356Y-3.787
X2.0356Y-3.7732
X2.0366Y-3.8008
X2.044Y-4.1356
X2.0465Y-3.7342
X2.048Y-4.0866
X2.0484Y-3.7791
X2.0484Y-3.7929
X2.0594Y-4.1346
X2.0618Y-3.7333
X2.0751Y-4.1336
X2.0775Y-3.7322
X2.0908Y-4.1322
X2.0925Y-3.7313
X2.1065Y-4.1312
X2.1082Y-3.7303
X2.1218Y-4.1302
X2.1235Y-3.7293
X2.1291Y-4.0587
X2.1301Y-4.0843
X2.136Y-3.9191
X2.1364Y-3.9329
X2.137Y-4.0715
X2.1375Y-4.1292
X2.1384Y-3.9467
X2.1392Y-3.7282
X2.1394Y-3.9604
X2.1394Y-3.9742
X2.1429Y-4.0577
X2.1439Y-4.0833
X2.1488Y-3.9244
X2.1492Y-3.9382
X2.1508Y-3.9528
X2.1508Y-4.0705
X2.1512Y-3.9673
X2.1533Y-4.1286
X2.1561Y-3.7272
X2.169Y-4.1276
X2.1718Y-3.7261
X2.1803Y-3.8819
X2.1843Y-4.1266
X2.1871Y-3.7251
X2.189Y-3.8929
X2.1961Y-3.8809
X2.2Y-4.1255
X2.2029Y-3.7241
X2.2047Y-3.8917
X2.2118Y-3.8799
X2.2153Y-4.1246
X2.2197Y-3.723
X2.231Y-4.1235
X2.2355Y-3.722
X2.2464Y-4.1225
X2.2508Y-3.721
X2.2621Y-4.1215
X2.263Y-3.9504
X2.2665Y-3.72
X2.2774Y-4.1198
X2.2797Y-3.9494
X2.283Y-3.7193
X2.2931Y-4.1187
X2.2965Y-3.9484
X2.2987Y-3.7183
X2.2992Y-3.9634
X2.3084Y-4.1177
X2.3141Y-3.7173
X2.324Y-3.8287
X2.3241Y-4.1167
X2.3251Y-3.8448
X2.326Y-3.8598
X2.3271Y-3.8759
X2.3285Y-3.8916
X2.3295Y-3.9077
X2.3298Y-3.7163
X2.3305Y-3.9226
X2.3315Y-3.9387
X2.3322Y-3.9552
X2.3332Y-3.9713
X2.3342Y-3.9863
X2.3353Y-4.0024
X2.3398Y-4.1153
X2.3555Y-4.1143
X2.3708Y-4.1133
X2.3866Y-4.1123
X2.4583Y-3.902
X2.4583Y-3.9161
X2.4583Y-3.9303
X2.4583Y-3.9445
X2.472Y-3.902
X2.472Y-3.9161
X2.472Y-3.9303
X2.472Y-3.9445
X2.5811Y-4.011
X2.5941Y-4.0
X2.6732Y-3.9535
X2.6734Y-4.0764
X2.6734Y-4.1059
X2.6882Y-4.0616
X2.6882Y-4.0911
X2.6913Y-3.9406
X2.6972Y-3.9201
X2.7089Y-4.1719
X2.713Y-3.9031
X2.7232Y-3.787
X2.7264Y-3.8472
X2.7264Y-3.8835
X2.7364Y-4.1719
X2.7531Y-4.0291
X2.7531Y-4.0409
X2.7555Y-4.0059
X2.764Y-4.1719
X2.772Y-4.0091
X2.7811Y-3.7744
X2.7858Y-3.9004
X2.7915Y-4.1719
X2.7953Y-3.9787
X2.8191Y-4.1719
X2.8275Y-4.0246
X2.834Y-4.1711
X2.8378Y-3.837
X2.8417Y-3.7407
X2.8524Y-4.2079
X2.8535Y-4.1891
X2.8677Y-4.1755
X2.8683Y-3.9012
X2.8683Y-3.9189
X2.8685Y-3.9524
X2.8693Y-3.9711
X2.8693Y-3.9888
X2.8786Y-4.1602
X2.8795Y-3.8913
X2.8795Y-3.9268
X2.8795Y-3.9435
X2.8795Y-3.9612
X2.8799Y-3.9984
X2.8828Y-3.7424
X2.8858Y-4.1398
X2.9039Y-3.7287
X2.9043Y-4.143
X2.9283Y-4.1709
X2.9303Y-3.7303
X2.9362Y-3.8638
X2.9362Y-3.8943
X2.9362Y-3.9238
X2.9362Y-3.9533
X2.9362Y-3.9829
X2.948Y-4.1709
X2.9539Y-3.8785
X2.9539Y-3.9091
X2.9539Y-3.9386
X2.9539Y-3.9681
X2.9539Y-3.9976
X2.9648Y-4.1984
X2.9652Y-4.1787
X2.9654Y-3.7451
X2.9717Y-3.8638
X2.9717Y-3.8943
X2.9717Y-3.9238
X2.9717Y-3.9533
X2.9717Y-3.9829
X2.9735Y-3.7741
X2.9802Y-3.7307
X3.0058Y-3.7375
X3.0254Y-3.7387
X3.0346Y-3.8776
X3.0346Y-3.9081
X3.0346Y-3.9376
X3.0346Y-3.9671
X3.0346Y-3.9967
X3.0441Y-3.7522
X3.0524Y-3.8628
X3.0524Y-3.8933
X3.0524Y-3.9228
X3.0524Y-3.9524
X3.0524Y-3.9819
X3.0695Y-3.7497
X3.0701Y-3.8776
X3.0701Y-3.9081
X3.0701Y-3.9376
X3.0701Y-3.9671
X3.0701Y-3.9967
X3.0847Y-4.1679
X3.0857Y-3.7591
X3.0997Y-4.1679
X3.1085Y-3.7715
X3.1177Y-4.1489
X3.1188Y-3.7196
X3.1311Y-4.1453
X3.1318Y-3.91
X3.1318Y-3.9444
X3.1318Y-3.9799
X3.14Y-3.785
X3.1409Y-3.7998
X3.1458Y-3.8923
X3.1458Y-3.9277
X3.1458Y-3.9622
X3.1537Y-4.1413
X3.1675Y-4.1551
X3.1813Y-4.1413
X3.2067Y-3.8878
X3.2071Y-3.9302
X3.2133Y-3.7925
X3.2205Y-3.9236
X3.2224Y-3.9016
X3.2365Y-3.8984
X3.2628Y-4.1267
X3.263Y-4.1098
X3.2685Y-4.1677
X3.2689Y-4.1906
X3.2925Y-3.976
X3.2941Y-4.1677
X3.2945Y-4.1906
X3.3067Y-3.976
X3.3122Y-3.989
X3.4421Y-4.1197
X3.4421Y-4.1394
X3.6547Y-4.0134
X3.6882Y-4.0134
X3.827Y-3.7319
X3.8407Y-3.7319
X3.8545Y-3.7319
X3.8823Y-3.787
X3.8826Y-3.8058
X3.9094Y-3.7287
X3.9094Y-3.7476
X3.91Y-3.7872
X3.9102Y-3.8059
X3.937Y-3.7287
X3.937Y-3.7474
X3.9846Y-3.8813
X3.9846Y-3.9089
X3.9846Y-3.9364
X3.9846Y-3.964
X3.9846Y-3.9915
X3.9866Y-4.0201
X3.9866Y-4.0476
X3.9866Y-4.0752
X3.9866Y-4.1028
X4.0266Y-3.9476
X4.0266Y-3.9752
X4.0394Y-3.9339
X4.0394Y-3.9614
X4.0533Y-3.8657
X4.0533Y-3.8795
X4.0533Y-3.8933
X4.0533Y-3.9071
X4.0533Y-3.9474
X4.0533Y-3.975
X4.0661Y-3.9337
X4.0661Y-3.9612
X4.0671Y-3.8657
X4.0671Y-3.8795
X4.0671Y-3.8933
X4.0671Y-3.9071
X4.0799Y-3.9474
X4.0799Y-3.975
X4.0809Y-3.8657
X4.0809Y-3.8795
X4.0809Y-3.8933
X4.0809Y-3.9071
X4.0901Y-3.7137
X4.0902Y-3.7535
X4.0906Y-3.7339
X4.0937Y-3.9337
X4.0937Y-3.9612
X4.0947Y-3.8657
X4.0947Y-3.8795
X4.0947Y-3.8933
X4.0947Y-3.9071
X4.104Y-3.7137
X4.104Y-3.7537
X4.1045Y-3.7339
X4.1196Y-4.0854
X4.1338Y-4.0854
X4.148Y-4.0854
T2
X2.0085Y-4.02
X2.0295Y-4.0397
X2.4134Y-4.0571
X2.6087Y-4.0402
X2.6205Y-4.052
X2.6291Y-3.7555
X2.7079Y-3.9409
X3.2218Y-4.0135
X3.2264Y-3.9953
X3.2459Y-4.0239
X3.2521Y-4.0042
X3.35Y-3.9386
X3.3501Y-3.9661
X3.3688Y-3.9386
X3.3688Y-3.9661
T0
M30
