EESchema Schematic File Version 2
LIBS:pbv3
LIBS:power
LIBS:device
LIBS:transistors
LIBS:conn
LIBS:linear
LIBS:regul
LIBS:74xx
LIBS:cmos4000
LIBS:adc-dac
LIBS:memory
LIBS:xilinx
LIBS:microcontrollers
LIBS:dsp
LIBS:microchip
LIBS:analog_switches
LIBS:motorola
LIBS:texas
LIBS:intel
LIBS:audio
LIBS:interface
LIBS:digital-audio
LIBS:philips
LIBS:display
LIBS:cypress
LIBS:siliconi
LIBS:opto
LIBS:atmel
LIBS:contrib
LIBS:valves
LIBS:pbv3-cache
EELAYER 25 0
EELAYER END
$Descr A4 11693 8268
encoding utf-8
Sheet 2 4
Title "Powerboard v3"
Date "2017-10-23"
Rev "A"
Comp "LBNL"
Comment1 "Timon Heim"
Comment2 ""
Comment3 ""
Comment4 ""
$EndDescr
$Comp
L C C1
U 1 1 59F0106D
P 3050 2150
F 0 "C1" H 3075 2250 50  0000 L CNN
F 1 "10pF" H 3075 2050 50  0000 L CNN
F 2 "Capacitors_SMD:C_0402" H 3088 2000 50  0001 C CNN
F 3 "" H 3050 2150 50  0000 C CNN
	1    3050 2150
	1    0    0    -1  
$EndComp
$Comp
L C C2
U 1 1 59F01074
P 3350 2150
F 0 "C2" H 3375 2250 50  0000 L CNN
F 1 "22uF" H 3375 2050 50  0000 L CNN
F 2 "Capacitors_SMD:C_0805" H 3388 2000 50  0001 C CNN
F 3 "" H 3350 2150 50  0000 C CNN
	1    3350 2150
	1    0    0    -1  
$EndComp
$Comp
L C C4
U 1 1 59F0107B
P 4150 2150
F 0 "C4" H 4175 2250 50  0000 L CNN
F 1 "10uF" H 4175 2050 50  0000 L CNN
F 2 "Capacitors_SMD:C_0805" H 4188 2000 50  0001 C CNN
F 3 "" H 4150 2150 50  0000 C CNN
	1    4150 2150
	1    0    0    -1  
$EndComp
$Comp
L C C5
U 1 1 59F01082
P 4450 2150
F 0 "C5" H 4475 2250 50  0000 L CNN
F 1 "10uF" H 4475 2050 50  0000 L CNN
F 2 "Capacitors_SMD:C_0805" H 4488 2000 50  0001 C CNN
F 3 "" H 4450 2150 50  0000 C CNN
	1    4450 2150
	1    0    0    -1  
$EndComp
$Comp
L L L1
U 1 1 59F01089
P 3750 2000
F 0 "L1" H 3750 2100 50  0000 C CNN
F 1 "12.3nH" H 3750 1950 50  0000 C CNN
F 2 "pbv3:0806SQ-12N" H 3750 2000 50  0001 C CNN
F 3 "" H 3750 2000 50  0000 C CNN
	1    3750 2000
	0    1    1    0   
$EndComp
$Comp
L GND #PWR201
U 1 1 59F010AF
P 2900 2350
F 0 "#PWR201" H 2900 2100 50  0001 C CNN
F 1 "GND" H 2900 2200 50  0000 C CNN
F 2 "" H 2900 2350 50  0000 C CNN
F 3 "" H 2900 2350 50  0000 C CNN
	1    2900 2350
	1    0    0    -1  
$EndComp
$Comp
L L L2
U 1 1 59F010B7
P 5850 4800
F 0 "L2" V 5800 4800 50  0000 C CNN
F 1 "250nH" V 5950 4800 50  0000 C CNN
F 2 "pbv3:YaleCoil" H 5850 4800 50  0001 C CNN
F 3 "" H 5850 4800 50  0000 C CNN
	1    5850 4800
	0    -1   -1   0   
$EndComp
$Comp
L L L3
U 1 1 59F010BE
P 7150 4800
F 0 "L3" V 7100 4800 50  0000 C CNN
F 1 "12.3nH" V 7250 4800 50  0000 C CNN
F 2 "pbv3:0806SQ-12N" H 7150 4800 50  0001 C CNN
F 3 "" H 7150 4800 50  0000 C CNN
	1    7150 4800
	0    -1   -1   0   
$EndComp
$Comp
L C C7
U 1 1 59F010C5
P 6350 4950
F 0 "C7" H 6375 5050 50  0000 L CNN
F 1 "10uF" H 6375 4850 50  0000 L CNN
F 2 "Capacitors_SMD:C_0805" H 6388 4800 50  0001 C CNN
F 3 "" H 6350 4950 50  0000 C CNN
	1    6350 4950
	1    0    0    -1  
$EndComp
$Comp
L C C8
U 1 1 59F010CC
P 6600 4950
F 0 "C8" H 6625 5050 50  0000 L CNN
F 1 "10uF" H 6625 4850 50  0000 L CNN
F 2 "Capacitors_SMD:C_0805" H 6638 4800 50  0001 C CNN
F 3 "" H 6600 4950 50  0000 C CNN
	1    6600 4950
	1    0    0    -1  
$EndComp
$Comp
L C C10
U 1 1 59F010D3
P 7650 4950
F 0 "C10" H 7675 5050 50  0000 L CNN
F 1 "22uF" H 7675 4850 50  0000 L CNN
F 2 "Capacitors_SMD:C_0805" H 7688 4800 50  0001 C CNN
F 3 "" H 7650 4950 50  0000 C CNN
	1    7650 4950
	1    0    0    -1  
$EndComp
$Comp
L C C6
U 1 1 59F010DA
P 4850 4600
F 0 "C6" H 4875 4700 50  0000 L CNN
F 1 "220nF" H 4875 4500 50  0000 L CNN
F 2 "Capacitors_SMD:C_0402" H 4888 4450 50  0001 C CNN
F 3 "" H 4850 4600 50  0000 C CNN
	1    4850 4600
	1    0    0    -1  
$EndComp
$Comp
L GND #PWR207
U 1 1 59F010F4
P 6350 5200
F 0 "#PWR207" H 6350 4950 50  0001 C CNN
F 1 "GND" H 6350 5050 50  0000 C CNN
F 2 "" H 6350 5200 50  0000 C CNN
F 3 "" H 6350 5200 50  0000 C CNN
	1    6350 5200
	1    0    0    -1  
$EndComp
$Comp
L GND #PWR208
U 1 1 59F01102
P 6600 5200
F 0 "#PWR208" H 6600 4950 50  0001 C CNN
F 1 "GND" H 6600 5050 50  0000 C CNN
F 2 "" H 6600 5200 50  0000 C CNN
F 3 "" H 6600 5200 50  0000 C CNN
	1    6600 5200
	1    0    0    -1  
$EndComp
$Comp
L GND #PWR209
U 1 1 59F01108
P 7650 5200
F 0 "#PWR209" H 7650 4950 50  0001 C CNN
F 1 "GND" H 7650 5050 50  0000 C CNN
F 2 "" H 7650 5200 50  0000 C CNN
F 3 "" H 7650 5200 50  0000 C CNN
	1    7650 5200
	1    0    0    -1  
$EndComp
$Comp
L R R1
U 1 1 59F01147
P 3550 3700
F 0 "R1" V 3630 3700 50  0000 C CNN
F 1 "1M" V 3550 3700 50  0000 C CNN
F 2 "Resistors_SMD:R_0201" V 3480 3700 50  0001 C CNN
F 3 "" H 3550 3700 50  0000 C CNN
	1    3550 3700
	1    0    0    -1  
$EndComp
$Comp
L R R2
U 1 1 59F0114E
P 3550 4100
F 0 "R2" V 3630 4100 50  0000 C CNN
F 1 "634k" V 3550 4100 50  0000 C CNN
F 2 "Resistors_SMD:R_0201" V 3480 4100 50  0001 C CNN
F 3 "" H 3550 4100 50  0000 C CNN
	1    3550 4100
	1    0    0    -1  
$EndComp
$Comp
L R R3
U 1 1 59F01155
P 4000 3150
F 0 "R3" V 4080 3150 50  0000 C CNN
F 1 "130k" V 4000 3150 50  0000 C CNN
F 2 "Resistors_SMD:R_0201" V 3930 3150 50  0001 C CNN
F 3 "" H 4000 3150 50  0000 C CNN
	1    4000 3150
	0    1    1    0   
$EndComp
$Comp
L C C3
U 1 1 59F0115C
P 3950 3950
F 0 "C3" H 3975 4050 50  0000 L CNN
F 1 "220nF" H 3975 3850 50  0000 L CNN
F 2 "Capacitors_SMD:C_0402" H 3988 3800 50  0001 C CNN
F 3 "" H 3950 3950 50  0000 C CNN
	1    3950 3950
	1    0    0    -1  
$EndComp
$Comp
L GND #PWR205
U 1 1 59F01163
P 6100 4000
F 0 "#PWR205" H 6100 3750 50  0001 C CNN
F 1 "GND" H 6100 3850 50  0000 C CNN
F 2 "" H 6100 4000 50  0000 C CNN
F 3 "" H 6100 4000 50  0000 C CNN
	1    6100 4000
	1    0    0    -1  
$EndComp
$Comp
L GND #PWR206
U 1 1 59F01171
P 6250 3600
F 0 "#PWR206" H 6250 3350 50  0001 C CNN
F 1 "GND" H 6250 3450 50  0000 C CNN
F 2 "" H 6250 3600 50  0000 C CNN
F 3 "" H 6250 3600 50  0000 C CNN
	1    6250 3600
	1    0    0    -1  
$EndComp
$Comp
L GND #PWR203
U 1 1 59F01179
P 4100 4450
F 0 "#PWR203" H 4100 4200 50  0001 C CNN
F 1 "GND" H 4100 4300 50  0000 C CNN
F 2 "" H 4100 4450 50  0000 C CNN
F 3 "" H 4100 4450 50  0000 C CNN
	1    4100 4450
	1    0    0    -1  
$EndComp
$Comp
L GND #PWR202
U 1 1 59F0118A
P 3950 4450
F 0 "#PWR202" H 3950 4200 50  0001 C CNN
F 1 "GND" H 3950 4300 50  0000 C CNN
F 2 "" H 3950 4450 50  0000 C CNN
F 3 "" H 3950 4450 50  0000 C CNN
	1    3950 4450
	1    0    0    -1  
$EndComp
Text Label 6100 3150 0    60   ~ 0
FVOUT
Text Label 3300 3450 0    60   ~ 0
FVOUT
$Comp
L GND #PWR204
U 1 1 59F011AE
P 4400 2500
F 0 "#PWR204" H 4400 2250 50  0001 C CNN
F 1 "GND" H 4400 2350 50  0000 C CNN
F 2 "" H 4400 2500 50  0000 C CNN
F 3 "" H 4400 2500 50  0000 C CNN
	1    4400 2500
	0    1    1    0   
$EndComp
NoConn ~ 6000 3450
Text Notes 3000 5550 0    260  ~ 0
Shielded
$Comp
L LREG U2
U 1 1 59F011BA
P 8650 2800
F 0 "U2" H 8650 3100 60  0000 C CNN
F 1 "LINPOL12V" H 8650 2450 60  0000 C CNN
F 2 "Housings_DFN_QFN:DFN-8_2x2mm_Pitch0.5mm" V 8700 2850 260 0001 C CNN
F 3 "" V 8700 2850 260 0001 C CNN
	1    8650 2800
	1    0    0    -1  
$EndComp
$Comp
L GND #PWR211
U 1 1 59F011C3
P 9450 3650
F 0 "#PWR211" H 9450 3400 50  0001 C CNN
F 1 "GND" H 9450 3500 50  0000 C CNN
F 2 "" H 9450 3650 50  0000 C CNN
F 3 "" H 9450 3650 50  0000 C CNN
	1    9450 3650
	1    0    0    -1  
$EndComp
$Comp
L C C9
U 1 1 59F011D3
P 10150 3350
F 0 "C9" H 10175 3450 50  0000 L CNN
F 1 "10uF" H 10175 3250 50  0000 L CNN
F 2 "Capacitors_SMD:C_0402" H 10188 3200 50  0001 C CNN
F 3 "" H 10150 3350 50  0000 C CNN
	1    10150 3350
	1    0    0    -1  
$EndComp
Text HLabel 7800 4800 2    60   Input ~ 0
VOUT
Text HLabel 2650 2000 0    60   Input ~ 0
VIN
Text HLabel 2650 2300 0    60   Input ~ 0
VIN_RTN
Text HLabel 5450 2550 1    60   Input ~ 0
PTAT
Text HLabel 4750 2400 0    60   Input ~ 0
DCDCEN
Text HLabel 3500 3250 0    60   Input ~ 0
PGOOD
$Comp
L R NTC1
U 1 1 59F01D17
P 3250 4800
F 0 "NTC1" V 3330 4800 50  0000 C CNN
F 1 "10k" V 3250 4800 50  0000 C CNN
F 2 "Resistors_SMD:R_0402" V 3180 4800 50  0001 C CNN
F 3 "" H 3250 4800 50  0000 C CNN
	1    3250 4800
	-1   0    0    1   
$EndComp
Text HLabel 7800 4600 2    60   Input ~ 0
FVOUT
Text HLabel 10300 2750 2    60   Input ~ 0
VCC3V3
Text HLabel 10300 2600 2    60   Input ~ 0
VCC1V4
Text HLabel 7850 2750 0    60   Input ~ 0
LREGEN
Text HLabel 2850 4600 0    60   Input ~ 0
NTCp
Text HLabel 2850 5000 0    60   Input ~ 0
NTCn
Text HLabel 4150 1750 1    60   Input ~ 0
FVIN
Text Notes 5600 5000 0    60   ~ 0
Custom coil
Text Notes 8300 3400 0    60   ~ 0
Packaged or bare die?
Text Notes 8300 3500 0    60   ~ 0
830um x 1500um die
Text Notes 7150 2700 0    60   ~ 0
External Pull-down?
Text Notes 8400 3600 0    60   ~ 0
QFN8 packaged
Text Notes 3100 1400 0    60   ~ 0
Need 50mOhm between VIN and FVIN to AMAC.
Text Notes 8150 4700 0    60   ~ 0
7mOhm in between
Text Notes 5550 2700 0    60   ~ 0
Crosscheck BPOL12V pinout
$Comp
L bpol12v U1
U 1 1 59F01058
P 5100 3500
F 0 "U1" H 5100 3850 60  0000 C CNN
F 1 "BPOL12V" H 5100 3400 60  0000 C CNN
F 2 "Housings_DFN_QFN:QFN-32-1EP_5x5mm_Pitch0.5mm" H 5100 3500 60  0001 C CNN
F 3 "" H 5100 3500 60  0001 C CNN
	1    5100 3500
	1    0    0    -1  
$EndComp
Text HLabel 6150 3250 2    60   Input ~ 0
Bit1_VOUT
Text HLabel 6150 3350 2    60   Input ~ 0
Bit2_VOUT
$Comp
L C C11
U 1 1 59F4F093
P 4700 2150
F 0 "C11" H 4725 2250 50  0000 L CNN
F 1 "100nF" H 4725 2050 50  0000 L CNN
F 2 "pbv3:SMD_0306" H 4738 2000 50  0001 C CNN
F 3 "" H 4700 2150 50  0000 C CNN
	1    4700 2150
	1    0    0    -1  
$EndComp
Text Notes 4650 1850 0    60   ~ 0
C11 reverse geometry cap.
$Comp
L C C28
U 1 1 59F76B63
P 9850 3350
F 0 "C28" H 9875 3450 50  0000 L CNN
F 1 "4.7uF" H 9875 3250 50  0000 L CNN
F 2 "Capacitors_SMD:C_0402" H 9888 3200 50  0001 C CNN
F 3 "" H 9850 3350 50  0000 C CNN
	1    9850 3350
	1    0    0    -1  
$EndComp
$Comp
L R R22
U 1 1 59F77035
P 9850 2950
F 0 "R22" V 9930 2950 50  0000 C CNN
F 1 "300m" V 9850 2950 50  0000 C CNN
F 2 "Resistors_SMD:R_0201" V 9780 2950 50  0001 C CNN
F 3 "" H 9850 2950 50  0000 C CNN
	1    9850 2950
	-1   0    0    1   
$EndComp
$Comp
L R R23
U 1 1 59F770A0
P 10150 2950
F 0 "R23" V 10230 2950 50  0000 C CNN
F 1 "300m" V 10150 2950 50  0000 C CNN
F 2 "Resistors_SMD:R_0201" V 10080 2950 50  0001 C CNN
F 3 "" H 10150 2950 50  0000 C CNN
	1    10150 2950
	1    0    0    -1  
$EndComp
Text Label 7850 2600 0    60   ~ 0
FVIN
$Comp
L R R4
U 1 1 5AAC2F26
P 8000 3100
F 0 "R4" V 8080 3100 50  0000 C CNN
F 1 "10k" V 8000 3100 50  0000 C CNN
F 2 "Resistors_SMD:R_0201" V 7930 3100 50  0001 C CNN
F 3 "" H 8000 3100 50  0000 C CNN
	1    8000 3100
	-1   0    0    1   
$EndComp
$Comp
L GND #PWR210
U 1 1 5AAC2FC7
P 8000 3350
F 0 "#PWR210" H 8000 3100 50  0001 C CNN
F 1 "GND" H 8000 3200 50  0000 C CNN
F 2 "" H 8000 3350 50  0000 C CNN
F 3 "" H 8000 3350 50  0000 C CNN
	1    8000 3350
	1    0    0    -1  
$EndComp
$Comp
L R R12
U 1 1 5AAC42E0
P 3700 2950
F 0 "R12" V 3780 2950 50  0000 C CNN
F 1 "30k" V 3700 2950 50  0000 C CNN
F 2 "Resistors_SMD:R_0201" V 3630 2950 50  0001 C CNN
F 3 "" H 3700 2950 50  0000 C CNN
	1    3700 2950
	-1   0    0    1   
$EndComp
Text Label 7500 4800 0    60   ~ 0
VOUT
Text Label 3700 2750 0    60   ~ 0
VOUT
Wire Wire Line
	7800 2600 8150 2600
Wire Wire Line
	4450 2500 4400 2500
Wire Wire Line
	4450 2600 4450 2500
Connection ~ 3550 3900
Wire Wire Line
	3700 3900 3550 3900
Wire Wire Line
	3700 3450 3700 3900
Wire Wire Line
	4200 3450 3700 3450
Wire Wire Line
	3550 3450 3300 3450
Wire Wire Line
	3550 3550 3550 3450
Connection ~ 3800 3350
Wire Wire Line
	3850 3150 3800 3150
Wire Wire Line
	4200 3150 4150 3150
Connection ~ 3800 3550
Wire Wire Line
	4200 3350 3800 3350
Wire Wire Line
	3550 3850 3550 3950
Wire Wire Line
	3550 4350 3550 4250
Wire Wire Line
	3800 2900 3800 4350
Wire Wire Line
	3950 3650 3950 3800
Wire Wire Line
	4200 3650 3950 3650
Wire Wire Line
	3950 4100 3950 4450
Connection ~ 3800 4350
Connection ~ 3950 4350
Wire Wire Line
	3550 4350 3950 4350
Wire Wire Line
	3800 3550 4200 3550
Connection ~ 6750 4800
Wire Wire Line
	6750 3150 6000 3150
Wire Wire Line
	6750 4800 6750 3150
Connection ~ 4100 4400
Wire Wire Line
	4100 4400 4750 4400
Connection ~ 4100 3850
Wire Wire Line
	4200 3750 4100 3750
Wire Wire Line
	4100 3750 4100 4450
Wire Wire Line
	4200 3850 4100 3850
Wire Wire Line
	6250 3550 6250 3600
Wire Wire Line
	6000 3550 6250 3550
Connection ~ 6100 3750
Wire Wire Line
	6000 3650 6100 3650
Connection ~ 6100 3850
Wire Wire Line
	6000 3750 6100 3750
Wire Wire Line
	6100 3650 6100 4000
Wire Wire Line
	6100 3850 6000 3850
Wire Notes Line
	3000 2650 3000 5600
Wire Notes Line
	4050 2650 3000 2650
Wire Notes Line
	4050 1900 4050 2650
Wire Wire Line
	5450 2600 5450 2550
Wire Wire Line
	4750 2400 4750 2600
Wire Wire Line
	4950 2500 5350 2500
Wire Notes Line
	6800 1900 4050 1900
Wire Notes Line
	6800 5600 6800 1900
Wire Notes Line
	3000 5600 6800 5600
Connection ~ 7650 4800
Wire Wire Line
	7650 5100 7650 5200
Wire Wire Line
	6600 5200 6600 5100
Wire Wire Line
	6350 5200 6350 5100
Wire Wire Line
	7300 4800 7800 4800
Connection ~ 6600 4800
Connection ~ 6350 4800
Wire Wire Line
	6000 4800 7000 4800
Connection ~ 5350 4800
Wire Wire Line
	4850 4750 4850 4800
Wire Wire Line
	4850 4450 4850 4400
Connection ~ 5350 4450
Connection ~ 5250 4450
Wire Wire Line
	5250 4450 5250 4400
Connection ~ 5150 4450
Wire Wire Line
	5150 4450 5150 4400
Connection ~ 5050 4450
Wire Wire Line
	5050 4400 5050 4450
Wire Wire Line
	4850 4800 5700 4800
Wire Wire Line
	5350 4400 5350 4800
Wire Wire Line
	4950 4450 5350 4450
Wire Wire Line
	4950 4400 4950 4450
Connection ~ 2900 2300
Wire Wire Line
	2900 2350 2900 2300
Connection ~ 4150 2300
Connection ~ 3350 2300
Connection ~ 3050 2300
Wire Wire Line
	2650 2300 4700 2300
Connection ~ 5350 2500
Connection ~ 5250 2500
Wire Wire Line
	5350 2500 5350 2600
Connection ~ 5150 2500
Wire Wire Line
	5250 2500 5250 2600
Connection ~ 5050 2500
Wire Wire Line
	5150 2500 5150 2600
Connection ~ 4950 2500
Wire Wire Line
	5050 2600 5050 2500
Wire Wire Line
	3900 2000 7800 2000
Connection ~ 4950 2000
Wire Wire Line
	4950 2000 4950 2600
Connection ~ 4450 2000
Connection ~ 4150 2000
Connection ~ 3350 2000
Connection ~ 3050 2000
Wire Wire Line
	2650 2000 3600 2000
Wire Wire Line
	7800 4600 6750 4600
Connection ~ 6750 4600
Wire Wire Line
	3250 4650 3250 4600
Wire Wire Line
	3250 4600 2850 4600
Wire Wire Line
	3250 4950 3250 5000
Wire Wire Line
	3250 5000 2850 5000
Wire Wire Line
	4150 2000 4150 1750
Wire Wire Line
	7800 2000 7800 2600
Wire Wire Line
	6000 3250 6150 3250
Wire Wire Line
	6000 3350 6150 3350
Connection ~ 4450 2300
Connection ~ 4700 2000
Wire Wire Line
	9150 2600 10300 2600
Wire Wire Line
	9150 2750 10300 2750
Wire Wire Line
	9850 3100 9850 3200
Wire Wire Line
	9850 2800 9850 2600
Connection ~ 9850 2600
Wire Wire Line
	10150 2800 10150 2750
Connection ~ 10150 2750
Wire Wire Line
	10150 3200 10150 3100
Wire Wire Line
	9150 2900 9450 2900
Wire Wire Line
	9450 2900 9450 3650
Wire Wire Line
	9850 3500 9850 3600
Wire Wire Line
	9450 3600 10150 3600
Wire Wire Line
	10150 3600 10150 3500
Connection ~ 9850 3600
Connection ~ 9450 3600
Wire Wire Line
	7850 2750 8150 2750
Wire Wire Line
	8150 2900 8000 2900
Wire Wire Line
	8000 2750 8000 2950
Connection ~ 8000 2750
Connection ~ 8000 2900
Wire Wire Line
	8000 3350 8000 3250
Wire Wire Line
	3700 3050 3700 3250
Connection ~ 3700 3250
Wire Wire Line
	3700 2800 3700 2700
$Comp
L R R202
U 1 1 5AD86BD5
P 4000 3050
F 0 "R202" V 4080 3050 50  0000 C CNN
F 1 "0R" V 4000 3050 50  0000 C CNN
F 2 "Resistors_SMD:R_0201" V 3930 3050 50  0001 C CNN
F 3 "" H 4000 3050 50  0000 C CNN
	1    4000 3050
	0    1    1    0   
$EndComp
$Comp
L R R203
U 1 1 5AD86DA1
P 4000 3250
F 0 "R203" V 4080 3250 50  0000 C CNN
F 1 "0R" V 4000 3250 50  0000 C CNN
F 2 "Resistors_SMD:R_0201" V 3930 3250 50  0001 C CNN
F 3 "" H 4000 3250 50  0000 C CNN
	1    4000 3250
	0    1    1    0   
$EndComp
$Comp
L R R201
U 1 1 5AD86E53
P 4000 2900
F 0 "R201" V 4080 2900 50  0000 C CNN
F 1 "130k" V 4000 2900 50  0000 C CNN
F 2 "Resistors_SMD:R_0201" V 3930 2900 50  0001 C CNN
F 3 "" H 4000 2900 50  0000 C CNN
	1    4000 2900
	0    1    1    0   
$EndComp
Wire Wire Line
	4200 3250 4150 3250
Wire Wire Line
	3500 3250 3850 3250
Wire Wire Line
	4150 3150 4150 3050
Wire Wire Line
	3850 3050 3700 3050
Connection ~ 3700 3100
Wire Wire Line
	4150 2900 4200 2900
Wire Wire Line
	4200 2900 4200 3250
Wire Wire Line
	3850 2900 3800 2900
Connection ~ 3800 3150
$EndSCHEMATC
