EESchema Schematic File Version 2
LIBS:pbv3
LIBS:power
LIBS:device
LIBS:transistors
LIBS:conn
LIBS:linear
LIBS:regul
LIBS:74xx
LIBS:cmos4000
LIBS:adc-dac
LIBS:memory
LIBS:xilinx
LIBS:microcontrollers
LIBS:dsp
LIBS:microchip
LIBS:analog_switches
LIBS:motorola
LIBS:texas
LIBS:intel
LIBS:audio
LIBS:interface
LIBS:digital-audio
LIBS:philips
LIBS:display
LIBS:cypress
LIBS:siliconi
LIBS:opto
LIBS:atmel
LIBS:contrib
LIBS:valves
LIBS:pbv3-cache
EELAYER 25 0
EELAYER END
$Descr A4 11693 8268
encoding utf-8
Sheet 1 4
Title "Powerboard v3"
Date "2017-10-23"
Rev "A"
Comp "LBNL"
Comment1 "Timon Heim"
Comment2 ""
Comment3 ""
Comment4 ""
$EndDescr
$Comp
L BondPad J1
U 1 1 59EEE934
P 1600 1600
F 0 "J1" H 1600 1700 60  0000 C CNN
F 1 "VIN" H 1600 1500 60  0000 C CNN
F 2 "pbv3:pad" H 1600 1600 60  0001 C CNN
F 3 "" H 1600 1600 60  0001 C CNN
	1    1600 1600
	1    0    0    -1  
$EndComp
$Comp
L BondPad J2
U 1 1 59EEE968
P 1600 1950
F 0 "J2" H 1600 2050 60  0000 C CNN
F 1 "VIN_RTN" H 1600 1850 60  0000 C CNN
F 2 "pbv3:pad" H 1600 1950 60  0001 C CNN
F 3 "" H 1600 1950 60  0001 C CNN
	1    1600 1950
	1    0    0    -1  
$EndComp
$Comp
L BondPad J11
U 1 1 59EEFE53
P 5150 1400
F 0 "J11" H 5150 1500 60  0000 C CNN
F 1 "VOUT_X" H 5150 1300 60  0000 C CNN
F 2 "pbv3:pad" H 5150 1400 60  0001 C CNN
F 3 "" H 5150 1400 60  0001 C CNN
	1    5150 1400
	-1   0    0    1   
$EndComp
$Comp
L BondPad J12
U 1 1 59EEFEB2
P 5150 1700
F 0 "J12" H 5150 1800 60  0000 C CNN
F 1 "VOUT_Y" H 5150 1600 60  0000 C CNN
F 2 "pbv3:pad" H 5150 1700 60  0001 C CNN
F 3 "" H 5150 1700 60  0001 C CNN
	1    5150 1700
	-1   0    0    1   
$EndComp
$Comp
L BondPad J13
U 1 1 59EEFF0F
P 5850 1400
F 0 "J13" H 5850 1500 60  0000 C CNN
F 1 "VOUT_RTN_X" H 5850 1300 60  0000 C CNN
F 2 "pbv3:pad" H 5850 1400 60  0001 C CNN
F 3 "" H 5850 1400 60  0001 C CNN
	1    5850 1400
	-1   0    0    1   
$EndComp
$Comp
L BondPad J14
U 1 1 59EEFF8B
P 5850 1700
F 0 "J14" H 5850 1800 60  0000 C CNN
F 1 "VOUT_RTN_Y" H 5850 1600 60  0000 C CNN
F 2 "pbv3:pad" H 5850 1700 60  0001 C CNN
F 3 "" H 5850 1700 60  0001 C CNN
	1    5850 1700
	-1   0    0    1   
$EndComp
Text Notes 7200 950  0    260  ~ 0
AMAC
$Sheet
S 2700 1600 1200 1450
U 59EFEA3A
F0 "Power" 60
F1 "pbv3_power.sch" 60
F2 "VOUT" I R 3900 1700 60 
F3 "VIN" I L 2700 1700 60 
F4 "VIN_RTN" I L 2700 1850 60 
F5 "PTAT" I R 3900 2950 60 
F6 "DCDCEN" I L 2700 2400 60 
F7 "PGOOD" I R 3900 2800 60 
F8 "FVOUT" I R 3900 2500 60 
F9 "VCC3V3" I R 3900 2000 60 
F10 "VCC1V4" I R 3900 1850 60 
F11 "LREGEN" I L 2700 2250 60 
F12 "NTCp" I L 2700 2800 60 
F13 "NTCn" I L 2700 2950 60 
F14 "FVIN" I R 3900 2650 60 
F15 "Bit1_VOUT" I R 3900 2200 60 
F16 "Bit2_VOUT" I R 3900 2350 60 
$EndSheet
$Comp
L GND #PWR01
U 1 1 59F05EAA
P 5450 1650
F 0 "#PWR01" H 5450 1400 50  0001 C CNN
F 1 "GND" H 5450 1500 50  0000 C CNN
F 2 "" H 5450 1650 50  0000 C CNN
F 3 "" H 5450 1650 50  0000 C CNN
	1    5450 1650
	1    0    0    -1  
$EndComp
$Comp
L GND #PWR02
U 1 1 59F064E3
P 2000 2000
F 0 "#PWR02" H 2000 1750 50  0001 C CNN
F 1 "GND" H 2000 1850 50  0000 C CNN
F 2 "" H 2000 2000 50  0000 C CNN
F 3 "" H 2000 2000 50  0000 C CNN
	1    2000 2000
	1    0    0    -1  
$EndComp
$Comp
L BondPad J3
U 1 1 59F06B61
P 1600 2250
F 0 "J3" H 1600 2350 60  0000 C CNN
F 1 "OFin" H 1600 2150 60  0000 C CNN
F 2 "pbv3:pad" H 1600 2250 60  0001 C CNN
F 3 "" H 1600 2250 60  0001 C CNN
	1    1600 2250
	1    0    0    -1  
$EndComp
$Sheet
S 2900 5600 1050 1000
U 59F07AAA
F0 "HV" 60
F1 "hv.sch" 60
F2 "HVOSC" I L 2900 5750 60 
F3 "GND" I L 2900 5900 60 
F4 "HV_IN" I L 2900 6200 60 
F5 "HV_IN_RTN" I L 2900 6350 60 
F6 "HV_OUT_RTN" I R 3950 6100 60 
F7 "HV_OUT" I R 3950 5950 60 
$EndSheet
Text Notes 5650 950  0    260  ~ 0
POWER
Text Notes 6350 4950 0    260  ~ 0
HV
$Comp
L BondPad J10
U 1 1 59F0A45B
P 4900 5950
F 0 "J10" H 4900 6050 60  0000 C CNN
F 1 "HV_OUT" H 4900 5850 60  0000 C CNN
F 2 "pbv3:pad" H 4900 5950 60  0001 C CNN
F 3 "" H 4900 5950 60  0001 C CNN
	1    4900 5950
	-1   0    0    1   
$EndComp
$Comp
L GND #PWR03
U 1 1 59F0A65E
P 2650 6000
F 0 "#PWR03" H 2650 5750 50  0001 C CNN
F 1 "GND" H 2650 5850 50  0000 C CNN
F 2 "" H 2650 6000 50  0000 C CNN
F 3 "" H 2650 6000 50  0000 C CNN
	1    2650 6000
	1    0    0    -1  
$EndComp
$Comp
L GND #PWR04
U 1 1 59F2094A
P 7750 2150
F 0 "#PWR04" H 7750 1900 50  0001 C CNN
F 1 "GND" H 7750 2000 50  0000 C CNN
F 2 "" H 7750 2150 50  0000 C CNN
F 3 "" H 7750 2150 50  0000 C CNN
	1    7750 2150
	1    0    0    -1  
$EndComp
Text Label 4350 1550 0    60   ~ 0
VOUT
Text Label 2250 1700 0    60   ~ 0
VIN
Text Label 8000 2450 0    60   ~ 0
FVOUT
Text Label 8000 2700 0    60   ~ 0
VIN
Text Label 4450 2500 0    60   ~ 0
FVOUT
Text Label 4450 2650 0    60   ~ 0
FVIN
Text Label 4450 2800 0    60   ~ 0
PGOOD
Text Label 4450 2950 0    60   ~ 0
PTAT
Text Label 2100 2400 0    60   ~ 0
DCDCEN
Text Label 2100 2800 0    60   ~ 0
NTCPBp
Text Label 2100 2950 0    60   ~ 0
NTCPBn
Text Label 8000 2350 0    60   ~ 0
VOUT
Text Label 8000 2600 0    60   ~ 0
FVIN
Text Label 9850 1850 0    60   ~ 0
DCDCEN
Text Label 9850 1950 0    60   ~ 0
PGOOD
Text Label 9850 2050 0    60   ~ 0
PTAT
Text Label 9850 2150 0    60   ~ 0
NTCPBn
Text Label 9850 2250 0    60   ~ 0
NTCPBp
$Comp
L BondPad J16
U 1 1 59F2B21A
P 8050 3150
F 0 "J16" H 8050 3250 60  0000 C CNN
F 1 "HRSTBx" H 7750 3150 60  0000 C CNN
F 2 "pbv3:pad" H 8050 3150 60  0001 C CNN
F 3 "" H 8050 3150 60  0001 C CNN
	1    8050 3150
	1    0    0    -1  
$EndComp
$Comp
L BondPad J17
U 1 1 59F2B4B6
P 8050 3350
F 0 "J17" H 8050 3450 60  0000 C CNN
F 1 "LDx0EN" H 7750 3350 60  0000 C CNN
F 2 "pbv3:pad" H 8050 3350 60  0001 C CNN
F 3 "" H 8050 3350 60  0001 C CNN
	1    8050 3350
	1    0    0    -1  
$EndComp
$Comp
L BondPad J18
U 1 1 59F2B758
P 8050 3550
F 0 "J18" H 8050 3650 60  0000 C CNN
F 1 "HREFx" H 7750 3550 60  0000 C CNN
F 2 "pbv3:pad" H 8050 3550 60  0001 C CNN
F 3 "" H 8050 3550 60  0001 C CNN
	1    8050 3550
	1    0    0    -1  
$EndComp
$Comp
L BondPad J19
U 1 1 59F2CFAB
P 8050 3750
F 0 "J19" H 8050 3850 60  0000 C CNN
F 1 "NTCxP" H 7750 3750 60  0000 C CNN
F 2 "pbv3:pad" H 8050 3750 60  0001 C CNN
F 3 "" H 8050 3750 60  0001 C CNN
	1    8050 3750
	1    0    0    -1  
$EndComp
$Comp
L BondPad J20
U 1 1 59F2D40A
P 8050 3950
F 0 "J20" H 8050 4050 60  0000 C CNN
F 1 "NTCxN" H 7750 3950 60  0000 C CNN
F 2 "pbv3:pad" H 8050 3950 60  0001 C CNN
F 3 "" H 8050 3950 60  0001 C CNN
	1    8050 3950
	1    0    0    -1  
$EndComp
$Comp
L BondPad J21
U 1 1 59F2D6A1
P 8050 4150
F 0 "J21" H 8050 4250 60  0000 C CNN
F 1 "LDx1EN" H 7750 4150 60  0000 C CNN
F 2 "pbv3:pad" H 8050 4150 60  0001 C CNN
F 3 "" H 8050 4150 60  0001 C CNN
	1    8050 4150
	1    0    0    -1  
$EndComp
$Comp
L BondPad J15
U 1 1 59F365AA
P 8050 2950
F 0 "J15" H 8050 3050 60  0000 C CNN
F 1 "SSSHx" H 7750 2950 60  0000 C CNN
F 2 "pbv3:pad" H 8050 2950 60  0001 C CNN
F 3 "" H 8050 2950 60  0001 C CNN
	1    8050 2950
	1    0    0    -1  
$EndComp
$Comp
L BondPad J24
U 1 1 59F36857
P 8050 4750
F 0 "J24" H 8050 4850 60  0000 C CNN
F 1 "CALx" H 7750 4750 60  0000 C CNN
F 2 "pbv3:pad" H 8050 4750 60  0001 C CNN
F 3 "" H 8050 4750 60  0001 C CNN
	1    8050 4750
	1    0    0    -1  
$EndComp
$Comp
L BondPad J23
U 1 1 59F36B07
P 8050 4550
F 0 "J23" H 8050 4650 60  0000 C CNN
F 1 "SHUNTx" H 7750 4550 60  0000 C CNN
F 2 "pbv3:pad" H 8050 4550 60  0001 C CNN
F 3 "" H 8050 4550 60  0001 C CNN
	1    8050 4550
	1    0    0    -1  
$EndComp
$Comp
L BondPad J22
U 1 1 59F36DB7
P 8050 4350
F 0 "J22" H 8050 4450 60  0000 C CNN
F 1 "LDx2EN" H 7750 4350 60  0000 C CNN
F 2 "pbv3:pad" H 8050 4350 60  0001 C CNN
F 3 "" H 8050 4350 60  0001 C CNN
	1    8050 4350
	1    0    0    -1  
$EndComp
$Comp
L BondPad J30
U 1 1 59F3BEC5
P 9850 3150
F 0 "J30" H 9850 3250 60  0000 C CNN
F 1 "HRSTBy" H 9550 3150 60  0000 C CNN
F 2 "pbv3:pad" H 9850 3150 60  0001 C CNN
F 3 "" H 9850 3150 60  0001 C CNN
	1    9850 3150
	-1   0    0    -1  
$EndComp
$Comp
L BondPad J31
U 1 1 59F3BECB
P 9850 3350
F 0 "J31" H 9850 3450 60  0000 C CNN
F 1 "LDy0EN" H 9550 3350 60  0000 C CNN
F 2 "pbv3:pad" H 9850 3350 60  0001 C CNN
F 3 "" H 9850 3350 60  0001 C CNN
	1    9850 3350
	-1   0    0    -1  
$EndComp
$Comp
L BondPad J32
U 1 1 59F3BED1
P 9850 3550
F 0 "J32" H 9850 3650 60  0000 C CNN
F 1 "HREFy" H 9550 3550 60  0000 C CNN
F 2 "pbv3:pad" H 9850 3550 60  0001 C CNN
F 3 "" H 9850 3550 60  0001 C CNN
	1    9850 3550
	-1   0    0    -1  
$EndComp
$Comp
L BondPad J33
U 1 1 59F3BED7
P 9850 3750
F 0 "J33" H 9850 3850 60  0000 C CNN
F 1 "NTCyN" H 9550 3750 60  0000 C CNN
F 2 "pbv3:pad" H 9850 3750 60  0001 C CNN
F 3 "" H 9850 3750 60  0001 C CNN
	1    9850 3750
	-1   0    0    -1  
$EndComp
$Comp
L BondPad J34
U 1 1 59F3BEDD
P 9850 3950
F 0 "J34" H 9850 4050 60  0000 C CNN
F 1 "NTCyP" H 9550 3950 60  0000 C CNN
F 2 "pbv3:pad" H 9850 3950 60  0001 C CNN
F 3 "" H 9850 3950 60  0001 C CNN
	1    9850 3950
	-1   0    0    -1  
$EndComp
$Comp
L BondPad J35
U 1 1 59F3BEE3
P 9850 4150
F 0 "J35" H 9850 4250 60  0000 C CNN
F 1 "LDy1EN" H 9550 4150 60  0000 C CNN
F 2 "pbv3:pad" H 9850 4150 60  0001 C CNN
F 3 "" H 9850 4150 60  0001 C CNN
	1    9850 4150
	-1   0    0    -1  
$EndComp
$Comp
L BondPad J29
U 1 1 59F3BEE9
P 9850 2950
F 0 "J29" H 9850 3050 60  0000 C CNN
F 1 "SSSHy" H 9550 2950 60  0000 C CNN
F 2 "pbv3:pad" H 9850 2950 60  0001 C CNN
F 3 "" H 9850 2950 60  0001 C CNN
	1    9850 2950
	-1   0    0    -1  
$EndComp
$Comp
L BondPad J38
U 1 1 59F3BEEF
P 9850 4750
F 0 "J38" H 9850 4850 60  0000 C CNN
F 1 "CAly" H 9550 4750 60  0000 C CNN
F 2 "pbv3:pad" H 9850 4750 60  0001 C CNN
F 3 "" H 9850 4750 60  0001 C CNN
	1    9850 4750
	-1   0    0    -1  
$EndComp
$Comp
L BondPad J37
U 1 1 59F3BEF5
P 9850 4550
F 0 "J37" H 9850 4650 60  0000 C CNN
F 1 "SHUNTy" H 9550 4550 60  0000 C CNN
F 2 "pbv3:pad" H 9850 4550 60  0001 C CNN
F 3 "" H 9850 4550 60  0001 C CNN
	1    9850 4550
	-1   0    0    -1  
$EndComp
$Comp
L BondPad J36
U 1 1 59F3BEFB
P 9850 4350
F 0 "J36" H 9850 4450 60  0000 C CNN
F 1 "LDy2EN" H 9550 4350 60  0000 C CNN
F 2 "pbv3:pad" H 9850 4350 60  0001 C CNN
F 3 "" H 9850 4350 60  0001 C CNN
	1    9850 4350
	-1   0    0    -1  
$EndComp
$Comp
L BondPad J39
U 1 1 59F3FFE2
P 9850 5050
F 0 "J39" H 9850 5150 60  0000 C CNN
F 1 "HVretY" H 9550 5050 60  0000 C CNN
F 2 "pbv3:pad" H 9850 5050 60  0001 C CNN
F 3 "" H 9850 5050 60  0001 C CNN
	1    9850 5050
	-1   0    0    1   
$EndComp
$Comp
L BondPad J25
U 1 1 59F402B6
P 8050 5050
F 0 "J25" H 8050 5150 60  0000 C CNN
F 1 "HVretX" H 7750 5050 60  0000 C CNN
F 2 "pbv3:pad" H 8050 5050 60  0001 C CNN
F 3 "" H 8050 5050 60  0001 C CNN
	1    8050 5050
	1    0    0    -1  
$EndComp
$Comp
L BondPad J40
U 1 1 59F4095C
P 9850 5450
F 0 "J40" H 9850 5550 60  0000 C CNN
F 1 "CMDoutP" H 9550 5450 60  0000 C CNN
F 2 "pbv3:pad" H 9850 5450 60  0001 C CNN
F 3 "" H 9850 5450 60  0001 C CNN
	1    9850 5450
	-1   0    0    1   
$EndComp
$Comp
L BondPad J41
U 1 1 59F40C45
P 9850 5650
F 0 "J41" H 9850 5750 60  0000 C CNN
F 1 "CMDoutP" H 9550 5650 60  0000 C CNN
F 2 "pbv3:pad" H 9850 5650 60  0001 C CNN
F 3 "" H 9850 5650 60  0001 C CNN
	1    9850 5650
	-1   0    0    1   
$EndComp
$Comp
L BondPad J26
U 1 1 59F41436
P 8050 5450
F 0 "J26" H 8050 5550 60  0000 C CNN
F 1 "CMDinP" H 7750 5450 60  0000 C CNN
F 2 "pbv3:pad" H 8050 5450 60  0001 C CNN
F 3 "" H 8050 5450 60  0001 C CNN
	1    8050 5450
	1    0    0    -1  
$EndComp
$Comp
L BondPad J27
U 1 1 59F41709
P 8050 5650
F 0 "J27" H 8050 5750 60  0000 C CNN
F 1 "CMDinN" H 7750 5650 60  0000 C CNN
F 2 "pbv3:pad" H 8050 5650 60  0001 C CNN
F 3 "" H 8050 5650 60  0001 C CNN
	1    8050 5650
	1    0    0    -1  
$EndComp
$Comp
L BondPad J42
U 1 1 59F422D1
P 9850 6050
F 0 "J42" H 9850 6150 60  0000 C CNN
F 1 "OFout" H 9550 6050 60  0000 C CNN
F 2 "pbv3:pad" H 9850 6050 60  0001 C CNN
F 3 "" H 9850 6050 60  0001 C CNN
	1    9850 6050
	-1   0    0    1   
$EndComp
$Comp
L BondPad J28
U 1 1 59F425B4
P 8050 5900
F 0 "J28" H 8050 6000 60  0000 C CNN
F 1 "CAL" H 7750 5900 60  0000 C CNN
F 2 "pbv3:pad" H 8050 5900 60  0001 C CNN
F 3 "" H 8050 5900 60  0001 C CNN
	1    8050 5900
	1    0    0    -1  
$EndComp
NoConn ~ 9450 5900
Text Notes 1900 1400 0    60   ~ 0
Fuse?
Text Notes 7600 2700 0    60   ~ 0
50mOhm
Text Notes 7600 2450 0    60   ~ 0
10mOhm
Text Label 8000 6050 0    60   ~ 0
OFin
Text Label 1950 2550 1    60   ~ 0
OFin
Text Label 4450 2350 0    60   ~ 0
GPO2
Text Label 4450 2200 0    60   ~ 0
GPO1
$Sheet
S 8450 1750 1000 4450
U 59F0798F
F0 "AMAC" 60
F1 "amac.sch" 60
F2 "VDCDC" I L 8450 1850 60 
F3 "VLREG" I L 8450 1950 60 
F4 "GND" I L 8450 2150 60 
F5 "CUR1Vp" I L 8450 2350 60 
F6 "CUR1Vn" I L 8450 2450 60 
F7 "DCDCEN" I R 9450 1850 60 
F8 "NTCPBn" I R 9450 2150 60 
F9 "NTCPBp" I R 9450 2250 60 
F10 "CUR10Vn" I L 8450 2700 60 
F11 "CUR10Vp" I L 8450 2600 60 
F12 "PGOOD" I R 9450 1950 60 
F13 "PTAT" I R 9450 2050 60 
F14 "SSSHy" I R 9450 2950 60 
F15 "HRSTBy" I R 9450 3150 60 
F16 "LDy0EN" I R 9450 3350 60 
F17 "HREFy" I R 9450 3550 60 
F18 "NTCyN" I R 9450 3750 60 
F19 "NTCyP" I R 9450 3950 60 
F20 "LDy1EN" I R 9450 4150 60 
F21 "LDy2EN" I R 9450 4350 60 
F22 "SHUNTy" I R 9450 4550 60 
F23 "CALy" I R 9450 4750 60 
F24 "OFout" I R 9450 6050 60 
F25 "GPO2" I R 9450 2350 60 
F26 "HVret1" I L 8450 5050 60 
F27 "CMDin_P" I L 8450 5500 60 
F28 "CMDin_N" I L 8450 5600 60 
F29 "CMDout_P" O R 9450 5500 60 
F30 "CMDout_N" I R 9450 5600 60 
F31 "HVOSC0" I L 8450 5250 60 
F32 "VDDHI" I L 8450 2050 60 
F33 "LAM" I R 9450 5900 60 
F34 "HVret2" I R 9450 5050 60 
F35 "LDx0EN" I L 8450 3350 60 
F36 "HRSTBx" I L 8450 3150 60 
F37 "SSSHx" I L 8450 2950 60 
F38 "HREFx" I L 8450 3550 60 
F39 "NTCxP" I L 8450 3750 60 
F40 "NTCxN" I L 8450 3950 60 
F41 "LDx1EN" I L 8450 4150 60 
F42 "LDx2EN" I L 8450 4350 60 
F43 "SHUNTx" I L 8450 4550 60 
F44 "CALx" I L 8450 4750 60 
F45 "OFin" I L 8450 6050 60 
F46 "CAL" I L 8450 5900 60 
F47 "GPO1" I R 9450 2450 60 
$EndSheet
Text Label 9850 2450 0    60   ~ 0
GPO1
Text Label 9850 2350 0    60   ~ 0
GPO2
$Comp
L GND #PWR05
U 1 1 59EF94B5
P 2450 6450
F 0 "#PWR05" H 2450 6200 50  0001 C CNN
F 1 "GND" H 2450 6300 50  0000 C CNN
F 2 "" H 2450 6450 50  0000 C CNN
F 3 "" H 2450 6450 50  0000 C CNN
	1    2450 6450
	1    0    0    -1  
$EndComp
$Comp
L BondPad J4
U 1 1 59F0A7A4
P 2050 6100
F 0 "J4" H 2050 6200 60  0000 C CNN
F 1 "HV_IN" H 2050 6000 60  0000 C CNN
F 2 "pbv3:pad" H 2050 6100 60  0001 C CNN
F 3 "" H 2050 6100 60  0001 C CNN
	1    2050 6100
	1    0    0    -1  
$EndComp
$Comp
L GND #PWR06
U 1 1 59F3F88D
P 4300 6200
F 0 "#PWR06" H 4300 5950 50  0001 C CNN
F 1 "GND" H 4300 6050 50  0000 C CNN
F 2 "" H 4300 6200 50  0000 C CNN
F 3 "" H 4300 6200 50  0000 C CNN
	1    4300 6200
	1    0    0    -1  
$EndComp
$Comp
L BondPad J5
U 1 1 5AABF9E9
P 5250 2400
F 0 "J5" H 5250 2500 60  0000 C CNN
F 1 "T1V4" H 5250 2300 60  0000 C CNN
F 2 "pbv3:pad" H 5250 2400 60  0001 C CNN
F 3 "" H 5250 2400 60  0001 C CNN
	1    5250 2400
	0    -1   -1   0   
$EndComp
$Comp
L BondPad J6
U 1 1 5AABFC0C
P 5550 2400
F 0 "J6" H 5550 2500 60  0000 C CNN
F 1 "T3V3" H 5550 2300 60  0000 C CNN
F 2 "pbv3:pad" H 5550 2400 60  0001 C CNN
F 3 "" H 5550 2400 60  0001 C CNN
	1    5550 2400
	0    -1   -1   0   
$EndComp
Wire Wire Line
	4900 1400 4900 1700
Connection ~ 4900 1550
Wire Wire Line
	5600 1400 5600 1700
Connection ~ 5600 1550
Wire Notes Line
	600  600  7000 600 
Wire Notes Line
	7000 4500 600  4500
Wire Notes Line
	600  4500 600  600 
Wire Wire Line
	4300 6200 4300 6100
Wire Notes Line
	600  4600 6900 4600
Wire Notes Line
	6900 4600 6900 7700
Wire Notes Line
	6900 7700 600  7700
Wire Notes Line
	600  7700 600  4600
Wire Notes Line
	7100 600  11100 600 
Wire Notes Line
	11100 600  11100 6400
Wire Notes Line
	11100 6400 7100 6400
Wire Notes Line
	7100 6400 7100 600 
Wire Wire Line
	3900 1700 4250 1700
Wire Wire Line
	4250 1550 4250 1850
Wire Wire Line
	4250 1550 4900 1550
Wire Wire Line
	5600 1550 5450 1550
Wire Wire Line
	5450 1550 5450 1650
Wire Wire Line
	1850 1950 2000 1950
Wire Wire Line
	2000 1850 2000 2000
Wire Wire Line
	2000 1850 2700 1850
Wire Wire Line
	1850 1600 2000 1600
Wire Wire Line
	2000 1600 2000 1700
Wire Wire Line
	2000 1700 2700 1700
Connection ~ 2000 1950
Wire Wire Line
	1850 2250 2700 2250
Wire Notes Line
	7000 600  7000 4500
Wire Wire Line
	4300 6100 3950 6100
Wire Wire Line
	3950 5950 4650 5950
Wire Wire Line
	2900 5900 2650 5900
Wire Wire Line
	2650 5900 2650 6000
Wire Wire Line
	2900 6200 2450 6200
Wire Wire Line
	2900 6350 2450 6350
Wire Wire Line
	4250 1850 8450 1850
Connection ~ 4250 1700
Wire Wire Line
	3900 1850 4150 1850
Wire Wire Line
	4150 1850 4150 1950
Wire Wire Line
	4150 1950 8450 1950
Wire Wire Line
	3900 2000 4100 2000
Wire Wire Line
	4100 2000 4100 2050
Wire Wire Line
	4100 2050 8450 2050
Wire Wire Line
	7750 2150 8450 2150
Wire Wire Line
	8000 2450 8450 2450
Wire Wire Line
	8000 2700 8450 2700
Wire Wire Line
	3900 2500 4450 2500
Wire Wire Line
	3900 2650 4450 2650
Wire Wire Line
	3900 2800 4450 2800
Wire Wire Line
	3900 2950 4450 2950
Wire Wire Line
	2700 2400 2100 2400
Wire Wire Line
	2700 2800 2100 2800
Wire Wire Line
	2700 2950 2100 2950
Wire Wire Line
	8000 2350 8450 2350
Wire Wire Line
	8000 2600 8450 2600
Wire Wire Line
	9450 1850 9850 1850
Wire Wire Line
	9450 1950 9850 1950
Wire Wire Line
	9450 2050 9850 2050
Wire Wire Line
	9450 2150 9850 2150
Wire Wire Line
	9450 2250 9850 2250
Wire Wire Line
	7400 5350 2600 5350
Wire Wire Line
	2600 5350 2600 5750
Wire Wire Line
	2600 5750 2900 5750
Wire Wire Line
	7400 5350 7400 5250
Wire Wire Line
	7400 5250 8450 5250
Wire Wire Line
	8300 2950 8450 2950
Wire Wire Line
	8300 3150 8450 3150
Wire Wire Line
	8300 3350 8450 3350
Wire Wire Line
	8300 3550 8450 3550
Wire Wire Line
	8300 3750 8450 3750
Wire Wire Line
	8300 3950 8450 3950
Wire Wire Line
	8300 4150 8450 4150
Wire Wire Line
	9450 2950 9600 2950
Wire Wire Line
	9450 3150 9600 3150
Wire Wire Line
	9450 3350 9600 3350
Wire Wire Line
	9450 3550 9600 3550
Wire Wire Line
	9450 3750 9600 3750
Wire Wire Line
	9450 3950 9600 3950
Wire Wire Line
	9450 4150 9600 4150
Wire Wire Line
	9450 4350 9600 4350
Wire Wire Line
	9450 4550 9600 4550
Wire Wire Line
	9450 4750 9600 4750
Wire Wire Line
	9450 5050 9600 5050
Wire Wire Line
	9450 5500 9550 5500
Wire Wire Line
	9550 5500 9550 5450
Wire Wire Line
	9550 5450 9600 5450
Wire Wire Line
	9450 5600 9550 5600
Wire Wire Line
	9550 5600 9550 5650
Wire Wire Line
	9550 5650 9600 5650
Wire Wire Line
	8450 5500 8350 5500
Wire Wire Line
	8350 5500 8350 5450
Wire Wire Line
	8350 5450 8300 5450
Wire Wire Line
	8450 5600 8350 5600
Wire Wire Line
	8350 5600 8350 5650
Wire Wire Line
	8350 5650 8300 5650
Wire Wire Line
	8300 5900 8450 5900
Wire Wire Line
	9450 6050 9600 6050
Wire Wire Line
	8300 4350 8450 4350
Wire Wire Line
	8300 4550 8450 4550
Wire Wire Line
	8300 4750 8450 4750
Wire Wire Line
	8300 5050 8450 5050
Wire Wire Line
	8450 6050 8000 6050
Wire Wire Line
	1950 2250 1950 2550
Connection ~ 1950 2250
Wire Wire Line
	3900 2350 4450 2350
Wire Wire Line
	3900 2200 4450 2200
Wire Wire Line
	9450 2350 9850 2350
Wire Wire Line
	9450 2450 9850 2450
Wire Wire Line
	2450 6350 2450 6450
Wire Wire Line
	2450 6200 2450 6100
Wire Wire Line
	2450 6100 2300 6100
Wire Wire Line
	5250 2150 5250 1950
Connection ~ 5250 1950
Wire Wire Line
	5550 2150 5550 2050
Connection ~ 5550 2050
Wire Wire Line
	8200 1950 8200 1500
Wire Wire Line
	8200 1500 10450 1500
Wire Wire Line
	10450 1500 10450 5900
Wire Wire Line
	10450 5900 9450 5900
Connection ~ 8200 1950
Text Label 8250 1500 0    60   ~ 0
VCC1V4
$EndSCHEMATC
