M48
; DRILL file {KiCad 7.0.2} date Wed 12 Jul 2023 07:36:17 PM CEST
; FORMAT={-:-/ absolute / inch / decimal}
; #@! TF.CreationDate,2023-07-12T19:36:17+02:00
; #@! TF.GenerationSoftware,Kicad,Pcbnew,7.0.2
; #@! TF.FileFunction,Plated,1,4,PTH
FMAT,2
INCH
%
G90
G05
T0
M30
