G04 #@! TF.GenerationSoftware,KiCad,Pcbnew,7.0.2*
G04 #@! TF.CreationDate,2023-07-12T19:36:09+02:00*
G04 #@! TF.ProjectId,pbv3,70627633-2e6b-4696-9361-645f70636258,A*
G04 #@! TF.SameCoordinates,Original*
G04 #@! TF.FileFunction,OtherDrawing,Comment*
%FSLAX46Y46*%
G04 Gerber Fmt 4.6, Leading zero omitted, Abs format (unit mm)*
G04 Created by KiCad (PCBNEW 7.0.2) date 2023-07-12 19:36:09*
%MOMM*%
%LPD*%
G01*
G04 APERTURE LIST*
%ADD10C,0.200000*%
%ADD11C,0.010000*%
%ADD12C,0.150000*%
G04 APERTURE END LIST*
D10*
X53318301Y-109588370D02*
X111170576Y-109625092D01*
X111295576Y-109625092D02*
X111747462Y-82128806D01*
D11*
X19637243Y-97127273D02*
X37480683Y-97075645D01*
D10*
X111747462Y-82128806D02*
X51610339Y-82612507D01*
X52140544Y-107356781D02*
X53443301Y-109588370D01*
X51610339Y-82612507D02*
X50550375Y-85413289D01*
X50550375Y-85413289D02*
X41529300Y-86154957D01*
X41529300Y-86154957D02*
X43331947Y-108080979D01*
X43331947Y-108080979D02*
X52140544Y-107356781D01*
D12*
X27188332Y-98585952D02*
X27188332Y-99252619D01*
X26950237Y-98205000D02*
X26712142Y-98919285D01*
X26712142Y-98919285D02*
X27331189Y-98919285D01*
X27712142Y-99157380D02*
X27759761Y-99205000D01*
X27759761Y-99205000D02*
X27712142Y-99252619D01*
X27712142Y-99252619D02*
X27664523Y-99205000D01*
X27664523Y-99205000D02*
X27712142Y-99157380D01*
X27712142Y-99157380D02*
X27712142Y-99252619D01*
X28093094Y-98252619D02*
X28759760Y-98252619D01*
X28759760Y-98252619D02*
X28331189Y-99252619D01*
X29283570Y-98252619D02*
X29188332Y-98300238D01*
X29188332Y-98300238D02*
X29140713Y-98395476D01*
X29140713Y-98395476D02*
X29188332Y-98490714D01*
X29188332Y-98490714D02*
X29283570Y-98538333D01*
X29283570Y-98538333D02*
X29378808Y-98490714D01*
X29378808Y-98490714D02*
X29426427Y-98395476D01*
X29426427Y-98395476D02*
X29378808Y-98300238D01*
X29378808Y-98300238D02*
X29283570Y-98252619D01*
X30521666Y-98585952D02*
X30902618Y-98585952D01*
X30664523Y-98252619D02*
X30664523Y-99109761D01*
X30664523Y-99109761D02*
X30712142Y-99205000D01*
X30712142Y-99205000D02*
X30807380Y-99252619D01*
X30807380Y-99252619D02*
X30902618Y-99252619D01*
X31664523Y-98585952D02*
X31664523Y-99252619D01*
X31235952Y-98585952D02*
X31235952Y-99109761D01*
X31235952Y-99109761D02*
X31283571Y-99205000D01*
X31283571Y-99205000D02*
X31378809Y-99252619D01*
X31378809Y-99252619D02*
X31521666Y-99252619D01*
X31521666Y-99252619D02*
X31616904Y-99205000D01*
X31616904Y-99205000D02*
X31664523Y-99157380D01*
X32140714Y-99252619D02*
X32140714Y-98585952D01*
X32140714Y-98776428D02*
X32188333Y-98681190D01*
X32188333Y-98681190D02*
X32235952Y-98633571D01*
X32235952Y-98633571D02*
X32331190Y-98585952D01*
X32331190Y-98585952D02*
X32426428Y-98585952D01*
X32759762Y-98585952D02*
X32759762Y-99252619D01*
X32759762Y-98681190D02*
X32807381Y-98633571D01*
X32807381Y-98633571D02*
X32902619Y-98585952D01*
X32902619Y-98585952D02*
X33045476Y-98585952D01*
X33045476Y-98585952D02*
X33140714Y-98633571D01*
X33140714Y-98633571D02*
X33188333Y-98728809D01*
X33188333Y-98728809D02*
X33188333Y-99252619D01*
X34045476Y-99205000D02*
X33950238Y-99252619D01*
X33950238Y-99252619D02*
X33759762Y-99252619D01*
X33759762Y-99252619D02*
X33664524Y-99205000D01*
X33664524Y-99205000D02*
X33616905Y-99109761D01*
X33616905Y-99109761D02*
X33616905Y-98728809D01*
X33616905Y-98728809D02*
X33664524Y-98633571D01*
X33664524Y-98633571D02*
X33759762Y-98585952D01*
X33759762Y-98585952D02*
X33950238Y-98585952D01*
X33950238Y-98585952D02*
X34045476Y-98633571D01*
X34045476Y-98633571D02*
X34093095Y-98728809D01*
X34093095Y-98728809D02*
X34093095Y-98824047D01*
X34093095Y-98824047D02*
X33616905Y-98919285D01*
X34950238Y-99252619D02*
X34950238Y-98252619D01*
X34950238Y-99205000D02*
X34855000Y-99252619D01*
X34855000Y-99252619D02*
X34664524Y-99252619D01*
X34664524Y-99252619D02*
X34569286Y-99205000D01*
X34569286Y-99205000D02*
X34521667Y-99157380D01*
X34521667Y-99157380D02*
X34474048Y-99062142D01*
X34474048Y-99062142D02*
X34474048Y-98776428D01*
X34474048Y-98776428D02*
X34521667Y-98681190D01*
X34521667Y-98681190D02*
X34569286Y-98633571D01*
X34569286Y-98633571D02*
X34664524Y-98585952D01*
X34664524Y-98585952D02*
X34855000Y-98585952D01*
X34855000Y-98585952D02*
X34950238Y-98633571D01*
X92920586Y-113857478D02*
X92968378Y-113810033D01*
X92968378Y-113810033D02*
X93063789Y-113762760D01*
X93063789Y-113762760D02*
X93301882Y-113763626D01*
X93301882Y-113763626D02*
X93396946Y-113811591D01*
X93396946Y-113811591D02*
X93444392Y-113859383D01*
X93444392Y-113859383D02*
X93491664Y-113954794D01*
X93491664Y-113954794D02*
X93491318Y-114050031D01*
X93491318Y-114050031D02*
X93443180Y-114192714D01*
X93443180Y-114192714D02*
X92869677Y-114762061D01*
X92869677Y-114762061D02*
X93488721Y-114764312D01*
X93825688Y-113765531D02*
X94492351Y-113767955D01*
X94492351Y-113767955D02*
X94060146Y-114766390D01*
X94870010Y-114674096D02*
X94917456Y-114721888D01*
X94917456Y-114721888D02*
X94869664Y-114769334D01*
X94869664Y-114769334D02*
X94822219Y-114721542D01*
X94822219Y-114721542D02*
X94870010Y-114674096D01*
X94870010Y-114674096D02*
X94869664Y-114769334D01*
X95825675Y-113772803D02*
X95349487Y-113771072D01*
X95349487Y-113771072D02*
X95300137Y-114247086D01*
X95300137Y-114247086D02*
X95347929Y-114199640D01*
X95347929Y-114199640D02*
X95443340Y-114152368D01*
X95443340Y-114152368D02*
X95681433Y-114153234D01*
X95681433Y-114153234D02*
X95776497Y-114201199D01*
X95776497Y-114201199D02*
X95823943Y-114248991D01*
X95823943Y-114248991D02*
X95871215Y-114344401D01*
X95871215Y-114344401D02*
X95870350Y-114582495D01*
X95870350Y-114582495D02*
X95822385Y-114677559D01*
X95822385Y-114677559D02*
X95774593Y-114725005D01*
X95774593Y-114725005D02*
X95679182Y-114772277D01*
X95679182Y-114772277D02*
X95441088Y-114771411D01*
X95441088Y-114771411D02*
X95346024Y-114723446D01*
X95346024Y-114723446D02*
X95298579Y-114675655D01*
X96492337Y-113775228D02*
X96587574Y-113775574D01*
X96587574Y-113775574D02*
X96682639Y-113823539D01*
X96682639Y-113823539D02*
X96730084Y-113871331D01*
X96730084Y-113871331D02*
X96777357Y-113966741D01*
X96777357Y-113966741D02*
X96824283Y-114157390D01*
X96824283Y-114157390D02*
X96823417Y-114395483D01*
X96823417Y-114395483D02*
X96775106Y-114585785D01*
X96775106Y-114585785D02*
X96727141Y-114680849D01*
X96727141Y-114680849D02*
X96679349Y-114728295D01*
X96679349Y-114728295D02*
X96583938Y-114775567D01*
X96583938Y-114775567D02*
X96488701Y-114775221D01*
X96488701Y-114775221D02*
X96393636Y-114727256D01*
X96393636Y-114727256D02*
X96346191Y-114679464D01*
X96346191Y-114679464D02*
X96298918Y-114584053D01*
X96298918Y-114584053D02*
X96251992Y-114393405D01*
X96251992Y-114393405D02*
X96252858Y-114155312D01*
X96252858Y-114155312D02*
X96301169Y-113965010D01*
X96301169Y-113965010D02*
X96349134Y-113869946D01*
X96349134Y-113869946D02*
X96396926Y-113822500D01*
X96396926Y-113822500D02*
X96492337Y-113775228D01*
X97444712Y-113778691D02*
X97539949Y-113779037D01*
X97539949Y-113779037D02*
X97635013Y-113827002D01*
X97635013Y-113827002D02*
X97682459Y-113874794D01*
X97682459Y-113874794D02*
X97729731Y-113970205D01*
X97729731Y-113970205D02*
X97776658Y-114160853D01*
X97776658Y-114160853D02*
X97775792Y-114398946D01*
X97775792Y-114398946D02*
X97727480Y-114589248D01*
X97727480Y-114589248D02*
X97679515Y-114684313D01*
X97679515Y-114684313D02*
X97631723Y-114731758D01*
X97631723Y-114731758D02*
X97536313Y-114779030D01*
X97536313Y-114779030D02*
X97441075Y-114778684D01*
X97441075Y-114778684D02*
X97346011Y-114730719D01*
X97346011Y-114730719D02*
X97298565Y-114682927D01*
X97298565Y-114682927D02*
X97251293Y-114587517D01*
X97251293Y-114587517D02*
X97204367Y-114396869D01*
X97204367Y-114396869D02*
X97205233Y-114158775D01*
X97205233Y-114158775D02*
X97253544Y-113968473D01*
X97253544Y-113968473D02*
X97301509Y-113873409D01*
X97301509Y-113873409D02*
X97349301Y-113825963D01*
X97349301Y-113825963D02*
X97444712Y-113778691D01*
X98158646Y-113876526D02*
X98206438Y-113829080D01*
X98206438Y-113829080D02*
X98301849Y-113781808D01*
X98301849Y-113781808D02*
X98539943Y-113782673D01*
X98539943Y-113782673D02*
X98635007Y-113830638D01*
X98635007Y-113830638D02*
X98682452Y-113878430D01*
X98682452Y-113878430D02*
X98729725Y-113973841D01*
X98729725Y-113973841D02*
X98729379Y-114069078D01*
X98729379Y-114069078D02*
X98681240Y-114211762D01*
X98681240Y-114211762D02*
X98107738Y-114781108D01*
X98107738Y-114781108D02*
X98726781Y-114783359D01*
X99917250Y-114787688D02*
X99919674Y-114121026D01*
X99919328Y-114216264D02*
X99967120Y-114168818D01*
X99967120Y-114168818D02*
X100062530Y-114121546D01*
X100062530Y-114121546D02*
X100205386Y-114122065D01*
X100205386Y-114122065D02*
X100300451Y-114170030D01*
X100300451Y-114170030D02*
X100347723Y-114265441D01*
X100347723Y-114265441D02*
X100345818Y-114789247D01*
X100347723Y-114265441D02*
X100395688Y-114170377D01*
X100395688Y-114170377D02*
X100491099Y-114123104D01*
X100491099Y-114123104D02*
X100633955Y-114123624D01*
X100633955Y-114123624D02*
X100729019Y-114171589D01*
X100729019Y-114171589D02*
X100776292Y-114266999D01*
X100776292Y-114266999D02*
X100774387Y-114790805D01*
X101250574Y-114792537D02*
X101252998Y-114125875D01*
X101252652Y-114221112D02*
X101300444Y-114173667D01*
X101300444Y-114173667D02*
X101395854Y-114126394D01*
X101395854Y-114126394D02*
X101538711Y-114126914D01*
X101538711Y-114126914D02*
X101633775Y-114174879D01*
X101633775Y-114174879D02*
X101681047Y-114270289D01*
X101681047Y-114270289D02*
X101679143Y-114794095D01*
X101681047Y-114270289D02*
X101729012Y-114175225D01*
X101729012Y-114175225D02*
X101824423Y-114127953D01*
X101824423Y-114127953D02*
X101967279Y-114128472D01*
X101967279Y-114128472D02*
X102062343Y-114176437D01*
X102062343Y-114176437D02*
X102109616Y-114271848D01*
X102109616Y-114271848D02*
X102107711Y-114795654D01*
X83805000Y-109590000D02*
X83781681Y-116002824D01*
X111305000Y-109690000D02*
X111281681Y-116102824D01*
X83783813Y-115416407D02*
X111283813Y-115516407D01*
X83783813Y-115416407D02*
X111283813Y-115516407D01*
X83783813Y-115416407D02*
X84912442Y-114834086D01*
X83783813Y-115416407D02*
X84908177Y-116006920D01*
X111283813Y-115516407D02*
X110155184Y-116098728D01*
X111283813Y-115516407D02*
X110159449Y-114925894D01*
M02*
