M48
;DRILL file {KiCad 4.0.7} date Thu Jul  5 13:30:22 2018
;FORMAT={-:-/ absolute / metric / decimal}
FMAT,2
METRIC,TZ
T1C0.300
%
G90
G05
M71
T1
X121.75Y-100.65
X171.5Y-94.
X171.5Y-95.
X171.5Y-96.
X171.5Y-97.
X171.5Y-98.
X171.5Y-99.
X171.5Y-100.
X171.5Y-101.
X171.5Y-102.
X171.5Y-103.
X171.5Y-104.
X171.5Y-105.
X171.5Y-106.
X171.5Y-107.
X172.5Y-94.
X172.5Y-95.
X172.5Y-96.
X172.5Y-97.
X172.5Y-98.
X172.5Y-99.
X172.5Y-100.
X172.5Y-101.
X172.5Y-102.
X172.5Y-103.
X172.5Y-104.
X172.5Y-105.
X172.5Y-106.
X172.5Y-107.
X173.5Y-94.
X173.5Y-95.
X173.5Y-96.
X173.5Y-97.
X173.5Y-98.
X173.5Y-99.
X173.5Y-100.
X173.5Y-101.
X173.5Y-102.
X173.5Y-103.
X173.5Y-104.
X173.5Y-105.
X173.5Y-107.
X174.5Y-94.
X174.5Y-95.
X174.5Y-96.
X174.5Y-97.
X174.5Y-98.
X174.5Y-99.
X174.5Y-100.
X174.5Y-101.
X174.5Y-102.
X174.5Y-103.
X174.5Y-104.
X174.5Y-105.
X174.5Y-106.
X174.5Y-107.
X175.5Y-94.
X175.5Y-95.
X175.5Y-96.
X175.5Y-97.
X175.5Y-98.
X175.5Y-99.
X175.5Y-100.
X175.5Y-101.
X175.5Y-102.
X175.5Y-103.
X175.5Y-104.
X175.5Y-105.
X175.5Y-106.
X175.5Y-107.
X176.5Y-94.
X176.5Y-95.
X176.5Y-96.
X176.5Y-97.
X176.5Y-98.
X176.5Y-99.
X176.5Y-100.
X176.5Y-101.
X176.5Y-102.
X176.5Y-103.
X176.5Y-104.
X176.5Y-105.
X176.5Y-106.
X176.5Y-107.
X177.5Y-94.
X177.5Y-95.
X177.5Y-96.
X177.5Y-97.
X177.5Y-98.
X177.5Y-99.
X177.5Y-100.
X177.5Y-101.
X177.5Y-102.
X177.5Y-103.
X177.5Y-104.
X177.5Y-105.
X177.5Y-106.
X177.5Y-107.
X178.5Y-94.
X178.5Y-95.
X178.5Y-96.
X178.5Y-97.
X178.5Y-98.
X178.5Y-99.
X178.5Y-100.
X178.5Y-101.
X178.5Y-102.
X178.5Y-103.
X178.5Y-103.
X178.5Y-104.
X178.5Y-105.
X178.5Y-106.
X178.5Y-107.
X179.5Y-94.
X179.5Y-95.
X179.5Y-96.
X179.5Y-97.
X179.5Y-98.
X179.5Y-99.
X179.5Y-100.
X179.5Y-101.
X179.5Y-102.
X179.5Y-103.
X179.5Y-104.
X179.5Y-105.
X179.5Y-106.
X179.5Y-107.
X180.5Y-94.
X180.5Y-95.
X180.5Y-96.
X180.5Y-97.
X180.5Y-98.
X180.5Y-99.
X180.5Y-100.
X180.5Y-101.
X180.5Y-102.
X180.5Y-103.
X180.5Y-104.
X180.5Y-105.
X180.5Y-106.
X180.5Y-107.
X181.5Y-94.
X181.5Y-95.
X181.5Y-96.
X181.5Y-97.
X181.5Y-98.
X181.5Y-99.
X181.5Y-100.
X181.5Y-101.
X181.5Y-102.
X181.5Y-103.
X181.5Y-104.
X181.5Y-105.
X181.5Y-106.
X181.5Y-107.
X182.5Y-94.
X182.5Y-95.
X182.5Y-96.
X182.5Y-97.
X182.5Y-98.
X182.5Y-99.
X182.5Y-100.
X182.5Y-101.
X182.5Y-102.
X182.5Y-103.
X182.5Y-104.
X182.5Y-105.
X182.5Y-106.
X182.5Y-107.
X183.5Y-94.
X183.5Y-95.
X183.5Y-96.
X183.5Y-97.
X183.5Y-98.
X183.5Y-99.
X183.5Y-100.
X183.5Y-101.
X183.5Y-102.
X183.5Y-103.
X183.5Y-104.
X183.5Y-104.
X183.5Y-105.
X183.5Y-106.
X183.5Y-107.
X184.5Y-94.
X184.5Y-95.
X184.5Y-96.
X184.5Y-97.
X184.5Y-98.
X184.5Y-99.
X184.5Y-100.
X184.5Y-101.
X184.5Y-102.
X184.5Y-103.
X184.5Y-104.
X184.5Y-105.
X184.5Y-106.
X184.5Y-107.
X185.5Y-94.
X185.5Y-95.
X185.5Y-96.
X185.5Y-97.
X185.5Y-98.
X185.5Y-99.
X185.5Y-100.
X185.5Y-101.
X185.5Y-102.
X185.5Y-103.
X185.5Y-104.
X185.5Y-105.
X185.5Y-106.
X185.5Y-107.
X186.5Y-94.
X186.5Y-95.
X186.5Y-96.
X186.5Y-97.
X186.5Y-98.
X186.5Y-99.
X186.5Y-100.
X186.5Y-101.
X186.5Y-102.
X186.5Y-103.
X186.5Y-104.
X186.5Y-105.
X186.5Y-106.
X186.5Y-107.
X187.5Y-96.
X187.5Y-97.
X187.5Y-98.
X187.5Y-99.
X187.5Y-100.
X187.5Y-101.
X187.5Y-102.
X187.5Y-103.
X187.5Y-104.
X187.5Y-105.
X187.5Y-106.
X188.5Y-96.
X188.5Y-97.
X188.5Y-98.
X188.5Y-99.
X188.5Y-100.
X188.5Y-101.
X188.5Y-102.
X188.5Y-103.
X188.5Y-104.
X188.5Y-105.
X188.5Y-106.
X189.5Y-96.
X189.5Y-97.
X189.5Y-98.
X189.5Y-99.
X189.5Y-100.
X189.5Y-101.
X189.5Y-102.
X189.5Y-103.
X189.5Y-104.
X189.5Y-105.
X189.5Y-106.
X190.5Y-96.
X190.5Y-97.
X190.5Y-98.
X190.5Y-99.
X190.5Y-100.
X190.5Y-101.
X190.5Y-102.
X190.5Y-103.
X190.5Y-104.
X190.5Y-105.
X190.5Y-106.
X191.5Y-96.
X191.5Y-97.
X191.5Y-98.
X191.5Y-99.
X191.5Y-100.
X191.5Y-101.
X191.5Y-102.
X191.5Y-103.
X191.5Y-104.
X191.5Y-105.
X191.5Y-106.
X192.5Y-96.
X192.5Y-97.
X192.5Y-98.
X192.5Y-99.
X192.5Y-100.
X192.5Y-101.
X192.5Y-102.
X192.5Y-103.
X192.5Y-104.
X192.5Y-105.
X192.5Y-106.
X193.5Y-96.
X193.5Y-97.
X193.5Y-98.
X193.5Y-99.
X193.5Y-100.
X193.5Y-101.
X193.5Y-102.
X193.5Y-103.
X193.5Y-104.
X193.5Y-105.
X193.5Y-106.
X194.5Y-96.
X194.5Y-97.
X194.5Y-98.
X194.5Y-99.
X194.5Y-100.
X194.5Y-101.
X194.5Y-102.
X194.5Y-103.
X194.5Y-104.
X194.5Y-105.
X194.5Y-106.
X195.5Y-96.
X195.5Y-97.
X195.5Y-98.
X195.5Y-99.
X195.5Y-100.
X195.5Y-101.
X195.5Y-102.
X195.5Y-103.
X195.5Y-104.
X195.5Y-105.
X195.5Y-106.
X196.5Y-96.
X196.5Y-97.
X196.5Y-98.
X196.5Y-99.
X196.5Y-100.
X196.5Y-101.
X196.5Y-102.
X196.5Y-103.
X196.5Y-104.
X196.5Y-105.
X196.5Y-106.
X197.5Y-96.
X197.5Y-97.
X197.5Y-98.
X197.5Y-99.
X197.5Y-100.
X197.5Y-101.
X197.5Y-102.
X197.5Y-103.
X197.5Y-104.
X197.5Y-105.
X197.5Y-106.
X198.5Y-96.
X198.5Y-97.
X198.5Y-98.
X198.5Y-99.
X198.5Y-100.
X198.5Y-101.
X198.5Y-102.
X198.5Y-103.
X198.5Y-104.
X198.5Y-105.
X198.5Y-106.
X199.5Y-96.
X199.5Y-97.
X199.5Y-98.
X199.5Y-99.
X199.5Y-100.
X199.5Y-101.
X199.5Y-102.
X199.5Y-103.
X199.5Y-104.
X199.5Y-105.
X199.5Y-106.
X200.5Y-96.
X200.5Y-97.
X200.5Y-98.
X200.5Y-99.
X200.5Y-100.
X200.5Y-101.
X200.5Y-102.
X200.5Y-103.
X200.5Y-104.
X200.5Y-104.
X200.5Y-105.
X200.5Y-106.
X201.5Y-96.
X201.5Y-97.
X201.5Y-98.
X201.5Y-99.
X201.5Y-100.
X201.5Y-101.
X201.5Y-102.
X201.5Y-103.
X201.5Y-104.
X201.5Y-105.
X201.5Y-106.
X202.5Y-96.
X202.5Y-97.
X202.5Y-98.
X202.5Y-99.
X202.5Y-100.
X202.5Y-101.
X202.5Y-102.
X202.5Y-103.
X202.5Y-104.
X202.5Y-105.
X202.5Y-106.
X203.5Y-96.
X203.5Y-97.
X203.5Y-98.
X203.5Y-99.
X203.5Y-100.
X203.5Y-101.
X203.5Y-102.
X203.5Y-103.
X203.5Y-104.
X203.5Y-105.
X203.5Y-106.
X204.5Y-96.
X204.5Y-97.
X204.5Y-98.
X204.5Y-99.
X204.5Y-100.
X204.5Y-101.
X204.5Y-102.
X204.5Y-103.
X204.5Y-104.
X204.5Y-105.
X204.5Y-106.
X205.5Y-96.
X205.5Y-97.
X205.5Y-98.
X205.5Y-99.
X205.5Y-100.
X205.5Y-101.
X205.5Y-102.
X205.5Y-103.
X205.5Y-104.
X205.5Y-105.
X205.5Y-106.
X206.5Y-96.
X206.5Y-97.
X206.5Y-98.
X206.5Y-99.
X206.5Y-100.
X206.5Y-101.
X206.5Y-102.
X206.5Y-103.
X206.5Y-104.
X206.5Y-105.
X206.5Y-106.
T0
M30
