G04 #@! TF.FileFunction,Soldermask,Top*
%FSLAX46Y46*%
G04 Gerber Fmt 4.6, Leading zero omitted, Abs format (unit mm)*
G04 Created by KiCad (PCBNEW 4.0.7) date Thu Jul  5 13:30:18 2018*
%MOMM*%
%LPD*%
G01*
G04 APERTURE LIST*
%ADD10C,0.100000*%
%ADD11C,1.000000*%
%ADD12C,3.600000*%
%ADD13R,1.300000X2.100000*%
%ADD14R,2.100000X1.300000*%
%ADD15R,3.550000X1.400000*%
%ADD16R,0.527000X0.654000*%
%ADD17R,0.654000X0.527000*%
%ADD18R,1.400000X3.550000*%
%ADD19R,1.300000X0.900000*%
%ADD20C,0.254000*%
G04 APERTURE END LIST*
D10*
D11*
X188000000Y-92000000D03*
X170000000Y-90000000D03*
X187500000Y-111000000D03*
X169500000Y-109500000D03*
X142000000Y-110000000D03*
D12*
X207000000Y-125000000D03*
X207000000Y-73000000D03*
X125000000Y-73000000D03*
X125500000Y-125000000D03*
X195000000Y-115000000D03*
D13*
X203750000Y-107550000D03*
X206650000Y-107550000D03*
D14*
X208500000Y-103100000D03*
X208500000Y-106000000D03*
X208700000Y-95750000D03*
X208700000Y-98650000D03*
D13*
X206700000Y-94550000D03*
X203800000Y-94550000D03*
X148500000Y-91400000D03*
X151400000Y-91400000D03*
D15*
X123710000Y-90520000D03*
X128760000Y-90520000D03*
X123710000Y-93060000D03*
X128760000Y-93060000D03*
X123710000Y-95600000D03*
X128760000Y-95600000D03*
X123710000Y-98140000D03*
X128760000Y-98140000D03*
X123710000Y-100680000D03*
X128760000Y-100680000D03*
X123710000Y-103220000D03*
X128760000Y-103220000D03*
X123710000Y-105760000D03*
X128760000Y-105760000D03*
X123710000Y-108300000D03*
X128760000Y-108300000D03*
X123710000Y-110840000D03*
X128760000Y-110840000D03*
X123710000Y-113380000D03*
X128760000Y-113380000D03*
D16*
X146600000Y-95200000D03*
X146500000Y-98200000D03*
X146450000Y-100800000D03*
X146500000Y-102450000D03*
D17*
X146500000Y-103700000D03*
X146450000Y-104400000D03*
X146350000Y-106190000D03*
X146350000Y-106690000D03*
X146350000Y-107210000D03*
X146500000Y-104050000D03*
X146450000Y-104800000D03*
D16*
X171990000Y-109000000D03*
X172680000Y-109000000D03*
X172020000Y-91950000D03*
X173210000Y-109000000D03*
X175150000Y-91950000D03*
X175150000Y-109000000D03*
X175450000Y-91950000D03*
X175450000Y-109000000D03*
X175750000Y-91950000D03*
X175750000Y-109000000D03*
X176050000Y-91950000D03*
X176050000Y-109000000D03*
D18*
X186580000Y-71280000D03*
X186580000Y-76330000D03*
X184040000Y-71280000D03*
X184040000Y-76330000D03*
X181500000Y-71280000D03*
X181500000Y-76330000D03*
X178960000Y-71280000D03*
X178960000Y-76330000D03*
X176420000Y-71280000D03*
X176420000Y-76330000D03*
X173880000Y-71280000D03*
X173880000Y-76330000D03*
X171340000Y-71280000D03*
X171340000Y-76330000D03*
X168800000Y-71280000D03*
X168800000Y-76330000D03*
X166260000Y-71280000D03*
X166260000Y-76330000D03*
X163720000Y-71280000D03*
X163720000Y-76330000D03*
D16*
X176350000Y-91950000D03*
X176350000Y-109000000D03*
D18*
X187560000Y-121550000D03*
X187560000Y-126600000D03*
X185020000Y-121550000D03*
X185020000Y-126600000D03*
X182480000Y-121550000D03*
X182480000Y-126600000D03*
X179940000Y-121550000D03*
X179940000Y-126600000D03*
X177400000Y-121550000D03*
X177400000Y-126600000D03*
X174860000Y-121550000D03*
X174860000Y-126600000D03*
X172320000Y-121550000D03*
X172320000Y-126600000D03*
X169780000Y-121550000D03*
X169780000Y-126600000D03*
X167240000Y-121550000D03*
X167240000Y-126600000D03*
X164700000Y-121550000D03*
X164700000Y-126600000D03*
D16*
X176650000Y-91950000D03*
X176650000Y-109000000D03*
X176950000Y-91950000D03*
X176950000Y-109000000D03*
X177250000Y-91950000D03*
X177250000Y-109000000D03*
X177550000Y-91950000D03*
X177550000Y-109000000D03*
X177850000Y-91950000D03*
X177850000Y-109000000D03*
X180250000Y-109400000D03*
X180000000Y-91500000D03*
X184350000Y-109250000D03*
X184700000Y-91700000D03*
D13*
X147600000Y-109600000D03*
X150500000Y-109600000D03*
D19*
X146600000Y-93450000D03*
X146600000Y-91950000D03*
X146250000Y-109500000D03*
X146250000Y-108000000D03*
D12*
X195000000Y-85000000D03*
D11*
X146000000Y-90000000D03*
D20*
G36*
X186573000Y-92173000D02*
X171627000Y-92173000D01*
X171627000Y-89627000D01*
X186573000Y-89627000D01*
X186573000Y-92173000D01*
X186573000Y-92173000D01*
G37*
X186573000Y-92173000D02*
X171627000Y-92173000D01*
X171627000Y-89627000D01*
X186573000Y-89627000D01*
X186573000Y-92173000D01*
G36*
X186173000Y-111373000D02*
X171227000Y-111373000D01*
X171227000Y-108827000D01*
X186173000Y-108827000D01*
X186173000Y-111373000D01*
X186173000Y-111373000D01*
G37*
X186173000Y-111373000D02*
X171227000Y-111373000D01*
X171227000Y-108827000D01*
X186173000Y-108827000D01*
X186173000Y-111373000D01*
G36*
X146576276Y-107823000D02*
X142177000Y-107823000D01*
X142177000Y-92777000D01*
X146969636Y-92777000D01*
X146576276Y-107823000D01*
X146576276Y-107823000D01*
G37*
X146576276Y-107823000D02*
X142177000Y-107823000D01*
X142177000Y-92777000D01*
X146969636Y-92777000D01*
X146576276Y-107823000D01*
G36*
X149873000Y-124873000D02*
X135127000Y-124873000D01*
X135127000Y-115127000D01*
X149873000Y-115127000D01*
X149873000Y-124873000D01*
X149873000Y-124873000D01*
G37*
X149873000Y-124873000D02*
X135127000Y-124873000D01*
X135127000Y-115127000D01*
X149873000Y-115127000D01*
X149873000Y-124873000D01*
M02*
