G04 #@! TF.FileFunction,Soldermask,Bot*
%FSLAX46Y46*%
G04 Gerber Fmt 4.6, Leading zero omitted, Abs format (unit mm)*
G04 Created by KiCad (PCBNEW 4.0.7) date Thu Jul  5 13:30:18 2018*
%MOMM*%
%LPD*%
G01*
G04 APERTURE LIST*
%ADD10C,0.100000*%
%ADD11C,3.600000*%
G04 APERTURE END LIST*
D10*
D11*
X207000000Y-125000000D03*
X207000000Y-73000000D03*
X125000000Y-73000000D03*
X125500000Y-125000000D03*
X195000000Y-115000000D03*
X195000000Y-85000000D03*
M02*
