G04 #@! TF.FileFunction,Copper,L3,Inr,Signal*
%FSLAX46Y46*%
G04 Gerber Fmt 4.6, Leading zero omitted, Abs format (unit mm)*
G04 Created by KiCad (PCBNEW 4.0.7) date Wed May 16 14:43:50 2018*
%MOMM*%
%LPD*%
G01*
G04 APERTURE LIST*
%ADD10C,0.100000*%
%ADD11C,0.150000*%
%ADD12C,0.450000*%
%ADD13C,0.127000*%
G04 APERTURE END LIST*
D10*
D11*
X117576600Y-63627000D02*
X115582700Y-65620900D01*
X113995200Y-76619100D02*
X96151700Y-76619100D01*
X117144800Y-79768700D02*
X113995200Y-76619100D01*
X156362400Y-79768700D02*
X156794200Y-63627000D01*
X117576600Y-63627000D02*
X156794200Y-63627000D01*
X117144800Y-79768700D02*
X156362400Y-79768700D01*
X94154778Y-72622954D02*
X96154778Y-72622954D01*
X94154778Y-69622954D02*
X94154778Y-72622954D01*
X96154778Y-69622954D02*
X94154778Y-69622954D01*
X96154778Y-69622954D02*
X96154778Y-65622954D01*
X96154778Y-65622954D02*
X115582700Y-65620900D01*
X96154778Y-76622954D02*
X96154778Y-72622954D01*
D12*
X108030000Y-67400000D03*
X122033678Y-78749054D03*
X139865100Y-64236600D03*
X139357100Y-64236600D03*
X138849100Y-64223900D03*
X138341100Y-64211200D03*
X138811000Y-64858900D03*
X138290300Y-64922400D03*
X139484100Y-78422500D03*
X139979400Y-78435200D03*
X140487400Y-78435200D03*
X140995400Y-78435200D03*
X141516100Y-78435200D03*
X142036800Y-78435200D03*
X142557500Y-78422500D03*
X143065500Y-78422500D03*
X152942454Y-78423122D03*
X152942454Y-78804122D03*
X122900000Y-78750000D03*
X123340000Y-78740000D03*
X122470000Y-78760000D03*
X125520000Y-78749054D03*
X124660000Y-78750000D03*
X123780000Y-78740000D03*
X124220000Y-78750000D03*
X125081678Y-78749054D03*
X117665500Y-69735700D03*
X153283278Y-70937454D03*
X153290000Y-71370000D03*
X107085778Y-73180000D03*
X114640000Y-70740000D03*
X112546778Y-71852954D03*
X112038778Y-71852954D03*
X111530778Y-71852954D03*
X106180000Y-67470000D03*
X108101778Y-74392954D03*
X108620000Y-74760000D03*
X108101778Y-75154954D03*
X104220000Y-67210000D03*
X130275978Y-76221754D03*
X130656978Y-76221754D03*
X107466778Y-73503954D03*
X107830000Y-73180000D03*
X106704778Y-73503954D03*
X122162878Y-64855254D03*
X122600000Y-64855254D03*
X123040000Y-64855254D03*
X128282078Y-69884454D03*
X126504078Y-69884454D03*
X124726078Y-69884454D03*
X124726078Y-72106954D03*
X126504078Y-72106954D03*
X124726078Y-71154454D03*
X128282078Y-71154454D03*
X128282078Y-72106954D03*
X134500000Y-71900000D03*
X134070000Y-71910000D03*
X129470000Y-74770000D03*
X129460000Y-74330000D03*
X129030000Y-74330000D03*
X146280000Y-69270000D03*
X146730000Y-69274854D03*
X147180000Y-69274854D03*
X150100000Y-69630000D03*
X150146254Y-69178622D03*
X149894454Y-78804122D03*
X149894454Y-78423122D03*
X129044078Y-74773954D03*
X129806078Y-71789454D03*
X129806078Y-70900454D03*
X129780000Y-69480000D03*
X129070000Y-68620000D03*
X127266078Y-68614454D03*
X125742078Y-68614454D03*
X123200000Y-69480000D03*
X123202078Y-70773454D03*
X123202078Y-72043454D03*
X123480000Y-64855254D03*
X123920000Y-64855254D03*
X124360000Y-64855254D03*
X124800000Y-64860000D03*
X125240000Y-64860000D03*
X132854700Y-74777600D03*
X132860000Y-75260000D03*
X113689778Y-68931954D03*
X113689778Y-69693954D03*
X113689778Y-70455954D03*
X113689778Y-71217954D03*
X113689778Y-71979954D03*
X113689778Y-66137954D03*
X112927778Y-66137954D03*
X112165778Y-66137954D03*
X111403778Y-66137954D03*
X110641778Y-66137954D03*
X109879778Y-66137954D03*
X109117778Y-66137954D03*
X108355778Y-66137954D03*
X107593778Y-66137954D03*
X106831778Y-66137954D03*
X106069778Y-66110000D03*
X105307778Y-66137954D03*
X104545778Y-66137954D03*
X103783778Y-66137954D03*
X102894778Y-66137954D03*
X102132778Y-66137954D03*
X101370778Y-66137954D03*
X100608778Y-66137954D03*
X99846778Y-66137954D03*
X99084778Y-66137954D03*
X98322778Y-66137954D03*
X97560778Y-66137954D03*
X96671778Y-66391954D03*
X96671778Y-67153954D03*
X96671778Y-67915954D03*
X96671778Y-68677954D03*
X96671778Y-69439954D03*
X96671778Y-70201954D03*
X96671778Y-70963954D03*
X96671778Y-71725954D03*
X96671778Y-72487954D03*
X97880000Y-67280000D03*
X96671778Y-73249954D03*
X96671778Y-74011954D03*
X96671778Y-74773954D03*
X96671778Y-75408954D03*
X97433778Y-76170954D03*
X98322778Y-76170954D03*
X99084778Y-76170954D03*
X99846778Y-76170954D03*
X100608778Y-76170954D03*
X101300000Y-76170000D03*
X102005778Y-76170954D03*
X102767778Y-76170954D03*
X103529778Y-76170954D03*
X104418778Y-76170954D03*
X105180778Y-76170954D03*
X105942778Y-76170954D03*
X106704778Y-76170954D03*
X107466778Y-76170954D03*
X108228778Y-76170954D03*
X108990778Y-76170954D03*
X109752778Y-76170954D03*
X110641778Y-76170954D03*
X111403778Y-76170954D03*
X112165778Y-76170954D03*
X112927778Y-76170954D03*
X98310000Y-67280954D03*
X102410000Y-74020000D03*
X102386778Y-68169954D03*
X103402778Y-68169954D03*
X101654778Y-69622954D03*
X101154778Y-69622954D03*
X104154778Y-69622954D03*
X103654778Y-69622954D03*
X103154778Y-69622954D03*
X102654778Y-69622954D03*
X102154778Y-69622954D03*
X102154778Y-70122954D03*
X102654778Y-70122954D03*
X103154778Y-70122954D03*
X103654778Y-70122954D03*
X104154778Y-70122954D03*
X101654778Y-70122954D03*
X101154778Y-70122954D03*
X102154778Y-70622954D03*
X102654778Y-70622954D03*
X103154778Y-70622954D03*
X103654778Y-70622954D03*
X104154778Y-70622954D03*
X101654778Y-70622954D03*
X101154778Y-70622954D03*
X101154778Y-72614954D03*
X101624778Y-72614954D03*
X104154778Y-72622954D03*
X103654778Y-72622954D03*
X103154778Y-72622954D03*
X102654778Y-72622954D03*
X102154778Y-72622954D03*
X102154778Y-72122954D03*
X102654778Y-72122954D03*
X103154778Y-72122954D03*
X103654778Y-72122954D03*
X104154778Y-72122954D03*
X101654778Y-72122954D03*
X101154778Y-72122954D03*
X101154778Y-71622954D03*
X101654778Y-71622954D03*
X104154778Y-71622954D03*
X103654778Y-71622954D03*
X103154778Y-71622954D03*
X102654778Y-71622954D03*
X102154778Y-71622954D03*
X102154778Y-71122954D03*
X102654778Y-71122954D03*
X103154778Y-71122954D03*
X101654778Y-71122954D03*
X101154778Y-71122954D03*
X104154778Y-71122954D03*
X103654778Y-71122954D03*
X96671778Y-76170954D03*
X109498778Y-70379754D03*
X109980000Y-70370000D03*
X110463978Y-70379754D03*
X115862100Y-72326500D03*
X115214400Y-72326500D03*
X116687600Y-69735700D03*
X117195600Y-69748400D03*
X129806078Y-72932454D03*
X126504078Y-71154454D03*
X123910000Y-68630000D03*
X123200000Y-72830000D03*
X124870000Y-74610000D03*
X113689778Y-76170954D03*
X152875778Y-71889954D03*
X152875778Y-71460000D03*
X153300000Y-71810000D03*
X152870000Y-71020000D03*
X113689778Y-73376954D03*
X113689778Y-72741954D03*
X107212778Y-74342154D03*
X110641778Y-74392954D03*
X110641778Y-74837454D03*
X105404778Y-74695954D03*
X105400000Y-74260000D03*
X125395580Y-66995275D03*
X105400000Y-75320000D03*
X120890678Y-74329454D03*
X121271678Y-74329454D03*
X129130000Y-76230000D03*
X152860000Y-65460000D03*
X128690000Y-76180000D03*
X128028700Y-74830000D03*
X133340000Y-77110000D03*
X153390000Y-66030000D03*
X129720000Y-76080000D03*
X128041400Y-67490000D03*
X132461000Y-66776600D03*
X153370000Y-64900000D03*
X129040000Y-66110000D03*
X128740000Y-66410000D03*
X99406780Y-73240000D03*
X120868979Y-70396541D03*
X98611300Y-73942785D03*
X121442063Y-70230954D03*
X102171735Y-67634521D03*
X102867945Y-67851506D03*
X103640000Y-74870000D03*
X103650000Y-75310000D03*
X123914064Y-67055954D03*
X98449778Y-75154954D03*
X105005289Y-68516454D03*
X121487578Y-67725454D03*
X124720000Y-66530000D03*
X121158000Y-66560700D03*
X105980000Y-68340000D03*
X105551828Y-68331453D03*
X120773401Y-70965572D03*
X126100000Y-67490000D03*
X100291278Y-75281924D03*
X148373478Y-68330000D03*
X132720000Y-72780000D03*
X148350000Y-67770000D03*
X132720000Y-72210000D03*
X133185940Y-71618599D03*
X148940000Y-65620000D03*
X133185940Y-71041599D03*
X148944978Y-65040000D03*
D13*
X105400000Y-74260000D02*
X105740545Y-73919455D01*
X105740545Y-73919455D02*
X110422279Y-73919455D01*
X110422279Y-73919455D02*
X110641778Y-74138954D01*
X105404778Y-74695954D02*
X105404778Y-74329454D01*
X110641778Y-74392954D02*
X110641778Y-74837454D01*
X110641778Y-74138954D02*
X110641778Y-74392954D01*
X113118277Y-75472455D02*
X108399219Y-75472455D01*
X108399219Y-75472455D02*
X108301219Y-75570455D01*
X108301219Y-75570455D02*
X105650455Y-75570455D01*
X105650455Y-75570455D02*
X105624999Y-75544999D01*
X105624999Y-75544999D02*
X105400000Y-75320000D01*
X125328602Y-68350000D02*
X125328602Y-69896872D01*
X125328602Y-69896872D02*
X123597521Y-71627953D01*
X123597521Y-71627953D02*
X122763001Y-71627953D01*
X122763001Y-71627953D02*
X120760000Y-73630954D01*
X120760000Y-73630954D02*
X114959778Y-73630954D01*
X114959778Y-73630954D02*
X113118277Y-75472455D01*
X105498279Y-75472455D02*
X105434778Y-75408954D01*
X125328602Y-68350000D02*
X125328602Y-68129048D01*
X125395580Y-66995275D02*
X125395580Y-67313473D01*
X125395580Y-67313473D02*
X125328602Y-67380451D01*
X125328602Y-67380451D02*
X125328602Y-68350000D01*
X129298078Y-75383550D02*
X128690000Y-75383550D01*
X128690000Y-75383550D02*
X122325774Y-75383550D01*
X128690000Y-76180000D02*
X128690000Y-75861802D01*
X128690000Y-75861802D02*
X128690000Y-75383550D01*
X129130000Y-76230000D02*
X128740000Y-76230000D01*
X128740000Y-76230000D02*
X128690000Y-76180000D01*
X144880988Y-73440444D02*
X131530000Y-73440444D01*
X129298078Y-75383550D02*
X129471392Y-75383550D01*
X129471392Y-75383550D02*
X131414498Y-73440444D01*
X131414498Y-73440444D02*
X131530000Y-73440444D01*
X152725933Y-65595499D02*
X152650000Y-65671432D01*
X152650000Y-65671432D02*
X144880988Y-73440444D01*
X152860000Y-65460000D02*
X152860000Y-65461432D01*
X152860000Y-65461432D02*
X152650000Y-65671432D01*
X122325774Y-75383550D02*
X121271678Y-74329454D01*
X121271678Y-74329454D02*
X120890678Y-74329454D01*
X133350000Y-77177900D02*
X132812955Y-76640855D01*
X120475177Y-74528895D02*
X120475177Y-74130013D01*
X128012355Y-74773955D02*
X128028700Y-74773955D01*
X132812955Y-76640855D02*
X122587137Y-76640855D01*
X122587137Y-76640855D02*
X120475177Y-74528895D01*
X120475177Y-74130013D02*
X120691237Y-73913953D01*
X120691237Y-73913953D02*
X127152353Y-73913953D01*
X127152353Y-73913953D02*
X128012355Y-74773955D01*
X150260000Y-73694454D02*
X132248746Y-73694454D01*
X152280279Y-67132200D02*
X150899277Y-68513202D01*
X150899277Y-68513202D02*
X150899277Y-73055177D01*
X150899277Y-73055177D02*
X150260000Y-73694454D01*
X152280279Y-66919916D02*
X152280279Y-67132200D01*
X153223695Y-65976500D02*
X152280279Y-66919916D01*
X153403300Y-65976500D02*
X153223695Y-65976500D01*
X132248746Y-73694454D02*
X129692400Y-76250800D01*
X131544795Y-67513200D02*
X128041400Y-67513200D01*
X132461000Y-66776600D02*
X132281395Y-66776600D01*
X132281395Y-66776600D02*
X131544795Y-67513200D01*
X129040000Y-66110000D02*
X128740000Y-66410000D01*
X128990000Y-66180000D02*
X129832099Y-65337901D01*
X129832099Y-65337901D02*
X139553271Y-65337901D01*
X139553271Y-65337901D02*
X140349772Y-64541400D01*
X140349772Y-64541400D02*
X152984200Y-64541400D01*
X152984200Y-64541400D02*
X153403300Y-64960500D01*
X120868979Y-70396541D02*
X120643980Y-70171542D01*
X120643980Y-70171542D02*
X116291542Y-70171542D01*
X116291542Y-70171542D02*
X114636453Y-68516453D01*
X99380000Y-70732232D02*
X99380000Y-73213220D01*
X114636453Y-68516453D02*
X113490337Y-68516453D01*
X113490337Y-68516453D02*
X112799337Y-69207453D01*
X99380000Y-73213220D02*
X99406780Y-73240000D01*
X112799337Y-69207453D02*
X100955337Y-69207453D01*
X100955337Y-69207453D02*
X99430558Y-70732232D01*
X99430558Y-70732232D02*
X99380000Y-70732232D01*
X119814348Y-69630000D02*
X119434348Y-69250000D01*
X98553469Y-73884954D02*
X98513310Y-73884954D01*
X98611300Y-73942785D02*
X98553469Y-73884954D01*
X98513310Y-73884954D02*
X98513310Y-71154422D01*
X98513310Y-71154422D02*
X100735777Y-68931955D01*
X115930000Y-69230000D02*
X119414348Y-69230000D01*
X100735777Y-68931955D02*
X112715611Y-68931955D01*
X114962443Y-68262443D02*
X115930000Y-69230000D01*
X112715611Y-68931955D02*
X113385123Y-68262443D01*
X113385123Y-68262443D02*
X114962443Y-68262443D01*
X119414348Y-69230000D02*
X119434348Y-69250000D01*
X120717380Y-69630000D02*
X119814348Y-69630000D01*
X121442063Y-70230954D02*
X121318334Y-70230954D01*
X121318334Y-70230954D02*
X120717380Y-69630000D01*
X102867945Y-67851506D02*
X102650960Y-67634521D01*
X102650960Y-67634521D02*
X102171735Y-67634521D01*
X103656778Y-75027982D02*
X103212250Y-74583454D01*
X103212250Y-74583454D02*
X98640278Y-74583454D01*
X98640278Y-74583454D02*
X98195800Y-74138976D01*
X98195800Y-74138976D02*
X98195800Y-70773432D01*
X98195800Y-70773432D02*
X101334711Y-67634521D01*
X101334711Y-67634521D02*
X102171735Y-67634521D01*
X103656778Y-75027982D02*
X103656778Y-75408954D01*
X112254827Y-67788965D02*
X107130000Y-67788965D01*
X105140000Y-67615501D02*
X105701002Y-67054499D01*
X105701002Y-67054499D02*
X106395534Y-67054499D01*
X106395534Y-67054499D02*
X107130000Y-67788965D01*
X105140000Y-67615501D02*
X103810559Y-67615501D01*
X123914064Y-67055954D02*
X112987838Y-67055954D01*
X112987838Y-67055954D02*
X112254827Y-67788965D01*
X102371176Y-67219020D02*
X99527712Y-67219020D01*
X102433121Y-67280965D02*
X102371176Y-67219020D01*
X103810559Y-67615501D02*
X103476023Y-67280965D01*
X99527712Y-67219020D02*
X97941789Y-68804943D01*
X103476023Y-67280965D02*
X102433121Y-67280965D01*
X97941789Y-68804943D02*
X97941789Y-74646965D01*
X97941789Y-74646965D02*
X98449778Y-75154954D01*
X115334423Y-67754423D02*
X116067455Y-68487455D01*
X116067455Y-68487455D02*
X118033179Y-68487455D01*
X106476200Y-68042976D02*
X112712976Y-68042976D01*
X112712976Y-68042976D02*
X113001529Y-67754423D01*
X113001529Y-67754423D02*
X115334423Y-67754423D01*
X105005289Y-68516454D02*
X105005289Y-68177011D01*
X105005289Y-68177011D02*
X105266347Y-67915953D01*
X106349179Y-67915955D02*
X105714181Y-67915955D01*
X105714181Y-67915955D02*
X105714179Y-67915953D01*
X105714179Y-67915953D02*
X105266347Y-67915953D01*
X121487578Y-67725454D02*
X121307973Y-67725454D01*
X121307973Y-67725454D02*
X121244473Y-67788954D01*
X121244473Y-67788954D02*
X118731680Y-67788954D01*
X106476200Y-68042976D02*
X106349179Y-67915955D01*
X118731680Y-67788954D02*
X118033179Y-68487455D01*
X124670000Y-66489964D02*
X121228736Y-66489964D01*
X121228736Y-66489964D02*
X121158000Y-66560700D01*
X115138433Y-68008433D02*
X115871464Y-68741464D01*
X119448528Y-68741464D02*
X119448532Y-68741468D01*
X115871464Y-68741464D02*
X119448528Y-68741464D01*
X105980000Y-68340000D02*
X112948342Y-68340000D01*
X112948342Y-68340000D02*
X113279909Y-68008433D01*
X113279909Y-68008433D02*
X115138433Y-68008433D01*
X105551828Y-68331453D02*
X105971453Y-68331453D01*
X105971453Y-68331453D02*
X105980000Y-68340000D01*
X119448532Y-68741468D02*
X120120000Y-68070000D01*
X120120000Y-68070000D02*
X120820000Y-68070000D01*
X122130000Y-69380000D02*
X122130000Y-70820000D01*
X120820000Y-68070000D02*
X122130000Y-69380000D01*
X122130000Y-70820000D02*
X121984428Y-70965572D01*
X121984428Y-70965572D02*
X120773401Y-70965572D01*
X99440000Y-66798732D02*
X97687778Y-68550954D01*
X107009791Y-66801944D02*
X106992346Y-66784499D01*
X106992346Y-66784499D02*
X99454233Y-66784499D01*
X99454233Y-66784499D02*
X99440000Y-66798732D01*
X126100000Y-67490000D02*
X126100000Y-67084753D01*
X126100000Y-67084753D02*
X125089711Y-66074464D01*
X125089711Y-66074464D02*
X115435536Y-66074464D01*
X114708056Y-66801944D02*
X107009791Y-66801944D01*
X115435536Y-66074464D02*
X114708056Y-66801944D01*
X98103279Y-75570455D02*
X98649219Y-75570455D01*
X97687778Y-68550954D02*
X97687778Y-75154954D01*
X98747209Y-75472465D02*
X100100737Y-75472465D01*
X97687778Y-75154954D02*
X98103279Y-75570455D01*
X98649219Y-75570455D02*
X98747209Y-75472465D01*
X100100737Y-75472465D02*
X100291278Y-75281924D01*
X148309977Y-68169953D02*
X140336183Y-68169953D01*
X133485478Y-72614953D02*
X132790579Y-72614953D01*
X140336183Y-68169953D02*
X135891183Y-72614953D01*
X148373478Y-68233454D02*
X148309977Y-68169953D01*
X135891183Y-72614953D02*
X134762678Y-72614953D01*
X134635685Y-72741946D02*
X133612471Y-72741946D01*
X132790579Y-72614953D02*
X132727078Y-72678454D01*
X133612471Y-72741946D02*
X133485478Y-72614953D01*
X134762678Y-72614953D02*
X134635685Y-72741946D01*
X135785973Y-72360955D02*
X134657479Y-72360955D01*
X148373478Y-67852454D02*
X148309977Y-67915955D01*
X140230975Y-67915955D02*
X135785973Y-72360955D01*
X133717677Y-72487955D02*
X133590677Y-72360955D01*
X148309977Y-67915955D02*
X140230975Y-67915955D01*
X134657479Y-72360955D02*
X134530479Y-72487955D01*
X132790579Y-72360955D02*
X132727078Y-72297454D01*
X134530479Y-72487955D02*
X133717677Y-72487955D01*
X133590677Y-72360955D02*
X132790579Y-72360955D01*
X133347441Y-71457098D02*
X133185940Y-71618599D01*
X140157451Y-65452153D02*
X134152506Y-71457098D01*
X148944978Y-65515654D02*
X148881477Y-65452153D01*
X148881477Y-65452153D02*
X140157451Y-65452153D01*
X134152506Y-71457098D02*
X133347441Y-71457098D01*
X140052241Y-65198155D02*
X134047296Y-71203100D01*
X133347441Y-71203100D02*
X133185940Y-71041599D01*
X148881477Y-65198155D02*
X140052241Y-65198155D01*
X148944978Y-65134654D02*
X148881477Y-65198155D01*
X134047296Y-71203100D02*
X133347441Y-71203100D01*
M02*
