G04 #@! TF.FileFunction,Copper,L1,Top,Signal*
%FSLAX46Y46*%
G04 Gerber Fmt 4.6, Leading zero omitted, Abs format (unit mm)*
G04 Created by KiCad (PCBNEW 4.0.7) date Wed May 16 14:43:50 2018*
%MOMM*%
%LPD*%
G01*
G04 APERTURE LIST*
%ADD10C,0.100000*%
%ADD11C,0.150000*%
%ADD12C,0.450000*%
%ADD13R,0.127000X0.254000*%
%ADD14R,0.254000X0.127000*%
%ADD15R,5.200000X3.500000*%
%ADD16R,0.430000X0.280000*%
%ADD17R,0.300000X0.850000*%
%ADD18R,0.280000X0.430000*%
%ADD19R,2.600000X0.510000*%
%ADD20R,0.762000X0.508000*%
%ADD21R,2.300000X2.300000*%
%ADD22R,1.600000X0.500000*%
%ADD23R,0.600000X0.800000*%
%ADD24R,0.510000X2.600000*%
%ADD25R,0.400000X0.600000*%
%ADD26R,2.500000X1.000000*%
%ADD27R,0.600000X0.500000*%
%ADD28R,0.400000X0.650000*%
%ADD29R,1.250000X1.000000*%
%ADD30R,0.500000X0.600000*%
%ADD31R,1.000000X2.500000*%
%ADD32R,0.750000X0.800000*%
%ADD33R,0.800000X0.750000*%
%ADD34R,1.300000X0.700000*%
%ADD35R,0.900000X0.500000*%
%ADD36R,0.500000X0.900000*%
%ADD37R,0.250000X0.700000*%
%ADD38R,0.700000X0.250000*%
%ADD39R,1.725000X1.725000*%
%ADD40R,0.254000X0.254000*%
%ADD41R,1.500000X3.500000*%
%ADD42C,0.254000*%
%ADD43C,0.127000*%
%ADD44C,0.254000*%
%ADD45C,1.000000*%
%ADD46C,0.508000*%
%ADD47C,0.125000*%
G04 APERTURE END LIST*
D10*
D11*
X117576600Y-63627000D02*
X115582700Y-65620900D01*
X113995200Y-76619100D02*
X96151700Y-76619100D01*
X117144800Y-79768700D02*
X113995200Y-76619100D01*
X156362400Y-79768700D02*
X156794200Y-63627000D01*
X117576600Y-63627000D02*
X156794200Y-63627000D01*
X117144800Y-79768700D02*
X156362400Y-79768700D01*
X94154778Y-72622954D02*
X96154778Y-72622954D01*
X94154778Y-69622954D02*
X94154778Y-72622954D01*
X96154778Y-69622954D02*
X94154778Y-69622954D01*
X96154778Y-69622954D02*
X96154778Y-65622954D01*
X96154778Y-65622954D02*
X115582700Y-65620900D01*
X96154778Y-76622954D02*
X96154778Y-72622954D01*
D12*
X108030000Y-67400000D03*
X122033678Y-78749054D03*
D13*
X124091078Y-74329454D03*
X124218078Y-74837454D03*
X124345078Y-75345454D03*
X124472078Y-74837454D03*
X124599078Y-75345454D03*
X124726078Y-76107454D03*
X124853078Y-75599454D03*
X124980078Y-76107454D03*
X125107078Y-75599454D03*
X125234078Y-76107454D03*
X125361078Y-74329454D03*
X125488078Y-75345454D03*
X125615078Y-74329454D03*
X125742078Y-75345454D03*
X125869078Y-74329454D03*
X125996078Y-75345454D03*
X126123078Y-74329454D03*
X126250078Y-75345454D03*
X126377078Y-74329454D03*
X126504078Y-75345454D03*
X126631078Y-74329454D03*
X126758078Y-75345454D03*
X126885078Y-74329454D03*
X127012078Y-75345454D03*
X127139078Y-74329454D03*
X127266078Y-75345454D03*
X127393078Y-74329454D03*
X127520078Y-75345454D03*
X127647078Y-74329454D03*
X127774078Y-75345454D03*
X127901078Y-74329454D03*
X128028078Y-75345454D03*
X128155078Y-74329454D03*
X128282078Y-75345454D03*
X128409078Y-74329454D03*
X128536078Y-75345454D03*
X128663078Y-74329454D03*
X128790078Y-75345454D03*
D14*
X130695078Y-72614954D03*
X130949078Y-72360954D03*
X131457078Y-72233954D03*
X131457078Y-71979954D03*
X130441078Y-71852954D03*
X131457078Y-71725954D03*
X131457078Y-71471954D03*
X130441078Y-71344954D03*
X130949078Y-71217954D03*
X130441078Y-71090954D03*
X130949078Y-70963954D03*
X130441078Y-70836954D03*
X130949078Y-70709954D03*
X130441078Y-70582954D03*
X130949078Y-70455954D03*
X130441078Y-70328954D03*
X130949078Y-70074954D03*
X130441078Y-69947954D03*
X131457078Y-69820954D03*
X130949078Y-69693954D03*
D13*
X128790078Y-67471454D03*
X128663078Y-67979454D03*
X128536078Y-66963454D03*
X128409078Y-67979454D03*
X128282078Y-66963454D03*
X128155078Y-67979454D03*
X128028078Y-66963454D03*
X127901078Y-67979454D03*
X127774078Y-66963454D03*
X127647078Y-67979454D03*
X127520078Y-66963454D03*
X127393078Y-67979454D03*
X127266078Y-66963454D03*
X127139078Y-67979454D03*
X127012078Y-66963454D03*
X126885078Y-67979454D03*
X126758078Y-66963454D03*
X126631078Y-67979454D03*
X126504078Y-66963454D03*
X126377078Y-67979454D03*
X126250078Y-66963454D03*
X126123078Y-67979454D03*
X125996078Y-66963454D03*
X125869078Y-67979454D03*
X125742078Y-67471454D03*
X125615078Y-67979454D03*
X125488078Y-67471454D03*
X125361078Y-67979454D03*
X125234078Y-67471454D03*
X125107078Y-67979454D03*
X124980078Y-66963454D03*
X124853078Y-67471454D03*
X124726078Y-67979454D03*
X124599078Y-67471454D03*
X124472078Y-66963454D03*
X124345078Y-67979454D03*
X124218078Y-67471454D03*
X124091078Y-67979454D03*
D14*
X122694078Y-69757454D03*
X122186078Y-69884454D03*
X122694078Y-70011454D03*
X122186078Y-70138454D03*
X122694078Y-70265454D03*
X122186078Y-70392454D03*
X122694078Y-70519454D03*
X122186078Y-70646454D03*
X122694078Y-70773454D03*
X122186078Y-70900454D03*
X122694078Y-71027454D03*
X122186078Y-71154454D03*
X122694078Y-71281454D03*
X122186078Y-71408454D03*
X122694078Y-71535454D03*
X122186078Y-71662454D03*
X122694078Y-71789454D03*
X122186078Y-71916454D03*
X122694078Y-72043454D03*
X122186078Y-72170454D03*
X122694078Y-72297454D03*
X122186078Y-72424454D03*
X122694078Y-72551454D03*
D15*
X126504078Y-71154454D03*
D14*
X131457078Y-70329454D03*
D16*
X133440000Y-69740000D03*
X133440000Y-70260000D03*
D17*
X121831800Y-73675200D03*
X121331800Y-73675200D03*
X120831800Y-73675200D03*
X120331800Y-73675200D03*
X120331800Y-75575200D03*
X120831800Y-75575200D03*
X121331800Y-75575200D03*
X121831800Y-75575200D03*
D18*
X105048400Y-67271900D03*
X105568400Y-67271900D03*
D13*
X132461000Y-63982600D03*
X133350000Y-79375000D03*
D12*
X139865100Y-64236600D03*
X139357100Y-64236600D03*
X138849100Y-64223900D03*
X138341100Y-64211200D03*
X138811000Y-64858900D03*
X138290300Y-64922400D03*
X139484100Y-78422500D03*
X139979400Y-78435200D03*
X140487400Y-78435200D03*
X140995400Y-78435200D03*
X141516100Y-78435200D03*
X142036800Y-78435200D03*
X142557500Y-78422500D03*
X143065500Y-78422500D03*
D19*
X143687178Y-76307254D03*
D20*
X141687178Y-73607254D03*
D21*
X143687178Y-74507254D03*
D19*
X143687178Y-72707254D03*
D22*
X107276278Y-71683954D03*
X107276278Y-72783954D03*
D23*
X141425678Y-70976654D03*
X139725678Y-70976654D03*
D24*
X115504300Y-75742800D03*
X117134300Y-75742800D03*
D19*
X116522500Y-66037800D03*
X116522500Y-67667800D03*
D25*
X141014678Y-69579654D03*
X141914678Y-69579654D03*
D12*
X152942454Y-78423122D03*
X152942454Y-78804122D03*
X122900000Y-78750000D03*
X123340000Y-78740000D03*
X122470000Y-78760000D03*
X125520000Y-78749054D03*
X124660000Y-78750000D03*
X123780000Y-78740000D03*
X124220000Y-78750000D03*
X125081678Y-78749054D03*
D26*
X151409400Y-75563600D03*
X151409400Y-78563600D03*
D13*
X124231400Y-79387700D03*
D12*
X117665500Y-69735700D03*
X153283278Y-70937454D03*
X153290000Y-71370000D03*
X107085778Y-73180000D03*
D27*
X99178200Y-68694300D03*
X98078200Y-68694300D03*
D12*
X114640000Y-70740000D03*
X112546778Y-71852954D03*
X112038778Y-71852954D03*
X111530778Y-71852954D03*
X106180000Y-67470000D03*
X108101778Y-74392954D03*
X108620000Y-74760000D03*
X108101778Y-75154954D03*
X104220000Y-67210000D03*
X130275978Y-76221754D03*
X130656978Y-76221754D03*
X107466778Y-73503954D03*
X107830000Y-73180000D03*
X106704778Y-73503954D03*
X122162878Y-64855254D03*
X122600000Y-64855254D03*
X123040000Y-64855254D03*
X128282078Y-69884454D03*
X126504078Y-69884454D03*
X124726078Y-69884454D03*
X124726078Y-72106954D03*
X126504078Y-72106954D03*
X124726078Y-71154454D03*
X128282078Y-71154454D03*
X128282078Y-72106954D03*
X134500000Y-71900000D03*
X134070000Y-71910000D03*
X129470000Y-74770000D03*
X129460000Y-74330000D03*
X129030000Y-74330000D03*
D25*
X140009678Y-69579654D03*
X139109678Y-69579654D03*
D28*
X144400678Y-65327654D03*
X143100678Y-65327654D03*
X143750678Y-67227654D03*
X143750678Y-65327654D03*
X143100678Y-67227654D03*
X144400678Y-67227654D03*
D12*
X146280000Y-69270000D03*
X146730000Y-69274854D03*
X147180000Y-69274854D03*
X150100000Y-69630000D03*
X150146254Y-69178622D03*
X149894454Y-78804122D03*
X149894454Y-78423122D03*
X129044078Y-74773954D03*
X129806078Y-71789454D03*
X129806078Y-70900454D03*
X129780000Y-69480000D03*
X129070000Y-68620000D03*
X127266078Y-68614454D03*
X125742078Y-68614454D03*
X123200000Y-69480000D03*
X123202078Y-70773454D03*
X123202078Y-72043454D03*
X123480000Y-64855254D03*
X123920000Y-64855254D03*
X124360000Y-64855254D03*
X124800000Y-64860000D03*
X125240000Y-64860000D03*
X132854700Y-74777600D03*
X132860000Y-75260000D03*
X113689778Y-68931954D03*
X113689778Y-69693954D03*
X113689778Y-70455954D03*
X113689778Y-71217954D03*
X113689778Y-71979954D03*
X113689778Y-66137954D03*
X112927778Y-66137954D03*
X112165778Y-66137954D03*
X111403778Y-66137954D03*
X110641778Y-66137954D03*
X109879778Y-66137954D03*
X109117778Y-66137954D03*
X108355778Y-66137954D03*
X107593778Y-66137954D03*
X106831778Y-66137954D03*
X106069778Y-66110000D03*
X105307778Y-66137954D03*
X104545778Y-66137954D03*
X103783778Y-66137954D03*
X102894778Y-66137954D03*
X102132778Y-66137954D03*
X101370778Y-66137954D03*
X100608778Y-66137954D03*
X99846778Y-66137954D03*
X99084778Y-66137954D03*
X98322778Y-66137954D03*
X97560778Y-66137954D03*
X96671778Y-66391954D03*
X96671778Y-67153954D03*
X96671778Y-67915954D03*
X96671778Y-68677954D03*
X96671778Y-69439954D03*
X96671778Y-70201954D03*
X96671778Y-70963954D03*
X96671778Y-71725954D03*
X96671778Y-72487954D03*
X97880000Y-67280000D03*
X96671778Y-73249954D03*
X96671778Y-74011954D03*
X96671778Y-74773954D03*
X96671778Y-75408954D03*
X97433778Y-76170954D03*
X98322778Y-76170954D03*
X99084778Y-76170954D03*
X99846778Y-76170954D03*
X100608778Y-76170954D03*
X101300000Y-76170000D03*
X102005778Y-76170954D03*
X102767778Y-76170954D03*
X103529778Y-76170954D03*
X104418778Y-76170954D03*
X105180778Y-76170954D03*
X105942778Y-76170954D03*
X106704778Y-76170954D03*
X107466778Y-76170954D03*
X108228778Y-76170954D03*
X108990778Y-76170954D03*
X109752778Y-76170954D03*
X110641778Y-76170954D03*
X111403778Y-76170954D03*
X112165778Y-76170954D03*
X112927778Y-76170954D03*
D18*
X99725778Y-75018900D03*
X99205778Y-75018900D03*
D12*
X98310000Y-67280954D03*
X102410000Y-74020000D03*
X102386778Y-68169954D03*
X103402778Y-68169954D03*
X101654778Y-69622954D03*
X101154778Y-69622954D03*
X104154778Y-69622954D03*
X103654778Y-69622954D03*
X103154778Y-69622954D03*
X102654778Y-69622954D03*
X102154778Y-69622954D03*
X102154778Y-70122954D03*
X102654778Y-70122954D03*
X103154778Y-70122954D03*
X103654778Y-70122954D03*
X104154778Y-70122954D03*
X101654778Y-70122954D03*
X101154778Y-70122954D03*
X102154778Y-70622954D03*
X102654778Y-70622954D03*
X103154778Y-70622954D03*
X103654778Y-70622954D03*
X104154778Y-70622954D03*
X101654778Y-70622954D03*
X101154778Y-70622954D03*
X101154778Y-72614954D03*
X101624778Y-72614954D03*
X104154778Y-72622954D03*
X103654778Y-72622954D03*
X103154778Y-72622954D03*
X102654778Y-72622954D03*
X102154778Y-72622954D03*
X102154778Y-72122954D03*
X102654778Y-72122954D03*
X103154778Y-72122954D03*
X103654778Y-72122954D03*
X104154778Y-72122954D03*
X101654778Y-72122954D03*
X101154778Y-72122954D03*
X101154778Y-71622954D03*
X101654778Y-71622954D03*
X104154778Y-71622954D03*
X103654778Y-71622954D03*
X103154778Y-71622954D03*
X102654778Y-71622954D03*
X102154778Y-71622954D03*
X102154778Y-71122954D03*
X102654778Y-71122954D03*
X103154778Y-71122954D03*
X101654778Y-71122954D03*
X101154778Y-71122954D03*
X104154778Y-71122954D03*
X103654778Y-71122954D03*
X96671778Y-76170954D03*
X109498778Y-70379754D03*
X109980000Y-70370000D03*
X110463978Y-70379754D03*
X115862100Y-72326500D03*
X115214400Y-72326500D03*
X116687600Y-69735700D03*
X117195600Y-69748400D03*
X129806078Y-72932454D03*
X126504078Y-71154454D03*
X123910000Y-68630000D03*
X123200000Y-72830000D03*
X124870000Y-74610000D03*
X113689778Y-76170954D03*
D29*
X117157500Y-70913500D03*
X117157500Y-68913500D03*
D27*
X100511700Y-67373500D03*
X99411700Y-67373500D03*
D29*
X110006778Y-67550954D03*
X110006778Y-69550954D03*
X107212778Y-69423954D03*
X107212778Y-67423954D03*
X109371778Y-72757954D03*
X109371778Y-74757954D03*
X112038778Y-74757954D03*
X112038778Y-72757954D03*
X115404900Y-73656700D03*
X115404900Y-71656700D03*
D27*
X149855478Y-67957700D03*
X150955478Y-67957700D03*
X149855478Y-66899954D03*
X150955478Y-66899954D03*
X149856100Y-65836800D03*
X150956100Y-65836800D03*
X149864900Y-64770000D03*
X150964900Y-64770000D03*
D30*
X130695078Y-68275454D03*
X130695078Y-67175454D03*
D27*
X106103978Y-75002554D03*
X107203978Y-75002554D03*
D30*
X134320000Y-70310000D03*
X134320000Y-71410000D03*
D31*
X136894078Y-67471454D03*
X133894078Y-67471454D03*
X136894078Y-74583454D03*
X133894078Y-74583454D03*
D32*
X141850000Y-65860000D03*
X141850000Y-67360000D03*
X146036678Y-66519654D03*
X146036678Y-65019654D03*
D33*
X144564800Y-68668900D03*
X143064800Y-68668900D03*
D27*
X140877200Y-72373654D03*
X139734200Y-72373654D03*
D26*
X148755100Y-72391400D03*
X148755100Y-69391400D03*
D14*
X155726778Y-69884454D03*
X155726778Y-71408454D03*
X156260178Y-65464854D03*
X155129878Y-76259854D03*
X155053678Y-73986554D03*
D13*
X120103900Y-79425800D03*
X119164100Y-64033400D03*
X122884578Y-64008000D03*
X126504078Y-79523754D03*
X126250078Y-79527400D03*
X125996078Y-79527400D03*
X126758078Y-79523754D03*
X127012078Y-79523754D03*
X127266078Y-79523754D03*
X127520078Y-79523754D03*
X127774078Y-79523754D03*
X128028078Y-79523754D03*
X128282078Y-79523754D03*
X131634878Y-79430000D03*
D14*
X156031578Y-68144554D03*
X156031578Y-68525554D03*
X156260178Y-65972854D03*
D13*
X125996078Y-63931800D03*
X126250078Y-63931800D03*
X126504078Y-63928154D03*
X126758078Y-63928154D03*
X127012078Y-63928154D03*
X127266078Y-63928154D03*
X127520078Y-63928154D03*
X127774078Y-63928154D03*
X128028078Y-63928154D03*
X128282078Y-63931800D03*
X131648200Y-63969900D03*
D14*
X156031578Y-67763554D03*
X156031578Y-67382554D03*
X156260178Y-64956854D03*
D25*
X99800000Y-74050000D03*
X98900000Y-74050000D03*
D18*
X104692100Y-75018900D03*
X104172100Y-75018900D03*
X103091278Y-75107800D03*
X102571278Y-75107800D03*
X105047700Y-67271900D03*
X104527700Y-67271900D03*
X101390100Y-75018900D03*
X100870100Y-75018900D03*
D16*
X120320000Y-70030000D03*
X120320000Y-69510000D03*
X122643900Y-68218400D03*
X122643900Y-68738400D03*
X122631200Y-67430300D03*
X122631200Y-66910300D03*
X122618500Y-66147600D03*
X122618500Y-65627600D03*
X121615200Y-67430300D03*
X121615200Y-66910300D03*
X106069778Y-73630954D03*
X106069778Y-74150954D03*
D25*
X139711000Y-74587100D03*
X138811000Y-74587100D03*
D34*
X146532600Y-76261000D03*
X146532600Y-74361000D03*
X146240500Y-72108100D03*
X146240500Y-70208100D03*
D35*
X148653500Y-74637200D03*
X148653500Y-76137200D03*
D36*
X151880000Y-73964800D03*
X150380000Y-73964800D03*
D37*
X104404778Y-68722954D03*
X103904778Y-68722954D03*
X103404778Y-68722954D03*
X102904778Y-68722954D03*
X102404778Y-68722954D03*
X101904778Y-68722954D03*
X101404778Y-68722954D03*
X100904778Y-68722954D03*
D38*
X100254778Y-69372954D03*
X100254778Y-69872954D03*
X100254778Y-70372954D03*
X100254778Y-70872954D03*
X100254778Y-71372954D03*
X100254778Y-71872954D03*
X100254778Y-72372954D03*
X100254778Y-72872954D03*
D37*
X100904778Y-73522954D03*
X101404778Y-73522954D03*
X101904778Y-73522954D03*
X102404778Y-73522954D03*
X102904778Y-73522954D03*
X103404778Y-73522954D03*
X103904778Y-73522954D03*
X104404778Y-73522954D03*
D38*
X105054778Y-72872954D03*
X105054778Y-72372954D03*
X105054778Y-71872954D03*
X105054778Y-71372954D03*
X105054778Y-70872954D03*
X105054778Y-70372954D03*
X105054778Y-69872954D03*
X105054778Y-69372954D03*
D39*
X101792278Y-71985454D03*
X103517278Y-71985454D03*
X101792278Y-70260454D03*
X103517278Y-70260454D03*
D12*
X152875778Y-71889954D03*
X152875778Y-71460000D03*
X153300000Y-71810000D03*
X152870000Y-71020000D03*
X113689778Y-73376954D03*
X113689778Y-72741954D03*
D30*
X130441078Y-74075454D03*
X130441078Y-75175454D03*
X123621800Y-76843800D03*
X123621800Y-77943800D03*
D16*
X123012200Y-75717400D03*
X123012200Y-75197400D03*
X121373900Y-76524200D03*
X121373900Y-77044200D03*
D30*
X122453400Y-76843800D03*
X122453400Y-77943800D03*
D40*
X123646578Y-74075454D03*
X123392578Y-73821454D03*
X132727078Y-69376454D03*
X132473078Y-69122454D03*
X141782178Y-75523254D03*
X141528178Y-75269254D03*
X151789778Y-69757454D03*
X151535778Y-69503454D03*
D13*
X130949078Y-63969900D03*
X130441078Y-63969900D03*
D27*
X115789800Y-70243700D03*
X114689800Y-70243700D03*
D18*
X130663600Y-76987400D03*
X130143600Y-76987400D03*
D16*
X121614578Y-68227454D03*
X121614578Y-68747454D03*
D18*
X103378700Y-67208400D03*
X103898700Y-67208400D03*
X103377300Y-67208400D03*
X102857300Y-67208400D03*
D16*
X151879300Y-67722400D03*
X151879300Y-67202400D03*
X151866600Y-65715800D03*
X151866600Y-65195800D03*
X133184900Y-72757600D03*
X133184900Y-72237600D03*
D41*
X98304778Y-71622954D03*
X112004778Y-69622954D03*
D12*
X152796400Y-69273400D03*
X152370000Y-69510000D03*
X152796400Y-69781400D03*
X152400000Y-70060000D03*
X152796400Y-70289400D03*
X120040400Y-71018400D03*
X117570000Y-71870000D03*
X117118778Y-71852954D03*
X116660000Y-71870000D03*
X116670000Y-71430000D03*
X117120000Y-71420000D03*
X117570000Y-71420000D03*
X117570000Y-71030000D03*
X117118778Y-70990000D03*
X116670000Y-71020000D03*
X107212778Y-74342154D03*
X116179600Y-66607854D03*
X116662200Y-66607854D03*
X120599200Y-72682100D03*
X120205500Y-72750000D03*
X120460000Y-68530000D03*
X120471578Y-68982754D03*
X115594778Y-66607854D03*
X117182278Y-66607852D03*
X120434100Y-71501000D03*
X110641778Y-74392954D03*
X110641778Y-74837454D03*
X105404778Y-74695954D03*
X105400000Y-74260000D03*
X114807378Y-74837454D03*
X118860000Y-78110000D03*
X118300000Y-78110000D03*
X118580000Y-78498700D03*
X133690000Y-64947800D03*
X117807900Y-78096000D03*
X119357300Y-78108700D03*
X134289800Y-64947800D03*
X134848600Y-64947800D03*
X135420100Y-64947800D03*
X136004300Y-64947800D03*
X136588500Y-64947800D03*
X119621300Y-65214500D03*
X119126000Y-65214500D03*
X118630700Y-65214500D03*
X118135400Y-65214500D03*
D42*
X134772400Y-77995053D03*
X135267700Y-77995053D03*
X135775700Y-77995053D03*
X136283700Y-77995053D03*
X136791700Y-77995053D03*
X137299700Y-77995053D03*
X137803347Y-77995053D03*
D12*
X119621300Y-78498700D03*
X119100600Y-78498700D03*
X118071900Y-78498700D03*
X117565705Y-78486000D03*
X121424700Y-72263000D03*
X120200000Y-72150000D03*
X125395580Y-66995275D03*
X105400000Y-75320000D03*
X154250000Y-75830000D03*
X153810000Y-75840000D03*
X153370000Y-75860000D03*
X153350000Y-76310000D03*
X153790000Y-76280000D03*
X154240000Y-76270000D03*
X143064878Y-71256054D03*
X144144378Y-71256054D03*
X141671678Y-68553154D03*
X141163678Y-68553154D03*
X143636378Y-71256054D03*
X140655678Y-68553154D03*
X140970000Y-76260000D03*
X140970000Y-75819000D03*
X140970000Y-75370000D03*
X120890678Y-74329454D03*
X121271678Y-74329454D03*
X129130000Y-76230000D03*
X152860000Y-65460000D03*
X128690000Y-76180000D03*
X128028700Y-74830000D03*
X133340000Y-77110000D03*
X153390000Y-66030000D03*
X129720000Y-76080000D03*
X128041400Y-67490000D03*
X132461000Y-66776600D03*
X153370000Y-64900000D03*
X129040000Y-66110000D03*
X128740000Y-66410000D03*
X99406780Y-73240000D03*
X120868979Y-70396541D03*
X98611300Y-73942785D03*
X121442063Y-70230954D03*
X102171735Y-67634521D03*
X102867945Y-67851506D03*
X103640000Y-74870000D03*
X103650000Y-75310000D03*
X123914064Y-67055954D03*
X98449778Y-75154954D03*
X105005289Y-68516454D03*
X121487578Y-67725454D03*
X124720000Y-66530000D03*
X121158000Y-66560700D03*
X105980000Y-68340000D03*
X105551828Y-68331453D03*
X120773401Y-70965572D03*
X122555622Y-74628846D03*
X122047622Y-74628846D03*
X130340000Y-66460000D03*
X131530000Y-70790000D03*
X131800600Y-70464680D03*
X126100000Y-67490000D03*
X100291278Y-75281924D03*
X148373478Y-68330000D03*
X132720000Y-72780000D03*
X148350000Y-67770000D03*
X132720000Y-72210000D03*
X133185940Y-71618599D03*
X148940000Y-65620000D03*
X133185940Y-71041599D03*
X148944978Y-65040000D03*
X132670000Y-70050000D03*
X132250000Y-70074954D03*
X123290000Y-74550000D03*
X131030000Y-66450000D03*
D43*
X120307100Y-70573900D02*
X120320000Y-70561000D01*
X120320000Y-70561000D02*
X120320000Y-70030000D01*
X115789800Y-67991900D02*
X115789800Y-68046600D01*
X115789800Y-68046600D02*
X115789800Y-70243700D01*
D44*
X116522500Y-67667800D02*
X116168600Y-67667800D01*
X116168600Y-67667800D02*
X115789800Y-68046600D01*
X153318046Y-69884454D02*
X152819100Y-70383400D01*
X152819100Y-70383400D02*
X152806400Y-70383400D01*
X154710778Y-69884454D02*
X153318046Y-69884454D01*
D43*
X120307100Y-70573900D02*
X120307100Y-70943932D01*
X120307100Y-70943932D02*
X120232632Y-71018400D01*
D44*
X116737778Y-71471954D02*
X117118778Y-71471954D01*
D43*
X120078500Y-71018400D02*
X120232632Y-71018400D01*
X117118778Y-71852954D02*
X117499778Y-71852954D01*
X116737778Y-71852954D02*
X117118778Y-71852954D01*
X116737778Y-71471954D02*
X116737778Y-71852954D01*
X117499778Y-71471954D02*
X117118778Y-71471954D01*
X117499778Y-71090954D02*
X117499778Y-71471954D01*
X117118778Y-71090954D02*
X117499778Y-71090954D01*
X116698778Y-71090954D02*
X117118778Y-71090954D01*
X155726778Y-69884454D02*
X154710778Y-69884454D01*
X134500000Y-71900000D02*
X134500000Y-71590000D01*
X134500000Y-71590000D02*
X134320000Y-71410000D01*
D44*
X139865100Y-64236600D02*
X140233400Y-64236600D01*
D43*
X130663600Y-76987400D02*
X130663600Y-76228376D01*
X130663600Y-76228376D02*
X130656978Y-76221754D01*
X152942454Y-78423122D02*
X152942454Y-78804122D01*
X149894454Y-78804122D02*
X149894454Y-78423122D01*
X123913900Y-75590400D02*
X123913900Y-74760632D01*
X123913900Y-74760632D02*
X124091078Y-74583454D01*
X124176954Y-75853454D02*
X123913900Y-75590400D01*
X124726078Y-75853454D02*
X124176954Y-75853454D01*
X122618500Y-65627600D02*
X122618500Y-65109876D01*
X122618500Y-65109876D02*
X122363878Y-64855254D01*
X124091078Y-67979454D02*
X124091078Y-68360454D01*
X124091078Y-68360454D02*
X123837078Y-68614454D01*
X122694078Y-70011454D02*
X122694078Y-69757454D01*
X122694078Y-70265454D02*
X122694078Y-70011454D01*
X122694078Y-70773454D02*
X122694078Y-70519454D01*
X122694078Y-71027454D02*
X122694078Y-70773454D01*
X122694078Y-71281454D02*
X122694078Y-71027454D01*
X122694078Y-71535454D02*
X122694078Y-71281454D01*
X122694078Y-71789454D02*
X122694078Y-71535454D01*
X122694078Y-72043454D02*
X122694078Y-71789454D01*
X122694078Y-72297454D02*
X122694078Y-72043454D01*
X122694078Y-72551454D02*
X122694078Y-72297454D01*
X123202078Y-70773454D02*
X122694078Y-70773454D01*
X122694078Y-69757454D02*
X122694078Y-72551454D01*
D44*
X120831800Y-77753400D02*
X121022200Y-77943800D01*
X121022200Y-77943800D02*
X122453400Y-77943800D01*
X120831800Y-75575200D02*
X120831800Y-77753400D01*
X117195600Y-69748400D02*
X117195600Y-68951600D01*
X117195600Y-68951600D02*
X117157500Y-68913500D01*
D43*
X114642278Y-70836954D02*
X114642278Y-70291222D01*
X114642278Y-70291222D02*
X114689800Y-70243700D01*
X130060078Y-70138454D02*
X130060078Y-70392454D01*
X130060078Y-70392454D02*
X130060078Y-70646454D01*
X130441078Y-70328954D02*
X130123578Y-70328954D01*
X130123578Y-70328954D02*
X130060078Y-70392454D01*
X129806078Y-70900454D02*
X130123578Y-70582954D01*
X148787078Y-69503454D02*
X148681078Y-69609454D01*
X107203978Y-75002554D02*
X107203978Y-74350954D01*
X107203978Y-74350954D02*
X107212778Y-74342154D01*
X109371778Y-74757954D02*
X108117778Y-74757954D01*
X154192778Y-71408454D02*
X154189778Y-71405454D01*
X154189778Y-71405454D02*
X152805778Y-71405454D01*
X133894078Y-74583454D02*
X132981078Y-74583454D01*
X132981078Y-74583454D02*
X132854078Y-74710454D01*
X107212778Y-67423954D02*
X106371278Y-67423954D01*
X106371278Y-67423954D02*
X106196778Y-67598454D01*
X112213278Y-72424454D02*
X111768778Y-72868954D01*
X107276278Y-72783954D02*
X107276278Y-72932454D01*
X107276278Y-72932454D02*
X106704778Y-73503954D01*
X100904778Y-73522954D02*
X100904778Y-72864954D01*
X100904778Y-72864954D02*
X101154778Y-72614954D01*
X101404778Y-73522954D02*
X101404778Y-72834954D01*
X101404778Y-72834954D02*
X101624778Y-72614954D01*
X101904778Y-73522954D02*
X101904778Y-72894954D01*
X101904778Y-72894954D02*
X101624778Y-72614954D01*
X102404778Y-73522954D02*
X102404778Y-74120954D01*
X104539778Y-67153954D02*
X103974278Y-67153954D01*
X98449778Y-67280954D02*
X98068778Y-67280954D01*
X99423778Y-67280954D02*
X98449778Y-67280954D01*
X101404778Y-68722954D02*
X100904778Y-68722954D01*
X102386778Y-68169954D02*
X102386778Y-68704954D01*
X102386778Y-68704954D02*
X102404778Y-68722954D01*
X103402778Y-68169954D02*
X103402778Y-68720954D01*
X103402778Y-68720954D02*
X103404778Y-68722954D01*
X130441078Y-75175454D02*
X130441078Y-75662954D01*
X130441078Y-75662954D02*
X130631578Y-75853454D01*
X155726778Y-71408454D02*
X154192778Y-71408454D01*
X130441078Y-69947954D02*
X130250578Y-69947954D01*
X130250578Y-69947954D02*
X130060078Y-70138454D01*
X107847778Y-76170954D02*
X113689778Y-76170954D01*
X101688278Y-76234454D02*
X101878778Y-76043954D01*
X101878778Y-76043954D02*
X101878778Y-75580454D01*
X96608278Y-76234454D02*
X101688278Y-76234454D01*
X102304278Y-75154954D02*
X101878778Y-75580454D01*
X102571278Y-75154954D02*
X102304278Y-75154954D01*
X130060078Y-70646454D02*
X130060078Y-70900454D01*
X130441078Y-70582954D02*
X130123578Y-70582954D01*
X130123578Y-70582954D02*
X130060078Y-70646454D01*
X130060078Y-70900454D02*
X130060078Y-71027454D01*
X130441078Y-70836954D02*
X130123578Y-70836954D01*
X130123578Y-70836954D02*
X130060078Y-70900454D01*
X130060078Y-71027454D02*
X130060078Y-71281454D01*
X130441078Y-71090954D02*
X130123578Y-71090954D01*
X130123578Y-71090954D02*
X130060078Y-71027454D01*
X130060078Y-71281454D02*
X130060078Y-71789454D01*
X130441078Y-71344954D02*
X130123578Y-71344954D01*
X130123578Y-71344954D02*
X130060078Y-71281454D01*
X130060078Y-71789454D02*
X130060078Y-72551454D01*
X130441078Y-71852954D02*
X130123578Y-71852954D01*
X130123578Y-71852954D02*
X130060078Y-71789454D01*
X130060078Y-72551454D02*
X130060078Y-72678454D01*
X130123578Y-72487954D02*
X130060078Y-72551454D01*
X130060078Y-72678454D02*
X129806078Y-72932454D01*
X123265578Y-69757454D02*
X123646578Y-69757454D01*
X123519578Y-69884454D02*
X123646578Y-69757454D01*
X123646578Y-69757454D02*
X123646579Y-72805455D01*
X123646579Y-72805455D02*
X123773578Y-72932454D01*
X124218078Y-74837454D02*
X124218078Y-74710454D01*
X124218078Y-74710454D02*
X124091078Y-74583454D01*
X124472078Y-74837454D02*
X124472078Y-74773954D01*
X124472078Y-74773954D02*
X124662577Y-74583455D01*
X124853079Y-74583455D02*
X124980078Y-74710454D01*
X124091078Y-74329454D02*
X124091078Y-74583454D01*
X125615078Y-74075454D02*
X125361078Y-74075454D01*
X125361078Y-74075454D02*
X124980078Y-74075454D01*
X125361078Y-74329454D02*
X125361078Y-74075454D01*
X125869078Y-74075454D02*
X125615078Y-74075454D01*
X125615078Y-74329454D02*
X125615078Y-74075454D01*
X126123078Y-74075454D02*
X125869078Y-74075454D01*
X125869078Y-74329454D02*
X125869078Y-74075454D01*
X126377078Y-74075454D02*
X126123078Y-74075454D01*
X126123078Y-74329454D02*
X126123078Y-74075454D01*
X126631078Y-74075454D02*
X126377078Y-74075454D01*
X126377078Y-74329454D02*
X126377078Y-74075454D01*
X126885078Y-74075454D02*
X126631078Y-74075454D01*
X126631078Y-74329454D02*
X126631078Y-74075454D01*
X127139078Y-74075454D02*
X126885078Y-74075454D01*
X126885078Y-74329454D02*
X126885078Y-74075454D01*
X127393078Y-74075454D02*
X127139078Y-74075454D01*
X127139078Y-74329454D02*
X127139078Y-74075454D01*
X127647078Y-74075454D02*
X127393078Y-74075454D01*
X127393078Y-74329454D02*
X127393078Y-74075454D01*
X127901078Y-74075454D02*
X127647078Y-74075454D01*
X127647078Y-74329454D02*
X127647078Y-74075454D01*
X128155078Y-74075454D02*
X127901078Y-74075454D01*
X127901078Y-74329454D02*
X127901078Y-74075454D01*
X128409078Y-74075454D02*
X128155078Y-74075454D01*
X128155078Y-74329454D02*
X128155078Y-74075454D01*
X128663078Y-74075454D02*
X128409078Y-74075454D01*
X128409078Y-74329454D02*
X128409078Y-74075454D01*
X124980078Y-74075454D02*
X124980078Y-74710454D01*
X128663078Y-74329454D02*
X128663078Y-74075454D01*
X124853078Y-75853454D02*
X124726078Y-75853454D01*
X124726078Y-76107454D02*
X124726078Y-75853454D01*
X124980078Y-75853454D02*
X124853078Y-75853454D01*
X124853078Y-75599454D02*
X124853078Y-75853454D01*
X125107078Y-75853454D02*
X124980078Y-75853454D01*
X124980078Y-76107454D02*
X124980078Y-75853454D01*
X125107078Y-75599454D02*
X125107078Y-75853454D01*
X125234078Y-75980454D02*
X125107078Y-75853454D01*
X125234078Y-76107454D02*
X125234078Y-75980454D01*
X123519578Y-70011454D02*
X123519578Y-69884454D01*
X123519578Y-72678454D02*
X123646579Y-72805455D01*
X123583079Y-72805455D02*
X123646579Y-72805455D01*
X124345078Y-68360454D02*
X124091078Y-68360454D01*
X123265578Y-71281454D02*
X123519578Y-71281454D01*
X123519578Y-71154454D02*
X123519578Y-71281454D01*
X123519578Y-71281454D02*
X123519578Y-71535454D01*
X123265578Y-72043454D02*
X123519578Y-72043454D01*
X123519578Y-71535454D02*
X123519578Y-71789454D01*
X123519578Y-71789454D02*
X123519578Y-72043454D01*
X123519578Y-72043454D02*
X123519578Y-72297454D01*
X123265578Y-71535454D02*
X123519578Y-71535454D01*
X123265578Y-72297454D02*
X123519578Y-72297454D01*
X123265578Y-72551454D02*
X123329078Y-72551454D01*
X123329078Y-72551454D02*
X123583079Y-72805455D01*
X123519578Y-72297454D02*
X123519578Y-72678454D01*
X125361078Y-67979454D02*
X125361078Y-68360454D01*
X125615078Y-68360454D02*
X125361078Y-68360454D01*
X125361078Y-68360454D02*
X125107078Y-68360454D01*
X125107078Y-68360454D02*
X124726078Y-68360454D01*
X125869078Y-67979454D02*
X125869078Y-68360454D01*
X126123078Y-68360454D02*
X125869078Y-68360454D01*
X125869078Y-68360454D02*
X125615078Y-68360454D01*
X126123078Y-67979454D02*
X126123078Y-68360454D01*
X126377078Y-68360454D02*
X126123078Y-68360454D01*
X126377078Y-67979454D02*
X126377078Y-68360454D01*
X126631078Y-68360454D02*
X126377078Y-68360454D01*
X126631078Y-67979454D02*
X126631078Y-68360454D01*
X126885078Y-68360454D02*
X126631078Y-68360454D01*
X126885078Y-67979454D02*
X126885078Y-68360454D01*
X127139078Y-68360454D02*
X126885078Y-68360454D01*
X127139078Y-67979454D02*
X127139078Y-68360454D01*
X127393078Y-68360454D02*
X127139078Y-68360454D01*
X127393078Y-67979454D02*
X127393078Y-68360454D01*
X127647078Y-68360454D02*
X127393078Y-68360454D01*
X127647078Y-67979454D02*
X127647078Y-68360454D01*
X127901078Y-68360454D02*
X127647078Y-68360454D01*
X127901078Y-67979454D02*
X127901078Y-68360454D01*
X128155078Y-68360454D02*
X127901078Y-68360454D01*
X128155078Y-67979454D02*
X128155078Y-68360454D01*
X128409078Y-68360454D02*
X128155078Y-68360454D01*
X128409078Y-67979454D02*
X128409078Y-68360454D01*
X128663078Y-68360454D02*
X128409078Y-68360454D01*
X123265578Y-70773454D02*
X123519578Y-70773454D01*
X123519578Y-70519454D02*
X123519578Y-70773454D01*
X123519578Y-70773454D02*
X123519578Y-71154454D01*
X123519578Y-71027454D02*
X123519578Y-71154454D01*
X123265578Y-70519454D02*
X123519578Y-70519454D01*
X123519578Y-70265454D02*
X123519578Y-70519454D01*
X123265578Y-70265454D02*
X123519578Y-70265454D01*
X123265578Y-70011454D02*
X123519578Y-70011454D01*
X124345078Y-67979454D02*
X124345078Y-68360454D01*
X124726078Y-68360454D02*
X124345078Y-68360454D01*
X123265578Y-71027454D02*
X123519578Y-71027454D01*
X125615078Y-67979454D02*
X125615078Y-68233454D01*
X125615078Y-68233454D02*
X125615078Y-68360454D01*
X128663078Y-67979454D02*
X128663078Y-68360454D01*
X125107078Y-67979454D02*
X125107078Y-68360454D01*
X124726078Y-67979454D02*
X124726078Y-68360454D01*
X101254778Y-71872954D02*
X101254778Y-72372954D01*
X101254778Y-71372954D02*
X101254778Y-71872954D01*
X101254778Y-70872954D02*
X101254778Y-71372954D01*
X101254778Y-70372954D02*
X101254778Y-70872954D01*
X124726078Y-74456454D02*
X124853079Y-74583455D01*
X124662577Y-74583455D02*
X124853079Y-74583455D01*
X124091078Y-74583454D02*
X124853079Y-74583455D01*
X124345078Y-74456454D02*
X124726078Y-74456454D01*
X124345078Y-74329454D02*
X124345078Y-74456454D01*
X101180278Y-67280954D02*
X101904778Y-68005454D01*
X101904778Y-68005454D02*
X101904778Y-68722954D01*
X100523778Y-67280954D02*
X101180278Y-67280954D01*
D44*
X116662200Y-66607854D02*
X116179600Y-66607854D01*
X117182278Y-66607852D02*
X116662202Y-66607852D01*
X116662202Y-66607852D02*
X116662200Y-66607854D01*
D43*
X121831800Y-73675200D02*
X121831800Y-73257298D01*
X121831800Y-73257298D02*
X121634201Y-73059699D01*
X121634201Y-73059699D02*
X120976799Y-73059699D01*
X120976799Y-73059699D02*
X120726199Y-72809099D01*
X120726199Y-72809099D02*
X120599200Y-72682100D01*
X120782091Y-72864991D02*
X120726199Y-72809099D01*
X120205500Y-72682100D02*
X120599200Y-72682100D01*
X122643900Y-68218400D02*
X122301900Y-68218400D01*
X120598577Y-69109753D02*
X120471578Y-68982754D01*
X122301900Y-68218400D02*
X122238399Y-68281901D01*
X122238399Y-68281901D02*
X122238399Y-68821535D01*
X122238399Y-68821535D02*
X121950181Y-69109753D01*
X121950181Y-69109753D02*
X120598577Y-69109753D01*
X122643900Y-68218400D02*
X122643900Y-67443000D01*
X122643900Y-67443000D02*
X122631200Y-67430300D01*
X120471578Y-68982754D02*
X120471578Y-68601754D01*
X105688778Y-72233954D02*
X105415778Y-72233954D01*
X105415778Y-72233954D02*
X105054778Y-71872954D01*
X105549778Y-72372954D02*
X105688778Y-72233954D01*
X105054778Y-72372954D02*
X105549778Y-72372954D01*
X105054778Y-70872954D02*
X105054778Y-70372954D01*
X105054778Y-71372954D02*
X105054778Y-70872954D01*
X105054778Y-71872954D02*
X105054778Y-71372954D01*
X107276278Y-71683954D02*
X105243778Y-71683954D01*
X105243778Y-71683954D02*
X105054778Y-71872954D01*
X110006778Y-67550954D02*
X109881778Y-67550954D01*
X109881778Y-67550954D02*
X109389778Y-68042954D01*
X109389778Y-68042954D02*
X109143178Y-68042954D01*
X109143178Y-68042954D02*
X108143178Y-69042954D01*
X108143178Y-69042954D02*
X107720778Y-69042954D01*
X114631778Y-67989954D02*
X114578778Y-68042954D01*
X114086778Y-67550954D02*
X110006778Y-67550954D01*
X114578778Y-68042954D02*
X114086778Y-67550954D01*
X100254778Y-69872954D02*
X99777778Y-69872954D01*
X99084778Y-69179954D02*
X99084778Y-69118454D01*
X99777778Y-69872954D02*
X99084778Y-69179954D01*
X99084778Y-69118454D02*
X99084778Y-68741454D01*
X100254778Y-71872954D02*
X100254778Y-72372954D01*
X100254778Y-71372954D02*
X100254778Y-71872954D01*
X100254778Y-70872954D02*
X100254778Y-71372954D01*
X100254778Y-70372954D02*
X100254778Y-70872954D01*
X99338778Y-70965954D02*
X99436778Y-70965954D01*
X99436778Y-70965954D02*
X100029778Y-70372954D01*
X100029778Y-70372954D02*
X100254778Y-70372954D01*
X98304778Y-71122954D02*
X99181778Y-71122954D01*
X99181778Y-71122954D02*
X99338778Y-70965954D01*
X97984778Y-68741454D02*
X97984778Y-70802954D01*
X97984778Y-70802954D02*
X98304778Y-71122954D01*
X98604778Y-70822954D02*
X98304778Y-71122954D01*
X98554778Y-70872954D02*
X98304778Y-71122954D01*
X122186078Y-71154454D02*
X121428346Y-71154454D01*
X121428346Y-71154454D02*
X121272321Y-71310479D01*
X121272321Y-71310479D02*
X121005088Y-71310480D01*
X121005088Y-71310480D02*
X120814568Y-71501000D01*
X120814568Y-71501000D02*
X120434100Y-71501000D01*
X109879778Y-71090954D02*
X109371778Y-71598954D01*
X109371778Y-71598954D02*
X109371778Y-72757954D01*
X111149778Y-71090954D02*
X109879778Y-71090954D01*
X112004778Y-70235954D02*
X111149778Y-71090954D01*
X112004778Y-70122954D02*
X112004778Y-70235954D01*
X104734278Y-74329454D02*
X105404778Y-74329454D01*
X104404778Y-73522954D02*
X104404778Y-73999954D01*
X104404778Y-73999954D02*
X104734278Y-74329454D01*
X105404778Y-74695954D02*
X104945778Y-75154954D01*
X104945778Y-75154954D02*
X104678778Y-75154954D01*
X114807378Y-74837454D02*
X114944878Y-74837454D01*
X114944878Y-74837454D02*
X115452878Y-75345454D01*
X109768778Y-72868954D02*
X109768778Y-72743954D01*
X112004778Y-70507954D02*
X112004778Y-70122954D01*
X118300000Y-78110000D02*
X118860000Y-78110000D01*
X118071900Y-78498700D02*
X118580000Y-78498700D01*
X135267700Y-79342300D02*
X135295400Y-79370000D01*
X135267700Y-77995053D02*
X135267700Y-79342300D01*
X120200000Y-72150000D02*
X120424999Y-71925001D01*
X120424999Y-71925001D02*
X120749791Y-71925001D01*
X120749791Y-71925001D02*
X121110303Y-71564489D01*
X121110303Y-71564489D02*
X121666829Y-71564489D01*
X121666829Y-71564489D02*
X121822864Y-71408454D01*
X121822864Y-71408454D02*
X121856500Y-71408454D01*
X121856500Y-71408454D02*
X122186078Y-71408454D01*
D44*
X135534400Y-64947800D02*
X135064500Y-64477900D01*
X136867900Y-64947800D02*
X135534400Y-64947800D01*
X118364000Y-65214500D02*
X118135400Y-65214500D01*
X119164100Y-64033400D02*
X119164100Y-64414400D01*
X119164100Y-64414400D02*
X118364000Y-65214500D01*
D45*
X137803347Y-77995053D02*
X134602947Y-77995053D01*
D44*
X119367300Y-78498700D02*
X119621300Y-78498700D01*
X118833900Y-78498700D02*
X119100600Y-78498700D01*
X117817900Y-78486000D02*
X118059200Y-78486000D01*
X118059200Y-78486000D02*
X118071900Y-78498700D01*
D43*
X118325900Y-79425800D02*
X117386100Y-78486000D01*
X120103900Y-79425800D02*
X118325900Y-79425800D01*
X121614578Y-68747454D02*
X121087180Y-68747454D01*
X121087180Y-68747454D02*
X120623979Y-68284253D01*
X120623979Y-68284253D02*
X120319177Y-68284253D01*
X120319177Y-68284253D02*
X119023778Y-69579652D01*
X119023778Y-69579652D02*
X119023778Y-74122954D01*
X120220000Y-72160000D02*
X119280200Y-72160000D01*
X122186078Y-72170454D02*
X122093532Y-72263000D01*
X122093532Y-72263000D02*
X121424700Y-72263000D01*
D45*
X115404900Y-73656700D02*
X117102994Y-73656700D01*
X117102994Y-73656700D02*
X117134300Y-73688006D01*
X117386100Y-73700706D02*
X117386100Y-75755500D01*
D43*
X122186078Y-72170454D02*
X122186078Y-72351900D01*
X122186078Y-72351900D02*
X122186078Y-72424454D01*
X122173378Y-72364600D02*
X122186078Y-72351900D01*
X122059078Y-72424454D02*
X122186078Y-72424454D01*
X122186078Y-72170454D02*
X122122578Y-72170454D01*
X119148778Y-74122954D02*
X119023778Y-74122954D01*
X119023778Y-74122954D02*
X119023778Y-76170954D01*
X117171778Y-74646954D02*
X118499778Y-74646954D01*
X118499778Y-74646954D02*
X119023778Y-74122954D01*
X130949078Y-69249454D02*
X130695078Y-68995454D01*
X130695078Y-68995454D02*
X130695078Y-68275454D01*
X130949078Y-69693954D02*
X130949078Y-69249454D01*
X125488078Y-67471454D02*
X125488078Y-67087773D01*
X125488078Y-67087773D02*
X125395580Y-66995275D01*
X105400000Y-75320000D02*
X105786532Y-75320000D01*
X105786532Y-75320000D02*
X106103978Y-75002554D01*
X106103978Y-75002554D02*
X106103978Y-74185154D01*
X106103978Y-74185154D02*
X106069778Y-74150954D01*
X133440000Y-69740000D02*
X133782000Y-69740000D01*
X133782000Y-69740000D02*
X133894078Y-69627922D01*
X133894078Y-69627922D02*
X133894078Y-69400454D01*
X134320000Y-70310000D02*
X133750000Y-69740000D01*
X133750000Y-69740000D02*
X133440000Y-69740000D01*
X133894078Y-69400454D02*
X133894078Y-67471454D01*
D44*
X141464678Y-65654654D02*
X137960878Y-65654654D01*
X136894078Y-66721454D02*
X136894078Y-67471454D01*
X137960878Y-65654654D02*
X136894078Y-66721454D01*
X141349678Y-65769654D02*
X141464678Y-65654654D01*
X143100678Y-65327654D02*
X143100678Y-65906654D01*
X143100678Y-65906654D02*
X143750678Y-66556654D01*
X143750678Y-66556654D02*
X143750678Y-67227654D01*
X143100678Y-65327654D02*
X141791678Y-65327654D01*
X141791678Y-65327654D02*
X141464678Y-65654654D01*
X139019678Y-71071654D02*
X138417300Y-70469276D01*
X141464678Y-67154654D02*
X140325246Y-67154654D01*
X140325246Y-67154654D02*
X138417300Y-69062600D01*
X138417300Y-69062600D02*
X138417300Y-70469276D01*
X139019678Y-72881654D02*
X139019678Y-72745600D01*
X139019678Y-72745600D02*
X139019678Y-71071654D01*
X138811000Y-74587100D02*
X138811000Y-74033100D01*
X138811000Y-74033100D02*
X139019678Y-73824422D01*
X139019678Y-73824422D02*
X139019678Y-72745600D01*
X136894078Y-74583454D02*
X138807354Y-74583454D01*
X138807354Y-74583454D02*
X138811000Y-74587100D01*
X139019678Y-72986954D02*
X139019678Y-72881654D01*
X141464678Y-67154654D02*
X142976678Y-67154654D01*
X142976678Y-67154654D02*
X143115678Y-67293654D01*
X144754678Y-68817654D02*
X144754678Y-68067654D01*
X144754678Y-68067654D02*
X145262678Y-67559654D01*
X145262678Y-67559654D02*
X145262678Y-66519654D01*
X144400678Y-65657654D02*
X145262678Y-66519654D01*
X145262678Y-66519654D02*
X146036678Y-66519654D01*
X144400678Y-65327654D02*
X144400678Y-65657654D01*
X146036678Y-66544654D02*
X146036678Y-66519654D01*
X145288380Y-69516154D02*
X145411734Y-69392800D01*
X145224880Y-69579654D02*
X145411734Y-69392800D01*
X145411734Y-69392800D02*
X146798678Y-68005856D01*
X141914678Y-69579654D02*
X145224880Y-69579654D01*
X146798678Y-68005856D02*
X146798678Y-65152654D01*
X146798678Y-65152654D02*
X146665678Y-65019654D01*
X146665678Y-65019654D02*
X146036678Y-65019654D01*
X144887678Y-64499654D02*
X143999678Y-64499654D01*
X143999678Y-64499654D02*
X143750678Y-64748654D01*
X143750678Y-64748654D02*
X143750678Y-65327654D01*
X146036678Y-65019654D02*
X145407678Y-65019654D01*
X145407678Y-65019654D02*
X144887678Y-64499654D01*
X143064800Y-68668900D02*
X143089800Y-68668900D01*
X143089800Y-68668900D02*
X143952045Y-67806655D01*
X143952045Y-67806655D02*
X144400678Y-67806654D01*
X144400678Y-67806654D02*
X144400678Y-67227654D01*
X140178678Y-70302654D02*
X141033500Y-70302654D01*
X141033500Y-70302654D02*
X141425678Y-70302654D01*
X141014678Y-70133654D02*
X141033500Y-70152476D01*
X141014678Y-69579654D02*
X141014678Y-70133654D01*
X141033500Y-70152476D02*
X141033500Y-70302654D01*
X141687178Y-73607254D02*
X141687178Y-73183632D01*
X141687178Y-73183632D02*
X140877200Y-72373654D01*
X141425678Y-70976654D02*
X141425678Y-71825176D01*
X141425678Y-71825176D02*
X140877200Y-72373654D01*
X140009678Y-69579654D02*
X140009678Y-70133654D01*
X140009678Y-70133654D02*
X140178678Y-70302654D01*
X141425678Y-70302654D02*
X141425678Y-70976654D01*
D43*
X153810000Y-75840000D02*
X154240000Y-75840000D01*
X154240000Y-75840000D02*
X154250000Y-75830000D01*
X153350000Y-76310000D02*
X153350000Y-75880000D01*
X153350000Y-75880000D02*
X153370000Y-75860000D01*
X154240000Y-76270000D02*
X153800000Y-76270000D01*
X153800000Y-76270000D02*
X153790000Y-76280000D01*
X155129878Y-76259854D02*
X154250146Y-76259854D01*
X154250146Y-76259854D02*
X154240000Y-76270000D01*
D44*
X139734200Y-72373654D02*
X139734200Y-70985176D01*
X139734200Y-70985176D02*
X139725678Y-70976654D01*
X139711000Y-74587100D02*
X139711000Y-72396854D01*
X139711000Y-72396854D02*
X139734200Y-72373654D01*
X139711000Y-74587100D02*
X140119100Y-74587100D01*
X140119100Y-74587100D02*
X140152678Y-74620678D01*
X140970000Y-75438000D02*
X140152678Y-74620678D01*
X140970000Y-75819000D02*
X140970000Y-75438000D01*
X140970000Y-76200000D02*
X140970000Y-75819000D01*
X143623678Y-71256054D02*
X143623678Y-72643754D01*
X143623678Y-72643754D02*
X143687178Y-72707254D01*
X143623678Y-71256054D02*
X143052178Y-71256054D01*
X143623678Y-71256054D02*
X144131678Y-71256054D01*
X140575678Y-68373154D02*
X141083678Y-68373154D01*
X140216178Y-68373154D02*
X140575678Y-68373154D01*
X139109678Y-69579654D02*
X139109678Y-69479654D01*
X139109678Y-69479654D02*
X140216178Y-68373154D01*
X139725678Y-70976654D02*
X139109678Y-70360654D01*
X139109678Y-70360654D02*
X139109678Y-69579654D01*
X148755100Y-72391400D02*
X148755100Y-74091800D01*
X148755100Y-74091800D02*
X148755100Y-74535600D01*
X150380000Y-73964800D02*
X148882100Y-73964800D01*
X148882100Y-73964800D02*
X148755100Y-74091800D01*
X148755100Y-74535600D02*
X148653500Y-74637200D01*
D46*
X155053678Y-73986554D02*
X156041254Y-73986554D01*
D44*
X151880000Y-73964800D02*
X151880000Y-75093000D01*
X151880000Y-75093000D02*
X151409400Y-75563600D01*
D46*
X155053678Y-73986554D02*
X151901754Y-73986554D01*
X151901754Y-73986554D02*
X151880000Y-73964800D01*
D43*
X153419646Y-65464854D02*
X153414792Y-65460000D01*
X153414792Y-65460000D02*
X152860000Y-65460000D01*
D44*
X156260178Y-65464854D02*
X156460354Y-65464854D01*
X156260178Y-65464854D02*
X153419646Y-65464854D01*
X153419646Y-65464854D02*
X153416000Y-65468500D01*
D43*
X130143600Y-76987400D02*
X129708124Y-76987400D01*
X129708124Y-76987400D02*
X129044078Y-76323354D01*
X128536078Y-75345454D02*
X128536078Y-76183654D01*
X128536078Y-76183654D02*
X128675778Y-76323354D01*
X128675778Y-76323354D02*
X129056778Y-76323354D01*
X121271678Y-74329454D02*
X121271678Y-73735322D01*
X121271678Y-73735322D02*
X121331800Y-73675200D01*
X120890678Y-74329454D02*
X120890678Y-73734078D01*
X120890678Y-73734078D02*
X120831800Y-73675200D01*
X121271678Y-74329454D02*
X120890678Y-74329454D01*
X126504078Y-79523754D02*
X126504078Y-75345454D01*
X126250078Y-75345454D02*
X126250078Y-79527400D01*
X125996078Y-79527400D02*
X125996078Y-75345454D01*
X126758078Y-79523754D02*
X126758078Y-75345454D01*
X127012078Y-75345454D02*
X127012078Y-79523754D01*
X127266078Y-79523754D02*
X127266078Y-75345454D01*
X127520078Y-75345454D02*
X127520078Y-79523754D01*
X127774078Y-79523754D02*
X127774078Y-75345454D01*
X128028700Y-74773955D02*
X128028078Y-74774577D01*
X128028078Y-74774577D02*
X128028078Y-75345454D01*
X133350000Y-79311500D02*
X133350000Y-77177900D01*
X133350000Y-79375000D02*
X133350000Y-79311500D01*
X128028078Y-75345454D02*
X128028078Y-79523754D01*
X128282078Y-79523754D02*
X128282078Y-75345454D01*
X131634878Y-79079254D02*
X131634878Y-79248000D01*
X131647578Y-75789954D02*
X131634878Y-75802654D01*
X131634878Y-75802654D02*
X131634878Y-79248000D01*
X130949078Y-72360954D02*
X131012578Y-72360954D01*
X131012578Y-72360954D02*
X131647578Y-72995954D01*
X131647578Y-72995954D02*
X131647578Y-75789954D01*
X129204942Y-75690000D02*
X129071124Y-75690000D01*
X129071124Y-75690000D02*
X128790078Y-75408954D01*
X128790078Y-75408954D02*
X128790078Y-75345454D01*
X129692400Y-76250800D02*
X129565401Y-76123801D01*
X129565401Y-76123801D02*
X129565401Y-76050459D01*
X129565401Y-76050459D02*
X129204942Y-75690000D01*
D44*
X156260178Y-65972854D02*
X156447654Y-65972854D01*
X155875532Y-65976500D02*
X153403300Y-65976500D01*
X156260178Y-65972854D02*
X155879178Y-65972854D01*
X155879178Y-65972854D02*
X155875532Y-65976500D01*
D43*
X128790078Y-75348478D02*
X128790078Y-75345454D01*
X125996078Y-63931800D02*
X125996078Y-64080576D01*
X125996078Y-63928176D02*
X125996078Y-66963454D01*
X126250078Y-63931800D02*
X126250078Y-64185800D01*
X126250078Y-64033400D02*
X126250078Y-66963454D01*
X126504078Y-63928154D02*
X126504078Y-64182154D01*
X126504078Y-64029754D02*
X126504078Y-66963454D01*
X126758078Y-66963454D02*
X126758078Y-66709454D01*
X126758078Y-66709454D02*
X126758078Y-63928154D01*
X127012078Y-63928154D02*
X127012078Y-66963454D01*
X127266078Y-66963454D02*
X127266078Y-66709454D01*
X127266078Y-66709454D02*
X127266078Y-63928154D01*
X127520078Y-63928154D02*
X127520078Y-64182154D01*
X127520078Y-64182154D02*
X127520078Y-66963454D01*
X127774078Y-66963454D02*
X127774078Y-63928154D01*
X128028078Y-63928154D02*
X128028078Y-67242856D01*
X128041400Y-67256178D02*
X128028078Y-67242856D01*
X128028078Y-67242856D02*
X128028078Y-66963454D01*
X128041400Y-67513200D02*
X128041400Y-67256178D01*
X132461000Y-63982600D02*
X132461000Y-66776600D01*
X128282078Y-63931800D02*
X128282078Y-64185800D01*
X128282078Y-64185800D02*
X128282078Y-66963454D01*
X131457078Y-69820954D02*
X131647578Y-69630454D01*
X131648200Y-63969900D02*
X131648200Y-65946832D01*
X131648200Y-65946832D02*
X131647578Y-65947454D01*
X131647578Y-65947454D02*
X131647578Y-67725454D01*
X131647578Y-67725454D02*
X131647578Y-69630454D01*
X130695078Y-67175454D02*
X131072078Y-67175454D01*
X131072078Y-67175454D02*
X131622078Y-67725454D01*
X131622078Y-67725454D02*
X131647578Y-67725454D01*
D44*
X156260178Y-64956854D02*
X156485754Y-64956854D01*
X156260178Y-64956854D02*
X153406946Y-64956854D01*
X153406946Y-64956854D02*
X153403300Y-64960500D01*
D43*
X128663078Y-66455454D02*
X128917078Y-66201454D01*
X128536078Y-66963454D02*
X128536078Y-66582454D01*
X128536078Y-66582454D02*
X128663078Y-66455454D01*
X99800000Y-74050000D02*
X99800000Y-73633220D01*
X99800000Y-73633220D02*
X99406780Y-73240000D01*
X122186078Y-70646454D02*
X121118892Y-70646454D01*
X121118892Y-70646454D02*
X120868979Y-70396541D01*
X98611300Y-73942785D02*
X98792785Y-73942785D01*
X98792785Y-73942785D02*
X98900000Y-74050000D01*
X122186078Y-70392454D02*
X121603563Y-70392454D01*
X121603563Y-70392454D02*
X121442063Y-70230954D01*
D44*
X148653500Y-76137200D02*
X146656400Y-76137200D01*
X146656400Y-76137200D02*
X146532600Y-76261000D01*
X143687178Y-76307254D02*
X146486346Y-76307254D01*
X146486346Y-76307254D02*
X146532600Y-76261000D01*
D43*
X102904778Y-68722954D02*
X102904778Y-67888339D01*
X102904778Y-67888339D02*
X102867945Y-67851506D01*
X103091278Y-75154954D02*
X103529806Y-75154954D01*
X103529806Y-75154954D02*
X103656778Y-75027982D01*
X104158778Y-75154954D02*
X103783750Y-75154954D01*
X103783750Y-75154954D02*
X103656778Y-75027982D01*
X103656778Y-75154954D02*
X103656778Y-75408954D01*
X122186078Y-70138454D02*
X121964505Y-70138454D01*
X120662000Y-69510000D02*
X120320000Y-69510000D01*
X121964505Y-70138454D02*
X121336051Y-69510000D01*
X121336051Y-69510000D02*
X120662000Y-69510000D01*
X122643900Y-68738400D02*
X122643900Y-69005400D01*
X122643900Y-69005400D02*
X122186078Y-69463222D01*
X122186078Y-69463222D02*
X122186078Y-69693954D01*
X122186078Y-69693954D02*
X122186078Y-69884454D01*
X124472078Y-66963454D02*
X124006564Y-66963454D01*
X124006564Y-66963454D02*
X123914064Y-67055954D01*
X98449778Y-75154954D02*
X99205778Y-75154954D01*
X123710078Y-67471454D02*
X123148924Y-66910300D01*
X123148924Y-66910300D02*
X122631200Y-66910300D01*
X122631200Y-66910300D02*
X122631200Y-66160300D01*
X122631200Y-66160300D02*
X122618500Y-66147600D01*
X123710078Y-67471454D02*
X124218078Y-67471454D01*
X105568400Y-67613900D02*
X105005289Y-68177011D01*
X105005289Y-68177011D02*
X105005289Y-68516454D01*
X105568400Y-67271900D02*
X105568400Y-67613900D01*
X102857300Y-67208400D02*
X102857300Y-66866400D01*
X102857300Y-66866400D02*
X102920801Y-66802899D01*
X102920801Y-66802899D02*
X105441399Y-66802899D01*
X105441399Y-66802899D02*
X105568400Y-66929900D01*
X105568400Y-66929900D02*
X105568400Y-67271900D01*
X121487578Y-67725454D02*
X121487578Y-67430922D01*
X121487578Y-67430922D02*
X121488200Y-67430300D01*
X121614578Y-68227454D02*
X121792480Y-68227454D01*
X121614578Y-67852454D02*
X121614578Y-68227454D01*
X121487578Y-67725454D02*
X121614578Y-67852454D01*
X124980078Y-66963454D02*
X124980078Y-66800042D01*
X124980078Y-66800042D02*
X124670000Y-66489964D01*
X121158000Y-66560700D02*
X121265600Y-66560700D01*
X121265600Y-66560700D02*
X121615200Y-66910300D01*
X106069778Y-73249954D02*
X106069778Y-73630954D01*
X106069778Y-73249954D02*
X105692778Y-72872954D01*
X105692778Y-72872954D02*
X105054778Y-72872954D01*
X131774578Y-71217954D02*
X132043442Y-70949090D01*
X132043442Y-70949090D02*
X132408910Y-70949090D01*
X132408910Y-70949090D02*
X133098000Y-70260000D01*
X133098000Y-70260000D02*
X133440000Y-70260000D01*
X130949078Y-71217954D02*
X131774578Y-71217954D01*
D44*
X146240500Y-72108100D02*
X146240500Y-74068900D01*
X146240500Y-74068900D02*
X146532600Y-74361000D01*
D43*
X105561778Y-69090954D02*
X105561778Y-68341403D01*
X105561778Y-68341403D02*
X105551828Y-68331453D01*
X122186078Y-70900454D02*
X120838519Y-70900454D01*
X120838519Y-70900454D02*
X120773401Y-70965572D01*
X105561778Y-69090954D02*
X105279778Y-69372954D01*
X105279778Y-69372954D02*
X105054778Y-69372954D01*
D44*
X121331800Y-75575200D02*
X121331800Y-75042998D01*
X121331800Y-75042998D02*
X121745952Y-74628846D01*
X121745952Y-74628846D02*
X121868017Y-74628846D01*
X121868017Y-74628846D02*
X122047622Y-74628846D01*
D43*
X131457078Y-70329454D02*
X131665374Y-70329454D01*
X131665374Y-70329454D02*
X131800600Y-70464680D01*
X130441078Y-63969900D02*
X130441078Y-66455454D01*
X130441078Y-66455454D02*
X130441078Y-66275849D01*
D44*
X121331800Y-75575200D02*
X121331800Y-76482100D01*
X121331800Y-76482100D02*
X121373900Y-76524200D01*
X122047622Y-74628846D02*
X122555622Y-74628846D01*
D43*
X103904778Y-73522954D02*
X103904778Y-73999954D01*
X103904778Y-73999954D02*
X103215222Y-74689510D01*
X103215222Y-74689510D02*
X101986490Y-74689510D01*
X101986490Y-74689510D02*
X101657100Y-75018900D01*
X101657100Y-75018900D02*
X101390100Y-75018900D01*
X125742078Y-67471454D02*
X126081454Y-67471454D01*
X126081454Y-67471454D02*
X126100000Y-67490000D01*
X100418248Y-75154954D02*
X100291278Y-75281924D01*
X100856778Y-75154954D02*
X100418248Y-75154954D01*
X103404778Y-73522954D02*
X103404778Y-73840856D01*
X103404778Y-73840856D02*
X102810133Y-74435501D01*
X102810133Y-74435501D02*
X100234177Y-74435501D01*
X100234177Y-74435501D02*
X99725778Y-74943900D01*
X99725778Y-74943900D02*
X99725778Y-75018900D01*
X99725778Y-75154954D02*
X99725778Y-75079954D01*
X130695078Y-73249954D02*
X130441078Y-73503954D01*
X130441078Y-73503954D02*
X130441078Y-74075454D01*
X130695078Y-72614954D02*
X130695078Y-73249954D01*
X151879300Y-67722400D02*
X151879300Y-67627776D01*
X151879300Y-67627776D02*
X151807351Y-67555827D01*
D44*
X156031578Y-68525554D02*
X156371454Y-68525554D01*
D43*
X152383704Y-67555827D02*
X152383704Y-67570338D01*
X152383704Y-67570338D02*
X153338920Y-68525554D01*
X153338920Y-68525554D02*
X153406946Y-68525554D01*
D44*
X156018878Y-68525554D02*
X153406946Y-68525554D01*
D43*
X151807351Y-67555827D02*
X151405478Y-67957700D01*
X152383704Y-67555827D02*
X151807351Y-67555827D01*
X151405478Y-67957700D02*
X150955478Y-67957700D01*
D44*
X156031578Y-68144554D02*
X156384154Y-68144554D01*
D43*
X150955478Y-66899954D02*
X151405478Y-66899954D01*
X151405478Y-66899954D02*
X151807351Y-67301827D01*
X151807351Y-67301827D02*
X152493427Y-67301827D01*
X152493427Y-67301827D02*
X152815454Y-67623854D01*
X152815454Y-67628380D02*
X153331628Y-68144554D01*
X152815454Y-67623854D02*
X152815454Y-67628380D01*
X153331628Y-68144554D02*
X153406946Y-68144554D01*
D44*
X156018878Y-68144554D02*
X153406946Y-68144554D01*
D43*
X151866600Y-65715800D02*
X151866600Y-65629822D01*
X151866600Y-65629822D02*
X151784441Y-65547663D01*
X151285363Y-65547663D02*
X150996226Y-65836800D01*
X150996226Y-65836800D02*
X150956100Y-65836800D01*
X151784441Y-65547663D02*
X151285363Y-65547663D01*
D47*
X151784441Y-65547663D02*
X153070000Y-66834652D01*
X153070000Y-66834652D02*
X153070715Y-66833937D01*
D43*
X153399654Y-67763554D02*
X153309852Y-67763554D01*
X153309852Y-67763554D02*
X153078538Y-67532240D01*
X153078538Y-67532240D02*
X153078538Y-66843190D01*
X153078538Y-66843190D02*
X153070000Y-66834652D01*
D44*
X156031578Y-67763554D02*
X156396854Y-67763554D01*
X156018878Y-67763554D02*
X153399654Y-67763554D01*
D47*
X152271101Y-65677943D02*
X153323724Y-66729152D01*
X153323724Y-66729152D02*
X153248905Y-66655747D01*
D43*
X153396028Y-67382554D02*
X153396028Y-66997928D01*
X153396028Y-66997928D02*
X153332548Y-66934448D01*
X153332548Y-66934448D02*
X153332548Y-66737976D01*
X153332548Y-66737976D02*
X153323724Y-66729152D01*
D47*
X150964900Y-64770000D02*
X151367901Y-65173001D01*
X151367901Y-65173001D02*
X152019903Y-65173001D01*
X152019903Y-65173001D02*
X152271101Y-65424199D01*
X152271101Y-65424199D02*
X152271101Y-65677943D01*
D44*
X156031578Y-67382554D02*
X156384154Y-67382554D01*
X156018878Y-67382554D02*
X153396028Y-67382554D01*
D43*
X150955478Y-64753654D02*
X151145978Y-64944154D01*
X133184900Y-72757600D02*
X132806224Y-72757600D01*
X132806224Y-72757600D02*
X132727078Y-72678454D01*
X148553083Y-68169953D02*
X149124582Y-67598454D01*
X149360978Y-67598454D02*
X149805478Y-68042954D01*
X149124582Y-67598454D02*
X149360978Y-67598454D01*
X149805478Y-68042954D02*
X149855478Y-68042954D01*
X148373478Y-68233454D02*
X148436979Y-68169953D01*
X148436979Y-68169953D02*
X148553083Y-68169953D01*
X132547473Y-72614953D02*
X132663577Y-72614953D01*
X132663577Y-72614953D02*
X132727078Y-72678454D01*
X131457078Y-72233954D02*
X132166474Y-72233954D01*
X132166474Y-72233954D02*
X132547473Y-72614953D01*
X133184900Y-72237600D02*
X132786932Y-72237600D01*
X132786932Y-72237600D02*
X132727078Y-72297454D01*
X148447873Y-67915955D02*
X149019374Y-67344454D01*
X149019374Y-67344454D02*
X149360978Y-67344454D01*
X149360978Y-67344454D02*
X149805478Y-66899954D01*
X149805478Y-66899954D02*
X149855478Y-66899954D01*
X148373478Y-67852454D02*
X148436979Y-67915955D01*
X148436979Y-67915955D02*
X148447873Y-67915955D01*
X132271682Y-71979954D02*
X132652683Y-72360955D01*
X132652683Y-72360955D02*
X132663577Y-72360955D01*
X131457078Y-71979954D02*
X132271682Y-71979954D01*
X132663577Y-72360955D02*
X132727078Y-72297454D01*
X133024439Y-71457098D02*
X132498318Y-71457110D01*
X132498318Y-71457110D02*
X132498318Y-71457098D01*
X131457078Y-71725954D02*
X132229474Y-71725954D01*
X132229474Y-71725954D02*
X132498318Y-71457110D01*
X133185940Y-71618599D02*
X133024439Y-71457098D01*
X148944978Y-65515654D02*
X149008479Y-65452153D01*
X149008479Y-65452153D02*
X149360978Y-65452154D01*
X149360978Y-65452154D02*
X149805478Y-65896654D01*
X149805478Y-65896654D02*
X149855478Y-65896654D01*
X131457078Y-71471954D02*
X132124238Y-71471954D01*
X132124238Y-71471954D02*
X132393092Y-71203100D01*
X133024439Y-71203100D02*
X133185940Y-71041599D01*
X132393092Y-71203100D02*
X133024439Y-71203100D01*
X149008479Y-65198155D02*
X149360978Y-65198154D01*
X149360978Y-65198154D02*
X149805478Y-64753654D01*
X149805478Y-64753654D02*
X149855478Y-64753654D01*
X131457078Y-71471954D02*
X131520578Y-71471954D01*
D44*
X121373900Y-77044200D02*
X122253000Y-77044200D01*
X122253000Y-77044200D02*
X122453400Y-76843800D01*
X123621800Y-76843800D02*
X123621800Y-76327000D01*
X123621800Y-76327000D02*
X123012200Y-75717400D01*
D43*
X121930757Y-72741955D02*
X121288713Y-72741955D01*
X121288713Y-72741955D02*
X121009199Y-72462441D01*
X121009199Y-72462441D02*
X121009199Y-72063559D01*
X121254259Y-71818499D02*
X121734845Y-71818499D01*
X121009199Y-72063559D02*
X121254259Y-71818499D01*
X121734845Y-71818499D02*
X121798345Y-71881999D01*
X130949078Y-70074954D02*
X132170006Y-70074954D01*
X130962400Y-63982600D02*
X130962400Y-64252946D01*
X130949078Y-64046100D02*
X130949078Y-64283754D01*
X130949078Y-66455454D02*
X130949078Y-64046100D01*
D44*
X122186078Y-71793100D02*
X121887244Y-71793100D01*
X121930757Y-72741955D02*
X122936632Y-73747830D01*
X121887244Y-71793100D02*
X121798345Y-71881999D01*
X122936632Y-73747830D02*
X122936632Y-74471027D01*
X122936632Y-74471027D02*
X123012200Y-74546595D01*
D43*
X123266200Y-74510900D02*
X123047895Y-74510900D01*
X123047895Y-74510900D02*
X123012200Y-74546595D01*
X122186078Y-71662454D02*
X122186078Y-71793100D01*
X122186078Y-71793100D02*
X122186078Y-71916454D01*
D44*
X123012200Y-75197400D02*
X123012200Y-74546595D01*
X121831800Y-75575200D02*
X122209600Y-75197400D01*
X122209600Y-75197400D02*
X123012200Y-75197400D01*
D43*
X105059778Y-67153954D02*
X105059778Y-67495954D01*
X105059778Y-67495954D02*
X104404778Y-68150954D01*
X104404778Y-68150954D02*
X104404778Y-68722954D01*
X103910778Y-67852454D02*
X103674054Y-67852454D01*
X103674054Y-67852454D02*
X103422800Y-67601200D01*
X103422800Y-67601200D02*
X103422800Y-67259200D01*
X103910778Y-67852454D02*
X103910778Y-68716954D01*
X103910778Y-68716954D02*
X103904778Y-68722954D01*
D44*
G36*
X156260800Y-70840373D02*
X156260800Y-71263579D01*
X156241466Y-71986337D01*
X152805778Y-71980181D01*
X152805778Y-70834182D01*
X156260800Y-70840373D01*
X156260800Y-70840373D01*
G37*
X156260800Y-70840373D02*
X156260800Y-71263579D01*
X156241466Y-71986337D01*
X152805778Y-71980181D01*
X152805778Y-70834182D01*
X156260800Y-70840373D01*
G36*
X156317981Y-69125992D02*
X156284008Y-70395967D01*
X152417000Y-70393094D01*
X152417000Y-69123094D01*
X156317981Y-69125992D01*
X156317981Y-69125992D01*
G37*
X156317981Y-69125992D02*
X156284008Y-70395967D01*
X152417000Y-70393094D01*
X152417000Y-69123094D01*
X156317981Y-69125992D01*
G36*
X117244823Y-66675000D02*
X115455700Y-66675000D01*
X115406290Y-66685006D01*
X115365897Y-66712197D01*
X114921397Y-67156697D01*
X114893534Y-67198711D01*
X114884200Y-67246500D01*
X114884200Y-67839016D01*
X114529568Y-68170047D01*
X113077000Y-68172762D01*
X113077000Y-67650000D01*
X113066994Y-67600590D01*
X113038553Y-67558965D01*
X112996159Y-67531685D01*
X112950000Y-67523000D01*
X111050000Y-67523000D01*
X111000590Y-67533006D01*
X110958965Y-67561447D01*
X110931685Y-67603841D01*
X110923000Y-67650000D01*
X110923000Y-68172799D01*
X109117978Y-68169954D01*
X109068552Y-68179882D01*
X109026883Y-68208257D01*
X108999536Y-68250608D01*
X108990778Y-68296954D01*
X108990778Y-70201954D01*
X108038278Y-70201954D01*
X107988868Y-70211960D01*
X107947243Y-70240401D01*
X107919963Y-70282795D01*
X107911278Y-70328954D01*
X107911278Y-71662454D01*
X106260278Y-71662454D01*
X106210868Y-71672460D01*
X106169243Y-71700901D01*
X106141963Y-71743295D01*
X106133278Y-71789454D01*
X106133278Y-72360954D01*
X105180778Y-72360954D01*
X105180778Y-70328954D01*
X106323778Y-70328954D01*
X106373188Y-70318948D01*
X106414813Y-70290507D01*
X106442093Y-70248113D01*
X106450778Y-70201954D01*
X106450778Y-68804954D01*
X108228778Y-68804954D01*
X108278188Y-68794948D01*
X108319813Y-68766507D01*
X108347093Y-68724113D01*
X108355778Y-68677954D01*
X108355778Y-68142732D01*
X108430445Y-68136570D01*
X108478865Y-68122534D01*
X108518009Y-68090767D01*
X108541710Y-68046272D01*
X108547000Y-68010000D01*
X108547000Y-66907475D01*
X114312226Y-66928999D01*
X114361673Y-66919178D01*
X114403646Y-66890644D01*
X115320546Y-65949928D01*
X115582735Y-65949900D01*
X115648158Y-65936879D01*
X115708602Y-65924856D01*
X115708616Y-65924847D01*
X115708635Y-65924843D01*
X115715133Y-65920500D01*
X117235278Y-65901848D01*
X117244823Y-66675000D01*
X117244823Y-66675000D01*
G37*
X117244823Y-66675000D02*
X115455700Y-66675000D01*
X115406290Y-66685006D01*
X115365897Y-66712197D01*
X114921397Y-67156697D01*
X114893534Y-67198711D01*
X114884200Y-67246500D01*
X114884200Y-67839016D01*
X114529568Y-68170047D01*
X113077000Y-68172762D01*
X113077000Y-67650000D01*
X113066994Y-67600590D01*
X113038553Y-67558965D01*
X112996159Y-67531685D01*
X112950000Y-67523000D01*
X111050000Y-67523000D01*
X111000590Y-67533006D01*
X110958965Y-67561447D01*
X110931685Y-67603841D01*
X110923000Y-67650000D01*
X110923000Y-68172799D01*
X109117978Y-68169954D01*
X109068552Y-68179882D01*
X109026883Y-68208257D01*
X108999536Y-68250608D01*
X108990778Y-68296954D01*
X108990778Y-70201954D01*
X108038278Y-70201954D01*
X107988868Y-70211960D01*
X107947243Y-70240401D01*
X107919963Y-70282795D01*
X107911278Y-70328954D01*
X107911278Y-71662454D01*
X106260278Y-71662454D01*
X106210868Y-71672460D01*
X106169243Y-71700901D01*
X106141963Y-71743295D01*
X106133278Y-71789454D01*
X106133278Y-72360954D01*
X105180778Y-72360954D01*
X105180778Y-70328954D01*
X106323778Y-70328954D01*
X106373188Y-70318948D01*
X106414813Y-70290507D01*
X106442093Y-70248113D01*
X106450778Y-70201954D01*
X106450778Y-68804954D01*
X108228778Y-68804954D01*
X108278188Y-68794948D01*
X108319813Y-68766507D01*
X108347093Y-68724113D01*
X108355778Y-68677954D01*
X108355778Y-68142732D01*
X108430445Y-68136570D01*
X108478865Y-68122534D01*
X108518009Y-68090767D01*
X108541710Y-68046272D01*
X108547000Y-68010000D01*
X108547000Y-66907475D01*
X114312226Y-66928999D01*
X114361673Y-66919178D01*
X114403646Y-66890644D01*
X115320546Y-65949928D01*
X115582735Y-65949900D01*
X115648158Y-65936879D01*
X115708602Y-65924856D01*
X115708616Y-65924847D01*
X115708635Y-65924843D01*
X115715133Y-65920500D01*
X117235278Y-65901848D01*
X117244823Y-66675000D01*
G36*
X99338778Y-70201954D02*
X99348784Y-70251364D01*
X99377225Y-70292989D01*
X99419619Y-70320269D01*
X99465778Y-70328954D01*
X100227778Y-70328954D01*
X100227778Y-72360954D01*
X97941778Y-72360954D01*
X97941778Y-70074954D01*
X99338778Y-70074954D01*
X99338778Y-70201954D01*
X99338778Y-70201954D01*
G37*
X99338778Y-70201954D02*
X99348784Y-70251364D01*
X99377225Y-70292989D01*
X99419619Y-70320269D01*
X99465778Y-70328954D01*
X100227778Y-70328954D01*
X100227778Y-72360954D01*
X97941778Y-72360954D01*
X97941778Y-70074954D01*
X99338778Y-70074954D01*
X99338778Y-70201954D01*
G36*
X114323000Y-69623000D02*
X114130000Y-69623000D01*
X114080590Y-69633006D01*
X114038965Y-69661447D01*
X114011685Y-69703841D01*
X114003000Y-69750000D01*
X114003000Y-71110000D01*
X114013006Y-71159410D01*
X114041447Y-71201035D01*
X114083841Y-71228315D01*
X114130000Y-71237000D01*
X114323000Y-71237000D01*
X114323000Y-73503000D01*
X113307000Y-73503000D01*
X113307000Y-68677000D01*
X114323000Y-68677000D01*
X114323000Y-69623000D01*
X114323000Y-69623000D01*
G37*
X114323000Y-69623000D02*
X114130000Y-69623000D01*
X114080590Y-69633006D01*
X114038965Y-69661447D01*
X114011685Y-69703841D01*
X114003000Y-69750000D01*
X114003000Y-71110000D01*
X114013006Y-71159410D01*
X114041447Y-71201035D01*
X114083841Y-71228315D01*
X114130000Y-71237000D01*
X114323000Y-71237000D01*
X114323000Y-73503000D01*
X113307000Y-73503000D01*
X113307000Y-68677000D01*
X114323000Y-68677000D01*
X114323000Y-69623000D01*
G36*
X114142520Y-65958640D02*
X114142520Y-66466636D01*
X97306862Y-66455454D01*
X97257446Y-66465427D01*
X97215802Y-66493840D01*
X97188494Y-66536216D01*
X97179778Y-66582454D01*
X97179778Y-75662954D01*
X97189784Y-75712364D01*
X97218225Y-75753989D01*
X97260619Y-75781269D01*
X97306778Y-75789954D01*
X105282718Y-75789954D01*
X105304303Y-75798917D01*
X105494861Y-75799083D01*
X105516955Y-75789954D01*
X114578778Y-75789954D01*
X114578778Y-76297954D01*
X114034684Y-76297954D01*
X113995200Y-76290100D01*
X96483778Y-76290100D01*
X96483778Y-72622954D01*
X96481278Y-72610386D01*
X96481278Y-72360954D01*
X96471272Y-72311544D01*
X96442831Y-72269919D01*
X96400437Y-72242639D01*
X96354278Y-72233954D01*
X94512778Y-72233954D01*
X94512778Y-71543653D01*
X94515195Y-71549503D01*
X94727114Y-71761792D01*
X95004140Y-71876823D01*
X95304100Y-71877085D01*
X95581327Y-71762537D01*
X95793616Y-71550618D01*
X95908647Y-71273592D01*
X95908909Y-70973632D01*
X95794361Y-70696405D01*
X95582442Y-70484116D01*
X95305416Y-70369085D01*
X95005456Y-70368823D01*
X94728229Y-70483371D01*
X94515940Y-70695290D01*
X94512778Y-70702905D01*
X94512778Y-70011454D01*
X96354278Y-70011454D01*
X96403688Y-70001448D01*
X96445313Y-69973007D01*
X96472593Y-69930613D01*
X96481278Y-69884454D01*
X96481278Y-69635522D01*
X96483778Y-69622954D01*
X96483778Y-65951919D01*
X102451302Y-65951288D01*
X114142520Y-65958640D01*
X114142520Y-65958640D01*
G37*
X114142520Y-65958640D02*
X114142520Y-66466636D01*
X97306862Y-66455454D01*
X97257446Y-66465427D01*
X97215802Y-66493840D01*
X97188494Y-66536216D01*
X97179778Y-66582454D01*
X97179778Y-75662954D01*
X97189784Y-75712364D01*
X97218225Y-75753989D01*
X97260619Y-75781269D01*
X97306778Y-75789954D01*
X105282718Y-75789954D01*
X105304303Y-75798917D01*
X105494861Y-75799083D01*
X105516955Y-75789954D01*
X114578778Y-75789954D01*
X114578778Y-76297954D01*
X114034684Y-76297954D01*
X113995200Y-76290100D01*
X96483778Y-76290100D01*
X96483778Y-72622954D01*
X96481278Y-72610386D01*
X96481278Y-72360954D01*
X96471272Y-72311544D01*
X96442831Y-72269919D01*
X96400437Y-72242639D01*
X96354278Y-72233954D01*
X94512778Y-72233954D01*
X94512778Y-71543653D01*
X94515195Y-71549503D01*
X94727114Y-71761792D01*
X95004140Y-71876823D01*
X95304100Y-71877085D01*
X95581327Y-71762537D01*
X95793616Y-71550618D01*
X95908647Y-71273592D01*
X95908909Y-70973632D01*
X95794361Y-70696405D01*
X95582442Y-70484116D01*
X95305416Y-70369085D01*
X95005456Y-70368823D01*
X94728229Y-70483371D01*
X94515940Y-70695290D01*
X94512778Y-70702905D01*
X94512778Y-70011454D01*
X96354278Y-70011454D01*
X96403688Y-70001448D01*
X96445313Y-69973007D01*
X96472593Y-69930613D01*
X96481278Y-69884454D01*
X96481278Y-69635522D01*
X96483778Y-69622954D01*
X96483778Y-65951919D01*
X102451302Y-65951288D01*
X114142520Y-65958640D01*
G36*
X125543327Y-79439700D02*
X121919832Y-79439700D01*
X121920208Y-78701900D01*
X125543703Y-78701900D01*
X125543327Y-79439700D01*
X125543327Y-79439700D01*
G37*
X125543327Y-79439700D02*
X121919832Y-79439700D01*
X121920208Y-78701900D01*
X125543703Y-78701900D01*
X125543327Y-79439700D01*
G36*
X125526800Y-64897000D02*
X121894600Y-64897000D01*
X121894600Y-63956000D01*
X125526800Y-63956000D01*
X125526800Y-64897000D01*
X125526800Y-64897000D01*
G37*
X125526800Y-64897000D02*
X121894600Y-64897000D01*
X121894600Y-63956000D01*
X125526800Y-63956000D01*
X125526800Y-64897000D01*
G36*
X121412000Y-64897000D02*
X119837200Y-64897000D01*
X119787790Y-64907006D01*
X119746165Y-64935447D01*
X119718885Y-64977841D01*
X119710200Y-65024000D01*
X119710200Y-70671206D01*
X119634560Y-70746714D01*
X119561483Y-70922703D01*
X119561317Y-71113261D01*
X119634087Y-71289377D01*
X119710200Y-71365623D01*
X119710200Y-78790800D01*
X119720206Y-78840210D01*
X119748647Y-78881835D01*
X119791041Y-78909115D01*
X119837200Y-78917800D01*
X121356492Y-78917800D01*
X121363641Y-79439700D01*
X117348000Y-79439700D01*
X117348000Y-79108300D01*
X117347996Y-79107272D01*
X117297609Y-72884497D01*
X118100804Y-72032624D01*
X118127420Y-71989809D01*
X118135400Y-71945275D01*
X118131713Y-69861992D01*
X118144417Y-69831397D01*
X118144583Y-69640839D01*
X118131264Y-69608605D01*
X118122700Y-64769775D01*
X118112607Y-64720383D01*
X118084092Y-64678809D01*
X118041650Y-64651604D01*
X117995700Y-64643000D01*
X117741700Y-64643000D01*
X117741700Y-63956000D01*
X121412000Y-63956000D01*
X121412000Y-64897000D01*
X121412000Y-64897000D01*
G37*
X121412000Y-64897000D02*
X119837200Y-64897000D01*
X119787790Y-64907006D01*
X119746165Y-64935447D01*
X119718885Y-64977841D01*
X119710200Y-65024000D01*
X119710200Y-70671206D01*
X119634560Y-70746714D01*
X119561483Y-70922703D01*
X119561317Y-71113261D01*
X119634087Y-71289377D01*
X119710200Y-71365623D01*
X119710200Y-78790800D01*
X119720206Y-78840210D01*
X119748647Y-78881835D01*
X119791041Y-78909115D01*
X119837200Y-78917800D01*
X121356492Y-78917800D01*
X121363641Y-79439700D01*
X117348000Y-79439700D01*
X117348000Y-79108300D01*
X117347996Y-79107272D01*
X117297609Y-72884497D01*
X118100804Y-72032624D01*
X118127420Y-71989809D01*
X118135400Y-71945275D01*
X118131713Y-69861992D01*
X118144417Y-69831397D01*
X118144583Y-69640839D01*
X118131264Y-69608605D01*
X118122700Y-64769775D01*
X118112607Y-64720383D01*
X118084092Y-64678809D01*
X118041650Y-64651604D01*
X117995700Y-64643000D01*
X117741700Y-64643000D01*
X117741700Y-63956000D01*
X121412000Y-63956000D01*
X121412000Y-64897000D01*
G36*
X129159000Y-69249454D02*
X129169006Y-69298864D01*
X129197447Y-69340489D01*
X129239841Y-69367769D01*
X129286000Y-69376454D01*
X130302000Y-69376454D01*
X130302000Y-72932454D01*
X129667000Y-72932454D01*
X129617590Y-72942460D01*
X129575965Y-72970901D01*
X129548685Y-73013295D01*
X129540000Y-73059454D01*
X129540000Y-74837454D01*
X128968500Y-74837454D01*
X128968500Y-74329454D01*
X128958494Y-74280044D01*
X128930053Y-74238419D01*
X128887659Y-74211139D01*
X128841500Y-74202454D01*
X125095000Y-74202454D01*
X125045590Y-74212460D01*
X125003965Y-74240901D01*
X124976685Y-74283295D01*
X124968000Y-74329454D01*
X124968000Y-74710454D01*
X123952000Y-74710454D01*
X123952000Y-74389476D01*
X123954154Y-74388090D01*
X124012150Y-74303210D01*
X124032554Y-74202454D01*
X124032554Y-73948454D01*
X124014843Y-73854327D01*
X123959214Y-73767878D01*
X123952000Y-73762949D01*
X123952000Y-73059454D01*
X123941994Y-73010044D01*
X123913553Y-72968419D01*
X123871159Y-72941139D01*
X123825000Y-72932454D01*
X122809000Y-72932454D01*
X122809000Y-69376454D01*
X123698000Y-69376454D01*
X123747410Y-69366448D01*
X123789035Y-69338007D01*
X123816315Y-69295613D01*
X123825000Y-69249454D01*
X123825000Y-68233454D01*
X129159000Y-68233454D01*
X129159000Y-69249454D01*
X129159000Y-69249454D01*
G37*
X129159000Y-69249454D02*
X129169006Y-69298864D01*
X129197447Y-69340489D01*
X129239841Y-69367769D01*
X129286000Y-69376454D01*
X130302000Y-69376454D01*
X130302000Y-72932454D01*
X129667000Y-72932454D01*
X129617590Y-72942460D01*
X129575965Y-72970901D01*
X129548685Y-73013295D01*
X129540000Y-73059454D01*
X129540000Y-74837454D01*
X128968500Y-74837454D01*
X128968500Y-74329454D01*
X128958494Y-74280044D01*
X128930053Y-74238419D01*
X128887659Y-74211139D01*
X128841500Y-74202454D01*
X125095000Y-74202454D01*
X125045590Y-74212460D01*
X125003965Y-74240901D01*
X124976685Y-74283295D01*
X124968000Y-74329454D01*
X124968000Y-74710454D01*
X123952000Y-74710454D01*
X123952000Y-74389476D01*
X123954154Y-74388090D01*
X124012150Y-74303210D01*
X124032554Y-74202454D01*
X124032554Y-73948454D01*
X124014843Y-73854327D01*
X123959214Y-73767878D01*
X123952000Y-73762949D01*
X123952000Y-73059454D01*
X123941994Y-73010044D01*
X123913553Y-72968419D01*
X123871159Y-72941139D01*
X123825000Y-72932454D01*
X122809000Y-72932454D01*
X122809000Y-69376454D01*
X123698000Y-69376454D01*
X123747410Y-69366448D01*
X123789035Y-69338007D01*
X123816315Y-69295613D01*
X123825000Y-69249454D01*
X123825000Y-68233454D01*
X129159000Y-68233454D01*
X129159000Y-69249454D01*
G36*
X117652800Y-69761100D02*
X116662200Y-69761100D01*
X116662200Y-68999100D01*
X117652800Y-68999100D01*
X117652800Y-69761100D01*
X117652800Y-69761100D01*
G37*
X117652800Y-69761100D02*
X116662200Y-69761100D01*
X116662200Y-68999100D01*
X117652800Y-68999100D01*
X117652800Y-69761100D01*
G36*
X115912900Y-72339200D02*
X114896900Y-72339200D01*
X114896900Y-71213261D01*
X115912900Y-71213261D01*
X115912900Y-72339200D01*
X115912900Y-72339200D01*
G37*
X115912900Y-72339200D02*
X114896900Y-72339200D01*
X114896900Y-71213261D01*
X115912900Y-71213261D01*
X115912900Y-72339200D01*
G36*
X110489378Y-70405154D02*
X109524178Y-70405154D01*
X109524178Y-69185954D01*
X110489378Y-69185954D01*
X110489378Y-70405154D01*
X110489378Y-70405154D01*
G37*
X110489378Y-70405154D02*
X109524178Y-70405154D01*
X109524178Y-69185954D01*
X110489378Y-69185954D01*
X110489378Y-70405154D01*
G36*
X101878778Y-73376954D02*
X100862778Y-73376954D01*
X100862778Y-73249954D01*
X100926278Y-73249954D01*
X100975688Y-73239948D01*
X101017313Y-73211507D01*
X101044593Y-73169113D01*
X101053278Y-73122954D01*
X101053278Y-72487954D01*
X101878778Y-72487954D01*
X101878778Y-73376954D01*
X101878778Y-73376954D01*
G37*
X101878778Y-73376954D02*
X100862778Y-73376954D01*
X100862778Y-73249954D01*
X100926278Y-73249954D01*
X100975688Y-73239948D01*
X101017313Y-73211507D01*
X101044593Y-73169113D01*
X101053278Y-73122954D01*
X101053278Y-72487954D01*
X101878778Y-72487954D01*
X101878778Y-73376954D01*
G36*
X101370778Y-69820954D02*
X101116778Y-69820954D01*
X101116778Y-69566954D01*
X101106772Y-69517544D01*
X101078331Y-69475919D01*
X101035937Y-69448639D01*
X100989778Y-69439954D01*
X100227778Y-69439954D01*
X100227778Y-69165622D01*
X100759779Y-68677954D01*
X101370778Y-68677954D01*
X101370778Y-69820954D01*
X101370778Y-69820954D01*
G37*
X101370778Y-69820954D02*
X101116778Y-69820954D01*
X101116778Y-69566954D01*
X101106772Y-69517544D01*
X101078331Y-69475919D01*
X101035937Y-69448639D01*
X100989778Y-69439954D01*
X100227778Y-69439954D01*
X100227778Y-69165622D01*
X100759779Y-68677954D01*
X101370778Y-68677954D01*
X101370778Y-69820954D01*
G36*
X131711078Y-64283754D02*
X131584078Y-64283754D01*
X131584078Y-63956000D01*
X131711078Y-63956000D01*
X131711078Y-64283754D01*
X131711078Y-64283754D01*
G37*
X131711078Y-64283754D02*
X131584078Y-64283754D01*
X131584078Y-63956000D01*
X131711078Y-63956000D01*
X131711078Y-64283754D01*
D43*
G36*
X131761878Y-79503200D02*
X131507878Y-79503200D01*
X131507878Y-78952254D01*
X131761878Y-78952254D01*
X131761878Y-79503200D01*
X131761878Y-79503200D01*
G37*
X131761878Y-79503200D02*
X131507878Y-79503200D01*
X131507878Y-78952254D01*
X131761878Y-78952254D01*
X131761878Y-79503200D01*
D44*
G36*
X142036178Y-68690654D02*
X140385178Y-68690654D01*
X140385178Y-68119154D01*
X142036178Y-68119154D01*
X142036178Y-68690654D01*
X142036178Y-68690654D01*
G37*
X142036178Y-68690654D02*
X140385178Y-68690654D01*
X140385178Y-68119154D01*
X142036178Y-68119154D01*
X142036178Y-68690654D01*
G36*
X144660180Y-72473000D02*
X142627000Y-72473000D01*
X142627000Y-71227000D01*
X144671810Y-71227000D01*
X144660180Y-72473000D01*
X144660180Y-72473000D01*
G37*
X144660180Y-72473000D02*
X142627000Y-72473000D01*
X142627000Y-71227000D01*
X144671810Y-71227000D01*
X144660180Y-72473000D01*
G36*
X107911999Y-73567454D02*
X106642003Y-73567454D01*
X106644896Y-73059454D01*
X107914892Y-73059454D01*
X107911999Y-73567454D01*
X107911999Y-73567454D01*
G37*
X107911999Y-73567454D02*
X106642003Y-73567454D01*
X106644896Y-73059454D01*
X107914892Y-73059454D01*
X107911999Y-73567454D01*
G36*
X130632116Y-76225400D02*
X130251116Y-76225400D01*
X130250662Y-75535954D01*
X130631662Y-75535954D01*
X130632116Y-76225400D01*
X130632116Y-76225400D01*
G37*
X130632116Y-76225400D02*
X130251116Y-76225400D01*
X130250662Y-75535954D01*
X130631662Y-75535954D01*
X130632116Y-76225400D01*
G36*
X108863778Y-75154954D02*
X107974778Y-75154954D01*
X107974778Y-74392954D01*
X108863778Y-74392954D01*
X108863778Y-75154954D01*
X108863778Y-75154954D01*
G37*
X108863778Y-75154954D02*
X107974778Y-75154954D01*
X107974778Y-74392954D01*
X108863778Y-74392954D01*
X108863778Y-75154954D01*
G36*
X112546778Y-72487954D02*
X111530778Y-72487954D01*
X111530778Y-71852954D01*
X112546778Y-71852954D01*
X112546778Y-72487954D01*
X112546778Y-72487954D01*
G37*
X112546778Y-72487954D02*
X111530778Y-72487954D01*
X111530778Y-71852954D01*
X112546778Y-71852954D01*
X112546778Y-72487954D01*
G36*
X108133000Y-67011946D02*
X108133000Y-67773946D01*
X106089778Y-67773906D01*
X106089778Y-67011906D01*
X108133000Y-67011946D01*
X108133000Y-67011946D01*
G37*
X108133000Y-67011946D02*
X108133000Y-67773946D01*
X106089778Y-67773906D01*
X106089778Y-67011906D01*
X108133000Y-67011946D01*
G36*
X133616078Y-75726454D02*
X132727078Y-75726454D01*
X132727078Y-74583454D01*
X133616078Y-74583454D01*
X133616078Y-75726454D01*
X133616078Y-75726454D01*
G37*
X133616078Y-75726454D02*
X132727078Y-75726454D01*
X132727078Y-74583454D01*
X133616078Y-74583454D01*
X133616078Y-75726454D01*
G36*
X111276778Y-71217954D02*
X111227368Y-71227960D01*
X111186975Y-71255151D01*
X110932975Y-71509151D01*
X110905112Y-71551165D01*
X110895778Y-71598954D01*
X110895778Y-73884954D01*
X110905784Y-73934364D01*
X110934225Y-73975989D01*
X110976619Y-74003269D01*
X111022625Y-74011954D01*
X114209071Y-74015790D01*
X114744718Y-74538310D01*
X114787074Y-74565649D01*
X114833400Y-74574400D01*
X115582700Y-74574400D01*
X115582700Y-75285800D01*
X110388363Y-75285605D01*
X110387778Y-73249917D01*
X110377758Y-73200510D01*
X110349305Y-73158894D01*
X110306903Y-73131626D01*
X110260778Y-73122954D01*
X108863778Y-73122954D01*
X108863778Y-70963954D01*
X110641778Y-70963954D01*
X110691188Y-70953948D01*
X110731581Y-70926757D01*
X110948384Y-70709954D01*
X111276778Y-70709954D01*
X111276778Y-71217954D01*
X111276778Y-71217954D01*
G37*
X111276778Y-71217954D02*
X111227368Y-71227960D01*
X111186975Y-71255151D01*
X110932975Y-71509151D01*
X110905112Y-71551165D01*
X110895778Y-71598954D01*
X110895778Y-73884954D01*
X110905784Y-73934364D01*
X110934225Y-73975989D01*
X110976619Y-74003269D01*
X111022625Y-74011954D01*
X114209071Y-74015790D01*
X114744718Y-74538310D01*
X114787074Y-74565649D01*
X114833400Y-74574400D01*
X115582700Y-74574400D01*
X115582700Y-75285800D01*
X110388363Y-75285605D01*
X110387778Y-73249917D01*
X110377758Y-73200510D01*
X110349305Y-73158894D01*
X110306903Y-73131626D01*
X110260778Y-73122954D01*
X108863778Y-73122954D01*
X108863778Y-70963954D01*
X110641778Y-70963954D01*
X110691188Y-70953948D01*
X110731581Y-70926757D01*
X110948384Y-70709954D01*
X111276778Y-70709954D01*
X111276778Y-71217954D01*
G36*
X116065300Y-69837300D02*
X116075306Y-69886710D01*
X116102497Y-69927103D01*
X116963566Y-70788172D01*
X117563900Y-71460546D01*
X117563900Y-71907400D01*
X116598700Y-71907400D01*
X116598700Y-71221600D01*
X116588694Y-71172190D01*
X116561503Y-71131797D01*
X115608100Y-70178394D01*
X115608100Y-67830700D01*
X116065300Y-67830700D01*
X116065300Y-69837300D01*
X116065300Y-69837300D01*
G37*
X116065300Y-69837300D02*
X116075306Y-69886710D01*
X116102497Y-69927103D01*
X116963566Y-70788172D01*
X117563900Y-71460546D01*
X117563900Y-71907400D01*
X116598700Y-71907400D01*
X116598700Y-71221600D01*
X116588694Y-71172190D01*
X116561503Y-71131797D01*
X115608100Y-70178394D01*
X115608100Y-67830700D01*
X116065300Y-67830700D01*
X116065300Y-69837300D01*
G36*
X120865900Y-77520800D02*
X120875906Y-77570210D01*
X120893730Y-77600136D01*
X120944530Y-77663636D01*
X120983209Y-77695969D01*
X121043700Y-77711300D01*
X123825000Y-77711300D01*
X123825000Y-78765400D01*
X123826939Y-78774977D01*
X122059700Y-78754186D01*
X122059700Y-78587600D01*
X122049694Y-78538190D01*
X122021253Y-78496565D01*
X121978859Y-78469285D01*
X121932700Y-78460600D01*
X120180100Y-78460600D01*
X120180100Y-76557406D01*
X120478330Y-76259176D01*
X120481800Y-76259176D01*
X120575927Y-76241465D01*
X120662376Y-76185836D01*
X120720372Y-76100956D01*
X120740776Y-76000200D01*
X120740776Y-75996730D01*
X120791506Y-75946000D01*
X120865900Y-75946000D01*
X120865900Y-77520800D01*
X120865900Y-77520800D01*
G37*
X120865900Y-77520800D02*
X120875906Y-77570210D01*
X120893730Y-77600136D01*
X120944530Y-77663636D01*
X120983209Y-77695969D01*
X121043700Y-77711300D01*
X123825000Y-77711300D01*
X123825000Y-78765400D01*
X123826939Y-78774977D01*
X122059700Y-78754186D01*
X122059700Y-78587600D01*
X122049694Y-78538190D01*
X122021253Y-78496565D01*
X121978859Y-78469285D01*
X121932700Y-78460600D01*
X120180100Y-78460600D01*
X120180100Y-76557406D01*
X120478330Y-76259176D01*
X120481800Y-76259176D01*
X120575927Y-76241465D01*
X120662376Y-76185836D01*
X120720372Y-76100956D01*
X120740776Y-76000200D01*
X120740776Y-75996730D01*
X120791506Y-75946000D01*
X120865900Y-75946000D01*
X120865900Y-77520800D01*
G36*
X131013200Y-64283754D02*
X130886200Y-64283754D01*
X130886200Y-63956000D01*
X131013200Y-63956000D01*
X131013200Y-64283754D01*
X131013200Y-64283754D01*
G37*
X131013200Y-64283754D02*
X130886200Y-64283754D01*
X130886200Y-63956000D01*
X131013200Y-63956000D01*
X131013200Y-64283754D01*
G36*
X130505200Y-64283754D02*
X130378200Y-64283754D01*
X130378200Y-63956000D01*
X130505200Y-63956000D01*
X130505200Y-64283754D01*
X130505200Y-64283754D01*
G37*
X130505200Y-64283754D02*
X130378200Y-64283754D01*
X130378200Y-63956000D01*
X130505200Y-63956000D01*
X130505200Y-64283754D01*
G36*
X154333000Y-76000000D02*
X154343006Y-76049410D01*
X154371447Y-76091035D01*
X154413841Y-76118315D01*
X154460224Y-76127000D01*
X156130780Y-76124052D01*
X156117881Y-76606231D01*
X153267000Y-76603138D01*
X153267000Y-75907000D01*
X154333000Y-75907000D01*
X154333000Y-76000000D01*
X154333000Y-76000000D01*
G37*
X154333000Y-76000000D02*
X154343006Y-76049410D01*
X154371447Y-76091035D01*
X154413841Y-76118315D01*
X154460224Y-76127000D01*
X156130780Y-76124052D01*
X156117881Y-76606231D01*
X153267000Y-76603138D01*
X153267000Y-75907000D01*
X154333000Y-75907000D01*
X154333000Y-76000000D01*
G36*
X150393400Y-69479894D02*
X150112194Y-69761100D01*
X147561300Y-69761100D01*
X147511890Y-69771106D01*
X147471497Y-69798297D01*
X146860994Y-70408800D01*
X145721576Y-70408800D01*
X145731772Y-69674734D01*
X146305806Y-69100700D01*
X150393400Y-69100700D01*
X150393400Y-69479894D01*
X150393400Y-69479894D01*
G37*
X150393400Y-69479894D02*
X150112194Y-69761100D01*
X147561300Y-69761100D01*
X147511890Y-69771106D01*
X147471497Y-69798297D01*
X146860994Y-70408800D01*
X145721576Y-70408800D01*
X145731772Y-69674734D01*
X146305806Y-69100700D01*
X150393400Y-69100700D01*
X150393400Y-69479894D01*
G36*
X152984200Y-78930500D02*
X149847300Y-78930500D01*
X149847300Y-78181200D01*
X152984200Y-78181200D01*
X152984200Y-78930500D01*
X152984200Y-78930500D01*
G37*
X152984200Y-78930500D02*
X149847300Y-78930500D01*
X149847300Y-78181200D01*
X152984200Y-78181200D01*
X152984200Y-78930500D01*
G36*
X143131065Y-79439700D02*
X139448076Y-79439700D01*
X139458849Y-78257000D01*
X143141838Y-78257000D01*
X143131065Y-79439700D01*
X143131065Y-79439700D01*
G37*
X143131065Y-79439700D02*
X139448076Y-79439700D01*
X139458849Y-78257000D01*
X143141838Y-78257000D01*
X143131065Y-79439700D01*
G36*
X138049379Y-79439700D02*
X134366380Y-79439700D01*
X134368180Y-78422500D01*
X138051179Y-78422500D01*
X138049379Y-79439700D01*
X138049379Y-79439700D01*
G37*
X138049379Y-79439700D02*
X134366380Y-79439700D01*
X134368180Y-78422500D01*
X138051179Y-78422500D01*
X138049379Y-79439700D01*
G36*
X136958968Y-64897000D02*
X133275969Y-64897000D01*
X133274222Y-63956000D01*
X136957221Y-63956000D01*
X136958968Y-64897000D01*
X136958968Y-64897000D01*
G37*
X136958968Y-64897000D02*
X133275969Y-64897000D01*
X133274222Y-63956000D01*
X136957221Y-63956000D01*
X136958968Y-64897000D01*
G36*
X142036800Y-64268487D02*
X138353800Y-64874400D01*
X138353800Y-63956000D01*
X142036800Y-63956000D01*
X142036800Y-64268487D01*
X142036800Y-64268487D01*
G37*
X142036800Y-64268487D02*
X138353800Y-64874400D01*
X138353800Y-63956000D01*
X142036800Y-63956000D01*
X142036800Y-64268487D01*
G36*
X134554926Y-71943000D02*
X134046926Y-71943000D01*
X134046926Y-71562000D01*
X134554926Y-71562000D01*
X134554926Y-71943000D01*
X134554926Y-71943000D01*
G37*
X134554926Y-71943000D02*
X134046926Y-71943000D01*
X134046926Y-71562000D01*
X134554926Y-71562000D01*
X134554926Y-71943000D01*
M02*
