G04 #@! TF.FileFunction,Copper,L2,Inr,Plane*
%FSLAX46Y46*%
G04 Gerber Fmt 4.6, Leading zero omitted, Abs format (unit mm)*
G04 Created by KiCad (PCBNEW 4.0.7) date Wed May 16 14:43:50 2018*
%MOMM*%
%LPD*%
G01*
G04 APERTURE LIST*
%ADD10C,0.100000*%
%ADD11C,0.150000*%
%ADD12C,0.450000*%
%ADD13C,0.254000*%
%ADD14C,0.127000*%
%ADD15C,0.508000*%
%ADD16C,1.000000*%
%ADD17C,0.254000*%
G04 APERTURE END LIST*
D10*
D11*
X117576600Y-63627000D02*
X115582700Y-65620900D01*
X113995200Y-76619100D02*
X96151700Y-76619100D01*
X117144800Y-79768700D02*
X113995200Y-76619100D01*
X156362400Y-79768700D02*
X156794200Y-63627000D01*
X117576600Y-63627000D02*
X156794200Y-63627000D01*
X117144800Y-79768700D02*
X156362400Y-79768700D01*
X94154778Y-72622954D02*
X96154778Y-72622954D01*
X94154778Y-69622954D02*
X94154778Y-72622954D01*
X96154778Y-69622954D02*
X94154778Y-69622954D01*
X96154778Y-69622954D02*
X96154778Y-65622954D01*
X96154778Y-65622954D02*
X115582700Y-65620900D01*
X96154778Y-76622954D02*
X96154778Y-72622954D01*
D12*
X108030000Y-67400000D03*
X122033678Y-78749054D03*
X139865100Y-64236600D03*
X139357100Y-64236600D03*
X138849100Y-64223900D03*
X138341100Y-64211200D03*
X138811000Y-64858900D03*
X138290300Y-64922400D03*
X139484100Y-78422500D03*
X139979400Y-78435200D03*
X140487400Y-78435200D03*
X140995400Y-78435200D03*
X141516100Y-78435200D03*
X142036800Y-78435200D03*
X142557500Y-78422500D03*
X143065500Y-78422500D03*
X152942454Y-78423122D03*
X152942454Y-78804122D03*
X122900000Y-78750000D03*
X123340000Y-78740000D03*
X122470000Y-78760000D03*
X125520000Y-78749054D03*
X124660000Y-78750000D03*
X123780000Y-78740000D03*
X124220000Y-78750000D03*
X125081678Y-78749054D03*
X117665500Y-69735700D03*
X153283278Y-70937454D03*
X153290000Y-71370000D03*
X107085778Y-73180000D03*
X114640000Y-70740000D03*
X112546778Y-71852954D03*
X112038778Y-71852954D03*
X111530778Y-71852954D03*
X106180000Y-67470000D03*
X108101778Y-74392954D03*
X108620000Y-74760000D03*
X108101778Y-75154954D03*
X104220000Y-67210000D03*
X130275978Y-76221754D03*
X130656978Y-76221754D03*
X107466778Y-73503954D03*
X107830000Y-73180000D03*
X106704778Y-73503954D03*
X122162878Y-64855254D03*
X122600000Y-64855254D03*
X123040000Y-64855254D03*
X128282078Y-69884454D03*
X126504078Y-69884454D03*
X124726078Y-69884454D03*
X124726078Y-72106954D03*
X126504078Y-72106954D03*
X124726078Y-71154454D03*
X128282078Y-71154454D03*
X128282078Y-72106954D03*
X134500000Y-71900000D03*
X134070000Y-71910000D03*
X129470000Y-74770000D03*
X129460000Y-74330000D03*
X129030000Y-74330000D03*
X146280000Y-69270000D03*
X146730000Y-69274854D03*
X147180000Y-69274854D03*
X150100000Y-69630000D03*
X150146254Y-69178622D03*
X149894454Y-78804122D03*
X149894454Y-78423122D03*
X129044078Y-74773954D03*
X129806078Y-71789454D03*
X129806078Y-70900454D03*
X129780000Y-69480000D03*
X129070000Y-68620000D03*
X127266078Y-68614454D03*
X125742078Y-68614454D03*
X123200000Y-69480000D03*
X123202078Y-70773454D03*
X123202078Y-72043454D03*
X123480000Y-64855254D03*
X123920000Y-64855254D03*
X124360000Y-64855254D03*
X124800000Y-64860000D03*
X125240000Y-64860000D03*
X132854700Y-74777600D03*
X132860000Y-75260000D03*
X113689778Y-68931954D03*
X113689778Y-69693954D03*
X113689778Y-70455954D03*
X113689778Y-71217954D03*
X113689778Y-71979954D03*
X113689778Y-66137954D03*
X112927778Y-66137954D03*
X112165778Y-66137954D03*
X111403778Y-66137954D03*
X110641778Y-66137954D03*
X109879778Y-66137954D03*
X109117778Y-66137954D03*
X108355778Y-66137954D03*
X107593778Y-66137954D03*
X106831778Y-66137954D03*
X106069778Y-66110000D03*
X105307778Y-66137954D03*
X104545778Y-66137954D03*
X103783778Y-66137954D03*
X102894778Y-66137954D03*
X102132778Y-66137954D03*
X101370778Y-66137954D03*
X100608778Y-66137954D03*
X99846778Y-66137954D03*
X99084778Y-66137954D03*
X98322778Y-66137954D03*
X97560778Y-66137954D03*
X96671778Y-66391954D03*
X96671778Y-67153954D03*
X96671778Y-67915954D03*
X96671778Y-68677954D03*
X96671778Y-69439954D03*
X96671778Y-70201954D03*
X96671778Y-70963954D03*
X96671778Y-71725954D03*
X96671778Y-72487954D03*
X97880000Y-67280000D03*
X96671778Y-73249954D03*
X96671778Y-74011954D03*
X96671778Y-74773954D03*
X96671778Y-75408954D03*
X97433778Y-76170954D03*
X98322778Y-76170954D03*
X99084778Y-76170954D03*
X99846778Y-76170954D03*
X100608778Y-76170954D03*
X101300000Y-76170000D03*
X102005778Y-76170954D03*
X102767778Y-76170954D03*
X103529778Y-76170954D03*
X104418778Y-76170954D03*
X105180778Y-76170954D03*
X105942778Y-76170954D03*
X106704778Y-76170954D03*
X107466778Y-76170954D03*
X108228778Y-76170954D03*
X108990778Y-76170954D03*
X109752778Y-76170954D03*
X110641778Y-76170954D03*
X111403778Y-76170954D03*
X112165778Y-76170954D03*
X112927778Y-76170954D03*
X98310000Y-67280954D03*
X102410000Y-74020000D03*
X102386778Y-68169954D03*
X103402778Y-68169954D03*
X101654778Y-69622954D03*
X101154778Y-69622954D03*
X104154778Y-69622954D03*
X103654778Y-69622954D03*
X103154778Y-69622954D03*
X102654778Y-69622954D03*
X102154778Y-69622954D03*
X102154778Y-70122954D03*
X102654778Y-70122954D03*
X103154778Y-70122954D03*
X103654778Y-70122954D03*
X104154778Y-70122954D03*
X101654778Y-70122954D03*
X101154778Y-70122954D03*
X102154778Y-70622954D03*
X102654778Y-70622954D03*
X103154778Y-70622954D03*
X103654778Y-70622954D03*
X104154778Y-70622954D03*
X101654778Y-70622954D03*
X101154778Y-70622954D03*
X101154778Y-72614954D03*
X101624778Y-72614954D03*
X104154778Y-72622954D03*
X103654778Y-72622954D03*
X103154778Y-72622954D03*
X102654778Y-72622954D03*
X102154778Y-72622954D03*
X102154778Y-72122954D03*
X102654778Y-72122954D03*
X103154778Y-72122954D03*
X103654778Y-72122954D03*
X104154778Y-72122954D03*
X101654778Y-72122954D03*
X101154778Y-72122954D03*
X101154778Y-71622954D03*
X101654778Y-71622954D03*
X104154778Y-71622954D03*
X103654778Y-71622954D03*
X103154778Y-71622954D03*
X102654778Y-71622954D03*
X102154778Y-71622954D03*
X102154778Y-71122954D03*
X102654778Y-71122954D03*
X103154778Y-71122954D03*
X101654778Y-71122954D03*
X101154778Y-71122954D03*
X104154778Y-71122954D03*
X103654778Y-71122954D03*
X96671778Y-76170954D03*
X109498778Y-70379754D03*
X109980000Y-70370000D03*
X110463978Y-70379754D03*
X115862100Y-72326500D03*
X115214400Y-72326500D03*
X116687600Y-69735700D03*
X117195600Y-69748400D03*
X129806078Y-72932454D03*
X126504078Y-71154454D03*
X123910000Y-68630000D03*
X123200000Y-72830000D03*
X124870000Y-74610000D03*
X113689778Y-76170954D03*
X152875778Y-71889954D03*
X152875778Y-71460000D03*
X153300000Y-71810000D03*
X152870000Y-71020000D03*
X113689778Y-73376954D03*
X113689778Y-72741954D03*
X152796400Y-69273400D03*
X152370000Y-69510000D03*
X152796400Y-69781400D03*
X152400000Y-70060000D03*
X152796400Y-70289400D03*
X120040400Y-71018400D03*
X117570000Y-71870000D03*
X117118778Y-71852954D03*
X116660000Y-71870000D03*
X116670000Y-71430000D03*
X117120000Y-71420000D03*
X117570000Y-71420000D03*
X117570000Y-71030000D03*
X117118778Y-70990000D03*
X116670000Y-71020000D03*
X107212778Y-74342154D03*
X116179600Y-66607854D03*
X116662200Y-66607854D03*
X120599200Y-72682100D03*
X120205500Y-72750000D03*
X120460000Y-68530000D03*
X120471578Y-68982754D03*
X115594778Y-66607854D03*
X117182278Y-66607852D03*
X120434100Y-71501000D03*
X110641778Y-74392954D03*
X110641778Y-74837454D03*
X105404778Y-74695954D03*
X105400000Y-74260000D03*
X114807378Y-74837454D03*
X118860000Y-78110000D03*
X118300000Y-78110000D03*
X118580000Y-78498700D03*
X133690000Y-64947800D03*
X117807900Y-78096000D03*
X119357300Y-78108700D03*
X134289800Y-64947800D03*
X134848600Y-64947800D03*
X135420100Y-64947800D03*
X136004300Y-64947800D03*
X136588500Y-64947800D03*
X119621300Y-65214500D03*
X119126000Y-65214500D03*
X118630700Y-65214500D03*
X118135400Y-65214500D03*
D13*
X134772400Y-77995053D03*
X135267700Y-77995053D03*
X135775700Y-77995053D03*
X136283700Y-77995053D03*
X136791700Y-77995053D03*
X137299700Y-77995053D03*
X137803347Y-77995053D03*
D12*
X119621300Y-78498700D03*
X119100600Y-78498700D03*
X118071900Y-78498700D03*
X117565705Y-78486000D03*
X121424700Y-72263000D03*
X120200000Y-72150000D03*
X125395580Y-66995275D03*
X105400000Y-75320000D03*
X154250000Y-75830000D03*
X153810000Y-75840000D03*
X153370000Y-75860000D03*
X153350000Y-76310000D03*
X153790000Y-76280000D03*
X154240000Y-76270000D03*
X143064878Y-71256054D03*
X144144378Y-71256054D03*
X141671678Y-68553154D03*
X141163678Y-68553154D03*
X143636378Y-71256054D03*
X140655678Y-68553154D03*
X140970000Y-76260000D03*
X140970000Y-75819000D03*
X140970000Y-75370000D03*
X120890678Y-74329454D03*
X121271678Y-74329454D03*
X129130000Y-76230000D03*
X152860000Y-65460000D03*
X128690000Y-76180000D03*
X128028700Y-74830000D03*
X133340000Y-77110000D03*
X153390000Y-66030000D03*
X129720000Y-76080000D03*
X128041400Y-67490000D03*
X132461000Y-66776600D03*
X153370000Y-64900000D03*
X129040000Y-66110000D03*
X128740000Y-66410000D03*
X99406780Y-73240000D03*
X120868979Y-70396541D03*
X98611300Y-73942785D03*
X121442063Y-70230954D03*
X102171735Y-67634521D03*
X102867945Y-67851506D03*
X103640000Y-74870000D03*
X103650000Y-75310000D03*
X123914064Y-67055954D03*
X98449778Y-75154954D03*
X105005289Y-68516454D03*
X121487578Y-67725454D03*
X124720000Y-66530000D03*
X121158000Y-66560700D03*
X105980000Y-68340000D03*
X105551828Y-68331453D03*
X120773401Y-70965572D03*
X122555622Y-74628846D03*
X122047622Y-74628846D03*
X130340000Y-66460000D03*
X131530000Y-70790000D03*
X131800600Y-70464680D03*
X126100000Y-67490000D03*
X100291278Y-75281924D03*
X148373478Y-68330000D03*
X132720000Y-72780000D03*
X148350000Y-67770000D03*
X132720000Y-72210000D03*
X133185940Y-71618599D03*
X148940000Y-65620000D03*
X133185940Y-71041599D03*
X148944978Y-65040000D03*
X132670000Y-70050000D03*
X132250000Y-70074954D03*
X123290000Y-74550000D03*
X131030000Y-66450000D03*
D14*
X128436744Y-70199690D02*
X128434479Y-70201955D01*
X149780000Y-68888600D02*
X145427700Y-73240900D01*
X121336282Y-75390000D02*
X119799099Y-73852817D01*
X145427700Y-73240900D02*
X132584355Y-73240900D01*
X132584355Y-73240900D02*
X130435255Y-75390000D01*
X119799099Y-71259701D02*
X120040400Y-71018400D01*
X130435255Y-75390000D02*
X121336282Y-75390000D01*
X119799099Y-73852817D02*
X119799099Y-71259701D01*
X149897479Y-68771121D02*
X149780000Y-68888600D01*
X152464121Y-68771121D02*
X150353695Y-68771121D01*
X150353695Y-68771121D02*
X150345695Y-68763121D01*
X150345695Y-68763121D02*
X149905479Y-68763121D01*
X149905479Y-68763121D02*
X149780000Y-68888600D01*
X152806400Y-69113400D02*
X152464121Y-68771121D01*
D15*
X117106700Y-74193400D02*
X117118778Y-74181322D01*
X117118778Y-74181322D02*
X117118778Y-71471954D01*
X119744655Y-76831355D02*
X117106700Y-74193400D01*
X146735318Y-73812400D02*
X135392974Y-73812400D01*
X135392974Y-73812400D02*
X132374019Y-76831355D01*
X132374019Y-76831355D02*
X119744655Y-76831355D01*
X152626795Y-69875400D02*
X150672318Y-69875400D01*
X150672318Y-69875400D02*
X146735318Y-73812400D01*
D16*
X152474395Y-69723000D02*
X152133300Y-69723000D01*
X152626795Y-69875400D02*
X152474395Y-69723000D01*
D17*
X152806400Y-69621400D02*
X152806400Y-69367400D01*
X152806400Y-70129400D02*
X152806400Y-69875400D01*
X152806400Y-69367400D02*
X152806400Y-69113400D01*
X152806400Y-69875400D02*
X152806400Y-69621400D01*
X152806400Y-70383400D02*
X152806400Y-70129400D01*
D16*
X116923577Y-71450200D02*
X116923577Y-71471954D01*
D14*
X117499778Y-71852954D02*
X116737778Y-71090954D01*
X120599200Y-72682100D02*
X121620542Y-72682100D01*
X121620542Y-72682100D02*
X122516900Y-71785742D01*
X122516900Y-71785742D02*
X122516900Y-69236900D01*
X122516900Y-69236900D02*
X122262754Y-68982754D01*
X122262754Y-68982754D02*
X120471578Y-68982754D01*
D15*
X115594778Y-66607854D02*
X116179600Y-66607854D01*
X116179600Y-66607854D02*
X116662200Y-66607854D01*
X116662200Y-66607854D02*
X117182276Y-66607854D01*
X120471578Y-68982754D02*
X120471578Y-68487454D01*
X120471578Y-68487454D02*
X118591976Y-66607852D01*
X118591976Y-66607852D02*
X117182278Y-66607852D01*
D14*
X114807378Y-74837454D02*
X116674268Y-72970564D01*
X116674268Y-72970564D02*
X116674268Y-72499210D01*
X116674268Y-72499210D02*
X116233067Y-72058009D01*
X116233067Y-72058009D02*
X116233067Y-70841991D01*
X116233067Y-70841991D02*
X116500559Y-70574499D01*
X116500559Y-70574499D02*
X118598979Y-70574499D01*
X118598979Y-70574499D02*
X119358025Y-69815453D01*
X119358025Y-69815453D02*
X121641504Y-69815453D01*
X120434100Y-71501000D02*
X120554027Y-71381073D01*
X120554027Y-71381073D02*
X120972842Y-71381073D01*
X120972842Y-71381073D02*
X121857564Y-70496351D01*
X121857564Y-70496351D02*
X121857564Y-70031513D01*
X121857564Y-70031513D02*
X121641504Y-69815453D01*
X114807378Y-74837454D02*
X114807378Y-74803622D01*
X114807378Y-74803622D02*
X114896278Y-74714722D01*
D16*
X119621300Y-78498700D02*
X117578405Y-78498700D01*
X117578405Y-78498700D02*
X117565705Y-78486000D01*
D14*
X118071900Y-78498700D02*
X118071900Y-78338100D01*
X118071900Y-78338100D02*
X118300000Y-78110000D01*
D16*
X119621300Y-78498700D02*
X120232001Y-77887999D01*
X120232001Y-77887999D02*
X132857037Y-77887999D01*
X132857037Y-77887999D02*
X132964091Y-77995053D01*
X132964091Y-77995053D02*
X134150100Y-77995053D01*
D15*
X124460000Y-65707255D02*
X125087255Y-65707255D01*
D16*
X120676455Y-65609255D02*
X121655917Y-65609255D01*
X120281700Y-65214500D02*
X120676455Y-65609255D01*
X123951039Y-65707255D02*
X124460000Y-65707255D01*
X121655917Y-65609255D02*
X121753917Y-65707255D01*
X121753917Y-65707255D02*
X123951039Y-65707255D01*
X133690000Y-64947800D02*
X127272200Y-64947800D01*
X127272200Y-64947800D02*
X126507999Y-65712001D01*
X126507999Y-65712001D02*
X125092001Y-65712001D01*
X125092001Y-65712001D02*
X125087255Y-65707255D01*
X133690000Y-64947800D02*
X134983162Y-64947800D01*
X133690000Y-64947800D02*
X134289800Y-64947800D01*
X136588500Y-64947800D02*
X134983162Y-64947800D01*
X134983162Y-64947800D02*
X134572001Y-64947800D01*
D14*
X120200000Y-72150000D02*
X121311700Y-72150000D01*
X121311700Y-72150000D02*
X121424700Y-72263000D01*
D17*
X134569200Y-64947800D02*
X134289800Y-64947800D01*
X134848600Y-64947800D02*
X134569200Y-64947800D01*
X135128000Y-64947800D02*
X134848600Y-64947800D01*
X135420100Y-64947800D02*
X135128000Y-64947800D01*
X135712200Y-64947800D02*
X135420100Y-64947800D01*
X136004300Y-64947800D02*
X135712200Y-64947800D01*
X136296400Y-64947800D02*
X136004300Y-64947800D01*
X136588500Y-64947800D02*
X136296400Y-64947800D01*
X136867900Y-64947800D02*
X136588500Y-64947800D01*
X136994900Y-64947800D02*
X136867900Y-64947800D01*
X119621300Y-65214500D02*
X120281700Y-65214500D01*
X119367300Y-65214500D02*
X119621300Y-65214500D01*
X119126000Y-65214500D02*
X119367300Y-65214500D01*
X118872000Y-65214500D02*
X119126000Y-65214500D01*
X118630700Y-65214500D02*
X118872000Y-65214500D01*
X118376700Y-65214500D02*
X118630700Y-65214500D01*
X118135400Y-65214500D02*
X118376700Y-65214500D01*
D16*
X134150100Y-77995053D02*
X137803347Y-77995053D01*
D17*
X134772400Y-77995053D02*
X134150100Y-77995053D01*
X135013700Y-77995053D02*
X134772400Y-77995053D01*
X135267700Y-77995053D02*
X135013700Y-77995053D01*
X135521700Y-77995053D02*
X135267700Y-77995053D01*
X135775700Y-77995053D02*
X135521700Y-77995053D01*
X136029700Y-77995053D02*
X135775700Y-77995053D01*
X136283700Y-77995053D02*
X136029700Y-77995053D01*
X136537700Y-77995053D02*
X136283700Y-77995053D01*
X136791700Y-77995053D02*
X136537700Y-77995053D01*
X137045700Y-77995053D02*
X136791700Y-77995053D01*
X137299700Y-77995053D02*
X137045700Y-77995053D01*
X137553700Y-77995053D02*
X137299700Y-77995053D01*
X137803347Y-77995053D02*
X137553700Y-77995053D01*
X119100600Y-78498700D02*
X119367300Y-78498700D01*
X118071900Y-78498700D02*
X118325900Y-78498700D01*
X117565705Y-78486000D02*
X117817900Y-78486000D01*
X117386100Y-78486000D02*
X117565705Y-78486000D01*
D14*
X153370000Y-75860000D02*
X153790000Y-75860000D01*
X153790000Y-75860000D02*
X153810000Y-75840000D01*
X153790000Y-76280000D02*
X153380000Y-76280000D01*
X153380000Y-76280000D02*
X153350000Y-76310000D01*
D17*
X141163678Y-68553154D02*
X141163678Y-68623354D01*
X141163678Y-68623354D02*
X141083678Y-68703354D01*
X141083678Y-68703354D02*
X143636378Y-71256054D01*
X141172000Y-68540000D02*
X141680000Y-68540000D01*
X144131678Y-71256054D02*
X143052178Y-71256054D01*
X140575678Y-68560000D02*
X141083678Y-68560000D01*
D14*
X129040434Y-73025000D02*
X129860479Y-72204955D01*
X129860479Y-72204955D02*
X130115045Y-72204955D01*
X130115045Y-72204955D02*
X131305001Y-71014999D01*
X131305001Y-71014999D02*
X131530000Y-70790000D01*
X131530000Y-70790000D02*
X131530000Y-70735280D01*
X131530000Y-70735280D02*
X131800600Y-70464680D01*
X131600000Y-70710000D02*
X131600000Y-70665280D01*
X131600000Y-70665280D02*
X131800600Y-70464680D01*
X131800600Y-70464680D02*
X131694404Y-70464680D01*
X131694404Y-70464680D02*
X131647579Y-70417855D01*
X122555622Y-74628846D02*
X124159468Y-73025000D01*
X124159468Y-73025000D02*
X129040434Y-73025000D01*
X131647579Y-70417855D02*
X131647579Y-70328953D01*
X131647579Y-70328953D02*
X131774578Y-70201954D01*
X130441078Y-67598454D02*
X130441078Y-66455454D01*
X131774578Y-68931954D02*
X130441078Y-67598454D01*
X131774578Y-70201954D02*
X131774578Y-68931954D01*
X123701647Y-74075453D02*
X128074547Y-74075453D01*
X128074547Y-74075453D02*
X128802045Y-73347955D01*
X128802045Y-73347955D02*
X130000175Y-73347955D01*
X130000175Y-73347955D02*
X132536579Y-70811551D01*
X132727078Y-69122454D02*
X132727078Y-70073520D01*
X132727078Y-70073520D02*
X132727078Y-70392454D01*
X132449406Y-70074954D02*
X132629011Y-70074954D01*
X132629011Y-70074954D02*
X132630445Y-70073520D01*
X132630445Y-70073520D02*
X132727078Y-70073520D01*
X132170006Y-70074954D02*
X132449406Y-70074954D01*
X123701647Y-74075453D02*
X123266200Y-74510900D01*
X132536579Y-70582953D02*
X132536579Y-70811551D01*
X130949078Y-66455454D02*
X130949078Y-67344454D01*
X130949078Y-67344454D02*
X132727078Y-69122454D01*
X132727078Y-70392454D02*
X132536579Y-70582953D01*
D17*
G36*
X113943778Y-76290100D02*
X96544778Y-76290100D01*
X96544778Y-75249815D01*
X97970695Y-75249815D01*
X98043465Y-75425931D01*
X98178092Y-75560794D01*
X98354081Y-75633871D01*
X98544639Y-75634037D01*
X98720755Y-75561267D01*
X98855618Y-75426640D01*
X98876319Y-75376785D01*
X99812195Y-75376785D01*
X99884965Y-75552901D01*
X100019592Y-75687764D01*
X100195581Y-75760841D01*
X100386139Y-75761007D01*
X100562255Y-75688237D01*
X100697118Y-75553610D01*
X100770195Y-75377621D01*
X100770361Y-75187063D01*
X100697591Y-75010947D01*
X100651586Y-74964861D01*
X103160917Y-74964861D01*
X103217648Y-75102161D01*
X103171083Y-75214303D01*
X103170917Y-75404861D01*
X103243687Y-75580977D01*
X103378314Y-75715840D01*
X103554303Y-75788917D01*
X103744861Y-75789083D01*
X103920977Y-75716313D01*
X104055840Y-75581686D01*
X104128917Y-75405697D01*
X104129083Y-75215139D01*
X104072352Y-75077839D01*
X104118917Y-74965697D01*
X104119083Y-74775139D01*
X104046313Y-74599023D01*
X103911686Y-74464160D01*
X103735697Y-74391083D01*
X103545139Y-74390917D01*
X103369023Y-74463687D01*
X103234160Y-74598314D01*
X103161083Y-74774303D01*
X103160917Y-74964861D01*
X100651586Y-74964861D01*
X100562964Y-74876084D01*
X100386975Y-74803007D01*
X100196417Y-74802841D01*
X100020301Y-74875611D01*
X99885438Y-75010238D01*
X99812361Y-75186227D01*
X99812195Y-75376785D01*
X98876319Y-75376785D01*
X98928695Y-75250651D01*
X98928861Y-75060093D01*
X98856091Y-74883977D01*
X98721464Y-74749114D01*
X98545475Y-74676037D01*
X98354917Y-74675871D01*
X98178801Y-74748641D01*
X98043938Y-74883268D01*
X97970861Y-75059257D01*
X97970695Y-75249815D01*
X96544778Y-75249815D01*
X96544778Y-74037646D01*
X98132217Y-74037646D01*
X98204987Y-74213762D01*
X98339614Y-74348625D01*
X98515603Y-74421702D01*
X98706161Y-74421868D01*
X98868329Y-74354861D01*
X104920917Y-74354861D01*
X104974206Y-74483829D01*
X104925861Y-74600257D01*
X104925695Y-74790815D01*
X104998465Y-74966931D01*
X105037008Y-75005541D01*
X104994160Y-75048314D01*
X104921083Y-75224303D01*
X104920917Y-75414861D01*
X104993687Y-75590977D01*
X105128314Y-75725840D01*
X105304303Y-75798917D01*
X105494861Y-75799083D01*
X105670977Y-75726313D01*
X105805840Y-75591686D01*
X105878917Y-75415697D01*
X105879083Y-75225139D01*
X105806313Y-75049023D01*
X105767770Y-75010413D01*
X105810618Y-74967640D01*
X105883695Y-74791651D01*
X105883861Y-74601093D01*
X105837056Y-74487815D01*
X110162695Y-74487815D01*
X110215371Y-74615299D01*
X110162861Y-74741757D01*
X110162695Y-74932315D01*
X110235465Y-75108431D01*
X110370092Y-75243294D01*
X110546081Y-75316371D01*
X110736639Y-75316537D01*
X110912755Y-75243767D01*
X111047618Y-75109140D01*
X111120695Y-74933151D01*
X111120861Y-74742593D01*
X111068185Y-74615109D01*
X111120695Y-74488651D01*
X111120861Y-74298093D01*
X111048091Y-74121977D01*
X110913464Y-73987114D01*
X110737475Y-73914037D01*
X110546917Y-73913871D01*
X110370801Y-73986641D01*
X110235938Y-74121268D01*
X110162861Y-74297257D01*
X110162695Y-74487815D01*
X105837056Y-74487815D01*
X105830572Y-74472125D01*
X105878917Y-74355697D01*
X105879083Y-74165139D01*
X105806313Y-73989023D01*
X105671686Y-73854160D01*
X105495697Y-73781083D01*
X105305139Y-73780917D01*
X105129023Y-73853687D01*
X104994160Y-73988314D01*
X104921083Y-74164303D01*
X104920917Y-74354861D01*
X98868329Y-74354861D01*
X98882277Y-74349098D01*
X99017140Y-74214471D01*
X99090217Y-74038482D01*
X99090383Y-73847924D01*
X99017613Y-73671808D01*
X98882986Y-73536945D01*
X98706997Y-73463868D01*
X98516439Y-73463702D01*
X98340323Y-73536472D01*
X98205460Y-73671099D01*
X98132383Y-73847088D01*
X98132217Y-74037646D01*
X96544778Y-74037646D01*
X96544778Y-73334861D01*
X98927697Y-73334861D01*
X99000467Y-73510977D01*
X99135094Y-73645840D01*
X99311083Y-73718917D01*
X99501641Y-73719083D01*
X99677757Y-73646313D01*
X99812620Y-73511686D01*
X99885697Y-73335697D01*
X99885863Y-73145139D01*
X99813093Y-72969023D01*
X99678466Y-72834160D01*
X99502477Y-72761083D01*
X99311919Y-72760917D01*
X99135803Y-72833687D01*
X99000940Y-72968314D01*
X98927863Y-73144303D01*
X98927697Y-73334861D01*
X96544778Y-73334861D01*
X96544778Y-68611315D01*
X104526206Y-68611315D01*
X104598976Y-68787431D01*
X104733603Y-68922294D01*
X104909592Y-68995371D01*
X105100150Y-68995537D01*
X105276266Y-68922767D01*
X105408622Y-68790643D01*
X105456131Y-68810370D01*
X105646689Y-68810536D01*
X105755672Y-68765505D01*
X105884303Y-68818917D01*
X106074861Y-68819083D01*
X106250977Y-68746313D01*
X106385840Y-68611686D01*
X106458917Y-68435697D01*
X106459083Y-68245139D01*
X106386313Y-68069023D01*
X106251686Y-67934160D01*
X106075697Y-67861083D01*
X105885139Y-67860917D01*
X105776156Y-67905948D01*
X105647525Y-67852536D01*
X105456967Y-67852370D01*
X105280851Y-67925140D01*
X105148495Y-68057264D01*
X105100986Y-68037537D01*
X104910428Y-68037371D01*
X104734312Y-68110141D01*
X104599449Y-68244768D01*
X104526372Y-68420757D01*
X104526206Y-68611315D01*
X96544778Y-68611315D01*
X96544778Y-67729382D01*
X101692652Y-67729382D01*
X101765422Y-67905498D01*
X101900049Y-68040361D01*
X102076038Y-68113438D01*
X102266596Y-68113604D01*
X102430056Y-68046063D01*
X102461632Y-68122483D01*
X102596259Y-68257346D01*
X102772248Y-68330423D01*
X102962806Y-68330589D01*
X103138922Y-68257819D01*
X103273785Y-68123192D01*
X103346862Y-67947203D01*
X103347028Y-67756645D01*
X103274258Y-67580529D01*
X103139631Y-67445666D01*
X102963642Y-67372589D01*
X102773084Y-67372423D01*
X102609624Y-67439964D01*
X102578048Y-67363544D01*
X102443421Y-67228681D01*
X102267432Y-67155604D01*
X102076874Y-67155438D01*
X101900758Y-67228208D01*
X101765895Y-67362835D01*
X101692818Y-67538824D01*
X101692652Y-67729382D01*
X96544778Y-67729382D01*
X96544778Y-66010954D01*
X113943778Y-66010954D01*
X113943778Y-76290100D01*
X113943778Y-76290100D01*
G37*
X113943778Y-76290100D02*
X96544778Y-76290100D01*
X96544778Y-75249815D01*
X97970695Y-75249815D01*
X98043465Y-75425931D01*
X98178092Y-75560794D01*
X98354081Y-75633871D01*
X98544639Y-75634037D01*
X98720755Y-75561267D01*
X98855618Y-75426640D01*
X98876319Y-75376785D01*
X99812195Y-75376785D01*
X99884965Y-75552901D01*
X100019592Y-75687764D01*
X100195581Y-75760841D01*
X100386139Y-75761007D01*
X100562255Y-75688237D01*
X100697118Y-75553610D01*
X100770195Y-75377621D01*
X100770361Y-75187063D01*
X100697591Y-75010947D01*
X100651586Y-74964861D01*
X103160917Y-74964861D01*
X103217648Y-75102161D01*
X103171083Y-75214303D01*
X103170917Y-75404861D01*
X103243687Y-75580977D01*
X103378314Y-75715840D01*
X103554303Y-75788917D01*
X103744861Y-75789083D01*
X103920977Y-75716313D01*
X104055840Y-75581686D01*
X104128917Y-75405697D01*
X104129083Y-75215139D01*
X104072352Y-75077839D01*
X104118917Y-74965697D01*
X104119083Y-74775139D01*
X104046313Y-74599023D01*
X103911686Y-74464160D01*
X103735697Y-74391083D01*
X103545139Y-74390917D01*
X103369023Y-74463687D01*
X103234160Y-74598314D01*
X103161083Y-74774303D01*
X103160917Y-74964861D01*
X100651586Y-74964861D01*
X100562964Y-74876084D01*
X100386975Y-74803007D01*
X100196417Y-74802841D01*
X100020301Y-74875611D01*
X99885438Y-75010238D01*
X99812361Y-75186227D01*
X99812195Y-75376785D01*
X98876319Y-75376785D01*
X98928695Y-75250651D01*
X98928861Y-75060093D01*
X98856091Y-74883977D01*
X98721464Y-74749114D01*
X98545475Y-74676037D01*
X98354917Y-74675871D01*
X98178801Y-74748641D01*
X98043938Y-74883268D01*
X97970861Y-75059257D01*
X97970695Y-75249815D01*
X96544778Y-75249815D01*
X96544778Y-74037646D01*
X98132217Y-74037646D01*
X98204987Y-74213762D01*
X98339614Y-74348625D01*
X98515603Y-74421702D01*
X98706161Y-74421868D01*
X98868329Y-74354861D01*
X104920917Y-74354861D01*
X104974206Y-74483829D01*
X104925861Y-74600257D01*
X104925695Y-74790815D01*
X104998465Y-74966931D01*
X105037008Y-75005541D01*
X104994160Y-75048314D01*
X104921083Y-75224303D01*
X104920917Y-75414861D01*
X104993687Y-75590977D01*
X105128314Y-75725840D01*
X105304303Y-75798917D01*
X105494861Y-75799083D01*
X105670977Y-75726313D01*
X105805840Y-75591686D01*
X105878917Y-75415697D01*
X105879083Y-75225139D01*
X105806313Y-75049023D01*
X105767770Y-75010413D01*
X105810618Y-74967640D01*
X105883695Y-74791651D01*
X105883861Y-74601093D01*
X105837056Y-74487815D01*
X110162695Y-74487815D01*
X110215371Y-74615299D01*
X110162861Y-74741757D01*
X110162695Y-74932315D01*
X110235465Y-75108431D01*
X110370092Y-75243294D01*
X110546081Y-75316371D01*
X110736639Y-75316537D01*
X110912755Y-75243767D01*
X111047618Y-75109140D01*
X111120695Y-74933151D01*
X111120861Y-74742593D01*
X111068185Y-74615109D01*
X111120695Y-74488651D01*
X111120861Y-74298093D01*
X111048091Y-74121977D01*
X110913464Y-73987114D01*
X110737475Y-73914037D01*
X110546917Y-73913871D01*
X110370801Y-73986641D01*
X110235938Y-74121268D01*
X110162861Y-74297257D01*
X110162695Y-74487815D01*
X105837056Y-74487815D01*
X105830572Y-74472125D01*
X105878917Y-74355697D01*
X105879083Y-74165139D01*
X105806313Y-73989023D01*
X105671686Y-73854160D01*
X105495697Y-73781083D01*
X105305139Y-73780917D01*
X105129023Y-73853687D01*
X104994160Y-73988314D01*
X104921083Y-74164303D01*
X104920917Y-74354861D01*
X98868329Y-74354861D01*
X98882277Y-74349098D01*
X99017140Y-74214471D01*
X99090217Y-74038482D01*
X99090383Y-73847924D01*
X99017613Y-73671808D01*
X98882986Y-73536945D01*
X98706997Y-73463868D01*
X98516439Y-73463702D01*
X98340323Y-73536472D01*
X98205460Y-73671099D01*
X98132383Y-73847088D01*
X98132217Y-74037646D01*
X96544778Y-74037646D01*
X96544778Y-73334861D01*
X98927697Y-73334861D01*
X99000467Y-73510977D01*
X99135094Y-73645840D01*
X99311083Y-73718917D01*
X99501641Y-73719083D01*
X99677757Y-73646313D01*
X99812620Y-73511686D01*
X99885697Y-73335697D01*
X99885863Y-73145139D01*
X99813093Y-72969023D01*
X99678466Y-72834160D01*
X99502477Y-72761083D01*
X99311919Y-72760917D01*
X99135803Y-72833687D01*
X99000940Y-72968314D01*
X98927863Y-73144303D01*
X98927697Y-73334861D01*
X96544778Y-73334861D01*
X96544778Y-68611315D01*
X104526206Y-68611315D01*
X104598976Y-68787431D01*
X104733603Y-68922294D01*
X104909592Y-68995371D01*
X105100150Y-68995537D01*
X105276266Y-68922767D01*
X105408622Y-68790643D01*
X105456131Y-68810370D01*
X105646689Y-68810536D01*
X105755672Y-68765505D01*
X105884303Y-68818917D01*
X106074861Y-68819083D01*
X106250977Y-68746313D01*
X106385840Y-68611686D01*
X106458917Y-68435697D01*
X106459083Y-68245139D01*
X106386313Y-68069023D01*
X106251686Y-67934160D01*
X106075697Y-67861083D01*
X105885139Y-67860917D01*
X105776156Y-67905948D01*
X105647525Y-67852536D01*
X105456967Y-67852370D01*
X105280851Y-67925140D01*
X105148495Y-68057264D01*
X105100986Y-68037537D01*
X104910428Y-68037371D01*
X104734312Y-68110141D01*
X104599449Y-68244768D01*
X104526372Y-68420757D01*
X104526206Y-68611315D01*
X96544778Y-68611315D01*
X96544778Y-67729382D01*
X101692652Y-67729382D01*
X101765422Y-67905498D01*
X101900049Y-68040361D01*
X102076038Y-68113438D01*
X102266596Y-68113604D01*
X102430056Y-68046063D01*
X102461632Y-68122483D01*
X102596259Y-68257346D01*
X102772248Y-68330423D01*
X102962806Y-68330589D01*
X103138922Y-68257819D01*
X103273785Y-68123192D01*
X103346862Y-67947203D01*
X103347028Y-67756645D01*
X103274258Y-67580529D01*
X103139631Y-67445666D01*
X102963642Y-67372589D01*
X102773084Y-67372423D01*
X102609624Y-67439964D01*
X102578048Y-67363544D01*
X102443421Y-67228681D01*
X102267432Y-67155604D01*
X102076874Y-67155438D01*
X101900758Y-67228208D01*
X101765895Y-67362835D01*
X101692818Y-67538824D01*
X101692652Y-67729382D01*
X96544778Y-67729382D01*
X96544778Y-66010954D01*
X113943778Y-66010954D01*
X113943778Y-76290100D01*
G36*
X141071600Y-75854756D02*
X141081606Y-75904166D01*
X141110047Y-75945791D01*
X141152441Y-75973071D01*
X141198577Y-75981756D01*
X154216100Y-75984077D01*
X154216100Y-76237957D01*
X140868400Y-76238099D01*
X140868400Y-75374500D01*
X141071600Y-75374500D01*
X141071600Y-75854756D01*
X141071600Y-75854756D01*
G37*
X141071600Y-75854756D02*
X141081606Y-75904166D01*
X141110047Y-75945791D01*
X141152441Y-75973071D01*
X141198577Y-75981756D01*
X154216100Y-75984077D01*
X154216100Y-76237957D01*
X140868400Y-76238099D01*
X140868400Y-75374500D01*
X141071600Y-75374500D01*
X141071600Y-75854756D01*
G36*
X117576600Y-71918784D02*
X116598700Y-71908703D01*
X116598700Y-71094600D01*
X117576600Y-71094600D01*
X117576600Y-71918784D01*
X117576600Y-71918784D01*
G37*
X117576600Y-71918784D02*
X116598700Y-71908703D01*
X116598700Y-71094600D01*
X117576600Y-71094600D01*
X117576600Y-71918784D01*
G36*
X153033963Y-70421500D02*
X152311100Y-70421500D01*
X152311100Y-69113400D01*
X153023328Y-69113400D01*
X153033963Y-70421500D01*
X153033963Y-70421500D01*
G37*
X153033963Y-70421500D02*
X152311100Y-70421500D01*
X152311100Y-69113400D01*
X153023328Y-69113400D01*
X153033963Y-70421500D01*
M02*
