M48
;DRILL file {KiCad 4.0.7} date Wed May 16 14:43:52 2018
;FORMAT={-:-/ absolute / inch / decimal}
FMAT,2
INCH,TZ
T1C0.006
%
G90
G05
M72
T1
X3.876Y-2.9589
X3.8823Y-2.9111
X3.9137Y-2.8835
X3.9485Y-2.9639
X4.0225Y-2.6628
X4.0499Y-2.6713
X4.0803Y-2.9476
X4.0807Y-2.965
X4.1341Y-2.6975
X4.1496Y-2.9236
X4.1496Y-2.9654
X4.1498Y-2.9408
X4.1556Y-2.6902
X4.1724Y-2.6906
X4.356Y-2.9289
X4.356Y-2.9464
X4.7549Y-2.7939
X4.7586Y-2.7715
X4.7595Y-2.9264
X4.77Y-2.6205
X4.7745Y-2.9264
X4.7812Y-2.765
X4.783Y-2.6664
X4.8785Y-2.64
X4.9102Y-2.6193
X4.9368Y-2.6376
X4.9646Y-2.6571
X5.0405Y-2.9461
X5.041Y-2.6571
X5.0665Y-2.9992
X5.0685Y-2.6146
X5.0803Y-2.6028
X5.0839Y-3.0012
X5.1071Y-2.9953
X5.215Y-2.629
X5.2252Y-2.8429
X5.2252Y-2.8654
X5.2435Y-2.7969
X5.2435Y-2.8196
X5.2496Y-3.0358
X5.8406Y-2.6681
X5.8415Y-2.6902
X5.8638Y-2.5835
X5.864Y-2.5606
X6.0181Y-2.5772
X6.0382Y-2.5551
X6.039Y-2.5996
T0
M30
