M48
;DRILL file {KiCad 4.0.7} date Wed May 16 14:43:52 2018
;FORMAT={-:-/ absolute / inch / decimal}
FMAT,2
INCH,TZ
T1C0.006
%
G90
G05
M72
T1
X3.806Y-2.6139
X3.806Y-2.6439
X3.806Y-2.6739
X3.806Y-2.7039
X3.806Y-2.7339
X3.806Y-2.7639
X3.806Y-2.7939
X3.806Y-2.8239
X3.806Y-2.8539
X3.806Y-2.8839
X3.806Y-2.9139
X3.806Y-2.9439
X3.806Y-2.9689
X3.806Y-2.9989
X3.836Y-2.9989
X3.841Y-2.6039
X3.8535Y-2.6488
X3.8705Y-2.6489
X3.871Y-2.6039
X3.871Y-2.9989
X3.901Y-2.6039
X3.901Y-2.9989
X3.931Y-2.6039
X3.931Y-2.9989
X3.961Y-2.6039
X3.961Y-2.9989
X3.9825Y-2.7411
X3.9825Y-2.7607
X3.9825Y-2.7804
X3.9825Y-2.8001
X3.9825Y-2.8198
X3.9825Y-2.8395
X3.9825Y-2.8589
X3.9882Y-2.9988
X3.991Y-2.6039
X4.001Y-2.8589
X4.0022Y-2.7411
X4.0022Y-2.7607
X4.0022Y-2.7804
X4.0022Y-2.8001
X4.0022Y-2.8198
X4.0022Y-2.8395
X4.016Y-2.9989
X4.021Y-2.6039
X4.0218Y-2.7411
X4.0218Y-2.7607
X4.0218Y-2.7804
X4.0218Y-2.8001
X4.0218Y-2.8198
X4.0218Y-2.8395
X4.0218Y-2.8592
X4.031Y-2.6839
X4.0319Y-2.9142
X4.0415Y-2.7411
X4.0415Y-2.7607
X4.0415Y-2.7804
X4.0415Y-2.8001
X4.0415Y-2.8198
X4.0415Y-2.8395
X4.0415Y-2.8592
X4.046Y-2.9989
X4.051Y-2.6039
X4.0612Y-2.7411
X4.0612Y-2.7607
X4.0612Y-2.7804
X4.0612Y-2.8001
X4.0612Y-2.8198
X4.0612Y-2.8395
X4.0612Y-2.8592
X4.071Y-2.6839
X4.076Y-2.9989
X4.0809Y-2.7411
X4.0809Y-2.7607
X4.0809Y-2.7804
X4.0809Y-2.8001
X4.0809Y-2.8198
X4.0809Y-2.8395
X4.0809Y-2.8592
X4.086Y-2.6039
X4.1006Y-2.7411
X4.1006Y-2.7607
X4.1006Y-2.7804
X4.1006Y-2.8001
X4.1006Y-2.8198
X4.1006Y-2.8395
X4.1006Y-2.8592
X4.1031Y-2.6461
X4.111Y-2.9989
X4.116Y-2.6039
X4.141Y-2.9989
X4.146Y-2.6039
X4.171Y-2.9989
X4.176Y-2.6028
X4.1803Y-2.6563
X4.201Y-2.8939
X4.201Y-2.9989
X4.206Y-2.6039
X4.216Y-2.8811
X4.221Y-2.9269
X4.231Y-2.8939
X4.231Y-2.9989
X4.236Y-2.6039
X4.2453Y-2.8811
X4.2531Y-2.6535
X4.256Y-2.9289
X4.256Y-2.9589
X4.261Y-2.9989
X4.266Y-2.6039
X4.2764Y-2.9433
X4.291Y-2.9989
X4.296Y-2.6039
X4.311Y-2.7709
X4.321Y-2.9989
X4.326Y-2.6039
X4.3299Y-2.7705
X4.349Y-2.7709
X4.356Y-2.6039
X4.356Y-2.9989
X4.386Y-2.6039
X4.386Y-2.9989
X4.391Y-2.8289
X4.411Y-2.8289
X4.416Y-2.6039
X4.416Y-2.9989
X4.431Y-2.8289
X4.446Y-2.6039
X4.446Y-2.9989
X4.476Y-2.6039
X4.476Y-2.7139
X4.476Y-2.7439
X4.476Y-2.7739
X4.476Y-2.8039
X4.476Y-2.8339
X4.476Y-2.8639
X4.476Y-2.8889
X4.476Y-2.9989
X4.5134Y-2.785
X4.536Y-2.8475
X4.5615Y-2.8475
X4.594Y-2.7455
X4.614Y-2.746
X4.6325Y-2.7455
X4.8045Y-3.1004
X4.8096Y-2.5534
X4.8217Y-3.1008
X4.8268Y-2.5534
X4.8386Y-3.1004
X4.8441Y-2.5534
X4.8504Y-2.7354
X4.8504Y-2.8673
X4.8505Y-2.7864
X4.8505Y-2.8364
X4.8559Y-3.1
X4.8614Y-2.5534
X4.8732Y-3.1
X4.8783Y-2.702
X4.8787Y-2.5534
X4.8906Y-3.1004
X4.8961Y-2.5534
X4.9079Y-3.1004
X4.9105Y-2.7514
X4.9105Y-2.8014
X4.9105Y-2.8389
X4.9134Y-2.5535
X4.9161Y-2.9374
X4.9245Y-3.1004
X4.9307Y-2.5535
X4.9417Y-3.1004
X4.9505Y-2.7014
X4.9805Y-2.7514
X4.9805Y-2.8014
X4.9805Y-2.8389
X5.0105Y-2.7014
X5.0505Y-2.7514
X5.0505Y-2.8014
X5.0505Y-2.8389
X5.0799Y-2.9264
X5.0805Y-2.9439
X5.0815Y-2.7016
X5.0969Y-2.9264
X5.0972Y-2.9437
X5.1094Y-2.7354
X5.1105Y-2.7914
X5.1105Y-2.8264
X5.1105Y-2.8714
X5.129Y-3.0009
X5.144Y-3.0009
X5.2305Y-2.944
X5.2307Y-2.963
X5.2783Y-2.8311
X5.2953Y-2.8307
X5.4445Y-2.556
X5.4465Y-2.528
X5.465Y-2.5535
X5.4665Y-2.5285
X5.4865Y-2.529
X5.4915Y-3.0875
X5.5065Y-2.529
X5.511Y-3.088
X5.531Y-3.088
X5.551Y-3.088
X5.5715Y-3.088
X5.592Y-3.088
X5.6125Y-3.0875
X5.6325Y-3.0875
X5.7591Y-2.7272
X5.7768Y-2.7274
X5.7945Y-2.7274
X5.9014Y-3.0875
X5.9014Y-3.1025
X5.9094Y-2.7413
X5.9113Y-2.7236
X6.0185Y-2.7961
X6.0187Y-2.8134
X6.0187Y-2.8303
X6.0214Y-3.0875
X6.0214Y-3.1025
X6.0348Y-2.7928
X6.035Y-2.8098
X6.0354Y-2.8272
T0
M30
