G04 #@! TF.FileFunction,Soldermask,Top*
%FSLAX46Y46*%
G04 Gerber Fmt 4.6, Leading zero omitted, Abs format (unit mm)*
G04 Created by KiCad (PCBNEW 4.0.7) date Wed May 16 14:43:50 2018*
%MOMM*%
%LPD*%
G01*
G04 APERTURE LIST*
%ADD10C,0.100000*%
%ADD11C,0.150000*%
%ADD12R,0.527000X0.654000*%
%ADD13R,0.654000X0.527000*%
%ADD14R,5.600000X3.900000*%
%ADD15R,0.830000X0.680000*%
%ADD16R,0.700000X1.250000*%
%ADD17R,0.680000X0.830000*%
%ADD18R,3.000000X0.910000*%
%ADD19R,1.162000X0.908000*%
%ADD20R,2.700000X2.700000*%
%ADD21R,2.000000X0.900000*%
%ADD22R,1.000000X1.200000*%
%ADD23R,0.910000X3.000000*%
%ADD24R,0.800000X1.000000*%
%ADD25R,2.900000X1.400000*%
%ADD26R,1.000000X0.900000*%
%ADD27R,0.800000X1.050000*%
%ADD28R,1.650000X1.400000*%
%ADD29R,0.900000X1.000000*%
%ADD30R,1.400000X2.900000*%
%ADD31R,1.150000X1.200000*%
%ADD32R,1.200000X1.150000*%
%ADD33R,1.700000X1.100000*%
%ADD34R,1.300000X0.900000*%
%ADD35R,0.900000X1.300000*%
%ADD36R,0.650000X1.100000*%
%ADD37R,1.100000X0.650000*%
%ADD38R,2.125000X2.125000*%
%ADD39R,1.480000X3.480000*%
%ADD40R,1.900000X3.900000*%
%ADD41C,0.254000*%
%ADD42C,0.127000*%
G04 APERTURE END LIST*
D10*
D11*
X117576600Y-63627000D02*
X115582700Y-65620900D01*
X113995200Y-76619100D02*
X96151700Y-76619100D01*
X117144800Y-79768700D02*
X113995200Y-76619100D01*
X156362400Y-79768700D02*
X156794200Y-63627000D01*
X117576600Y-63627000D02*
X156794200Y-63627000D01*
X117144800Y-79768700D02*
X156362400Y-79768700D01*
X94154778Y-72622954D02*
X96154778Y-72622954D01*
X94154778Y-69622954D02*
X94154778Y-72622954D01*
X96154778Y-69622954D02*
X94154778Y-69622954D01*
X96154778Y-69622954D02*
X96154778Y-65622954D01*
X96154778Y-65622954D02*
X115582700Y-65620900D01*
X96154778Y-76622954D02*
X96154778Y-72622954D01*
D12*
X124091078Y-74329454D03*
X124218078Y-74837454D03*
X124345078Y-75345454D03*
X124472078Y-74837454D03*
X124599078Y-75345454D03*
X124726078Y-76107454D03*
X124853078Y-75599454D03*
X124980078Y-76107454D03*
X125107078Y-75599454D03*
X125234078Y-76107454D03*
X125361078Y-74329454D03*
X125488078Y-75345454D03*
X125615078Y-74329454D03*
X125742078Y-75345454D03*
X125869078Y-74329454D03*
X125996078Y-75345454D03*
X126123078Y-74329454D03*
X126250078Y-75345454D03*
X126377078Y-74329454D03*
X126504078Y-75345454D03*
X126631078Y-74329454D03*
X126758078Y-75345454D03*
X126885078Y-74329454D03*
X127012078Y-75345454D03*
X127139078Y-74329454D03*
X127266078Y-75345454D03*
X127393078Y-74329454D03*
X127520078Y-75345454D03*
X127647078Y-74329454D03*
X127774078Y-75345454D03*
X127901078Y-74329454D03*
X128028078Y-75345454D03*
X128155078Y-74329454D03*
X128282078Y-75345454D03*
X128409078Y-74329454D03*
X128536078Y-75345454D03*
X128663078Y-74329454D03*
X128790078Y-75345454D03*
D13*
X130695078Y-72614954D03*
X130949078Y-72360954D03*
X131457078Y-72233954D03*
X131457078Y-71979954D03*
X130441078Y-71852954D03*
X131457078Y-71725954D03*
X131457078Y-71471954D03*
X130441078Y-71344954D03*
X130949078Y-71217954D03*
X130441078Y-71090954D03*
X130949078Y-70963954D03*
X130441078Y-70836954D03*
X130949078Y-70709954D03*
X130441078Y-70582954D03*
X130949078Y-70455954D03*
X130441078Y-70328954D03*
X130949078Y-70074954D03*
X130441078Y-69947954D03*
X131457078Y-69820954D03*
X130949078Y-69693954D03*
D12*
X128790078Y-67471454D03*
X128663078Y-67979454D03*
X128536078Y-66963454D03*
X128409078Y-67979454D03*
X128282078Y-66963454D03*
X128155078Y-67979454D03*
X128028078Y-66963454D03*
X127901078Y-67979454D03*
X127774078Y-66963454D03*
X127647078Y-67979454D03*
X127520078Y-66963454D03*
X127393078Y-67979454D03*
X127266078Y-66963454D03*
X127139078Y-67979454D03*
X127012078Y-66963454D03*
X126885078Y-67979454D03*
X126758078Y-66963454D03*
X126631078Y-67979454D03*
X126504078Y-66963454D03*
X126377078Y-67979454D03*
X126250078Y-66963454D03*
X126123078Y-67979454D03*
X125996078Y-66963454D03*
X125869078Y-67979454D03*
X125742078Y-67471454D03*
X125615078Y-67979454D03*
X125488078Y-67471454D03*
X125361078Y-67979454D03*
X125234078Y-67471454D03*
X125107078Y-67979454D03*
X124980078Y-66963454D03*
X124853078Y-67471454D03*
X124726078Y-67979454D03*
X124599078Y-67471454D03*
X124472078Y-66963454D03*
X124345078Y-67979454D03*
X124218078Y-67471454D03*
X124091078Y-67979454D03*
D13*
X122694078Y-69757454D03*
X122186078Y-69884454D03*
X122694078Y-70011454D03*
X122186078Y-70138454D03*
X122694078Y-70265454D03*
X122186078Y-70392454D03*
X122694078Y-70519454D03*
X122186078Y-70646454D03*
X122694078Y-70773454D03*
X122186078Y-70900454D03*
X122694078Y-71027454D03*
X122186078Y-71154454D03*
X122694078Y-71281454D03*
X122186078Y-71408454D03*
X122694078Y-71535454D03*
X122186078Y-71662454D03*
X122694078Y-71789454D03*
X122186078Y-71916454D03*
X122694078Y-72043454D03*
X122186078Y-72170454D03*
X122694078Y-72297454D03*
X122186078Y-72424454D03*
X122694078Y-72551454D03*
D14*
X126504078Y-71154454D03*
D13*
X131457078Y-70329454D03*
D15*
X133440000Y-69740000D03*
X133440000Y-70260000D03*
D16*
X121831800Y-73675200D03*
X121331800Y-73675200D03*
X120831800Y-73675200D03*
X120331800Y-73675200D03*
X120331800Y-75575200D03*
X120831800Y-75575200D03*
X121331800Y-75575200D03*
X121831800Y-75575200D03*
D17*
X105048400Y-67271900D03*
X105568400Y-67271900D03*
D18*
X143687178Y-76307254D03*
D19*
X141687178Y-73607254D03*
D20*
X143687178Y-74507254D03*
D18*
X143687178Y-72707254D03*
D21*
X107276278Y-71683954D03*
X107276278Y-72783954D03*
D22*
X141425678Y-70976654D03*
X139725678Y-70976654D03*
D23*
X115504300Y-75742800D03*
X117134300Y-75742800D03*
D18*
X116522500Y-66037800D03*
X116522500Y-67667800D03*
D24*
X141014678Y-69579654D03*
X141914678Y-69579654D03*
D25*
X151409400Y-75563600D03*
X151409400Y-78563600D03*
D26*
X99178200Y-68694300D03*
X98078200Y-68694300D03*
D24*
X140009678Y-69579654D03*
X139109678Y-69579654D03*
D27*
X144400678Y-65327654D03*
X143100678Y-65327654D03*
X143750678Y-67227654D03*
X143750678Y-65327654D03*
X143100678Y-67227654D03*
X144400678Y-67227654D03*
D17*
X99725778Y-75018900D03*
X99205778Y-75018900D03*
D28*
X117157500Y-70913500D03*
X117157500Y-68913500D03*
D26*
X100511700Y-67373500D03*
X99411700Y-67373500D03*
D28*
X110006778Y-67550954D03*
X110006778Y-69550954D03*
X107212778Y-69423954D03*
X107212778Y-67423954D03*
X109371778Y-72757954D03*
X109371778Y-74757954D03*
X112038778Y-74757954D03*
X112038778Y-72757954D03*
X115404900Y-73656700D03*
X115404900Y-71656700D03*
D26*
X149855478Y-67957700D03*
X150955478Y-67957700D03*
X149855478Y-66899954D03*
X150955478Y-66899954D03*
X149856100Y-65836800D03*
X150956100Y-65836800D03*
X149864900Y-64770000D03*
X150964900Y-64770000D03*
D29*
X130695078Y-68275454D03*
X130695078Y-67175454D03*
D26*
X106103978Y-75002554D03*
X107203978Y-75002554D03*
D29*
X134320000Y-70310000D03*
X134320000Y-71410000D03*
D30*
X136894078Y-67471454D03*
X133894078Y-67471454D03*
X136894078Y-74583454D03*
X133894078Y-74583454D03*
D31*
X141850000Y-65860000D03*
X141850000Y-67360000D03*
X146036678Y-66519654D03*
X146036678Y-65019654D03*
D32*
X144564800Y-68668900D03*
X143064800Y-68668900D03*
D26*
X140877200Y-72373654D03*
X139734200Y-72373654D03*
D25*
X148755100Y-72391400D03*
X148755100Y-69391400D03*
D24*
X99800000Y-74050000D03*
X98900000Y-74050000D03*
D17*
X104692100Y-75018900D03*
X104172100Y-75018900D03*
X103091278Y-75107800D03*
X102571278Y-75107800D03*
X105047700Y-67271900D03*
X104527700Y-67271900D03*
X101390100Y-75018900D03*
X100870100Y-75018900D03*
D15*
X120320000Y-70030000D03*
X120320000Y-69510000D03*
X122643900Y-68218400D03*
X122643900Y-68738400D03*
X122631200Y-67430300D03*
X122631200Y-66910300D03*
X122618500Y-66147600D03*
X122618500Y-65627600D03*
X121615200Y-67430300D03*
X121615200Y-66910300D03*
X106069778Y-73630954D03*
X106069778Y-74150954D03*
D24*
X139711000Y-74587100D03*
X138811000Y-74587100D03*
D33*
X146532600Y-76261000D03*
X146532600Y-74361000D03*
X146240500Y-72108100D03*
X146240500Y-70208100D03*
D34*
X148653500Y-74637200D03*
X148653500Y-76137200D03*
D35*
X151880000Y-73964800D03*
X150380000Y-73964800D03*
D36*
X104404778Y-68722954D03*
X103904778Y-68722954D03*
X103404778Y-68722954D03*
X102904778Y-68722954D03*
X102404778Y-68722954D03*
X101904778Y-68722954D03*
X101404778Y-68722954D03*
X100904778Y-68722954D03*
D37*
X100254778Y-69372954D03*
X100254778Y-69872954D03*
X100254778Y-70372954D03*
X100254778Y-70872954D03*
X100254778Y-71372954D03*
X100254778Y-71872954D03*
X100254778Y-72372954D03*
X100254778Y-72872954D03*
D36*
X100904778Y-73522954D03*
X101404778Y-73522954D03*
X101904778Y-73522954D03*
X102404778Y-73522954D03*
X102904778Y-73522954D03*
X103404778Y-73522954D03*
X103904778Y-73522954D03*
X104404778Y-73522954D03*
D37*
X105054778Y-72872954D03*
X105054778Y-72372954D03*
X105054778Y-71872954D03*
X105054778Y-71372954D03*
X105054778Y-70872954D03*
X105054778Y-70372954D03*
X105054778Y-69872954D03*
X105054778Y-69372954D03*
D38*
X101792278Y-71985454D03*
X103517278Y-71985454D03*
X101792278Y-70260454D03*
X103517278Y-70260454D03*
D29*
X130441078Y-74075454D03*
X130441078Y-75175454D03*
X123621800Y-76843800D03*
X123621800Y-77943800D03*
D15*
X123012200Y-75717400D03*
X123012200Y-75197400D03*
X121373900Y-76524200D03*
X121373900Y-77044200D03*
D29*
X122453400Y-76843800D03*
X122453400Y-77943800D03*
D26*
X115789800Y-70243700D03*
X114689800Y-70243700D03*
D17*
X130663600Y-76987400D03*
X130143600Y-76987400D03*
D15*
X121614578Y-68227454D03*
X121614578Y-68747454D03*
D17*
X103378700Y-67208400D03*
X103898700Y-67208400D03*
X103377300Y-67208400D03*
X102857300Y-67208400D03*
D15*
X151879300Y-67722400D03*
X151879300Y-67202400D03*
X151866600Y-65715800D03*
X151866600Y-65195800D03*
X133184900Y-72757600D03*
X133184900Y-72237600D03*
D39*
X98304778Y-71622954D03*
D40*
X112004778Y-69622954D03*
D41*
G36*
X114167920Y-65963684D02*
X114167920Y-66471678D01*
X97306900Y-66455454D01*
X97257480Y-66465412D01*
X97215829Y-66493813D01*
X97188508Y-66536181D01*
X97179778Y-66582454D01*
X97179778Y-75662954D01*
X97189784Y-75712364D01*
X97218225Y-75753989D01*
X97260619Y-75781269D01*
X97306778Y-75789954D01*
X114578778Y-75789954D01*
X114578778Y-76297954D01*
X96481278Y-76297954D01*
X96481278Y-72360954D01*
X96471272Y-72311544D01*
X96442831Y-72269919D01*
X96400437Y-72242639D01*
X96354278Y-72233954D01*
X95909778Y-72233954D01*
X95909778Y-70011454D01*
X96354278Y-70011454D01*
X96403688Y-70001448D01*
X96445313Y-69973007D01*
X96472593Y-69930613D01*
X96481278Y-69884454D01*
X96481278Y-65947570D01*
X114167920Y-65963684D01*
X114167920Y-65963684D01*
G37*
X114167920Y-65963684D02*
X114167920Y-66471678D01*
X97306900Y-66455454D01*
X97257480Y-66465412D01*
X97215829Y-66493813D01*
X97188508Y-66536181D01*
X97179778Y-66582454D01*
X97179778Y-75662954D01*
X97189784Y-75712364D01*
X97218225Y-75753989D01*
X97260619Y-75781269D01*
X97306778Y-75789954D01*
X114578778Y-75789954D01*
X114578778Y-76297954D01*
X96481278Y-76297954D01*
X96481278Y-72360954D01*
X96471272Y-72311544D01*
X96442831Y-72269919D01*
X96400437Y-72242639D01*
X96354278Y-72233954D01*
X95909778Y-72233954D01*
X95909778Y-70011454D01*
X96354278Y-70011454D01*
X96403688Y-70001448D01*
X96445313Y-69973007D01*
X96472593Y-69930613D01*
X96481278Y-69884454D01*
X96481278Y-65947570D01*
X114167920Y-65963684D01*
G36*
X114323000Y-69623000D02*
X114130000Y-69623000D01*
X114080590Y-69633006D01*
X114038965Y-69661447D01*
X114011685Y-69703841D01*
X114003000Y-69750000D01*
X114003000Y-71110000D01*
X114013006Y-71159410D01*
X114041447Y-71201035D01*
X114083841Y-71228315D01*
X114130000Y-71237000D01*
X114323000Y-71237000D01*
X114323000Y-73503000D01*
X113307000Y-73503000D01*
X113307000Y-68677000D01*
X114323000Y-68677000D01*
X114323000Y-69623000D01*
X114323000Y-69623000D01*
G37*
X114323000Y-69623000D02*
X114130000Y-69623000D01*
X114080590Y-69633006D01*
X114038965Y-69661447D01*
X114011685Y-69703841D01*
X114003000Y-69750000D01*
X114003000Y-71110000D01*
X114013006Y-71159410D01*
X114041447Y-71201035D01*
X114083841Y-71228315D01*
X114130000Y-71237000D01*
X114323000Y-71237000D01*
X114323000Y-73503000D01*
X113307000Y-73503000D01*
X113307000Y-68677000D01*
X114323000Y-68677000D01*
X114323000Y-69623000D01*
G36*
X129171078Y-76297954D02*
X123837078Y-76297954D01*
X123837078Y-73948454D01*
X129171078Y-73948454D01*
X129171078Y-76297954D01*
X129171078Y-76297954D01*
G37*
X129171078Y-76297954D02*
X123837078Y-76297954D01*
X123837078Y-73948454D01*
X129171078Y-73948454D01*
X129171078Y-76297954D01*
G36*
X131647578Y-72995954D02*
X129806078Y-72995954D01*
X129806078Y-69312954D01*
X131647578Y-69312954D01*
X131647578Y-72995954D01*
X131647578Y-72995954D01*
G37*
X131647578Y-72995954D02*
X129806078Y-72995954D01*
X129806078Y-69312954D01*
X131647578Y-69312954D01*
X131647578Y-72995954D01*
G36*
X131743531Y-64389000D02*
X130346531Y-64389000D01*
X130346531Y-63881000D01*
X131743531Y-63881000D01*
X131743531Y-64389000D01*
X131743531Y-64389000D01*
G37*
X131743531Y-64389000D02*
X130346531Y-64389000D01*
X130346531Y-63881000D01*
X131743531Y-63881000D01*
X131743531Y-64389000D01*
G36*
X131761878Y-79650754D02*
X131507878Y-79650754D01*
X131507878Y-79015754D01*
X131761878Y-79015754D01*
X131761878Y-79650754D01*
X131761878Y-79650754D01*
G37*
X131761878Y-79650754D02*
X131507878Y-79650754D01*
X131507878Y-79015754D01*
X131761878Y-79015754D01*
X131761878Y-79650754D01*
G36*
X125590300Y-79489300D02*
X121881900Y-79489300D01*
X121881900Y-78625700D01*
X125590300Y-78625700D01*
X125590300Y-79489300D01*
X125590300Y-79489300D01*
G37*
X125590300Y-79489300D02*
X121881900Y-79489300D01*
X121881900Y-78625700D01*
X125590300Y-78625700D01*
X125590300Y-79489300D01*
G36*
X121399300Y-79489300D02*
X117411500Y-79489300D01*
X117411500Y-78828900D01*
X121399300Y-78828900D01*
X121399300Y-79489300D01*
X121399300Y-79489300D01*
G37*
X121399300Y-79489300D02*
X117411500Y-79489300D01*
X117411500Y-78828900D01*
X121399300Y-78828900D01*
X121399300Y-79489300D01*
G36*
X121449507Y-64935505D02*
X117703007Y-64947398D01*
X117698200Y-63918695D01*
X121444700Y-63906802D01*
X121449507Y-64935505D01*
X121449507Y-64935505D01*
G37*
X121449507Y-64935505D02*
X117703007Y-64947398D01*
X117698200Y-63918695D01*
X121444700Y-63906802D01*
X121449507Y-64935505D01*
G36*
X125564862Y-64909700D02*
X121869200Y-64909700D01*
X121869200Y-63906400D01*
X125564561Y-63906400D01*
X125564862Y-64909700D01*
X125564862Y-64909700D01*
G37*
X125564862Y-64909700D02*
X121869200Y-64909700D01*
X121869200Y-63906400D01*
X125564561Y-63906400D01*
X125564862Y-64909700D01*
G36*
X156366384Y-68554461D02*
X153377496Y-68551096D01*
X153365605Y-64820800D01*
X156485291Y-64820800D01*
X156366384Y-68554461D01*
X156366384Y-68554461D01*
G37*
X156366384Y-68554461D02*
X153377496Y-68551096D01*
X153365605Y-64820800D01*
X156485291Y-64820800D01*
X156366384Y-68554461D01*
G36*
X156352760Y-70408800D02*
X153250900Y-70408800D01*
X153250900Y-69100700D01*
X156384665Y-69100700D01*
X156352760Y-70408800D01*
X156352760Y-70408800D01*
G37*
X156352760Y-70408800D02*
X153250900Y-70408800D01*
X153250900Y-69100700D01*
X156384665Y-69100700D01*
X156352760Y-70408800D01*
G36*
X156301128Y-71996300D02*
X153187400Y-71996300D01*
X153187400Y-70815200D01*
X156322032Y-70815200D01*
X156301128Y-71996300D01*
X156301128Y-71996300D01*
G37*
X156301128Y-71996300D02*
X153187400Y-71996300D01*
X153187400Y-70815200D01*
X156322032Y-70815200D01*
X156301128Y-71996300D01*
G36*
X156176962Y-74168406D02*
X152617304Y-74180272D01*
X152621474Y-73799700D01*
X156192011Y-73799700D01*
X156176962Y-74168406D01*
X156176962Y-74168406D01*
G37*
X156176962Y-74168406D02*
X152617304Y-74180272D01*
X152621474Y-73799700D01*
X156192011Y-73799700D01*
X156176962Y-74168406D01*
G36*
X156139793Y-76631858D02*
X153898640Y-76632938D01*
X153905388Y-76106572D01*
X156165584Y-76098856D01*
X156139793Y-76631858D01*
X156139793Y-76631858D01*
G37*
X156139793Y-76631858D02*
X153898640Y-76632938D01*
X153905388Y-76106572D01*
X156165584Y-76098856D01*
X156139793Y-76631858D01*
G36*
X123215400Y-72936100D02*
X122555000Y-72936100D01*
X122555000Y-69367400D01*
X123215400Y-69367400D01*
X123215400Y-72936100D01*
X123215400Y-72936100D01*
G37*
X123215400Y-72936100D02*
X122555000Y-72936100D01*
X122555000Y-69367400D01*
X123215400Y-69367400D01*
X123215400Y-72936100D01*
G36*
X123773578Y-74202454D02*
X123265578Y-74202454D01*
X123265578Y-73694454D01*
X123773578Y-73694454D01*
X123773578Y-74202454D01*
X123773578Y-74202454D01*
G37*
X123773578Y-74202454D02*
X123265578Y-74202454D01*
X123265578Y-73694454D01*
X123773578Y-73694454D01*
X123773578Y-74202454D01*
G36*
X132854078Y-69503454D02*
X132346078Y-69503454D01*
X132346078Y-68995454D01*
X132854078Y-68995454D01*
X132854078Y-69503454D01*
X132854078Y-69503454D01*
G37*
X132854078Y-69503454D02*
X132346078Y-69503454D01*
X132346078Y-68995454D01*
X132854078Y-68995454D01*
X132854078Y-69503454D01*
G36*
X141909178Y-75650254D02*
X141401178Y-75650254D01*
X141401178Y-75142254D01*
X141909178Y-75142254D01*
X141909178Y-75650254D01*
X141909178Y-75650254D01*
G37*
X141909178Y-75650254D02*
X141401178Y-75650254D01*
X141401178Y-75142254D01*
X141909178Y-75142254D01*
X141909178Y-75650254D01*
G36*
X151916778Y-69884454D02*
X151408778Y-69884454D01*
X151408778Y-69376454D01*
X151916778Y-69376454D01*
X151916778Y-69884454D01*
X151916778Y-69884454D01*
G37*
X151916778Y-69884454D02*
X151408778Y-69884454D01*
X151408778Y-69376454D01*
X151916778Y-69376454D01*
X151916778Y-69884454D01*
G36*
X128282700Y-64897000D02*
X125984000Y-64897000D01*
X125984000Y-63868300D01*
X128282700Y-63868300D01*
X128282700Y-64897000D01*
X128282700Y-64897000D01*
G37*
X128282700Y-64897000D02*
X125984000Y-64897000D01*
X125984000Y-63868300D01*
X128282700Y-63868300D01*
X128282700Y-64897000D01*
G36*
X128295400Y-79552800D02*
X125996700Y-79552800D01*
X125996700Y-78524100D01*
X128295400Y-78524100D01*
X128295400Y-79552800D01*
X128295400Y-79552800D01*
G37*
X128295400Y-79552800D02*
X125996700Y-79552800D01*
X125996700Y-78524100D01*
X128295400Y-78524100D01*
X128295400Y-79552800D01*
G36*
X129170408Y-68614454D02*
X123836411Y-68614454D01*
X123825670Y-66573400D01*
X129159667Y-66573400D01*
X129170408Y-68614454D01*
X129170408Y-68614454D01*
G37*
X129170408Y-68614454D02*
X123836411Y-68614454D01*
X123825670Y-66573400D01*
X129159667Y-66573400D01*
X129170408Y-68614454D01*
G36*
X98933621Y-72339200D02*
X97688400Y-72339200D01*
X97688400Y-70002400D01*
X98945076Y-70002400D01*
X98933621Y-72339200D01*
X98933621Y-72339200D01*
G37*
X98933621Y-72339200D02*
X97688400Y-72339200D01*
X97688400Y-70002400D01*
X98945076Y-70002400D01*
X98933621Y-72339200D01*
G36*
X143154400Y-79540100D02*
X139420600Y-79540100D01*
X139420600Y-78397100D01*
X143154400Y-78397100D01*
X143154400Y-79540100D01*
X143154400Y-79540100D01*
G37*
X143154400Y-79540100D02*
X139420600Y-79540100D01*
X139420600Y-78397100D01*
X143154400Y-78397100D01*
X143154400Y-79540100D01*
G36*
X138074806Y-79540100D02*
X134341006Y-79540100D01*
X134344659Y-78397100D01*
X138078459Y-78397100D01*
X138074806Y-79540100D01*
X138074806Y-79540100D01*
G37*
X138074806Y-79540100D02*
X134341006Y-79540100D01*
X134344659Y-78397100D01*
X138078459Y-78397100D01*
X138074806Y-79540100D01*
G36*
X136982200Y-64922400D02*
X133248400Y-64922400D01*
X133248400Y-63855600D01*
X136982200Y-63855600D01*
X136982200Y-64922400D01*
X136982200Y-64922400D01*
G37*
X136982200Y-64922400D02*
X133248400Y-64922400D01*
X133248400Y-63855600D01*
X136982200Y-63855600D01*
X136982200Y-64922400D01*
G36*
X142062200Y-64293663D02*
X138328400Y-64900109D01*
X138328400Y-63855600D01*
X142062200Y-63855600D01*
X142062200Y-64293663D01*
X142062200Y-64293663D01*
G37*
X142062200Y-64293663D02*
X138328400Y-64900109D01*
X138328400Y-63855600D01*
X142062200Y-63855600D01*
X142062200Y-64293663D01*
D42*
G36*
X132524500Y-64858900D02*
X132397500Y-64858900D01*
X132397500Y-63893700D01*
X132524500Y-63893700D01*
X132524500Y-64858900D01*
X132524500Y-64858900D01*
G37*
X132524500Y-64858900D02*
X132397500Y-64858900D01*
X132397500Y-63893700D01*
X132524500Y-63893700D01*
X132524500Y-64858900D01*
G36*
X133413500Y-79519787D02*
X133286500Y-79519787D01*
X133286500Y-78554587D01*
X133413500Y-78554587D01*
X133413500Y-79519787D01*
X133413500Y-79519787D01*
G37*
X133413500Y-79519787D02*
X133286500Y-79519787D01*
X133286500Y-78554587D01*
X133413500Y-78554587D01*
X133413500Y-79519787D01*
M02*
