G04 #@! TF.FileFunction,Profile,NP*
%FSLAX46Y46*%
G04 Gerber Fmt 4.6, Leading zero omitted, Abs format (unit mm)*
G04 Created by KiCad (PCBNEW 4.0.7) date Wed May 16 14:43:50 2018*
%MOMM*%
%LPD*%
G01*
G04 APERTURE LIST*
%ADD10C,0.100000*%
%ADD11C,0.150000*%
G04 APERTURE END LIST*
D10*
D11*
X117576600Y-63627000D02*
X115582700Y-65620900D01*
X113995200Y-76619100D02*
X96151700Y-76619100D01*
X117144800Y-79768700D02*
X113995200Y-76619100D01*
X156362400Y-79768700D02*
X156794200Y-63627000D01*
X117576600Y-63627000D02*
X156794200Y-63627000D01*
X117144800Y-79768700D02*
X156362400Y-79768700D01*
X94154778Y-72622954D02*
X96154778Y-72622954D01*
X94154778Y-69622954D02*
X94154778Y-72622954D01*
X96154778Y-69622954D02*
X94154778Y-69622954D01*
X96154778Y-69622954D02*
X96154778Y-65622954D01*
X96154778Y-65622954D02*
X115582700Y-65620900D01*
X96154778Y-76622954D02*
X96154778Y-72622954D01*
M02*
