  0
SECTION
  2
HEADER
  9
$ANGBASE
  50
0.0
  9
$ANGDIR
  70
  1
  9
$MEASUREMENT
  70
0
  0
ENDSEC
  0
SECTION
  2
TABLES
  0
TABLE
  2
LTYPE
  70
1
  0
LTYPE
  2
CONTINUOUS
  70
0
  3
Solid line
  72
65
  73
0
  40
0.0
  0
ENDTAB
  0
TABLE
  2
STYLE
  70
4
  0
STYLE
  2
KICAD
  70
0
  40
0
  41
1
  42
1
  50
0
  71
0
  3
isocp.shx
  0
STYLE
  2
KICADB
  70
0
  40
0
  41
1
  42
1
  50
0
  71
0
  3
isocp.shx
  0
STYLE
  2
KICADI
  70
0
  40
0
  41
1
  42
1
  50
15
  71
0
  3
isocp.shx
  0
STYLE
  2
KICADBI
  70
0
  40
0
  41
1
  42
1
  50
15
  71
0
  3
isocp.shx
  0
ENDTAB
  0
TABLE
  2
LAYER
  70
30
  0
LAYER
  2
BLACK
  70
0
  62
7
  6
CONTINUOUS
  0
LAYER
  2
GRAY1
  70
0
  62
251
  6
CONTINUOUS
  0
LAYER
  2
GRAY2
  70
0
  62
8
  6
CONTINUOUS
  0
LAYER
  2
GRAY3
  70
0
  62
9
  6
CONTINUOUS
  0
LAYER
  2
WHITE
  70
0
  62
7
  6
CONTINUOUS
  0
LAYER
  2
LYELLOW
  70
0
  62
51
  6
CONTINUOUS
  0
LAYER
  2
BLUE1
  70
0
  62
178
  6
CONTINUOUS
  0
LAYER
  2
GREEN1
  70
0
  62
98
  6
CONTINUOUS
  0
LAYER
  2
CYAN1
  70
0
  62
138
  6
CONTINUOUS
  0
LAYER
  2
RED1
  70
0
  62
18
  6
CONTINUOUS
  0
LAYER
  2
MAGENTA1
  70
0
  62
228
  6
CONTINUOUS
  0
LAYER
  2
BROWN1
  70
0
  62
58
  6
CONTINUOUS
  0
LAYER
  2
BLUE2
  70
0
  62
5
  6
CONTINUOUS
  0
LAYER
  2
GREEN2
  70
0
  62
3
  6
CONTINUOUS
  0
LAYER
  2
CYAN2
  70
0
  62
4
  6
CONTINUOUS
  0
LAYER
  2
RED2
  70
0
  62
1
  6
CONTINUOUS
  0
LAYER
  2
MAGENTA2
  70
0
  62
6
  6
CONTINUOUS
  0
LAYER
  2
BROWN2
  70
0
  62
54
  6
CONTINUOUS
  0
LAYER
  2
BLUE3
  70
0
  62
171
  6
CONTINUOUS
  0
LAYER
  2
GREEN3
  70
0
  62
91
  6
CONTINUOUS
  0
LAYER
  2
CYAN3
  70
0
  62
131
  6
CONTINUOUS
  0
LAYER
  2
RED3
  70
0
  62
11
  6
CONTINUOUS
  0
LAYER
  2
MAGENTA3
  70
0
  62
221
  6
CONTINUOUS
  0
LAYER
  2
YELLOW3
  70
0
  62
2
  6
CONTINUOUS
  0
LAYER
  2
BLUE4
  70
0
  62
5
  6
CONTINUOUS
  0
LAYER
  2
GREEN4
  70
0
  62
3
  6
CONTINUOUS
  0
LAYER
  2
CYAN4
  70
0
  62
4
  6
CONTINUOUS
  0
LAYER
  2
RED4
  70
0
  62
1
  6
CONTINUOUS
  0
LAYER
  2
MAGENTA4
  70
0
  62
6
  6
CONTINUOUS
  0
LAYER
  2
YELLOW4
  70
0
  62
2
  6
CONTINUOUS
  0
ENDTAB
  0
ENDSEC
  0
SECTION
  2
ENTITIES
0
LINE
8
Black
10
156.802
20
-63.5533
11
156.809
21
-63.5535
0
LINE
8
Black
10
156.809
20
-63.5535
11
156.814
21
-63.5556
0
LINE
8
Black
10
156.814
20
-63.5556
11
156.82
21
-63.5565
0
LINE
8
Black
10
156.82
20
-63.5565
11
156.826
21
-63.5603
0
LINE
8
Black
10
156.826
20
-63.5603
11
156.833
21
-63.5631
0
LINE
8
Black
10
156.833
20
-63.5631
11
156.838
21
-63.5668
0
LINE
8
Black
10
156.838
20
-63.5668
11
156.842
21
-63.5695
0
LINE
8
Black
10
156.842
20
-63.5695
11
156.847
21
-63.5753
0
LINE
8
Black
10
156.847
20
-63.5753
11
156.853
21
-63.5803
0
LINE
8
Black
10
156.853
20
-63.5803
11
156.856
21
-63.5852
0
LINE
8
Black
10
156.856
20
-63.5852
11
156.859
21
-63.5895
0
LINE
8
Black
10
156.859
20
-63.5895
11
156.862
21
-63.5966
0
LINE
8
Black
10
156.862
20
-63.5966
11
156.865
21
-63.6032
0
LINE
8
Black
10
156.865
20
-63.6032
11
156.866
21
-63.6087
0
LINE
8
Black
10
156.866
20
-63.6087
11
156.868
21
-63.614
0
LINE
8
Black
10
156.868
20
-63.614
11
156.868
21
-63.6215
0
LINE
8
Black
10
156.868
20
-63.6215
11
156.869
21
-63.629
0
LINE
8
Black
10
156.869
20
-63.629
11
156.437
21
-79.7707
0
LINE
8
Black
10
156.437
20
-79.7707
11
156.436
21
-79.7762
0
LINE
8
Black
10
156.436
20
-79.7762
11
156.436
21
-79.7817
0
LINE
8
Black
10
156.436
20
-79.7817
11
156.434
21
-79.7888
0
LINE
8
Black
10
156.434
20
-79.7888
11
156.432
21
-79.7962
0
LINE
8
Black
10
156.432
20
-79.7962
11
156.429
21
-79.801
0
LINE
8
Black
10
156.429
20
-79.801
11
156.427
21
-79.8062
0
LINE
8
Black
10
156.427
20
-79.8062
11
156.422
21
-79.812
0
LINE
8
Black
10
156.422
20
-79.812
11
156.419
21
-79.8184
0
LINE
8
Black
10
156.419
20
-79.8184
11
156.414
21
-79.8219
0
LINE
8
Black
10
156.414
20
-79.8219
11
156.411
21
-79.8262
0
LINE
8
Black
10
156.411
20
-79.8262
11
156.404
21
-79.8299
0
LINE
8
Black
10
156.404
20
-79.8299
11
156.398
21
-79.8346
0
LINE
8
Black
10
156.398
20
-79.8346
11
156.393
21
-79.8364
0
LINE
8
Black
10
156.393
20
-79.8364
11
156.388
21
-79.8392
0
LINE
8
Black
10
156.388
20
-79.8392
11
156.381
21
-79.8405
0
LINE
8
Black
10
156.381
20
-79.8405
11
156.373
21
-79.8429
0
LINE
8
Black
10
156.373
20
-79.8429
11
156.368
21
-79.8427
0
LINE
8
Black
10
156.368
20
-79.8427
11
156.362
21
-79.8437
0
LINE
8
Black
10
156.362
20
-79.8437
11
117.145
21
-79.8437
0
LINE
8
Black
10
117.145
20
-79.8437
11
117.142
21
-79.8431
0
LINE
8
Black
10
117.142
20
-79.8431
11
117.138
21
-79.8434
0
LINE
8
Black
10
117.138
20
-79.8434
11
117.129
21
-79.8409
0
LINE
8
Black
10
117.129
20
-79.8409
11
117.119
21
-79.8392
0
LINE
8
Black
10
117.119
20
-79.8392
11
117.116
21
-79.8375
0
LINE
8
Black
10
117.116
20
-79.8375
11
117.113
21
-79.8367
0
LINE
8
Black
10
117.113
20
-79.8367
11
117.105
21
-79.8311
0
LINE
8
Black
10
117.105
20
-79.8311
11
117.097
21
-79.8262
0
LINE
8
Black
10
117.097
20
-79.8262
11
117.094
21
-79.8236
0
LINE
8
Black
10
117.094
20
-79.8236
11
117.092
21
-79.8217
0
LINE
8
Black
10
117.092
20
-79.8217
11
113.964
21
-76.6941
0
LINE
8
Black
10
113.964
20
-76.6941
11
96.1753
21
-76.6941
0
LINE
8
Black
10
96.1753
20
-76.6941
11
96.1678
21
-76.6968
0
LINE
8
Black
10
96.1678
20
-76.6968
11
96.1418
21
-76.6968
0
LINE
8
Black
10
96.1418
20
-76.6968
11
96.1173
21
-76.6879
0
LINE
8
Black
10
96.1173
20
-76.6879
11
96.1043
21
-76.677
0
LINE
8
Black
10
96.1043
20
-76.677
11
96.1035
21
-76.6766
0
LINE
8
Black
10
96.1035
20
-76.6766
11
96.1029
21
-76.6758
0
LINE
8
Black
10
96.1029
20
-76.6758
11
96.0973
21
-76.6712
0
LINE
8
Black
10
96.0973
20
-76.6712
11
96.0937
21
-76.6649
0
LINE
8
Black
10
96.0937
20
-76.6649
11
96.0867
21
-76.6566
0
LINE
8
Black
10
96.0867
20
-76.6566
11
96.0778
21
-76.6321
0
LINE
8
Black
10
96.0778
20
-76.6321
11
96.0778
21
-76.6061
0
LINE
8
Black
10
96.0778
20
-76.6061
11
96.0798
21
-76.6007
0
LINE
8
Black
10
96.0798
20
-76.6007
11
96.0798
21
-72.698
0
LINE
8
Black
10
96.0798
20
-72.698
11
94.1548
21
-72.698
0
LINE
8
Black
10
94.1548
20
-72.698
11
94.1483
21
-72.6968
0
LINE
8
Black
10
94.1483
20
-72.6968
11
94.1418
21
-72.6968
0
LINE
8
Black
10
94.1418
20
-72.6968
11
94.1356
21
-72.6946
0
LINE
8
Black
10
94.1356
20
-72.6946
11
94.1291
21
-72.6934
0
LINE
8
Black
10
94.1291
20
-72.6934
11
94.1234
21
-72.6902
0
LINE
8
Black
10
94.1234
20
-72.6902
11
94.1173
21
-72.6879
0
LINE
8
Black
10
94.1173
20
-72.6879
11
94.1123
21
-72.6837
0
LINE
8
Black
10
94.1123
20
-72.6837
11
94.1066
21
-72.6804
0
LINE
8
Black
10
94.1066
20
-72.6804
11
94.1024
21
-72.6754
0
LINE
8
Black
10
94.1024
20
-72.6754
11
94.0973
21
-72.6712
0
LINE
8
Black
10
94.0973
20
-72.6712
11
94.094
21
-72.6655
0
LINE
8
Black
10
94.094
20
-72.6655
11
94.0898
21
-72.6605
0
LINE
8
Black
10
94.0898
20
-72.6605
11
94.0876
21
-72.6543
0
LINE
8
Black
10
94.0876
20
-72.6543
11
94.0843
21
-72.6486
0
LINE
8
Black
10
94.0843
20
-72.6486
11
94.0832
21
-72.6421
0
LINE
8
Black
10
94.0832
20
-72.6421
11
94.0809
21
-72.636
0
LINE
8
Black
10
94.0809
20
-72.636
11
94.0809
21
-72.6294
0
LINE
8
Black
10
94.0809
20
-72.6294
11
94.0798
21
-72.623
0
LINE
8
Black
10
94.0798
20
-72.623
11
94.0798
21
-69.623
0
LINE
8
Black
10
94.0798
20
-69.623
11
94.0809
21
-69.6165
0
LINE
8
Black
10
94.0809
20
-69.6165
11
94.0809
21
-69.6099
0
LINE
8
Black
10
94.0809
20
-69.6099
11
94.0832
21
-69.6038
0
LINE
8
Black
10
94.0832
20
-69.6038
11
94.0843
21
-69.5973
0
LINE
8
Black
10
94.0843
20
-69.5973
11
94.0876
21
-69.5916
0
LINE
8
Black
10
94.0876
20
-69.5916
11
94.0898
21
-69.5855
0
LINE
8
Black
10
94.0898
20
-69.5855
11
94.094
21
-69.5804
0
LINE
8
Black
10
94.094
20
-69.5804
11
94.0973
21
-69.5747
0
LINE
8
Black
10
94.0973
20
-69.5747
11
94.1024
21
-69.5705
0
LINE
8
Black
10
94.1024
20
-69.5705
11
94.1066
21
-69.5655
0
LINE
8
Black
10
94.1066
20
-69.5655
11
94.1123
21
-69.5622
0
LINE
8
Black
10
94.1123
20
-69.5622
11
94.1173
21
-69.558
0
LINE
8
Black
10
94.1173
20
-69.558
11
94.1234
21
-69.5558
0
LINE
8
Black
10
94.1234
20
-69.5558
11
94.1291
21
-69.5525
0
LINE
8
Black
10
94.1291
20
-69.5525
11
94.1356
21
-69.5513
0
LINE
8
Black
10
94.1356
20
-69.5513
11
94.1418
21
-69.5491
0
LINE
8
Black
10
94.1418
20
-69.5491
11
94.1483
21
-69.5491
0
LINE
8
Black
10
94.1483
20
-69.5491
11
94.1548
21
-69.548
0
LINE
8
Black
10
94.1548
20
-69.548
11
96.0798
21
-69.548
0
LINE
8
Black
10
96.0798
20
-69.548
11
96.0798
21
-65.623
0
LINE
8
Black
10
96.0798
20
-65.623
11
96.0809
21
-65.6165
0
LINE
8
Black
10
96.0809
20
-65.6165
11
96.0809
21
-65.6099
0
LINE
8
Black
10
96.0809
20
-65.6099
11
96.0832
21
-65.6038
0
LINE
8
Black
10
96.0832
20
-65.6038
11
96.0843
21
-65.5973
0
LINE
8
Black
10
96.0843
20
-65.5973
11
96.0876
21
-65.5916
0
LINE
8
Black
10
96.0876
20
-65.5916
11
96.0898
21
-65.5855
0
LINE
8
Black
10
96.0898
20
-65.5855
11
96.094
21
-65.5804
0
LINE
8
Black
10
96.094
20
-65.5804
11
96.0973
21
-65.5747
0
LINE
8
Black
10
96.0973
20
-65.5747
11
96.1023
21
-65.5705
0
LINE
8
Black
10
96.1023
20
-65.5705
11
96.1066
21
-65.5655
0
LINE
8
Black
10
96.1066
20
-65.5655
11
96.1122
21
-65.5622
0
LINE
8
Black
10
96.1122
20
-65.5622
11
96.1173
21
-65.558
0
LINE
8
Black
10
96.1173
20
-65.558
11
96.1234
21
-65.5558
0
LINE
8
Black
10
96.1234
20
-65.5558
11
96.1291
21
-65.5525
0
LINE
8
Black
10
96.1291
20
-65.5525
11
96.1356
21
-65.5513
0
LINE
8
Black
10
96.1356
20
-65.5513
11
96.1418
21
-65.5491
0
LINE
8
Black
10
96.1418
20
-65.5491
11
96.1483
21
-65.5491
0
LINE
8
Black
10
96.1483
20
-65.5491
11
96.1548
21
-65.548
0
LINE
8
Black
10
96.1548
20
-65.548
11
115.552
21
-65.5459
0
LINE
8
Black
10
115.552
20
-65.5459
11
117.524
21
-63.574
0
LINE
8
Black
10
117.524
20
-63.574
11
117.526
21
-63.5721
0
LINE
8
Black
10
117.526
20
-63.5721
11
117.528
21
-63.5695
0
LINE
8
Black
10
117.528
20
-63.5695
11
117.537
21
-63.5646
0
LINE
8
Black
10
117.537
20
-63.5646
11
117.545
21
-63.559
0
LINE
8
Black
10
117.545
20
-63.559
11
117.548
21
-63.5582
0
LINE
8
Black
10
117.548
20
-63.5582
11
117.551
21
-63.5565
0
LINE
8
Black
10
117.551
20
-63.5565
11
117.561
21
-63.5548
0
LINE
8
Black
10
117.561
20
-63.5548
11
117.57
21
-63.5523
0
LINE
8
Black
10
117.57
20
-63.5523
11
117.573
21
-63.5526
0
LINE
8
Black
10
117.573
20
-63.5526
11
117.577
21
-63.552
0
LINE
8
Black
10
117.577
20
-63.552
11
156.794
21
-63.552
0
LINE
8
Black
10
156.794
20
-63.552
11
156.802
21
-63.5533
0
LINE
8
Black
10
117.608
20
-63.702
11
115.636
21
-65.6739
0
LINE
8
Black
10
115.636
20
-65.6739
11
115.633
21
-65.6758
0
LINE
8
Black
10
115.633
20
-65.6758
11
115.631
21
-65.6783
0
LINE
8
Black
10
115.631
20
-65.6783
11
115.622
21
-65.6833
0
LINE
8
Black
10
115.622
20
-65.6833
11
115.614
21
-65.6889
0
LINE
8
Black
10
115.614
20
-65.6889
11
115.611
21
-65.6897
0
LINE
8
Black
10
115.611
20
-65.6897
11
115.608
21
-65.6914
0
LINE
8
Black
10
115.608
20
-65.6914
11
115.599
21
-65.6931
0
LINE
8
Black
10
115.599
20
-65.6931
11
115.589
21
-65.6956
0
LINE
8
Black
10
115.589
20
-65.6956
11
115.586
21
-65.6953
0
LINE
8
Black
10
115.586
20
-65.6953
11
115.583
21
-65.6959
0
LINE
8
Black
10
115.583
20
-65.6959
11
96.2298
21
-65.6979
0
LINE
8
Black
10
96.2298
20
-65.6979
11
96.2298
21
-69.623
0
LINE
8
Black
10
96.2298
20
-69.623
11
96.2286
21
-69.6294
0
LINE
8
Black
10
96.2286
20
-69.6294
11
96.2286
21
-69.636
0
LINE
8
Black
10
96.2286
20
-69.636
11
96.2264
21
-69.6421
0
LINE
8
Black
10
96.2264
20
-69.6421
11
96.2253
21
-69.6486
0
LINE
8
Black
10
96.2253
20
-69.6486
11
96.222
21
-69.6543
0
LINE
8
Black
10
96.222
20
-69.6543
11
96.2197
21
-69.6605
0
LINE
8
Black
10
96.2197
20
-69.6605
11
96.2155
21
-69.6655
0
LINE
8
Black
10
96.2155
20
-69.6655
11
96.2122
21
-69.6712
0
LINE
8
Black
10
96.2122
20
-69.6712
11
96.2072
21
-69.6754
0
LINE
8
Black
10
96.2072
20
-69.6754
11
96.203
21
-69.6804
0
LINE
8
Black
10
96.203
20
-69.6804
11
96.1973
21
-69.6837
0
LINE
8
Black
10
96.1973
20
-69.6837
11
96.1923
21
-69.6879
0
LINE
8
Black
10
96.1923
20
-69.6879
11
96.1861
21
-69.6902
0
LINE
8
Black
10
96.1861
20
-69.6902
11
96.1804
21
-69.6934
0
LINE
8
Black
10
96.1804
20
-69.6934
11
96.174
21
-69.6946
0
LINE
8
Black
10
96.174
20
-69.6946
11
96.1678
21
-69.6968
0
LINE
8
Black
10
96.1678
20
-69.6968
11
96.1612
21
-69.6968
0
LINE
8
Black
10
96.1612
20
-69.6968
11
96.1548
21
-69.698
0
LINE
8
Black
10
96.1548
20
-69.698
11
94.2298
21
-69.698
0
LINE
8
Black
10
94.2298
20
-69.698
11
94.2298
21
-72.548
0
LINE
8
Black
10
94.2298
20
-72.548
11
96.1548
21
-72.548
0
LINE
8
Black
10
96.1548
20
-72.548
11
96.1612
21
-72.5491
0
LINE
8
Black
10
96.1612
20
-72.5491
11
96.1678
21
-72.5491
0
LINE
8
Black
10
96.1678
20
-72.5491
11
96.174
21
-72.5513
0
LINE
8
Black
10
96.174
20
-72.5513
11
96.1804
21
-72.5525
0
LINE
8
Black
10
96.1804
20
-72.5525
11
96.1861
21
-72.5558
0
LINE
8
Black
10
96.1861
20
-72.5558
11
96.1923
21
-72.558
0
LINE
8
Black
10
96.1923
20
-72.558
11
96.1973
21
-72.5622
0
LINE
8
Black
10
96.1973
20
-72.5622
11
96.203
21
-72.5655
0
LINE
8
Black
10
96.203
20
-72.5655
11
96.2072
21
-72.5705
0
LINE
8
Black
10
96.2072
20
-72.5705
11
96.2122
21
-72.5747
0
LINE
8
Black
10
96.2122
20
-72.5747
11
96.2155
21
-72.5804
0
LINE
8
Black
10
96.2155
20
-72.5804
11
96.2197
21
-72.5855
0
LINE
8
Black
10
96.2197
20
-72.5855
11
96.222
21
-72.5916
0
LINE
8
Black
10
96.222
20
-72.5916
11
96.2253
21
-72.5973
0
LINE
8
Black
10
96.2253
20
-72.5973
11
96.2264
21
-72.6038
0
LINE
8
Black
10
96.2264
20
-72.6038
11
96.2286
21
-72.6099
0
LINE
8
Black
10
96.2286
20
-72.6099
11
96.2286
21
-72.6165
0
LINE
8
Black
10
96.2286
20
-72.6165
11
96.2298
21
-72.623
0
LINE
8
Black
10
96.2298
20
-72.623
11
96.2298
21
-76.5441
0
LINE
8
Black
10
96.2298
20
-76.5441
11
113.995
21
-76.5441
0
LINE
8
Black
10
113.995
20
-76.5441
11
113.998
21
-76.5447
0
LINE
8
Black
10
113.998
20
-76.5447
11
114.002
21
-76.5444
0
LINE
8
Black
10
114.002
20
-76.5444
11
114.011
21
-76.5469
0
LINE
8
Black
10
114.011
20
-76.5469
11
114.021
21
-76.5486
0
LINE
8
Black
10
114.021
20
-76.5486
11
114.024
21
-76.5503
0
LINE
8
Black
10
114.024
20
-76.5503
11
114.027
21
-76.5511
0
LINE
8
Black
10
114.027
20
-76.5511
11
114.035
21
-76.5567
0
LINE
8
Black
10
114.035
20
-76.5567
11
114.043
21
-76.5616
0
LINE
8
Black
10
114.043
20
-76.5616
11
114.046
21
-76.5642
0
LINE
8
Black
10
114.046
20
-76.5642
11
114.048
21
-76.5661
0
LINE
8
Black
10
114.048
20
-76.5661
11
117.176
21
-79.6937
0
LINE
8
Black
10
117.176
20
-79.6937
11
156.289
21
-79.6937
0
LINE
8
Black
10
156.289
20
-79.6937
11
156.717
21
-63.702
0
LINE
8
Black
10
156.717
20
-63.702
11
117.608
21
-63.702
  0
ENDSEC
  0
EOF
