(module LOGO (layer F.Cu)
  (at 0 0)
 (fp_text reference "G***" (at 0 0) (layer F.SilkS) hide
  (effects (font (thickness 0.3)))
  )
  (fp_text value "LOGO" (at 0.75 0) (layer F.SilkS) hide
  (effects (font (thickness 0.3)))
  )
  (fp_poly (pts (xy 10.779510 -7.516292) (xy 10.806255 -7.483577) (xy 10.834491 -7.423581) (xy 10.866366 -7.328628) (xy 10.904027 -7.191043) (xy 10.949622 -7.003151) (xy 11.005298 -6.757276) (xy 11.053429 -6.537281)
     (xy 11.120357 -6.229054) (xy 11.174279 -5.984589) (xy 11.217517 -5.796715) (xy 11.252395 -5.658260) (xy 11.281236 -5.562052) (xy 11.306361 -5.500919) (xy 11.330095 -5.467690) (xy 11.354761 -5.455193)
     (xy 11.382680 -5.456257) (xy 11.402206 -5.460479) (xy 11.496680 -5.475920) (xy 11.646230 -5.492696) (xy 11.833409 -5.509512) (xy 12.040769 -5.525076) (xy 12.250863 -5.538095) (xy 12.446243 -5.547274)
     (xy 12.609463 -5.551321) (xy 12.628808 -5.551404) (xy 13.078539 -5.531358) (xy 13.575895 -5.471871) (xy 14.109097 -5.375187) (xy 14.666367 -5.243552) (xy 15.235925 -5.079209) (xy 15.421429 -5.019225)
     (xy 15.607977 -4.955724) (xy 15.826870 -4.878656) (xy 16.069258 -4.791378) (xy 16.326294 -4.697251) (xy 16.589127 -4.599634) (xy 16.848909 -4.501887) (xy 17.096791 -4.407370) (xy 17.323924 -4.319442)
     (xy 17.521459 -4.241462) (xy 17.680547 -4.176791) (xy 17.792338 -4.128788) (xy 17.847985 -4.100813) (xy 17.852572 -4.096214) (xy 17.869823 -4.072073) (xy 17.923724 -4.075444) (xy 18.017496 -4.107971)
     (xy 18.154359 -4.171295) (xy 18.337534 -4.267060) (xy 18.570243 -4.396907) (xy 18.855706 -4.562480) (xy 19.197144 -4.765420) (xy 19.376572 -4.873393) (xy 19.800029 -5.128007) (xy 20.168525 -5.346965)
     (xy 20.488400 -5.533456) (xy 20.765994 -5.690665) (xy 21.007647 -5.821782) (xy 21.219700 -5.929993) (xy 21.408493 -6.018484) (xy 21.580366 -6.090445) (xy 21.741660 -6.149061) (xy 21.898714 -6.197520)
     (xy 22.057868 -6.239009) (xy 22.123769 -6.254419) (xy 22.436594 -6.304081) (xy 22.739206 -6.303978) (xy 23.057686 -6.253348) (xy 23.177652 -6.223569) (xy 23.359947 -6.170147) (xy 23.530235 -6.108778)
     (xy 23.698758 -6.033720) (xy 23.875759 -5.939232) (xy 24.071480 -5.819571) (xy 24.296163 -5.668998) (xy 24.560052 -5.481769) (xy 24.755730 -5.338963) (xy 25.181887 -5.025572) (xy 25.173015 -4.826000)
     (xy 25.162536 -4.705659) (xy 25.142017 -4.644707) (xy 25.109293 -4.630027) (xy 25.061153 -4.652431) (xy 24.968489 -4.711148) (xy 24.843878 -4.797706) (xy 24.699899 -4.903630) (xy 24.673864 -4.923362)
     (xy 24.333190 -5.176801) (xy 24.035553 -5.384396) (xy 23.772097 -5.551031) (xy 23.533963 -5.681592) (xy 23.312293 -5.780963) (xy 23.098230 -5.854029) (xy 22.897949 -5.902708) (xy 22.741374 -5.932061)
     (xy 22.625232 -5.945208) (xy 22.519203 -5.942098) (xy 22.392969 -5.922677) (xy 22.287511 -5.901650) (xy 22.126167 -5.865554) (xy 21.970944 -5.823637) (xy 21.814890 -5.772502) (xy 21.651056 -5.708752)
     (xy 21.472494 -5.628990) (xy 21.272253 -5.529819) (xy 21.043385 -5.407843) (xy 20.778941 -5.259665) (xy 20.471970 -5.081889) (xy 20.115524 -4.871116) (xy 19.830143 -4.700499) (xy 19.497544 -4.501522)
     (xy 19.218569 -4.336115) (xy 18.984967 -4.199925) (xy 18.788489 -4.088596) (xy 18.620885 -3.997774) (xy 18.473905 -3.923106) (xy 18.339299 -3.860237) (xy 18.208817 -3.804812) (xy 18.074209 -3.752477)
     (xy 17.943286 -3.704624) (xy 17.617759 -3.581315) (xy 17.352106 -3.465324) (xy 17.134748 -3.351270) (xy 17.000033 -3.266218) (xy 16.882389 -3.192037) (xy 16.739225 -3.110433) (xy 16.655143 -3.066265)
     (xy 16.546789 -3.008775) (xy 16.466997 -2.960845) (xy 16.436701 -2.936671) (xy 16.383530 -2.897735) (xy 16.271452 -2.845564) (xy 16.111940 -2.784638) (xy 15.916463 -2.719436) (xy 15.759315 -2.672191)
     (xy 15.425916 -2.576286) (xy 11.792858 -2.576286) (xy 11.792858 0.036286) (xy 15.530286 0.036286) (xy 15.530286 -0.377771) (xy 15.538957 -0.650362) (xy 15.568985 -0.869033) (xy 15.626392 -1.050797)
     (xy 15.717200 -1.212666) (xy 15.847431 -1.371653) (xy 15.902227 -1.428546) (xy 16.006588 -1.532105) (xy 16.073999 -1.590918) (xy 16.118227 -1.612144) (xy 16.153037 -1.602944) (xy 16.185962 -1.576136)
     (xy 16.233390 -1.517212) (xy 16.303169 -1.410944) (xy 16.384423 -1.274509) (xy 16.438534 -1.177243) (xy 16.528266 -1.003129) (xy 16.583978 -0.871761) (xy 16.612021 -0.765577) (xy 16.618858 -0.678834)
     (xy 16.618584 -0.584990) (xy 16.623889 -0.514842) (xy 16.643963 -0.464952) (xy 16.687998 -0.431884) (xy 16.765183 -0.412202) (xy 16.884710 -0.402468) (xy 17.055768 -0.399247) (xy 17.287549 -0.399101)
     (xy 17.366837 -0.399143) (xy 18.070766 -0.399143) (xy 18.152169 -0.302759) (xy 18.239544 -0.207287) (xy 18.331840 -0.116685) (xy 18.392793 -0.042884) (xy 18.469642 0.075657) (xy 18.548790 0.217369)
     (xy 18.574160 0.267717) (xy 18.653819 0.443700) (xy 18.702892 0.592246) (xy 18.730866 0.746421) (xy 18.740990 0.849298) (xy 18.755056 0.997276) (xy 18.775362 1.098654) (xy 18.811919 1.179303)
     (xy 18.874737 1.265096) (xy 18.925026 1.324924) (xy 19.006398 1.426205) (xy 19.064357 1.509862) (xy 19.086286 1.557547) (xy 19.106899 1.611168) (xy 19.158823 1.694751) (xy 19.186072 1.732116)
     (xy 19.285858 1.862818) (xy 19.304000 2.627500) (xy 19.322143 3.392183) (xy 19.449143 3.454206) (xy 19.477259 3.465757) (xy 19.514367 3.475798) (xy 19.565432 3.484436) (xy 19.635417 3.491782)
     (xy 19.729284 3.497944) (xy 19.851998 3.503030) (xy 20.008521 3.507149) (xy 20.203817 3.510410) (xy 20.442848 3.512921) (xy 20.730578 3.514791) (xy 21.071970 3.516128) (xy 21.471987 3.517043)
     (xy 21.935593 3.517642) (xy 22.361072 3.517971) (xy 25.146000 3.519714) (xy 25.146000 3.737428) (xy 19.097534 3.737428) (xy 19.028410 3.661132) (xy 19.005778 3.630355) (xy 18.988158 3.587823)
     (xy 18.974601 3.523955) (xy 18.964160 3.429167) (xy 18.955887 3.293878) (xy 18.948835 3.108504) (xy 18.942056 2.863463) (xy 18.939602 2.763060) (xy 18.932724 2.484898) (xy 18.925161 2.268130)
     (xy 18.914064 2.101612) (xy 18.896580 1.974197) (xy 18.869860 1.874742) (xy 18.831051 1.792102) (xy 18.777303 1.715131) (xy 18.705765 1.632685) (xy 18.629441 1.550619) (xy 18.444738 1.352824)
     (xy 18.421026 1.018762) (xy 18.401012 0.822810) (xy 18.373714 0.691090) (xy 18.344255 0.631642) (xy 18.299611 0.572621) (xy 18.236751 0.472361) (xy 18.179373 0.370935) (xy 18.099080 0.236117)
     (xy 18.009546 0.106688) (xy 17.952518 0.036286) (xy 17.837488 -0.090714) (xy 17.092101 -0.112409) (xy 16.867736 -0.119182) (xy 16.669536 -0.125632) (xy 16.508389 -0.131364) (xy 16.395183 -0.135987)
     (xy 16.340803 -0.139106) (xy 16.337643 -0.139623) (xy 16.333541 -0.175759) (xy 16.330405 -0.267425) (xy 16.328726 -0.397584) (xy 16.328572 -0.454368) (xy 16.324583 -0.625365) (xy 16.308628 -0.754581)
     (xy 16.274727 -0.872558) (xy 16.221990 -0.998654) (xy 16.166722 -1.114110) (xy 16.121011 -1.197977) (xy 16.094074 -1.233466) (xy 16.092926 -1.233714) (xy 16.068653 -1.203054) (xy 16.023627 -1.121405)
     (xy 15.966180 -1.004265) (xy 15.945508 -0.959561) (xy 15.895901 -0.848329) (xy 15.861544 -0.758243) (xy 15.839636 -0.671819) (xy 15.827378 -0.571573) (xy 15.821969 -0.440021) (xy 15.820609 -0.259678)
     (xy 15.820572 -0.179418) (xy 15.820572 0.326571) (xy 11.476077 0.326571) (xy 11.449412 -1.496786) (xy 11.443650 -1.854314) (xy 11.437209 -2.190060) (xy 11.430296 -2.496988) (xy 11.423118 -2.768063)
     (xy 11.415883 -2.996249) (xy 11.408797 -3.174510) (xy 11.402068 -3.295812) (xy 11.395902 -3.353120) (xy 11.394651 -3.356429) (xy 11.378706 -3.401661) (xy 11.350695 -3.506538) (xy 11.313380 -3.659665)
     (xy 11.269524 -3.849645) (xy 11.221891 -4.065084) (xy 11.214291 -4.100286) (xy 11.157151 -4.362792) (xy 11.094953 -4.643440) (xy 11.033034 -4.918490) (xy 10.997535 -5.073399) (xy 11.411304 -5.073399)
     (xy 11.414989 -5.035780) (xy 11.432305 -4.936764) (xy 11.461377 -4.785850) (xy 11.500332 -4.592537) (xy 11.547298 -4.366325) (xy 11.595358 -4.140165) (xy 11.649593 -3.880060) (xy 11.698137 -3.632825)
     (xy 11.738842 -3.410574) (xy 11.769565 -3.225423) (xy 11.788157 -3.089487) (xy 11.792858 -3.025331) (xy 11.792858 -2.830286) (xy 13.416643 -2.830396) (xy 13.809767 -2.830656) (xy 14.138196 -2.831570)
     (xy 14.409805 -2.833424) (xy 14.632470 -2.836507) (xy 14.814065 -2.841104) (xy 14.962468 -2.847503) (xy 15.085552 -2.855991) (xy 15.191193 -2.866855) (xy 15.287267 -2.880381) (xy 15.381649 -2.896857)
     (xy 15.414934 -2.903217) (xy 15.608635 -2.947141) (xy 15.810084 -3.003148) (xy 15.986856 -3.061867) (xy 16.049934 -3.086771) (xy 16.177555 -3.144216) (xy 16.337785 -3.221079) (xy 16.519754 -3.311621)
     (xy 16.712588 -3.410105) (xy 16.905418 -3.510793) (xy 17.087370 -3.607945) (xy 17.247573 -3.695826) (xy 17.375156 -3.768695) (xy 17.459246 -3.820817) (xy 17.488980 -3.846286) (xy 17.455888 -3.864559)
     (xy 17.361253 -3.904574) (xy 17.211908 -3.963748) (xy 17.014685 -4.039499) (xy 16.776415 -4.129245) (xy 16.503931 -4.230401) (xy 16.204063 -4.340388) (xy 15.883644 -4.456620) (xy 15.693572 -4.524985)
     (xy 14.928994 -4.775551) (xy 14.198528 -4.966912) (xy 13.504139 -5.098622) (xy 12.847791 -5.170235) (xy 12.845143 -5.170406) (xy 12.723847 -5.173559) (xy 12.561383 -5.171196) (xy 12.371416 -5.164242)
     (xy 12.167611 -5.153622) (xy 11.963636 -5.140259) (xy 11.773154 -5.125080) (xy 11.609833 -5.109007) (xy 11.487338 -5.092966) (xy 11.419334 -5.077882) (xy 11.411304 -5.073399) (xy 10.997535 -5.073399)
     (xy 10.976726 -5.164199) (xy 10.941171 -5.315857) (xy 10.888651 -5.538250) (xy 10.833772 -5.773387) (xy 10.782870 -5.993963) (xy 10.742282 -6.172673) (xy 10.740609 -6.180142) (xy 10.705943 -6.327397)
     (xy 10.675687 -6.441845) (xy 10.653787 -6.509337) (xy 10.645551 -6.521074) (xy 10.626251 -6.476465) (xy 10.592253 -6.371351) (xy 10.546275 -6.215680) (xy 10.491041 -6.019396) (xy 10.429270 -5.792445)
     (xy 10.363684 -5.544773) (xy 10.297004 -5.286326) (xy 10.231951 -5.027049) (xy 10.191708 -4.862286) (xy 10.104191 -4.501570) (xy 10.030789 -4.200287) (xy 9.970098 -3.948089) (xy 9.920715 -3.734630)
     (xy 9.881235 -3.549566) (xy 9.850255 -3.382549) (xy 9.826370 -3.223235) (xy 9.808177 -3.061276) (xy 9.794273 -2.886327) (xy 9.783253 -2.688043) (xy 9.773713 -2.456076) (xy 9.764250 -2.180082)
     (xy 9.753460 -1.849714) (xy 9.743660 -1.560286) (xy 9.712879 -0.708555) (xy 9.681433 0.099119) (xy 9.649463 0.860430) (xy 9.617107 1.573074) (xy 9.584503 2.234745) (xy 9.551790 2.843138)
     (xy 9.519108 3.395946) (xy 9.486595 3.890864) (xy 9.454389 4.325586) (xy 9.422631 4.697808) (xy 9.391458 5.005224) (xy 9.361009 5.245527) (xy 9.331424 5.416413) (xy 9.320878 5.461000)
     (xy 9.266946 5.596403) (xy 9.190547 5.702585) (xy 9.105799 5.762305) (xy 9.068330 5.769428) (xy 9.005373 5.743318) (xy 8.929860 5.678795) (xy 8.914487 5.661493) (xy 8.873307 5.602531)
     (xy 8.835681 5.523972) (xy 8.799748 5.417935) (xy 8.763642 5.276540) (xy 8.725501 5.091905) (xy 8.683463 4.856151) (xy 8.635663 4.561397) (xy 8.600423 4.333140) (xy 8.533375 3.893832)
     (xy 8.476164 3.521515) (xy 8.427997 3.211387) (xy 8.388080 2.958649) (xy 8.355617 2.758504) (xy 8.329813 2.606151) (xy 8.309875 2.496792) (xy 8.295007 2.425627) (xy 8.284416 2.387858)
     (xy 8.277305 2.378685) (xy 8.276861 2.379044) (xy 8.265469 2.419059) (xy 8.244699 2.519712) (xy 8.216598 2.669974) (xy 8.183213 2.858817) (xy 8.146592 3.075213) (xy 8.138419 3.124730)
     (xy 8.078028 3.469098) (xy 8.020492 3.746501) (xy 7.964096 3.962401) (xy 7.907125 4.122260) (xy 7.847865 4.231540) (xy 7.784599 4.295703) (xy 7.767660 4.305482) (xy 7.655695 4.326121)
     (xy 7.549847 4.277692) (xy 7.455533 4.163694) (xy 7.410765 4.074845) (xy 7.373674 3.966821) (xy 7.327123 3.797185) (xy 7.273297 3.575955) (xy 7.214386 3.313149) (xy 7.152575 3.018785)
     (xy 7.090054 2.702881) (xy 7.029007 2.375455) (xy 6.984542 2.122714) (xy 6.939588 1.864309) (xy 6.891669 1.596484) (xy 6.842587 1.328555) (xy 6.794139 1.069837) (xy 6.748127 0.829646)
     (xy 6.706349 0.617297) (xy 6.670605 0.442106) (xy 6.642696 0.313389) (xy 6.624420 0.240462) (xy 6.618404 0.227501) (xy 6.608058 0.266011) (xy 6.588348 0.363258) (xy 6.561711 0.506377)
     (xy 6.530586 0.682498) (xy 6.515441 0.771003) (xy 6.460652 1.068421) (xy 6.406955 1.300014) (xy 6.351354 1.472412) (xy 6.290854 1.592246) (xy 6.222457 1.666148) (xy 6.143167 1.700748)
     (xy 6.093204 1.705429) (xy 5.989946 1.669910) (xy 5.872939 1.563647) (xy 5.742554 1.387082) (xy 5.599164 1.140654) (xy 5.569730 1.084519) (xy 5.496539 0.946790) (xy 5.433084 0.834647)
     (xy 5.388059 0.763082) (xy 5.373204 0.745660) (xy 5.360010 0.738909) (xy 5.347274 0.742325) (xy 5.331525 0.764380) (xy 5.309293 0.813545) (xy 5.277107 0.898292) (xy 5.231497 1.027093)
     (xy 5.168992 1.208420) (xy 5.095012 1.424729) (xy 5.002609 1.690582) (xy 4.926661 1.896944) (xy 4.862580 2.053775) (xy 4.805782 2.171039) (xy 4.751681 2.258698) (xy 4.695690 2.326713)
     (xy 4.666541 2.355548) (xy 4.561854 2.426396) (xy 4.451634 2.443794) (xy 4.330772 2.405182) (xy 4.194159 2.308000) (xy 4.036686 2.149691) (xy 3.879663 1.961415) (xy 3.779116 1.839243)
     (xy 3.691358 1.742141) (xy 3.627888 1.682313) (xy 3.604237 1.669143) (xy 3.559547 1.696784) (xy 3.494223 1.767485) (xy 3.452351 1.823357) (xy 3.292200 2.026805) (xy 3.143338 2.160126)
     (xy 3.006430 2.222778) (xy 2.957616 2.227943) (xy 2.900173 2.222317) (xy 2.841938 2.200115) (xy 2.771828 2.153350) (xy 2.678761 2.074034) (xy 2.551654 1.954181) (xy 2.476974 1.881547)
     (xy 2.289936 1.700265) (xy 2.143628 1.567441) (xy 2.027141 1.480541) (xy 1.929565 1.437034) (xy 1.839990 1.434385) (xy 1.747508 1.470063) (xy 1.641209 1.541534) (xy 1.510183 1.646265)
     (xy 1.499899 1.654699) (xy 1.288126 1.817264) (xy 1.113900 1.925609) (xy 0.970817 1.983260) (xy 0.881375 1.995360) (xy 0.754287 1.970721) (xy 0.580243 1.899431) (xy 0.365332 1.784366)
     (xy 0.145143 1.647809) (xy 0.015268 1.564612) (xy -0.097684 1.495362) (xy -0.175572 1.451063) (xy -0.192666 1.442869) (xy -0.284674 1.442173) (xy -0.413166 1.496645) (xy -0.572091 1.602655)
     (xy -0.755398 1.756572) (xy -0.826381 1.823192) (xy -0.948011 1.938629) (xy -1.032768 2.011365) (xy -1.095211 2.049899) (xy -1.149899 2.062730) (xy -1.211390 2.058357) (xy -1.225524 2.056207)
     (xy -1.290304 2.038932) (xy -1.357576 2.002342) (xy -1.438373 1.937542) (xy -1.543727 1.835638) (xy -1.684671 1.687734) (xy -1.691110 1.680837) (xy -2.021507 1.326755) (xy -2.326110 1.606235)
     (xy -2.470321 1.734757) (xy -2.576393 1.818728) (xy -2.656251 1.866135) (xy -2.721820 1.884965) (xy -2.744211 1.886286) (xy -2.926079 1.853976) (xy -3.122666 1.758433) (xy -3.241684 1.673856)
     (xy -3.338040 1.603606) (xy -3.421484 1.553333) (xy -3.447839 1.541922) (xy -3.505404 1.549000) (xy -3.607313 1.582920) (xy -3.734614 1.635027) (xy -3.868355 1.696665) (xy -3.989581 1.759180)
     (xy -4.079342 1.813916) (xy -4.116355 1.847217) (xy -4.178810 1.893040) (xy -4.294648 1.933013) (xy -4.444714 1.963496) (xy -4.609854 1.980850) (xy -4.770911 1.981437) (xy -4.807857 1.978580)
     (xy -5.099144 1.942919) (xy -5.335318 1.898185) (xy -5.508508 1.845932) (xy -5.533571 1.835315) (xy -5.630235 1.793758) (xy -5.758786 1.740991) (xy -5.837767 1.709543) (xy -6.033106 1.632857)
     (xy -25.145999 1.632857) (xy -25.145999 1.415143) (xy -5.954158 1.415143) (xy -5.707579 1.507076) (xy -5.548053 1.558940) (xy -5.351382 1.611666) (xy -5.138567 1.660778) (xy -4.930608 1.701800)
     (xy -4.748507 1.730255) (xy -4.613264 1.741669) (xy -4.606629 1.741714) (xy -4.493547 1.720269) (xy -4.329107 1.657584) (xy -4.134843 1.563928) (xy -3.896267 1.445655) (xy -3.705684 1.366950)
     (xy -3.550642 1.327222) (xy -3.418687 1.325875) (xy -3.297369 1.362318) (xy -3.174233 1.435958) (xy -3.075321 1.513463) (xy -2.946187 1.616892) (xy -2.851902 1.673660) (xy -2.774139 1.686489)
     (xy -2.694570 1.658101) (xy -2.594866 1.591221) (xy -2.587655 1.585904) (xy -2.459954 1.483291) (xy -2.323184 1.361125) (xy -2.251230 1.290841) (xy -2.150642 1.194784) (xy -2.065104 1.137829)
     (xy -1.983733 1.122839) (xy -1.895640 1.152676) (xy -1.789941 1.230203) (xy -1.655749 1.358281) (xy -1.540861 1.477615) (xy -1.206516 1.830374) (xy -0.911288 1.552645) (xy -0.737388 1.397955)
     (xy -0.591538 1.289913) (xy -0.457941 1.217341) (xy -0.409694 1.197704) (xy -0.291040 1.155929) (xy -0.210683 1.139947) (xy -0.139672 1.148270) (xy -0.049635 1.179187) (xy 0.060431 1.229689)
     (xy 0.199492 1.304961) (xy 0.333242 1.386071) (xy 0.553035 1.517983) (xy 0.735672 1.606290) (xy 0.875753 1.648734) (xy 0.957507 1.647012) (xy 1.047577 1.601606) (xy 1.178134 1.511678)
     (xy 1.338990 1.384655) (xy 1.464508 1.277342) (xy 1.657574 1.138369) (xy 1.839732 1.070924) (xy 1.992375 1.070812) (xy 2.057122 1.092450) (xy 2.134587 1.139127) (xy 2.233866 1.218056)
     (xy 2.364057 1.336448) (xy 2.528644 1.495977) (xy 2.934842 1.896741) (xy 3.036778 1.787485) (xy 3.119830 1.695012) (xy 3.219550 1.579297) (xy 3.273988 1.514228) (xy 3.395574 1.386476)
     (xy 3.509311 1.314635) (xy 3.622554 1.300419) (xy 3.742655 1.345543) (xy 3.876968 1.451721) (xy 4.032846 1.620666) (xy 4.104116 1.707748) (xy 4.245668 1.878572) (xy 4.352411 1.991924)
     (xy 4.428526 2.051546) (xy 4.478188 2.061177) (xy 4.490193 2.053332) (xy 4.506549 2.015526) (xy 4.542670 1.919497) (xy 4.594788 1.775673) (xy 4.659139 1.594482) (xy 4.731954 1.386351)
     (xy 4.752443 1.327278) (xy 4.857932 1.031276) (xy 4.948499 0.798387) (xy 5.027917 0.621606) (xy 5.099961 0.493923) (xy 5.168403 0.408331) (xy 5.237017 0.357823) (xy 5.283879 0.340391)
     (xy 5.381474 0.332517) (xy 5.474606 0.364069) (xy 5.569408 0.441103) (xy 5.672013 0.569675) (xy 5.788551 0.755841) (xy 5.889803 0.938804) (xy 5.958030 1.066111) (xy 6.007265 1.147451)
     (xy 6.042763 1.178530) (xy 6.069780 1.155059) (xy 6.093571 1.072745) (xy 6.119392 0.927296) (xy 6.150746 0.725714) (xy 6.202659 0.398972) (xy 6.247818 0.136666) (xy 6.288429 -0.068784)
     (xy 6.326696 -0.224956) (xy 6.364826 -0.339431) (xy 6.405023 -0.419789) (xy 6.449494 -0.473610) (xy 6.500444 -0.508472) (xy 6.511401 -0.513743) (xy 6.618048 -0.536953) (xy 6.688969 -0.517220)
     (xy 6.741741 -0.483293) (xy 6.790524 -0.427968) (xy 6.837037 -0.345286) (xy 6.883000 -0.229287) (xy 6.930132 -0.074012) (xy 6.980153 0.126499) (xy 7.034783 0.378205) (xy 7.095741 0.687065)
     (xy 7.164748 1.059040) (xy 7.199466 1.251857) (xy 7.281623 1.708648) (xy 7.357926 2.127331) (xy 7.427536 2.503538) (xy 7.489614 2.832903) (xy 7.543321 3.111059) (xy 7.587816 3.333637)
     (xy 7.622262 3.496270) (xy 7.645818 3.594592) (xy 7.654911 3.621980) (xy 7.667610 3.601876) (xy 7.689469 3.519375) (xy 7.718561 3.383797) (xy 7.752958 3.204466) (xy 7.790730 2.990701)
     (xy 7.812548 2.859980) (xy 7.866905 2.534573) (xy 7.913635 2.272976) (xy 7.954876 2.067088) (xy 7.992766 1.908809) (xy 8.029443 1.790037) (xy 8.067047 1.702672) (xy 8.107714 1.638613)
     (xy 8.146014 1.596693) (xy 8.222228 1.539399) (xy 8.291539 1.532306) (xy 8.333744 1.544395) (xy 8.387680 1.572523) (xy 8.436916 1.620196) (xy 8.482800 1.692793) (xy 8.526682 1.795692)
     (xy 8.569910 1.934272) (xy 8.613832 2.113912) (xy 8.659797 2.339990) (xy 8.709155 2.617885) (xy 8.763252 2.952975) (xy 8.823439 3.350639) (xy 8.874533 3.701143) (xy 8.911560 3.952458)
     (xy 8.946669 4.180066) (xy 8.978207 4.374083) (xy 9.004524 4.524627) (xy 9.023968 4.621816) (xy 9.034042 4.655317) (xy 9.047298 4.634369) (xy 9.062078 4.554798) (xy 9.076245 4.430458)
     (xy 9.084349 4.328746) (xy 9.185054 2.685614) (xy 9.268745 0.980875) (xy 9.269580 0.961571) (xy 9.284626 0.613126) (xy 9.300477 0.246144) (xy 9.316413 -0.122702) (xy 9.331712 -0.476740)
     (xy 9.345655 -0.799297) (xy 9.357522 -1.073701) (xy 9.362090 -1.179286) (xy 9.372738 -1.438028) (xy 9.382133 -1.690556) (xy 9.389784 -1.921676) (xy 9.395201 -2.116197) (xy 9.397894 -2.258927)
     (xy 9.398102 -2.294932) (xy 9.398001 -2.576007) (xy 4.820883 -2.585218) (xy 4.148820 -2.586615) (xy 3.545590 -2.587996) (xy 3.007457 -2.589419) (xy 2.530683 -2.590943) (xy 2.111529 -2.592625)
     (xy 1.746259 -2.594524) (xy 1.431135 -2.596697) (xy 1.162418 -2.599202) (xy 0.936373 -2.602098) (xy 0.749260 -2.605443) (xy 0.597343 -2.609295) (xy 0.476883 -2.613711) (xy 0.384144 -2.618750)
     (xy 0.315387 -2.624470) (xy 0.266875 -2.630929) (xy 0.234871 -2.638185) (xy 0.215636 -2.646296) (xy 0.205434 -2.655321) (xy 0.204341 -2.656930) (xy 0.184832 -2.691916) (xy 0.178001 -2.721261)
     (xy 0.189482 -2.745556) (xy 0.224908 -2.765388) (xy 0.289911 -2.781347) (xy 0.390126 -2.794021) (xy 0.531186 -2.803999) (xy 0.718724 -2.811871) (xy 0.958374 -2.818224) (xy 1.255768 -2.823647)
     (xy 1.616540 -2.828731) (xy 1.879564 -2.832031) (xy 2.312977 -2.838030) (xy 2.361815 -2.838913) (xy 4.954967 -2.838913) (xy 4.955982 -2.828481) (xy 4.975594 -2.819821) (xy 5.018840 -2.812770)
     (xy 5.090760 -2.807159) (xy 5.196389 -2.802824) (xy 5.340767 -2.799597) (xy 5.528932 -2.797314) (xy 5.765920 -2.795807) (xy 6.056771 -2.794911) (xy 6.406522 -2.794459) (xy 6.820210 -2.794285)
     (xy 7.157358 -2.794239) (xy 9.434286 -2.794000) (xy 9.434286 -3.058867) (xy 9.442597 -3.208735) (xy 9.468504 -3.399755) (xy 9.513474 -3.640549) (xy 9.578971 -3.939737) (xy 9.597572 -4.019758)
     (xy 9.647684 -4.234242) (xy 9.691572 -4.423762) (xy 9.726715 -4.577297) (xy 9.750594 -4.683823) (xy 9.760688 -4.732319) (xy 9.760858 -4.733870) (xy 9.728656 -4.735036) (xy 9.636985 -4.710869)
     (xy 9.493251 -4.664227) (xy 9.304855 -4.597969) (xy 9.079201 -4.514951) (xy 8.823695 -4.418033) (xy 8.545737 -4.310072) (xy 8.252734 -4.193928) (xy 7.952087 -4.072457) (xy 7.651202 -3.948519)
     (xy 7.357481 -3.824972) (xy 7.078327 -3.704673) (xy 6.959480 -3.652381) (xy 6.708690 -3.543304) (xy 6.451099 -3.434929) (xy 6.203732 -3.334158) (xy 5.983614 -3.247895) (xy 5.807772 -3.183043)
     (xy 5.769429 -3.169876) (xy 5.606798 -3.114012) (xy 5.470674 -3.064811) (xy 5.375115 -3.027527) (xy 5.334179 -3.007409) (xy 5.334000 -3.007202) (xy 5.288894 -2.984186) (xy 5.206291 -2.960798)
     (xy 5.096677 -2.922883) (xy 4.988577 -2.865764) (xy 4.967512 -2.851286) (xy 4.954967 -2.838913) (xy 2.361815 -2.838913) (xy 2.677963 -2.844629) (xy 2.978666 -2.851984) (xy 3.219230 -2.860250)
     (xy 3.403796 -2.869582) (xy 3.536510 -2.880137) (xy 3.621514 -2.892070) (xy 3.646715 -2.898374) (xy 3.765751 -2.932670) (xy 3.915124 -2.970721) (xy 4.009572 -2.992541) (xy 4.283032 -3.054562)
     (xy 4.533302 -3.116634) (xy 4.770683 -3.182446) (xy 5.005476 -3.255685) (xy 5.247985 -3.340037) (xy 5.508511 -3.439191) (xy 5.797355 -3.556835) (xy 6.124820 -3.696655) (xy 6.501208 -3.862340)
     (xy 6.749143 -3.973157) (xy 7.432061 -4.270652) (xy 8.107641 -4.547510) (xy 8.757315 -4.796320) (xy 9.252858 -4.972563) (xy 9.444771 -5.039174) (xy 9.613764 -5.099738) (xy 9.747292 -5.149610)
     (xy 9.832813 -5.184145) (xy 9.856848 -5.196266) (xy 9.890708 -5.250615) (xy 9.919788 -5.343151) (xy 9.923175 -5.359741) (xy 9.940607 -5.434832) (xy 9.974300 -5.564695) (xy 10.021139 -5.738380)
     (xy 10.078013 -5.944940) (xy 10.141809 -6.173425) (xy 10.209413 -6.412888) (xy 10.277713 -6.652381) (xy 10.343596 -6.880954) (xy 10.403950 -7.087661) (xy 10.455661 -7.261551) (xy 10.495616 -7.391678)
     (xy 10.520704 -7.467093) (xy 10.525831 -7.479396) (xy 10.595440 -7.544392) (xy 10.691205 -7.556179) (xy 10.779510 -7.516292) )(layer F.SilkS) (width  0.010000)
  )
)
