G04 #@! TF.GenerationSoftware,KiCad,Pcbnew,7.0.2*
G04 #@! TF.CreationDate,2023-07-12T19:04:50+02:00*
G04 #@! TF.ProjectId,pbv3,70627633-2e6b-4696-9361-645f70636258,A*
G04 #@! TF.SameCoordinates,Original*
G04 #@! TF.FileFunction,OtherDrawing,Comment*
%FSLAX46Y46*%
G04 Gerber Fmt 4.6, Leading zero omitted, Abs format (unit mm)*
G04 Created by KiCad (PCBNEW 7.0.2) date 2023-07-12 19:04:50*
%MOMM*%
%LPD*%
G01*
G04 APERTURE LIST*
%ADD10C,0.010000*%
%ADD11C,0.300000*%
G04 APERTURE END LIST*
D10*
X94182467Y-70364996D02*
X94191144Y-73364990D01*
X94191144Y-73364990D02*
X96195646Y-73359186D01*
X96182464Y-70359244D02*
X94182467Y-70364996D01*
X117391185Y-64505815D02*
X115598823Y-66304972D01*
X115598823Y-66304972D02*
X96170867Y-66361158D01*
X96207243Y-77357273D02*
X114050683Y-77305645D01*
X114050683Y-77305645D02*
X116762835Y-80002153D01*
X135387770Y-79507610D02*
X116762835Y-80002153D01*
X156429923Y-80198082D02*
X135387770Y-79507610D01*
X156429923Y-80198082D02*
X156790472Y-64786225D01*
X136892161Y-64112928D02*
X156790472Y-64786225D01*
X136892161Y-64112928D02*
X117391185Y-64505815D01*
D11*
X99333351Y-61766883D02*
X98476208Y-61766883D01*
X98904779Y-61766883D02*
X98904779Y-60266883D01*
X98904779Y-60266883D02*
X98761922Y-60481169D01*
X98761922Y-60481169D02*
X98619065Y-60624026D01*
X98619065Y-60624026D02*
X98476208Y-60695455D01*
X100619065Y-60266883D02*
X100333350Y-60266883D01*
X100333350Y-60266883D02*
X100190493Y-60338312D01*
X100190493Y-60338312D02*
X100119065Y-60409740D01*
X100119065Y-60409740D02*
X99976207Y-60624026D01*
X99976207Y-60624026D02*
X99904779Y-60909740D01*
X99904779Y-60909740D02*
X99904779Y-61481169D01*
X99904779Y-61481169D02*
X99976207Y-61624026D01*
X99976207Y-61624026D02*
X100047636Y-61695455D01*
X100047636Y-61695455D02*
X100190493Y-61766883D01*
X100190493Y-61766883D02*
X100476207Y-61766883D01*
X100476207Y-61766883D02*
X100619065Y-61695455D01*
X100619065Y-61695455D02*
X100690493Y-61624026D01*
X100690493Y-61624026D02*
X100761922Y-61481169D01*
X100761922Y-61481169D02*
X100761922Y-61124026D01*
X100761922Y-61124026D02*
X100690493Y-60981169D01*
X100690493Y-60981169D02*
X100619065Y-60909740D01*
X100619065Y-60909740D02*
X100476207Y-60838312D01*
X100476207Y-60838312D02*
X100190493Y-60838312D01*
X100190493Y-60838312D02*
X100047636Y-60909740D01*
X100047636Y-60909740D02*
X99976207Y-60981169D01*
X99976207Y-60981169D02*
X99904779Y-61124026D01*
X101404778Y-61624026D02*
X101476207Y-61695455D01*
X101476207Y-61695455D02*
X101404778Y-61766883D01*
X101404778Y-61766883D02*
X101333350Y-61695455D01*
X101333350Y-61695455D02*
X101404778Y-61624026D01*
X101404778Y-61624026D02*
X101404778Y-61766883D01*
X102833350Y-60266883D02*
X102119064Y-60266883D01*
X102119064Y-60266883D02*
X102047636Y-60981169D01*
X102047636Y-60981169D02*
X102119064Y-60909740D01*
X102119064Y-60909740D02*
X102261922Y-60838312D01*
X102261922Y-60838312D02*
X102619064Y-60838312D01*
X102619064Y-60838312D02*
X102761922Y-60909740D01*
X102761922Y-60909740D02*
X102833350Y-60981169D01*
X102833350Y-60981169D02*
X102904779Y-61124026D01*
X102904779Y-61124026D02*
X102904779Y-61481169D01*
X102904779Y-61481169D02*
X102833350Y-61624026D01*
X102833350Y-61624026D02*
X102761922Y-61695455D01*
X102761922Y-61695455D02*
X102619064Y-61766883D01*
X102619064Y-61766883D02*
X102261922Y-61766883D01*
X102261922Y-61766883D02*
X102119064Y-61695455D01*
X102119064Y-61695455D02*
X102047636Y-61624026D01*
X103833350Y-60266883D02*
X103976207Y-60266883D01*
X103976207Y-60266883D02*
X104119064Y-60338312D01*
X104119064Y-60338312D02*
X104190493Y-60409740D01*
X104190493Y-60409740D02*
X104261921Y-60552597D01*
X104261921Y-60552597D02*
X104333350Y-60838312D01*
X104333350Y-60838312D02*
X104333350Y-61195455D01*
X104333350Y-61195455D02*
X104261921Y-61481169D01*
X104261921Y-61481169D02*
X104190493Y-61624026D01*
X104190493Y-61624026D02*
X104119064Y-61695455D01*
X104119064Y-61695455D02*
X103976207Y-61766883D01*
X103976207Y-61766883D02*
X103833350Y-61766883D01*
X103833350Y-61766883D02*
X103690493Y-61695455D01*
X103690493Y-61695455D02*
X103619064Y-61624026D01*
X103619064Y-61624026D02*
X103547635Y-61481169D01*
X103547635Y-61481169D02*
X103476207Y-61195455D01*
X103476207Y-61195455D02*
X103476207Y-60838312D01*
X103476207Y-60838312D02*
X103547635Y-60552597D01*
X103547635Y-60552597D02*
X103619064Y-60409740D01*
X103619064Y-60409740D02*
X103690493Y-60338312D01*
X103690493Y-60338312D02*
X103833350Y-60266883D01*
X105261921Y-60266883D02*
X105404778Y-60266883D01*
X105404778Y-60266883D02*
X105547635Y-60338312D01*
X105547635Y-60338312D02*
X105619064Y-60409740D01*
X105619064Y-60409740D02*
X105690492Y-60552597D01*
X105690492Y-60552597D02*
X105761921Y-60838312D01*
X105761921Y-60838312D02*
X105761921Y-61195455D01*
X105761921Y-61195455D02*
X105690492Y-61481169D01*
X105690492Y-61481169D02*
X105619064Y-61624026D01*
X105619064Y-61624026D02*
X105547635Y-61695455D01*
X105547635Y-61695455D02*
X105404778Y-61766883D01*
X105404778Y-61766883D02*
X105261921Y-61766883D01*
X105261921Y-61766883D02*
X105119064Y-61695455D01*
X105119064Y-61695455D02*
X105047635Y-61624026D01*
X105047635Y-61624026D02*
X104976206Y-61481169D01*
X104976206Y-61481169D02*
X104904778Y-61195455D01*
X104904778Y-61195455D02*
X104904778Y-60838312D01*
X104904778Y-60838312D02*
X104976206Y-60552597D01*
X104976206Y-60552597D02*
X105047635Y-60409740D01*
X105047635Y-60409740D02*
X105119064Y-60338312D01*
X105119064Y-60338312D02*
X105261921Y-60266883D01*
X106690492Y-60266883D02*
X106833349Y-60266883D01*
X106833349Y-60266883D02*
X106976206Y-60338312D01*
X106976206Y-60338312D02*
X107047635Y-60409740D01*
X107047635Y-60409740D02*
X107119063Y-60552597D01*
X107119063Y-60552597D02*
X107190492Y-60838312D01*
X107190492Y-60838312D02*
X107190492Y-61195455D01*
X107190492Y-61195455D02*
X107119063Y-61481169D01*
X107119063Y-61481169D02*
X107047635Y-61624026D01*
X107047635Y-61624026D02*
X106976206Y-61695455D01*
X106976206Y-61695455D02*
X106833349Y-61766883D01*
X106833349Y-61766883D02*
X106690492Y-61766883D01*
X106690492Y-61766883D02*
X106547635Y-61695455D01*
X106547635Y-61695455D02*
X106476206Y-61624026D01*
X106476206Y-61624026D02*
X106404777Y-61481169D01*
X106404777Y-61481169D02*
X106333349Y-61195455D01*
X106333349Y-61195455D02*
X106333349Y-60838312D01*
X106333349Y-60838312D02*
X106404777Y-60552597D01*
X106404777Y-60552597D02*
X106476206Y-60409740D01*
X106476206Y-60409740D02*
X106547635Y-60338312D01*
X106547635Y-60338312D02*
X106690492Y-60266883D01*
X108976205Y-61766883D02*
X108976205Y-60766883D01*
X108976205Y-60909740D02*
X109047634Y-60838312D01*
X109047634Y-60838312D02*
X109190491Y-60766883D01*
X109190491Y-60766883D02*
X109404777Y-60766883D01*
X109404777Y-60766883D02*
X109547634Y-60838312D01*
X109547634Y-60838312D02*
X109619063Y-60981169D01*
X109619063Y-60981169D02*
X109619063Y-61766883D01*
X109619063Y-60981169D02*
X109690491Y-60838312D01*
X109690491Y-60838312D02*
X109833348Y-60766883D01*
X109833348Y-60766883D02*
X110047634Y-60766883D01*
X110047634Y-60766883D02*
X110190491Y-60838312D01*
X110190491Y-60838312D02*
X110261920Y-60981169D01*
X110261920Y-60981169D02*
X110261920Y-61766883D01*
X110976205Y-61766883D02*
X110976205Y-60766883D01*
X110976205Y-60909740D02*
X111047634Y-60838312D01*
X111047634Y-60838312D02*
X111190491Y-60766883D01*
X111190491Y-60766883D02*
X111404777Y-60766883D01*
X111404777Y-60766883D02*
X111547634Y-60838312D01*
X111547634Y-60838312D02*
X111619063Y-60981169D01*
X111619063Y-60981169D02*
X111619063Y-61766883D01*
X111619063Y-60981169D02*
X111690491Y-60838312D01*
X111690491Y-60838312D02*
X111833348Y-60766883D01*
X111833348Y-60766883D02*
X112047634Y-60766883D01*
X112047634Y-60766883D02*
X112190491Y-60838312D01*
X112190491Y-60838312D02*
X112261920Y-60981169D01*
X112261920Y-60981169D02*
X112261920Y-61766883D01*
X97154778Y-65122954D02*
X97154778Y-62286535D01*
X113654778Y-65122954D02*
X113654778Y-62286535D01*
X97154778Y-62872955D02*
X113654778Y-62872955D01*
X97154778Y-62872955D02*
X113654778Y-62872955D01*
X97154778Y-62872955D02*
X98281282Y-62286534D01*
X97154778Y-62872955D02*
X98281282Y-63459376D01*
X113654778Y-62872955D02*
X112528274Y-63459376D01*
X113654778Y-62872955D02*
X112528274Y-62286534D01*
X89290856Y-77867300D02*
X89291159Y-77581586D01*
X89291159Y-77581586D02*
X89219883Y-77438653D01*
X89219883Y-77438653D02*
X89148530Y-77367149D01*
X89148530Y-77367149D02*
X88934396Y-77224064D01*
X88934396Y-77224064D02*
X88648758Y-77152333D01*
X88648758Y-77152333D02*
X88077329Y-77151726D01*
X88077329Y-77151726D02*
X87934397Y-77223003D01*
X87934397Y-77223003D02*
X87862892Y-77294355D01*
X87862892Y-77294355D02*
X87791312Y-77437137D01*
X87791312Y-77437137D02*
X87791009Y-77722851D01*
X87791009Y-77722851D02*
X87862285Y-77865784D01*
X87862285Y-77865784D02*
X87933638Y-77937288D01*
X87933638Y-77937288D02*
X88076419Y-78008868D01*
X88076419Y-78008868D02*
X88433562Y-78009247D01*
X88433562Y-78009247D02*
X88576495Y-77937971D01*
X88576495Y-77937971D02*
X88647999Y-77866618D01*
X88647999Y-77866618D02*
X88719580Y-77723837D01*
X88719580Y-77723837D02*
X88719883Y-77438123D01*
X88719883Y-77438123D02*
X88648606Y-77295190D01*
X88648606Y-77295190D02*
X88577253Y-77223685D01*
X88577253Y-77223685D02*
X88434472Y-77152105D01*
X89149440Y-76510007D02*
X89220944Y-76438654D01*
X89220944Y-76438654D02*
X89292297Y-76510159D01*
X89292297Y-76510159D02*
X89220793Y-76581511D01*
X89220793Y-76581511D02*
X89149440Y-76510007D01*
X89149440Y-76510007D02*
X89292297Y-76510159D01*
X87793739Y-75151424D02*
X87793436Y-75437138D01*
X87793436Y-75437138D02*
X87864712Y-75580071D01*
X87864712Y-75580071D02*
X87936065Y-75651575D01*
X87936065Y-75651575D02*
X88150199Y-75794660D01*
X88150199Y-75794660D02*
X88435837Y-75866392D01*
X88435837Y-75866392D02*
X89007266Y-75866998D01*
X89007266Y-75866998D02*
X89150198Y-75795722D01*
X89150198Y-75795722D02*
X89221703Y-75724369D01*
X89221703Y-75724369D02*
X89293283Y-75581588D01*
X89293283Y-75581588D02*
X89293586Y-75295873D01*
X89293586Y-75295873D02*
X89222310Y-75152941D01*
X89222310Y-75152941D02*
X89150957Y-75081436D01*
X89150957Y-75081436D02*
X89008176Y-75009856D01*
X89008176Y-75009856D02*
X88651033Y-75009477D01*
X88651033Y-75009477D02*
X88508100Y-75080754D01*
X88508100Y-75080754D02*
X88436596Y-75152106D01*
X88436596Y-75152106D02*
X88365016Y-75294888D01*
X88365016Y-75294888D02*
X88364712Y-75580602D01*
X88364712Y-75580602D02*
X88435989Y-75723535D01*
X88435989Y-75723535D02*
X88507342Y-75795039D01*
X88507342Y-75795039D02*
X88650123Y-75866619D01*
X87794877Y-74079996D02*
X87795028Y-73937139D01*
X87795028Y-73937139D02*
X87866608Y-73794358D01*
X87866608Y-73794358D02*
X87938113Y-73723005D01*
X87938113Y-73723005D02*
X88081046Y-73651728D01*
X88081046Y-73651728D02*
X88366836Y-73580603D01*
X88366836Y-73580603D02*
X88723978Y-73580982D01*
X88723978Y-73580982D02*
X89009617Y-73652714D01*
X89009617Y-73652714D02*
X89152398Y-73724295D01*
X89152398Y-73724295D02*
X89223751Y-73795799D01*
X89223751Y-73795799D02*
X89295027Y-73938732D01*
X89295027Y-73938732D02*
X89294876Y-74081589D01*
X89294876Y-74081589D02*
X89223296Y-74224370D01*
X89223296Y-74224370D02*
X89151791Y-74295723D01*
X89151791Y-74295723D02*
X89008858Y-74367000D01*
X89008858Y-74367000D02*
X88723068Y-74438125D01*
X88723068Y-74438125D02*
X88365926Y-74437746D01*
X88365926Y-74437746D02*
X88080287Y-74366014D01*
X88080287Y-74366014D02*
X87937506Y-74294433D01*
X87937506Y-74294433D02*
X87866153Y-74222929D01*
X87866153Y-74222929D02*
X87794877Y-74079996D01*
X87796773Y-72294283D02*
X87796469Y-72579997D01*
X87796469Y-72579997D02*
X87867746Y-72722930D01*
X87867746Y-72722930D02*
X87939099Y-72794435D01*
X87939099Y-72794435D02*
X88153233Y-72937519D01*
X88153233Y-72937519D02*
X88438871Y-73009251D01*
X88438871Y-73009251D02*
X89010299Y-73009858D01*
X89010299Y-73009858D02*
X89153232Y-72938581D01*
X89153232Y-72938581D02*
X89224737Y-72867228D01*
X89224737Y-72867228D02*
X89296317Y-72724447D01*
X89296317Y-72724447D02*
X89296620Y-72438733D01*
X89296620Y-72438733D02*
X89225343Y-72295800D01*
X89225343Y-72295800D02*
X89153991Y-72224296D01*
X89153991Y-72224296D02*
X89011209Y-72152716D01*
X89011209Y-72152716D02*
X88654067Y-72152336D01*
X88654067Y-72152336D02*
X88511134Y-72223613D01*
X88511134Y-72223613D02*
X88439629Y-72294966D01*
X88439629Y-72294966D02*
X88368049Y-72437747D01*
X88368049Y-72437747D02*
X88367746Y-72723461D01*
X88367746Y-72723461D02*
X88439023Y-72866394D01*
X88439023Y-72866394D02*
X88510375Y-72937899D01*
X88510375Y-72937899D02*
X88653157Y-73009479D01*
X88298289Y-70866244D02*
X89298289Y-70867306D01*
X87726482Y-71222780D02*
X88797530Y-71581060D01*
X88797530Y-71581060D02*
X88798516Y-70652489D01*
X89300336Y-68938736D02*
X88300337Y-68937674D01*
X88443194Y-68937826D02*
X88371841Y-68866322D01*
X88371841Y-68866322D02*
X88300564Y-68723389D01*
X88300564Y-68723389D02*
X88300792Y-68509103D01*
X88300792Y-68509103D02*
X88372372Y-68366322D01*
X88372372Y-68366322D02*
X88515305Y-68295045D01*
X88515305Y-68295045D02*
X89301019Y-68295879D01*
X88515305Y-68295045D02*
X88372524Y-68223465D01*
X88372524Y-68223465D02*
X88301247Y-68080532D01*
X88301247Y-68080532D02*
X88301475Y-67866246D01*
X88301475Y-67866246D02*
X88373055Y-67723465D01*
X88373055Y-67723465D02*
X88515988Y-67652188D01*
X88515988Y-67652188D02*
X89301702Y-67653022D01*
X89302460Y-66938737D02*
X88302461Y-66937675D01*
X88445318Y-66937827D02*
X88373965Y-66866323D01*
X88373965Y-66866323D02*
X88302688Y-66723390D01*
X88302688Y-66723390D02*
X88302916Y-66509104D01*
X88302916Y-66509104D02*
X88374496Y-66366323D01*
X88374496Y-66366323D02*
X88517429Y-66295046D01*
X88517429Y-66295046D02*
X89303143Y-66295880D01*
X88517429Y-66295046D02*
X88374647Y-66223466D01*
X88374647Y-66223466D02*
X88303371Y-66080533D01*
X88303371Y-66080533D02*
X88303598Y-65866247D01*
X88303598Y-65866247D02*
X88375178Y-65723466D01*
X88375178Y-65723466D02*
X88518111Y-65652189D01*
X88518111Y-65652189D02*
X89303825Y-65653024D01*
X96200000Y-67000000D02*
X89822055Y-66993228D01*
X96189800Y-76606400D02*
X89811855Y-76599628D01*
X90408474Y-66993851D02*
X90398274Y-76600251D01*
X90408474Y-66993851D02*
X90398274Y-76600251D01*
X90408474Y-66993851D02*
X90993698Y-68120977D01*
X90408474Y-66993851D02*
X89820857Y-68119731D01*
X90398274Y-76600251D02*
X89813050Y-75473125D01*
X90398274Y-76600251D02*
X90985891Y-75474371D01*
X119226679Y-84361070D02*
X118940965Y-84360614D01*
X118940965Y-84360614D02*
X118797994Y-84431815D01*
X118797994Y-84431815D02*
X118726452Y-84503129D01*
X118726452Y-84503129D02*
X118583253Y-84717187D01*
X118583253Y-84717187D02*
X118511369Y-85002787D01*
X118511369Y-85002787D02*
X118510458Y-85574215D01*
X118510458Y-85574215D02*
X118581658Y-85717186D01*
X118581658Y-85717186D02*
X118652973Y-85788728D01*
X118652973Y-85788728D02*
X118795716Y-85860385D01*
X118795716Y-85860385D02*
X119081430Y-85860840D01*
X119081430Y-85860840D02*
X119224401Y-85789640D01*
X119224401Y-85789640D02*
X119295943Y-85718325D01*
X119295943Y-85718325D02*
X119367599Y-85575582D01*
X119367599Y-85575582D02*
X119368169Y-85218440D01*
X119368169Y-85218440D02*
X119296968Y-85075469D01*
X119296968Y-85075469D02*
X119225654Y-85003926D01*
X119225654Y-85003926D02*
X119082911Y-84932270D01*
X119082911Y-84932270D02*
X118797197Y-84931814D01*
X118797197Y-84931814D02*
X118654226Y-85003015D01*
X118654226Y-85003015D02*
X118582683Y-85074329D01*
X118582683Y-85074329D02*
X118511027Y-85217073D01*
X119940736Y-84505066D02*
X120012278Y-84433752D01*
X120012278Y-84433752D02*
X120155249Y-84362551D01*
X120155249Y-84362551D02*
X120512391Y-84363121D01*
X120512391Y-84363121D02*
X120655134Y-84434777D01*
X120655134Y-84434777D02*
X120726449Y-84506319D01*
X120726449Y-84506319D02*
X120797649Y-84649290D01*
X120797649Y-84649290D02*
X120797422Y-84792147D01*
X120797422Y-84792147D02*
X120725651Y-85006319D01*
X120725651Y-85006319D02*
X119867143Y-85862093D01*
X119867143Y-85862093D02*
X120795713Y-85863574D01*
X121438797Y-85721743D02*
X121510111Y-85793285D01*
X121510111Y-85793285D02*
X121438569Y-85864600D01*
X121438569Y-85864600D02*
X121367254Y-85793057D01*
X121367254Y-85793057D02*
X121438797Y-85721743D01*
X121438797Y-85721743D02*
X121438569Y-85864600D01*
X122012389Y-84365513D02*
X123012388Y-84367108D01*
X123012388Y-84367108D02*
X122367139Y-85866081D01*
X123869529Y-84368475D02*
X124012386Y-84368703D01*
X124012386Y-84368703D02*
X124155129Y-84440359D01*
X124155129Y-84440359D02*
X124226444Y-84511901D01*
X124226444Y-84511901D02*
X124297644Y-84654872D01*
X124297644Y-84654872D02*
X124368617Y-84940700D01*
X124368617Y-84940700D02*
X124368048Y-85297843D01*
X124368048Y-85297843D02*
X124296163Y-85583443D01*
X124296163Y-85583443D02*
X124224507Y-85726186D01*
X124224507Y-85726186D02*
X124152965Y-85797500D01*
X124152965Y-85797500D02*
X124009994Y-85868701D01*
X124009994Y-85868701D02*
X123867137Y-85868473D01*
X123867137Y-85868473D02*
X123724394Y-85796817D01*
X123724394Y-85796817D02*
X123653079Y-85725274D01*
X123653079Y-85725274D02*
X123581879Y-85582303D01*
X123581879Y-85582303D02*
X123510906Y-85296475D01*
X123510906Y-85296475D02*
X123511475Y-84939333D01*
X123511475Y-84939333D02*
X123583360Y-84653733D01*
X123583360Y-84653733D02*
X123655016Y-84510990D01*
X123655016Y-84510990D02*
X123726558Y-84439675D01*
X123726558Y-84439675D02*
X123869529Y-84368475D01*
X125298098Y-84370753D02*
X125440955Y-84370981D01*
X125440955Y-84370981D02*
X125583698Y-84442637D01*
X125583698Y-84442637D02*
X125655013Y-84514180D01*
X125655013Y-84514180D02*
X125726214Y-84657151D01*
X125726214Y-84657151D02*
X125797186Y-84942979D01*
X125797186Y-84942979D02*
X125796617Y-85300121D01*
X125796617Y-85300121D02*
X125724733Y-85585721D01*
X125724733Y-85585721D02*
X125653076Y-85728464D01*
X125653076Y-85728464D02*
X125581534Y-85799779D01*
X125581534Y-85799779D02*
X125438563Y-85870979D01*
X125438563Y-85870979D02*
X125295706Y-85870751D01*
X125295706Y-85870751D02*
X125152963Y-85799095D01*
X125152963Y-85799095D02*
X125081648Y-85727553D01*
X125081648Y-85727553D02*
X125010448Y-85584582D01*
X125010448Y-85584582D02*
X124939475Y-85298754D01*
X124939475Y-85298754D02*
X124940045Y-84941611D01*
X124940045Y-84941611D02*
X125011929Y-84656011D01*
X125011929Y-84656011D02*
X125083585Y-84513268D01*
X125083585Y-84513268D02*
X125155128Y-84441954D01*
X125155128Y-84441954D02*
X125298098Y-84370753D01*
X127224275Y-85873827D02*
X126367133Y-85872460D01*
X126795704Y-85873144D02*
X126798096Y-84373146D01*
X126798096Y-84373146D02*
X126654897Y-84587203D01*
X126654897Y-84587203D02*
X126511813Y-84729832D01*
X126511813Y-84729832D02*
X126368842Y-84801033D01*
X129009986Y-85876675D02*
X129011581Y-84876677D01*
X129011353Y-85019533D02*
X129082896Y-84948219D01*
X129082896Y-84948219D02*
X129225866Y-84877018D01*
X129225866Y-84877018D02*
X129440152Y-84877360D01*
X129440152Y-84877360D02*
X129582895Y-84949016D01*
X129582895Y-84949016D02*
X129654096Y-85091987D01*
X129654096Y-85091987D02*
X129652842Y-85877701D01*
X129654096Y-85091987D02*
X129725752Y-84949244D01*
X129725752Y-84949244D02*
X129868723Y-84878044D01*
X129868723Y-84878044D02*
X130083008Y-84878385D01*
X130083008Y-84878385D02*
X130225751Y-84950042D01*
X130225751Y-84950042D02*
X130296952Y-85093013D01*
X130296952Y-85093013D02*
X130295699Y-85878726D01*
X131009984Y-85879865D02*
X131011578Y-84879866D01*
X131011351Y-85022723D02*
X131082893Y-84951409D01*
X131082893Y-84951409D02*
X131225864Y-84880208D01*
X131225864Y-84880208D02*
X131440149Y-84880550D01*
X131440149Y-84880550D02*
X131582892Y-84952206D01*
X131582892Y-84952206D02*
X131654093Y-85095177D01*
X131654093Y-85095177D02*
X131652840Y-85880890D01*
X131654093Y-85095177D02*
X131725749Y-84952434D01*
X131725749Y-84952434D02*
X131868720Y-84881233D01*
X131868720Y-84881233D02*
X132083006Y-84881575D01*
X132083006Y-84881575D02*
X132225749Y-84953231D01*
X132225749Y-84953231D02*
X132296949Y-85096202D01*
X132296949Y-85096202D02*
X132295696Y-85881916D01*
X94100000Y-78650000D02*
X94085864Y-87513470D01*
X156800000Y-78750000D02*
X156785864Y-87613470D01*
X94086799Y-86927050D02*
X156786799Y-87027050D01*
X94086799Y-86927050D02*
X156786799Y-87027050D01*
X94086799Y-86927050D02*
X95214237Y-86342427D01*
X94086799Y-86927050D02*
X95212366Y-87515267D01*
X156786799Y-87027050D02*
X155659361Y-87611673D01*
X156786799Y-87027050D02*
X155661232Y-86438833D01*
M02*
