M48
; DRILL file {KiCad 7.0.2} date Wed 12 Jul 2023 07:04:53 PM CEST
; FORMAT={-:-/ absolute / inch / decimal}
; #@! TF.CreationDate,2023-07-12T19:04:53+02:00
; #@! TF.GenerationSoftware,Kicad,Pcbnew,7.0.2
; #@! TF.FileFunction,Plated,3,4,Blind
FMAT,2
INCH
; #@! TA.AperFunction,Plated,Buried,ViaDrill
T1C0.0060
%
G90
G05
T1
X4.5134Y-2.801
X4.5134Y-2.8297
X4.5134Y-2.8585
X4.5134Y-2.8868
X4.5276Y-2.7868
X4.5276Y-2.8156
X4.5276Y-2.8443
X4.5276Y-2.8726
X4.5276Y-2.9004
X4.5417Y-2.8589
X4.5417Y-2.8872
X4.5559Y-2.8447
X4.5559Y-2.873
X4.5559Y-2.9008
X4.7449Y-2.9311
X4.7591Y-2.9457
X4.7667Y-3.0848
X4.7732Y-2.9315
X4.7854Y-3.0848
X4.7874Y-2.9457
X4.8169Y-3.0996
X4.8181Y-2.5823
X4.8486Y-2.5823
X4.8533Y-3.0996
X4.8781Y-2.5823
X4.8884Y-2.7577
X4.8884Y-2.7864
X4.8884Y-2.8152
X4.8884Y-2.8435
X4.8927Y-3.0986
X4.9026Y-2.7435
X4.9026Y-2.7722
X4.9026Y-2.801
X4.9026Y-2.8293
X4.9026Y-2.8571
X4.9087Y-2.5823
X4.9167Y-2.7581
X4.9167Y-2.7868
X4.9167Y-2.8156
X4.9167Y-2.8439
X4.9272Y-3.0976
X4.9309Y-2.7439
X4.9309Y-2.7726
X4.9309Y-2.8014
X4.9309Y-2.8297
X4.9309Y-2.8575
X4.9421Y-2.5823
X4.9429Y-3.0976
X4.9451Y-2.7581
X4.9451Y-2.7868
X4.9451Y-2.8156
X4.9451Y-2.8439
X4.9593Y-2.7439
X4.9593Y-2.7726
X4.9593Y-2.8014
X4.9593Y-2.8297
X4.9593Y-2.8575
X4.9734Y-2.7585
X4.9734Y-2.7872
X4.9734Y-2.8159
X4.9734Y-2.8443
X4.9876Y-2.7443
X4.9876Y-2.773
X4.9876Y-2.8018
X4.9876Y-2.8301
X4.9876Y-2.8579
X5.0018Y-2.7589
X5.0018Y-2.7876
X5.0018Y-2.8163
X5.0018Y-2.8447
X5.0159Y-2.7447
X5.0159Y-2.7734
X5.0159Y-2.8022
X5.0159Y-2.8305
X5.0159Y-2.8583
X5.0307Y-2.7591
X5.0307Y-2.7878
X5.0307Y-2.8165
X5.0307Y-2.8449
X5.0449Y-2.7449
X5.0449Y-2.7736
X5.0449Y-2.8024
X5.0449Y-2.8307
X5.0449Y-2.8585
X5.0591Y-2.7594
X5.0591Y-2.7882
X5.0591Y-2.8169
X5.0591Y-2.8453
X5.0732Y-2.7453
X5.0732Y-2.774
X5.0732Y-2.8028
X5.0732Y-2.8311
X5.0732Y-2.8589
X5.9644Y-2.8059
X5.9644Y-2.8343
X5.9787Y-2.7917
X5.9787Y-2.8201
X5.9927Y-2.8055
X5.9927Y-2.8339
X6.0069Y-2.7913
X6.0069Y-2.8197
X6.0213Y-2.8055
X6.0213Y-2.8339
T0
M30
