G04 #@! TF.GenerationSoftware,KiCad,Pcbnew,7.0.2*
G04 #@! TF.CreationDate,2023-07-12T19:04:47+02:00*
G04 #@! TF.ProjectId,pbv3,70627633-2e6b-4696-9361-645f70636258,A*
G04 #@! TF.SameCoordinates,Original*
G04 #@! TF.FileFunction,Copper,L1,Top*
G04 #@! TF.FilePolarity,Positive*
%FSLAX46Y46*%
G04 Gerber Fmt 4.6, Leading zero omitted, Abs format (unit mm)*
G04 Created by KiCad (PCBNEW 7.0.2) date 2023-07-12 19:04:47*
%MOMM*%
%LPD*%
G01*
G04 APERTURE LIST*
G04 Aperture macros list*
%AMRoundRect*
0 Rectangle with rounded corners*
0 $1 Rounding radius*
0 $2 $3 $4 $5 $6 $7 $8 $9 X,Y pos of 4 corners*
0 Add a 4 corners polygon primitive as box body*
4,1,4,$2,$3,$4,$5,$6,$7,$8,$9,$2,$3,0*
0 Add four circle primitives for the rounded corners*
1,1,$1+$1,$2,$3*
1,1,$1+$1,$4,$5*
1,1,$1+$1,$6,$7*
1,1,$1+$1,$8,$9*
0 Add four rect primitives between the rounded corners*
20,1,$1+$1,$2,$3,$4,$5,0*
20,1,$1+$1,$4,$5,$6,$7,0*
20,1,$1+$1,$6,$7,$8,$9,0*
20,1,$1+$1,$8,$9,$2,$3,0*%
G04 Aperture macros list end*
G04 #@! TA.AperFunction,NonConductor*
%ADD10C,0.001000*%
G04 #@! TD*
%ADD11C,0.150000*%
G04 #@! TA.AperFunction,NonConductor*
%ADD12C,0.150000*%
G04 #@! TD*
G04 #@! TA.AperFunction,SMDPad,CuDef*
%ADD13R,0.457200X1.524000*%
G04 #@! TD*
G04 #@! TA.AperFunction,SMDPad,CuDef*
%ADD14R,0.254000X0.127000*%
G04 #@! TD*
G04 #@! TA.AperFunction,SMDPad,CuDef*
%ADD15R,0.127000X0.254000*%
G04 #@! TD*
G04 #@! TA.AperFunction,SMDPad,CuDef*
%ADD16RoundRect,0.250000X1.150000X0.250000X-1.150000X0.250000X-1.150000X-0.250000X1.150000X-0.250000X0*%
G04 #@! TD*
G04 #@! TA.AperFunction,SMDPad,CuDef*
%ADD17R,0.510000X2.600000*%
G04 #@! TD*
G04 #@! TA.AperFunction,SMDPad,CuDef*
%ADD18R,5.200000X3.500000*%
G04 #@! TD*
G04 #@! TA.AperFunction,SMDPad,CuDef*
%ADD19R,0.400000X0.650000*%
G04 #@! TD*
G04 #@! TA.AperFunction,SMDPad,CuDef*
%ADD20R,1.500000X3.500000*%
G04 #@! TD*
G04 #@! TA.AperFunction,SMDPad,CuDef*
%ADD21RoundRect,0.147500X-0.172500X0.147500X-0.172500X-0.147500X0.172500X-0.147500X0.172500X0.147500X0*%
G04 #@! TD*
G04 #@! TA.AperFunction,SMDPad,CuDef*
%ADD22RoundRect,0.100000X-0.100000X0.130000X-0.100000X-0.130000X0.100000X-0.130000X0.100000X0.130000X0*%
G04 #@! TD*
G04 #@! TA.AperFunction,SMDPad,CuDef*
%ADD23RoundRect,0.100000X0.100000X-0.130000X0.100000X0.130000X-0.100000X0.130000X-0.100000X-0.130000X0*%
G04 #@! TD*
G04 #@! TA.AperFunction,SMDPad,CuDef*
%ADD24RoundRect,0.243750X-0.456250X0.243750X-0.456250X-0.243750X0.456250X-0.243750X0.456250X0.243750X0*%
G04 #@! TD*
G04 #@! TA.AperFunction,SMDPad,CuDef*
%ADD25RoundRect,0.147500X0.147500X0.172500X-0.147500X0.172500X-0.147500X-0.172500X0.147500X-0.172500X0*%
G04 #@! TD*
G04 #@! TA.AperFunction,SMDPad,CuDef*
%ADD26RoundRect,0.243750X0.456250X-0.243750X0.456250X0.243750X-0.456250X0.243750X-0.456250X-0.243750X0*%
G04 #@! TD*
G04 #@! TA.AperFunction,SMDPad,CuDef*
%ADD27RoundRect,0.243750X0.243750X0.456250X-0.243750X0.456250X-0.243750X-0.456250X0.243750X-0.456250X0*%
G04 #@! TD*
G04 #@! TA.AperFunction,SMDPad,CuDef*
%ADD28RoundRect,0.243750X-0.243750X-0.456250X0.243750X-0.456250X0.243750X0.456250X-0.243750X0.456250X0*%
G04 #@! TD*
G04 #@! TA.AperFunction,SMDPad,CuDef*
%ADD29RoundRect,0.147500X-0.147500X-0.172500X0.147500X-0.172500X0.147500X0.172500X-0.147500X0.172500X0*%
G04 #@! TD*
G04 #@! TA.AperFunction,SMDPad,CuDef*
%ADD30RoundRect,0.250000X0.375000X1.075000X-0.375000X1.075000X-0.375000X-1.075000X0.375000X-1.075000X0*%
G04 #@! TD*
G04 #@! TA.AperFunction,SMDPad,CuDef*
%ADD31RoundRect,0.218750X-0.256250X0.218750X-0.256250X-0.218750X0.256250X-0.218750X0.256250X0.218750X0*%
G04 #@! TD*
G04 #@! TA.AperFunction,SMDPad,CuDef*
%ADD32RoundRect,0.218750X0.218750X0.256250X-0.218750X0.256250X-0.218750X-0.256250X0.218750X-0.256250X0*%
G04 #@! TD*
G04 #@! TA.AperFunction,SMDPad,CuDef*
%ADD33RoundRect,0.250000X-0.375000X-1.075000X0.375000X-1.075000X0.375000X1.075000X-0.375000X1.075000X0*%
G04 #@! TD*
G04 #@! TA.AperFunction,SMDPad,CuDef*
%ADD34RoundRect,0.250000X-1.075000X0.375000X-1.075000X-0.375000X1.075000X-0.375000X1.075000X0.375000X0*%
G04 #@! TD*
G04 #@! TA.AperFunction,SMDPad,CuDef*
%ADD35R,0.800000X0.900000*%
G04 #@! TD*
G04 #@! TA.AperFunction,SMDPad,CuDef*
%ADD36RoundRect,0.100000X0.130000X0.100000X-0.130000X0.100000X-0.130000X-0.100000X0.130000X-0.100000X0*%
G04 #@! TD*
G04 #@! TA.AperFunction,SMDPad,CuDef*
%ADD37RoundRect,0.100000X-0.130000X-0.100000X0.130000X-0.100000X0.130000X0.100000X-0.130000X0.100000X0*%
G04 #@! TD*
G04 #@! TA.AperFunction,SMDPad,CuDef*
%ADD38RoundRect,0.062500X-0.062500X0.325000X-0.062500X-0.325000X0.062500X-0.325000X0.062500X0.325000X0*%
G04 #@! TD*
G04 #@! TA.AperFunction,SMDPad,CuDef*
%ADD39R,1.300000X0.700000*%
G04 #@! TD*
G04 #@! TA.AperFunction,SMDPad,CuDef*
%ADD40R,2.600000X0.510000*%
G04 #@! TD*
G04 #@! TA.AperFunction,SMDPad,CuDef*
%ADD41R,0.762000X0.508000*%
G04 #@! TD*
G04 #@! TA.AperFunction,SMDPad,CuDef*
%ADD42R,2.300000X2.300000*%
G04 #@! TD*
G04 #@! TA.AperFunction,SMDPad,CuDef*
%ADD43RoundRect,0.062500X-0.062500X0.337500X-0.062500X-0.337500X0.062500X-0.337500X0.062500X0.337500X0*%
G04 #@! TD*
G04 #@! TA.AperFunction,SMDPad,CuDef*
%ADD44RoundRect,0.062500X-0.337500X0.062500X-0.337500X-0.062500X0.337500X-0.062500X0.337500X0.062500X0*%
G04 #@! TD*
G04 #@! TA.AperFunction,SMDPad,CuDef*
%ADD45R,3.700000X3.700000*%
G04 #@! TD*
G04 #@! TA.AperFunction,SMDPad,CuDef*
%ADD46RoundRect,0.140000X-0.140000X-0.170000X0.140000X-0.170000X0.140000X0.170000X-0.140000X0.170000X0*%
G04 #@! TD*
G04 #@! TA.AperFunction,SMDPad,CuDef*
%ADD47RoundRect,0.100000X0.162635X-0.021213X-0.021213X0.162635X-0.162635X0.021213X0.021213X-0.162635X0*%
G04 #@! TD*
G04 #@! TA.AperFunction,ViaPad*
%ADD48C,0.350000*%
G04 #@! TD*
G04 #@! TA.AperFunction,Conductor*
%ADD49C,0.127000*%
G04 #@! TD*
G04 #@! TA.AperFunction,Conductor*
%ADD50C,0.254000*%
G04 #@! TD*
G04 #@! TA.AperFunction,Conductor*
%ADD51C,0.508000*%
G04 #@! TD*
G04 APERTURE END LIST*
D10*
X116750000Y-78550000D02*
X116500000Y-78550000D01*
X116500000Y-78300000D01*
X116750000Y-78300000D01*
X116750000Y-78550000D01*
G04 #@! TA.AperFunction,NonConductor*
G36*
X116750000Y-78550000D02*
G01*
X116500000Y-78550000D01*
X116500000Y-78300000D01*
X116750000Y-78300000D01*
X116750000Y-78550000D01*
G37*
G04 #@! TD.AperFunction*
X152200000Y-65200000D02*
X151950000Y-65200000D01*
X151950000Y-64950000D01*
X152200000Y-64950000D01*
X152200000Y-65200000D01*
G04 #@! TA.AperFunction,NonConductor*
G36*
X152200000Y-65200000D02*
G01*
X151950000Y-65200000D01*
X151950000Y-64950000D01*
X152200000Y-64950000D01*
X152200000Y-65200000D01*
G37*
G04 #@! TD.AperFunction*
X152450000Y-65450000D02*
X152200000Y-65450000D01*
X152200000Y-65200000D01*
X152450000Y-65200000D01*
X152450000Y-65450000D01*
G04 #@! TA.AperFunction,NonConductor*
G36*
X152450000Y-65450000D02*
G01*
X152200000Y-65450000D01*
X152200000Y-65200000D01*
X152450000Y-65200000D01*
X152450000Y-65450000D01*
G37*
G04 #@! TD.AperFunction*
X142800000Y-74200000D02*
X142550000Y-74200000D01*
X142550000Y-73950000D01*
X142800000Y-73950000D01*
X142800000Y-74200000D01*
G04 #@! TA.AperFunction,NonConductor*
G36*
X142800000Y-74200000D02*
G01*
X142550000Y-74200000D01*
X142550000Y-73950000D01*
X142800000Y-73950000D01*
X142800000Y-74200000D01*
G37*
G04 #@! TD.AperFunction*
X142550000Y-73950000D02*
X142300000Y-73950000D01*
X142300000Y-73700000D01*
X142550000Y-73700000D01*
X142550000Y-73950000D01*
G04 #@! TA.AperFunction,NonConductor*
G36*
X142550000Y-73950000D02*
G01*
X142300000Y-73950000D01*
X142300000Y-73700000D01*
X142550000Y-73700000D01*
X142550000Y-73950000D01*
G37*
G04 #@! TD.AperFunction*
X133200000Y-65100000D02*
X132950000Y-65100000D01*
X132950000Y-64850000D01*
X133200000Y-64850000D01*
X133200000Y-65100000D01*
G04 #@! TA.AperFunction,NonConductor*
G36*
X133200000Y-65100000D02*
G01*
X132950000Y-65100000D01*
X132950000Y-64850000D01*
X133200000Y-64850000D01*
X133200000Y-65100000D01*
G37*
G04 #@! TD.AperFunction*
X154000000Y-79500000D02*
X153750000Y-79500000D01*
X153750000Y-79250000D01*
X154000000Y-79250000D01*
X154000000Y-79500000D01*
G04 #@! TA.AperFunction,NonConductor*
G36*
X154000000Y-79500000D02*
G01*
X153750000Y-79500000D01*
X153750000Y-79250000D01*
X154000000Y-79250000D01*
X154000000Y-79500000D01*
G37*
G04 #@! TD.AperFunction*
X117050000Y-65150000D02*
X116800000Y-65150000D01*
X116800000Y-64900000D01*
X117050000Y-64900000D01*
X117050000Y-65150000D01*
G04 #@! TA.AperFunction,NonConductor*
G36*
X117050000Y-65150000D02*
G01*
X116800000Y-65150000D01*
X116800000Y-64900000D01*
X117050000Y-64900000D01*
X117050000Y-65150000D01*
G37*
G04 #@! TD.AperFunction*
X120850000Y-66600000D02*
X120600000Y-66600000D01*
X120600000Y-66350000D01*
X120850000Y-66350000D01*
X120850000Y-66600000D01*
G04 #@! TA.AperFunction,NonConductor*
G36*
X120850000Y-66600000D02*
G01*
X120600000Y-66600000D01*
X120600000Y-66350000D01*
X120850000Y-66350000D01*
X120850000Y-66600000D01*
G37*
G04 #@! TD.AperFunction*
X132600000Y-69250000D02*
X132350000Y-69250000D01*
X132350000Y-69000000D01*
X132600000Y-69000000D01*
X132600000Y-69250000D01*
G04 #@! TA.AperFunction,NonConductor*
G36*
X132600000Y-69250000D02*
G01*
X132350000Y-69250000D01*
X132350000Y-69000000D01*
X132600000Y-69000000D01*
X132600000Y-69250000D01*
G37*
G04 #@! TD.AperFunction*
X139650000Y-77550000D02*
X139400000Y-77550000D01*
X139400000Y-77300000D01*
X139650000Y-77300000D01*
X139650000Y-77550000D01*
G04 #@! TA.AperFunction,NonConductor*
G36*
X139650000Y-77550000D02*
G01*
X139400000Y-77550000D01*
X139400000Y-77300000D01*
X139650000Y-77300000D01*
X139650000Y-77550000D01*
G37*
G04 #@! TD.AperFunction*
X132950000Y-64850000D02*
X132700000Y-64850000D01*
X132700000Y-64600000D01*
X132950000Y-64600000D01*
X132950000Y-64850000D01*
G04 #@! TA.AperFunction,NonConductor*
G36*
X132950000Y-64850000D02*
G01*
X132700000Y-64850000D01*
X132700000Y-64600000D01*
X132950000Y-64600000D01*
X132950000Y-64850000D01*
G37*
G04 #@! TD.AperFunction*
X151900000Y-69900000D02*
X151650000Y-69900000D01*
X151650000Y-69650000D01*
X151900000Y-69650000D01*
X151900000Y-69900000D01*
G04 #@! TA.AperFunction,NonConductor*
G36*
X151900000Y-69900000D02*
G01*
X151650000Y-69900000D01*
X151650000Y-69650000D01*
X151900000Y-69650000D01*
X151900000Y-69900000D01*
G37*
G04 #@! TD.AperFunction*
X120600000Y-66350000D02*
X120350000Y-66350000D01*
X120350000Y-66100000D01*
X120600000Y-66100000D01*
X120600000Y-66350000D01*
G04 #@! TA.AperFunction,NonConductor*
G36*
X120600000Y-66350000D02*
G01*
X120350000Y-66350000D01*
X120350000Y-66100000D01*
X120600000Y-66100000D01*
X120600000Y-66350000D01*
G37*
G04 #@! TD.AperFunction*
X116500000Y-78300000D02*
X116250000Y-78300000D01*
X116250000Y-78050000D01*
X116500000Y-78050000D01*
X116500000Y-78300000D01*
G04 #@! TA.AperFunction,NonConductor*
G36*
X116500000Y-78300000D02*
G01*
X116250000Y-78300000D01*
X116250000Y-78050000D01*
X116500000Y-78050000D01*
X116500000Y-78300000D01*
G37*
G04 #@! TD.AperFunction*
X139900000Y-77800000D02*
X139650000Y-77800000D01*
X139650000Y-77550000D01*
X139900000Y-77550000D01*
X139900000Y-77800000D01*
G04 #@! TA.AperFunction,NonConductor*
G36*
X139900000Y-77800000D02*
G01*
X139650000Y-77800000D01*
X139650000Y-77550000D01*
X139900000Y-77550000D01*
X139900000Y-77800000D01*
G37*
G04 #@! TD.AperFunction*
X151650000Y-69650000D02*
X151400000Y-69650000D01*
X151400000Y-69400000D01*
X151650000Y-69400000D01*
X151650000Y-69650000D01*
G04 #@! TA.AperFunction,NonConductor*
G36*
X151650000Y-69650000D02*
G01*
X151400000Y-69650000D01*
X151400000Y-69400000D01*
X151650000Y-69400000D01*
X151650000Y-69650000D01*
G37*
G04 #@! TD.AperFunction*
X132800000Y-79200000D02*
X132550000Y-79200000D01*
X132550000Y-78950000D01*
X132800000Y-78950000D01*
X132800000Y-79200000D01*
G04 #@! TA.AperFunction,NonConductor*
G36*
X132800000Y-79200000D02*
G01*
X132550000Y-79200000D01*
X132550000Y-78950000D01*
X132800000Y-78950000D01*
X132800000Y-79200000D01*
G37*
G04 #@! TD.AperFunction*
X132850000Y-69500000D02*
X132600000Y-69500000D01*
X132600000Y-69250000D01*
X132850000Y-69250000D01*
X132850000Y-69500000D01*
G04 #@! TA.AperFunction,NonConductor*
G36*
X132850000Y-69500000D02*
G01*
X132600000Y-69500000D01*
X132600000Y-69250000D01*
X132850000Y-69250000D01*
X132850000Y-69500000D01*
G37*
G04 #@! TD.AperFunction*
X129650000Y-79250000D02*
X129400000Y-79250000D01*
X129400000Y-79000000D01*
X129650000Y-79000000D01*
X129650000Y-79250000D01*
G04 #@! TA.AperFunction,NonConductor*
G36*
X129650000Y-79250000D02*
G01*
X129400000Y-79250000D01*
X129400000Y-79000000D01*
X129650000Y-79000000D01*
X129650000Y-79250000D01*
G37*
G04 #@! TD.AperFunction*
X117300000Y-65400000D02*
X117050000Y-65400000D01*
X117050000Y-65150000D01*
X117300000Y-65150000D01*
X117300000Y-65400000D01*
G04 #@! TA.AperFunction,NonConductor*
G36*
X117300000Y-65400000D02*
G01*
X117050000Y-65400000D01*
X117050000Y-65150000D01*
X117300000Y-65150000D01*
X117300000Y-65400000D01*
G37*
G04 #@! TD.AperFunction*
X125400000Y-77900000D02*
X125150000Y-77900000D01*
X125150000Y-77650000D01*
X125400000Y-77650000D01*
X125400000Y-77900000D01*
G04 #@! TA.AperFunction,NonConductor*
G36*
X125400000Y-77900000D02*
G01*
X125150000Y-77900000D01*
X125150000Y-77650000D01*
X125400000Y-77650000D01*
X125400000Y-77900000D01*
G37*
G04 #@! TD.AperFunction*
X125150000Y-77650000D02*
X124900000Y-77650000D01*
X124900000Y-77400000D01*
X125150000Y-77400000D01*
X125150000Y-77650000D01*
G04 #@! TA.AperFunction,NonConductor*
G36*
X125150000Y-77650000D02*
G01*
X124900000Y-77650000D01*
X124900000Y-77400000D01*
X125150000Y-77400000D01*
X125150000Y-77650000D01*
G37*
G04 #@! TD.AperFunction*
X153750000Y-79250000D02*
X153500000Y-79250000D01*
X153500000Y-79000000D01*
X153750000Y-79000000D01*
X153750000Y-79250000D01*
G04 #@! TA.AperFunction,NonConductor*
G36*
X153750000Y-79250000D02*
G01*
X153500000Y-79250000D01*
X153500000Y-79000000D01*
X153750000Y-79000000D01*
X153750000Y-79250000D01*
G37*
G04 #@! TD.AperFunction*
X133050000Y-79450000D02*
X132800000Y-79450000D01*
X132800000Y-79200000D01*
X133050000Y-79200000D01*
X133050000Y-79450000D01*
G04 #@! TA.AperFunction,NonConductor*
G36*
X133050000Y-79450000D02*
G01*
X132800000Y-79450000D01*
X132800000Y-79200000D01*
X133050000Y-79200000D01*
X133050000Y-79450000D01*
G37*
G04 #@! TD.AperFunction*
X129900000Y-79500000D02*
X129650000Y-79500000D01*
X129650000Y-79250000D01*
X129900000Y-79250000D01*
X129900000Y-79500000D01*
G04 #@! TA.AperFunction,NonConductor*
G36*
X129900000Y-79500000D02*
G01*
X129650000Y-79500000D01*
X129650000Y-79250000D01*
X129900000Y-79250000D01*
X129900000Y-79500000D01*
G37*
G04 #@! TD.AperFunction*
D11*
D12*
X130566667Y-77753833D02*
X130233333Y-77753833D01*
X130233333Y-77753833D02*
X130200000Y-78087166D01*
X130200000Y-78087166D02*
X130233333Y-78053833D01*
X130233333Y-78053833D02*
X130300000Y-78020500D01*
X130300000Y-78020500D02*
X130466667Y-78020500D01*
X130466667Y-78020500D02*
X130533333Y-78053833D01*
X130533333Y-78053833D02*
X130566667Y-78087166D01*
X130566667Y-78087166D02*
X130600000Y-78153833D01*
X130600000Y-78153833D02*
X130600000Y-78320500D01*
X130600000Y-78320500D02*
X130566667Y-78387166D01*
X130566667Y-78387166D02*
X130533333Y-78420500D01*
X130533333Y-78420500D02*
X130466667Y-78453833D01*
X130466667Y-78453833D02*
X130300000Y-78453833D01*
X130300000Y-78453833D02*
X130233333Y-78420500D01*
X130233333Y-78420500D02*
X130200000Y-78387166D01*
D13*
X107155500Y-72650000D03*
X108044500Y-72650000D03*
X115544500Y-71240000D03*
X114655500Y-71240000D03*
D14*
X155726778Y-69884454D03*
X155726778Y-71408454D03*
X156260178Y-65589854D03*
X155900000Y-75140000D03*
X155530000Y-78570000D03*
D15*
X120103900Y-79425800D03*
X119175000Y-64975000D03*
X124231400Y-79387700D03*
X123275000Y-64875000D03*
X126850000Y-79480000D03*
X126550000Y-79490000D03*
X126230000Y-79500000D03*
X127150000Y-79480000D03*
X127450000Y-79470000D03*
X127750000Y-79460000D03*
X128050000Y-79450000D03*
X128350000Y-79440000D03*
X128650000Y-79430000D03*
X128950000Y-79420000D03*
X131634878Y-79275000D03*
D14*
X156031578Y-68150000D03*
X156260178Y-66075000D03*
D15*
X126400000Y-64560000D03*
X126700000Y-64550000D03*
X127000000Y-64550000D03*
X127300000Y-64540000D03*
X127600000Y-64540000D03*
X127900000Y-64528154D03*
X128200000Y-64528154D03*
X128500000Y-64520000D03*
X128800000Y-64520000D03*
X129100000Y-64510000D03*
X131648200Y-64569900D03*
D14*
X156031578Y-67763554D03*
X156031578Y-67382554D03*
X156260178Y-65081854D03*
D16*
X116070000Y-66680000D03*
X116070000Y-69380000D03*
D17*
X115504300Y-76500000D03*
X117134300Y-76500000D03*
D15*
X124091078Y-74329454D03*
X124218078Y-74837454D03*
X124345078Y-75345454D03*
X124472078Y-74837454D03*
X124599078Y-75345454D03*
X124726078Y-76107454D03*
X124853078Y-75599454D03*
X124980078Y-76107454D03*
X125107078Y-75599454D03*
X125234078Y-76107454D03*
X125361078Y-74329454D03*
X125488078Y-75345454D03*
X125615078Y-74329454D03*
X125742078Y-75345454D03*
X125869078Y-74329454D03*
X125996078Y-75345454D03*
X126123078Y-74329454D03*
X126250078Y-75345454D03*
X126377078Y-74329454D03*
X126504078Y-75345454D03*
X126631078Y-74329454D03*
X126758078Y-75345454D03*
X126885078Y-74329454D03*
X127012078Y-75345454D03*
X127139078Y-74329454D03*
X127266078Y-75345454D03*
X127393078Y-74329454D03*
X127520078Y-75345454D03*
X127647078Y-74329454D03*
X127774078Y-75345454D03*
X127901078Y-74329454D03*
X128028078Y-75345454D03*
X128155078Y-74329454D03*
X128282078Y-75345454D03*
X128409078Y-74329454D03*
X128536078Y-75345454D03*
X128663078Y-74329454D03*
X128790078Y-75345454D03*
D14*
X130695078Y-72614954D03*
X130949078Y-72360954D03*
X131457078Y-72233954D03*
X131457078Y-71979954D03*
X130441078Y-71852954D03*
X131457078Y-71725954D03*
X131457078Y-71471954D03*
X130441078Y-71344954D03*
X130949078Y-71217954D03*
X130441078Y-71090954D03*
X130949078Y-70963954D03*
X130441078Y-70836954D03*
X130949078Y-70709954D03*
X130441078Y-70582954D03*
X130949078Y-70455954D03*
X130441078Y-70328954D03*
X131457078Y-70329454D03*
X130949078Y-70074954D03*
X130441078Y-69947954D03*
X131457078Y-69820954D03*
X130949078Y-69693954D03*
D15*
X128790078Y-67471454D03*
X128663078Y-67979454D03*
X128536078Y-66963454D03*
X128409078Y-67979454D03*
X128282078Y-66963454D03*
X128155078Y-67979454D03*
X128028078Y-66963454D03*
X127901078Y-67979454D03*
X127774078Y-66963454D03*
X127647078Y-67979454D03*
X127520078Y-66963454D03*
X127393078Y-67979454D03*
X127266078Y-66963454D03*
X127139078Y-67979454D03*
X127012078Y-66963454D03*
X126885078Y-67979454D03*
X126758078Y-66963454D03*
X126631078Y-67979454D03*
X126504078Y-66963454D03*
X126377078Y-67979454D03*
X126250078Y-66963454D03*
X126123078Y-67979454D03*
X125996078Y-66963454D03*
X125869078Y-67979454D03*
X125742078Y-67471454D03*
X125615078Y-67979454D03*
X125488078Y-67471454D03*
X125361078Y-67979454D03*
X125234078Y-67471454D03*
X125107078Y-67979454D03*
X124980078Y-66963454D03*
X124853078Y-67471454D03*
X124726078Y-67979454D03*
X124599078Y-67471454D03*
X124472078Y-66963454D03*
X124345078Y-67979454D03*
X124218078Y-67471454D03*
X124091078Y-67979454D03*
D14*
X122694078Y-69757454D03*
X122186078Y-69884454D03*
X122694078Y-70011454D03*
X122186078Y-70138454D03*
X122694078Y-70265454D03*
X122186078Y-70392454D03*
X122694078Y-70519454D03*
X122186078Y-70646454D03*
X122694078Y-70773454D03*
X122186078Y-70900454D03*
X122694078Y-71027454D03*
X122186078Y-71154454D03*
X122694078Y-71281454D03*
X122186078Y-71408454D03*
X122694078Y-71535454D03*
X122186078Y-71662454D03*
X122694078Y-71789454D03*
X122186078Y-71916454D03*
X122694078Y-72043454D03*
X122186078Y-72170454D03*
X122694078Y-72297454D03*
X122186078Y-72424454D03*
X122694078Y-72551454D03*
D18*
X126504078Y-71154454D03*
D15*
X130949078Y-64569900D03*
X130441078Y-64569900D03*
D19*
X141200000Y-67150000D03*
X140550000Y-67150000D03*
X139900000Y-67150000D03*
X139900000Y-69050000D03*
X140550000Y-69050000D03*
X141200000Y-69050000D03*
D20*
X98250000Y-72180000D03*
X111950000Y-70180000D03*
D14*
X156025000Y-68531000D03*
D21*
X130600000Y-74915000D03*
X130600000Y-75885000D03*
X131541078Y-74240454D03*
X131541078Y-75210454D03*
D22*
X123000000Y-73780000D03*
X123000000Y-74420000D03*
D23*
X123012200Y-75820000D03*
X123012200Y-75180000D03*
D24*
X117090000Y-70620000D03*
X117090000Y-72495000D03*
D25*
X100446700Y-68073500D03*
X99476700Y-68073500D03*
D24*
X110006778Y-68313454D03*
X110006778Y-70188454D03*
D26*
X107212778Y-70061454D03*
X107212778Y-68186454D03*
D25*
X99085000Y-69394300D03*
X98115000Y-69394300D03*
D27*
X110787500Y-75500000D03*
X108912500Y-75500000D03*
D28*
X109862500Y-73100000D03*
X111737500Y-73100000D03*
D21*
X122453400Y-76908800D03*
X122453400Y-77878800D03*
D29*
X149965000Y-67000000D03*
X150935000Y-67000000D03*
X149940000Y-67950000D03*
X150910000Y-67950000D03*
D21*
X131510000Y-67455000D03*
X131510000Y-68425000D03*
D29*
X106168978Y-75702554D03*
X107138978Y-75702554D03*
D21*
X134124078Y-70415454D03*
X134124078Y-71385454D03*
D30*
X136780000Y-66970000D03*
X133980000Y-66970000D03*
X136870000Y-75570000D03*
X134070000Y-75570000D03*
D31*
X138400000Y-67712500D03*
X138400000Y-69287500D03*
D32*
X140912500Y-65725000D03*
X139337500Y-65725000D03*
D31*
X142700000Y-67102500D03*
X142700000Y-68677500D03*
D29*
X141015000Y-71050000D03*
X141985000Y-71050000D03*
D33*
X146560000Y-70320000D03*
X149360000Y-70320000D03*
D34*
X150200000Y-75820000D03*
X150200000Y-78620000D03*
D21*
X123621800Y-76908800D03*
X123621800Y-77878800D03*
D29*
X132165000Y-77650000D03*
X133135000Y-77650000D03*
D21*
X132460000Y-67395000D03*
X132460000Y-68365000D03*
D35*
X137700000Y-71250000D03*
X138650000Y-73250000D03*
X139600000Y-71250000D03*
D25*
X99085000Y-74825000D03*
X98115000Y-74825000D03*
D36*
X104910000Y-75730000D03*
X104270000Y-75730000D03*
X103470000Y-75780000D03*
X102830000Y-75780000D03*
X105107700Y-67971900D03*
X104467700Y-67971900D03*
X130723600Y-76987400D03*
X130083600Y-76987400D03*
X101450100Y-75718900D03*
X100810100Y-75718900D03*
D21*
X122700000Y-67815000D03*
X122700000Y-68785000D03*
D36*
X99785778Y-75718900D03*
X99145778Y-75718900D03*
D37*
X122570000Y-67000000D03*
X123210000Y-67000000D03*
X122570000Y-66200000D03*
X123210000Y-66200000D03*
D23*
X121800000Y-66940000D03*
X121800000Y-66300000D03*
D36*
X120970000Y-67100000D03*
X120330000Y-67100000D03*
D22*
X106150000Y-74130000D03*
X106150000Y-74770000D03*
X132981078Y-70326454D03*
X132981078Y-70966454D03*
D37*
X142090000Y-70100000D03*
X142730000Y-70100000D03*
D36*
X140220000Y-70175000D03*
X139580000Y-70175000D03*
D26*
X145740000Y-67367500D03*
X145740000Y-65492500D03*
D24*
X147500000Y-74332500D03*
X147500000Y-76207500D03*
D27*
X151067500Y-73950000D03*
X149192500Y-73950000D03*
D22*
X121373900Y-76630000D03*
X121373900Y-77270000D03*
D36*
X98620000Y-68530000D03*
X97980000Y-68530000D03*
X132040000Y-66400000D03*
X131400000Y-66400000D03*
D22*
X130000000Y-65480000D03*
X130000000Y-66120000D03*
X151853900Y-67117000D03*
X151853900Y-67757000D03*
X148960000Y-65590000D03*
X148960000Y-66230000D03*
X148958300Y-67165000D03*
X148958300Y-67805000D03*
D36*
X107570000Y-74400000D03*
X106930000Y-74400000D03*
D38*
X121831800Y-73662700D03*
X121331800Y-73662700D03*
X120831800Y-73662700D03*
X120331800Y-73662700D03*
X120331800Y-75587700D03*
X120831800Y-75587700D03*
X121331800Y-75587700D03*
X121831800Y-75587700D03*
D39*
X121081800Y-74625200D03*
D26*
X145100000Y-76000000D03*
X145100000Y-74125000D03*
D40*
X141647178Y-78457254D03*
D41*
X139647178Y-75757254D03*
D40*
X141647178Y-74857254D03*
D42*
X141647178Y-76657254D03*
D27*
X116807500Y-74160000D03*
X114932500Y-74160000D03*
D36*
X134170000Y-69300000D03*
X133530000Y-69300000D03*
D43*
X104404778Y-69372954D03*
X103904778Y-69372954D03*
X103404778Y-69372954D03*
X102904778Y-69372954D03*
X102404778Y-69372954D03*
X101904778Y-69372954D03*
X101404778Y-69372954D03*
X100904778Y-69372954D03*
D44*
X100204778Y-70072954D03*
X100204778Y-70572954D03*
X100204778Y-71072954D03*
X100204778Y-71572954D03*
X100204778Y-72072954D03*
X100204778Y-72572954D03*
X100204778Y-73072954D03*
X100204778Y-73572954D03*
D43*
X100904778Y-74272954D03*
X101404778Y-74272954D03*
X101904778Y-74272954D03*
X102404778Y-74272954D03*
X102904778Y-74272954D03*
X103404778Y-74272954D03*
X103904778Y-74272954D03*
X104404778Y-74272954D03*
D44*
X105104778Y-73572954D03*
X105104778Y-73072954D03*
X105104778Y-72572954D03*
X105104778Y-72072954D03*
X105104778Y-71572954D03*
X105104778Y-71072954D03*
X105104778Y-70572954D03*
X105104778Y-70072954D03*
D45*
X102654778Y-71822954D03*
D21*
X120307100Y-69865000D03*
X120307100Y-70835000D03*
D46*
X120820000Y-68000000D03*
X121780000Y-68000000D03*
X120820000Y-68950000D03*
X121780000Y-68950000D03*
X150090000Y-65680000D03*
X151050000Y-65680000D03*
D47*
X153096274Y-77406274D03*
X152643726Y-76953726D03*
D48*
X152940000Y-69540000D03*
X116160000Y-70910000D03*
X123400000Y-68930000D03*
X152940000Y-70350000D03*
X116480000Y-70060000D03*
X116140000Y-70210000D03*
X152620000Y-70150000D03*
X152620000Y-69340000D03*
X152300000Y-69950000D03*
X120375080Y-72694699D03*
X152290000Y-69170000D03*
X152620000Y-69730000D03*
X117190000Y-70060000D03*
X116160000Y-71260000D03*
X152940000Y-69940000D03*
X120880000Y-72710000D03*
X152300000Y-69550000D03*
X116830000Y-70060000D03*
X116160000Y-70560000D03*
X152950000Y-69170000D03*
X152330000Y-70380000D03*
X101260000Y-71110000D03*
X97850000Y-66800000D03*
X97450000Y-66800000D03*
X99400000Y-66800000D03*
X99000000Y-66800000D03*
X98610000Y-66800000D03*
X98210000Y-66800000D03*
X108490000Y-66810000D03*
X107700000Y-66810000D03*
X108890000Y-66810000D03*
X108100000Y-66810000D03*
X122380000Y-65590000D03*
X125240000Y-69695000D03*
X125960000Y-72580000D03*
X128855000Y-70460000D03*
X128135000Y-72605000D03*
X124520000Y-71865000D03*
X128855000Y-69730000D03*
X125600000Y-70785000D03*
X125240000Y-70425000D03*
X126680000Y-71885000D03*
X124160000Y-71505000D03*
X124520000Y-69685000D03*
X126680000Y-72590000D03*
X128855000Y-72615000D03*
X128135000Y-71180000D03*
X127775000Y-71540000D03*
X125600000Y-70055000D03*
X126680000Y-69705000D03*
X126320000Y-70065000D03*
X127775000Y-70810000D03*
X128495000Y-72270000D03*
X124880000Y-70055000D03*
X125600000Y-72235000D03*
X126320000Y-72245000D03*
X124880000Y-71515000D03*
X126320000Y-71525000D03*
X124520000Y-70415000D03*
X125960000Y-71155000D03*
X127040000Y-71535000D03*
X124160000Y-72225000D03*
X127400000Y-70445000D03*
X128495000Y-70090000D03*
X124520000Y-71145000D03*
X126680000Y-71165000D03*
X124160000Y-70775000D03*
X125240000Y-71875000D03*
X128135000Y-70450000D03*
X128855000Y-71190000D03*
X124160000Y-70045000D03*
X125960000Y-70425000D03*
X127040000Y-70805000D03*
X127400000Y-69715000D03*
X124520000Y-72570000D03*
X125600000Y-71515000D03*
X127040000Y-70075000D03*
X125960000Y-69695000D03*
X125240000Y-71155000D03*
X127400000Y-71175000D03*
X124880000Y-72235000D03*
X128135000Y-69720000D03*
X128495000Y-70820000D03*
X125240000Y-72580000D03*
X127400000Y-72600000D03*
X126680000Y-70435000D03*
X124880000Y-70785000D03*
X126320000Y-70795000D03*
X128855000Y-71910000D03*
X127775000Y-70080000D03*
X127040000Y-72255000D03*
X127775000Y-72260000D03*
X127400000Y-71895000D03*
X128495000Y-71550000D03*
X128135000Y-71900000D03*
X125960000Y-71875000D03*
X133075000Y-75300000D03*
X133070000Y-74950000D03*
X120880000Y-74825000D03*
X120520000Y-74455000D03*
X121240000Y-74465000D03*
X121600000Y-74825000D03*
X152575000Y-71620000D03*
X152215000Y-71260000D03*
X150150000Y-71180000D03*
X150150000Y-70820000D03*
X148680000Y-78360000D03*
X148680000Y-79060000D03*
X145225000Y-65055000D03*
X148680000Y-78710000D03*
X101980000Y-70420000D03*
X101620000Y-70760000D03*
X101620000Y-71460000D03*
X101980000Y-71120000D03*
X102340000Y-70770000D03*
X103740000Y-70770000D03*
X102690000Y-70420000D03*
X103040000Y-70770000D03*
X104090000Y-70430000D03*
X102340000Y-71470000D03*
X103740000Y-71470000D03*
X102690000Y-71120000D03*
X103040000Y-71470000D03*
X103390000Y-71120000D03*
X104090000Y-71130000D03*
X103390000Y-70420000D03*
X102340000Y-72170000D03*
X103740000Y-72170000D03*
X102690000Y-71820000D03*
X103040000Y-72170000D03*
X101260000Y-71810000D03*
X101620000Y-72160000D03*
X103390000Y-71820000D03*
X102340000Y-72880000D03*
X103740000Y-72880000D03*
X102690000Y-72520000D03*
X103040000Y-72880000D03*
X101260000Y-72510000D03*
X101620000Y-72870000D03*
X103390000Y-72520000D03*
X102690000Y-73240000D03*
X101260000Y-73230000D03*
X103390000Y-73240000D03*
X104090000Y-73250000D03*
X101980000Y-73240000D03*
X104090000Y-72530000D03*
X101980000Y-72520000D03*
X104090000Y-71830000D03*
X101980000Y-71820000D03*
X150150000Y-70450000D03*
X150150000Y-70090000D03*
X106530000Y-68120000D03*
X105060000Y-76970000D03*
X101890000Y-76990000D03*
X113340000Y-76950000D03*
X125530000Y-65590000D03*
X114200000Y-72060000D03*
X114190000Y-70080000D03*
X109720000Y-66810000D03*
X113410000Y-72880000D03*
X96690000Y-75310000D03*
X133905000Y-71835000D03*
X96670000Y-71290000D03*
X109380000Y-76980000D03*
X106530000Y-67760000D03*
X113740000Y-76950000D03*
X108420000Y-75470000D03*
X101770000Y-66830000D03*
X106540000Y-68470000D03*
X112580000Y-73260000D03*
X96660000Y-66800000D03*
X114190000Y-74090000D03*
X98440000Y-67860000D03*
X132460000Y-66940000D03*
X108680000Y-73170000D03*
X114190000Y-72890000D03*
X122350000Y-78725000D03*
X102300000Y-68820000D03*
X121060000Y-68480000D03*
X113410000Y-73290000D03*
X106220000Y-67940000D03*
X107400000Y-76970000D03*
X96680000Y-72510000D03*
X96690000Y-74120000D03*
X123905000Y-65590000D03*
X108370000Y-72990000D03*
X99790000Y-66810000D03*
X96670000Y-72080000D03*
X113410000Y-73670000D03*
X96690000Y-74520000D03*
X151860000Y-70910000D03*
X102710000Y-76980000D03*
X96680000Y-72910000D03*
X108420000Y-75110000D03*
X108430000Y-75820000D03*
X114200000Y-71680000D03*
X98290000Y-76980000D03*
X96660000Y-67190000D03*
X150150000Y-69730000D03*
X114130000Y-76950000D03*
X108360000Y-72640000D03*
X113340000Y-66820000D03*
X108680000Y-72810000D03*
X97500000Y-76980000D03*
X101370000Y-66830000D03*
X114200000Y-72470000D03*
X103870000Y-76970000D03*
X131510000Y-66980000D03*
X99480000Y-76980000D03*
X100980000Y-66810000D03*
X152575000Y-70900000D03*
X107203978Y-75106955D03*
X102940000Y-66810000D03*
X108360000Y-71930000D03*
X96690000Y-76130000D03*
X151860000Y-71630000D03*
X107790000Y-76970000D03*
X151630000Y-78710000D03*
X96680000Y-70420000D03*
X106920000Y-66810000D03*
X103600000Y-68440000D03*
X133350000Y-68750000D03*
X111750000Y-76960000D03*
X110940000Y-66810000D03*
X102220000Y-74830000D03*
X110000000Y-70760000D03*
X114190000Y-73680000D03*
X151630000Y-78360000D03*
X113410000Y-74080000D03*
X108370000Y-72280000D03*
X96660000Y-67610000D03*
X108370000Y-73350000D03*
X104130000Y-66810000D03*
X96680000Y-73700000D03*
X111360000Y-76980000D03*
X96690000Y-74910000D03*
X96670000Y-70890000D03*
X130010000Y-66600000D03*
X145575000Y-65055000D03*
X105810000Y-76980000D03*
X152940000Y-71980000D03*
X114190000Y-70460000D03*
X109820000Y-71070000D03*
X113420000Y-71260000D03*
X96670000Y-71680000D03*
X110510000Y-66810000D03*
X101260000Y-70410000D03*
X113410000Y-70450000D03*
X96660000Y-68400000D03*
X151630000Y-79060000D03*
X112270000Y-73440000D03*
X104950000Y-66810000D03*
X111340000Y-66810000D03*
X151495000Y-71270000D03*
X108110000Y-75290000D03*
X96690000Y-75730000D03*
X96680000Y-73300000D03*
X146275000Y-65055000D03*
X104660000Y-76970000D03*
X110110000Y-66810000D03*
X114530000Y-76950000D03*
X110960000Y-76980000D03*
X99870000Y-76980000D03*
X106220000Y-68300000D03*
X107000000Y-76970000D03*
X96660000Y-68800000D03*
X111730000Y-66810000D03*
X134130000Y-72090000D03*
X152215000Y-71980000D03*
X112580000Y-72900000D03*
X100700000Y-76990000D03*
X108680000Y-72100000D03*
X151495000Y-71990000D03*
X102560000Y-66830000D03*
X109640000Y-70760000D03*
X97060000Y-66800000D03*
X100190000Y-66810000D03*
X107480000Y-74880000D03*
X113410000Y-70070000D03*
X112260000Y-72730000D03*
X96660000Y-68010000D03*
X121075000Y-78350000D03*
X110180000Y-71070000D03*
X100270000Y-76980000D03*
X113420000Y-72050000D03*
X112940000Y-76960000D03*
X121550000Y-78350000D03*
X113410000Y-69660000D03*
X98690000Y-76980000D03*
X152940000Y-71260000D03*
X99080000Y-76980000D03*
X108110000Y-75650000D03*
X110350000Y-70750000D03*
X104550000Y-66810000D03*
X114200000Y-71270000D03*
X114190000Y-69670000D03*
X112150000Y-76960000D03*
X134355000Y-71835000D03*
X112540000Y-76960000D03*
X104040000Y-67750000D03*
X103340000Y-66810000D03*
X113740000Y-66820000D03*
X114190000Y-73300000D03*
X101490000Y-76990000D03*
X145925000Y-65055000D03*
X108590000Y-76980000D03*
X105410000Y-76980000D03*
X125550000Y-78675000D03*
X102310000Y-76980000D03*
X106200000Y-76980000D03*
X96680000Y-69230000D03*
X106530000Y-66810000D03*
X113410000Y-70860000D03*
X106130000Y-66810000D03*
X108990000Y-76980000D03*
X110570000Y-76980000D03*
X96690000Y-76520000D03*
X133080000Y-75660000D03*
X133070000Y-74600000D03*
X124275000Y-78700000D03*
X103500000Y-76980000D03*
X110170000Y-76980000D03*
X114190000Y-70870000D03*
X108190000Y-76970000D03*
X112270000Y-73080000D03*
X96680000Y-70020000D03*
X133400000Y-69730000D03*
X132040000Y-66780000D03*
X124680000Y-65590000D03*
X105740000Y-66810000D03*
X98080000Y-67860000D03*
X103730000Y-66810000D03*
X100580000Y-66810000D03*
X104270000Y-76970000D03*
X112130000Y-66810000D03*
X102160000Y-66830000D03*
X107320000Y-66810000D03*
X125150000Y-78675000D03*
X131980000Y-67210000D03*
X150150000Y-69370000D03*
X123155000Y-65590000D03*
X109320000Y-66810000D03*
X131375000Y-75925000D03*
X112550000Y-66820000D03*
X113420000Y-72460000D03*
X112950000Y-66820000D03*
X103100000Y-76980000D03*
X106600000Y-76980000D03*
X108680000Y-72460000D03*
X96680000Y-69630000D03*
X131750000Y-75925000D03*
X105340000Y-66810000D03*
X97080000Y-76920000D03*
X96690000Y-76920000D03*
X101100000Y-76990000D03*
X123275000Y-78725000D03*
X113420000Y-71670000D03*
X120710000Y-68480000D03*
X97900000Y-76980000D03*
X109780000Y-76980000D03*
X116110000Y-65860000D03*
X120240000Y-67670000D03*
X119990000Y-71900000D03*
X115930000Y-75300000D03*
X121275000Y-72285490D03*
X123650000Y-74000000D03*
X105680000Y-75470000D03*
X125370000Y-66960000D03*
X105574766Y-75804766D03*
X154109700Y-75201900D03*
X154470000Y-75200000D03*
X141140000Y-74440000D03*
X138150000Y-75869000D03*
X153750000Y-75200000D03*
X138150000Y-76250000D03*
X141550000Y-74440000D03*
X141970000Y-74440000D03*
X120873287Y-73263923D03*
X119901664Y-73091141D03*
X153416000Y-65593500D03*
X128663078Y-76475501D03*
X153070000Y-65593500D03*
X129044078Y-76475501D03*
X129536290Y-76165501D03*
X129706290Y-76475501D03*
X152700000Y-66100000D03*
X153403300Y-66101500D03*
X129190000Y-66250000D03*
X153045500Y-65085500D03*
X128860000Y-66570000D03*
X153403300Y-65085500D03*
X99270000Y-74140000D03*
X121090000Y-70540000D03*
X98600010Y-74300000D03*
X121479408Y-70179444D03*
X103876778Y-76020000D03*
X103876778Y-75667982D03*
X103110000Y-68560000D03*
X102790000Y-68700000D03*
X124130000Y-66660000D03*
X98440000Y-75720000D03*
X104060000Y-68660000D03*
X121400000Y-67050000D03*
X121290000Y-66170000D03*
X124850000Y-66540000D03*
X104929699Y-73886644D03*
X105590000Y-74560000D03*
X105870000Y-69140000D03*
X105580000Y-68940000D03*
X119777949Y-71293548D03*
X120740000Y-71430000D03*
X122370000Y-75660000D03*
X132125720Y-70459600D03*
X122430000Y-76070000D03*
X129780000Y-68820000D03*
X131800600Y-70464680D03*
X100510000Y-76070000D03*
X125590000Y-66430000D03*
X148340000Y-66140000D03*
X135730000Y-71840000D03*
X147640000Y-66140000D03*
X135230000Y-72350000D03*
X148360000Y-65630000D03*
X135370000Y-71450000D03*
X147660000Y-65630000D03*
X134870000Y-71960000D03*
X148500000Y-67250000D03*
X132640000Y-73240000D03*
X147800000Y-67250000D03*
X132151355Y-72728645D03*
X148500000Y-67760000D03*
X147800000Y-67760000D03*
X132488645Y-72391355D03*
X132990000Y-72870000D03*
X123600000Y-74500000D03*
X130440000Y-68750000D03*
X132490000Y-69880000D03*
X132140000Y-69880000D03*
D49*
X152620000Y-69340000D02*
X152460000Y-69340000D01*
X117157500Y-70913500D02*
X117032500Y-70913500D01*
X121123717Y-72710000D02*
X120880000Y-72710000D01*
X121831800Y-73418083D02*
X121123717Y-72710000D01*
X121831800Y-73662700D02*
X121831800Y-73418083D01*
X117032500Y-70913500D02*
X116362700Y-70243700D01*
X152940000Y-69940000D02*
X152940000Y-70350000D01*
X123400000Y-68670000D02*
X122660000Y-67930000D01*
X152460000Y-69340000D02*
X152290000Y-69170000D01*
X123400000Y-68930000D02*
X123400000Y-68670000D01*
X120880000Y-72710000D02*
X120390381Y-72710000D01*
X152620000Y-70150000D02*
X152620000Y-69730000D01*
D50*
X154710778Y-69884454D02*
X153318046Y-69884454D01*
D49*
X152950000Y-69170000D02*
X152950000Y-69530000D01*
X152300000Y-69550000D02*
X152300000Y-69950000D01*
X152950000Y-69530000D02*
X152940000Y-69540000D01*
X155726778Y-69884454D02*
X154710778Y-69884454D01*
X101304778Y-71092954D02*
X101304778Y-71592954D01*
X101304778Y-71592954D02*
X101304778Y-72092954D01*
X101304778Y-72092954D02*
X101304778Y-72592954D01*
X101304778Y-72592954D02*
X101304778Y-73092954D01*
X101404778Y-69422954D02*
X100904778Y-69422954D01*
X100904778Y-69422954D02*
X100254778Y-70072954D01*
X101904778Y-73594954D02*
X101624778Y-73314954D01*
X101904778Y-74222954D02*
X101904778Y-73594954D01*
X101404778Y-73534954D02*
X101624778Y-73314954D01*
X101404778Y-74222954D02*
X101404778Y-73534954D01*
X100904778Y-73564954D02*
X101154778Y-73314954D01*
X100904778Y-74222954D02*
X100904778Y-73564954D01*
X112125546Y-73263278D02*
X111681046Y-72818778D01*
X107212778Y-68123954D02*
X106371278Y-68123954D01*
X102550000Y-76080000D02*
X102550000Y-76630000D01*
X107203978Y-75702554D02*
X107203978Y-75146022D01*
X102720000Y-75910000D02*
X102550000Y-76080000D01*
X98653500Y-68073500D02*
X98440000Y-67860000D01*
X99411700Y-68073500D02*
X98653500Y-68073500D01*
X98040000Y-68530000D02*
X98040000Y-67960000D01*
X130600000Y-74915000D02*
X131180624Y-74915000D01*
X126885078Y-67979454D02*
X126885078Y-68360454D01*
X120820000Y-69000000D02*
X120820000Y-68000002D01*
X101842278Y-70980454D02*
X101842278Y-70712278D01*
X149894454Y-78804122D02*
X149894454Y-78423122D01*
X125361078Y-67979454D02*
X125361078Y-68360454D01*
X125107078Y-68360454D02*
X124726078Y-68360454D01*
X126631078Y-67979454D02*
X126631078Y-68360454D01*
X124726078Y-67979454D02*
X124726078Y-68360454D01*
X125615078Y-68233454D02*
X125615078Y-68360454D01*
X123913900Y-75590400D02*
X123913900Y-74760632D01*
X103570000Y-68800000D02*
X103402778Y-68967222D01*
X122694078Y-71027454D02*
X122694078Y-70773454D01*
X154192778Y-71408454D02*
X154189778Y-71405454D01*
X125869078Y-67979454D02*
X125869078Y-68360454D01*
X133500000Y-69300000D02*
X133500000Y-68900000D01*
X125615078Y-67979454D02*
X125615078Y-68233454D01*
X107212778Y-68123954D02*
X106476046Y-68123954D01*
X122694078Y-72551454D02*
X122694078Y-72297454D01*
X126377078Y-68360454D02*
X126123078Y-68360454D01*
X124853078Y-75599454D02*
X124853078Y-75853454D01*
X127901078Y-68360454D02*
X127647078Y-68360454D01*
X123202078Y-70773454D02*
X122694078Y-70773454D01*
X128409078Y-67979454D02*
X128409078Y-68360454D01*
X114140000Y-72080000D02*
X114180000Y-72080000D01*
X130000000Y-66590000D02*
X130000000Y-66120000D01*
X114130000Y-73700000D02*
X114170000Y-73700000D01*
X128155078Y-67979454D02*
X128155078Y-68360454D01*
X125869078Y-68360454D02*
X125615078Y-68360454D01*
X122694078Y-70265454D02*
X122694078Y-70011454D01*
X125234078Y-76107454D02*
X125234078Y-75980454D01*
X107600000Y-74760000D02*
X107600000Y-74423000D01*
X113350000Y-73690000D02*
X113390000Y-73690000D01*
X126631078Y-68360454D02*
X126377078Y-68360454D01*
X131541078Y-75275454D02*
X131541078Y-75762954D01*
X154189778Y-71405454D02*
X152805778Y-71405454D01*
X101842278Y-70980454D02*
X101830454Y-70980454D01*
X128663078Y-68360454D02*
X128409078Y-68360454D01*
D50*
X121022200Y-77943800D02*
X122453400Y-77943800D01*
D49*
X120710000Y-68480000D02*
X120710000Y-68840000D01*
X122694078Y-69757454D02*
X122694078Y-72551454D01*
D50*
X120831800Y-77753400D02*
X121022200Y-77943800D01*
D49*
X102404778Y-74645222D02*
X102404778Y-74272954D01*
X124091078Y-68360454D02*
X123837078Y-68614454D01*
X107203978Y-75146022D02*
X107203978Y-75106955D01*
X133530000Y-69600000D02*
X133400000Y-69730000D01*
X120710000Y-68840000D02*
X120820000Y-68950000D01*
X114130000Y-70480000D02*
X114170000Y-70480000D01*
X124176954Y-75853454D02*
X123913900Y-75590400D01*
X102386778Y-68906778D02*
X102386778Y-69404954D01*
X122694078Y-70011454D02*
X122694078Y-69757454D01*
X125107078Y-75853454D02*
X124980078Y-75853454D01*
X125107078Y-67979454D02*
X125107078Y-68360454D01*
X103402778Y-68967222D02*
X103402778Y-69420954D01*
X101830454Y-70980454D02*
X101260000Y-70410000D01*
D50*
X120831800Y-75575200D02*
X120831800Y-74875200D01*
D49*
X131541078Y-75762954D02*
X131731578Y-75953454D01*
X124980078Y-75853454D02*
X124853078Y-75853454D01*
X124980078Y-76107454D02*
X124980078Y-75853454D01*
X122694078Y-72043454D02*
X122694078Y-71789454D01*
X145575000Y-65055000D02*
X145775000Y-65255000D01*
X124345078Y-68360454D02*
X124091078Y-68360454D01*
X120710000Y-68480000D02*
X120710000Y-68110000D01*
X104040000Y-67750000D02*
X104261900Y-67971900D01*
X124726078Y-75853454D02*
X124176954Y-75853454D01*
X123215000Y-65650000D02*
X123155000Y-65590000D01*
X122694078Y-71535454D02*
X122694078Y-71281454D01*
X122694078Y-71789454D02*
X122694078Y-71535454D01*
X133200000Y-77410000D02*
X133200000Y-75635000D01*
X124345078Y-67979454D02*
X124345078Y-68360454D01*
X121060000Y-68480000D02*
X121060000Y-68710000D01*
X126123078Y-68360454D02*
X125869078Y-68360454D01*
D51*
X145725000Y-65465000D02*
X145740000Y-65480000D01*
D49*
X107480000Y-74880000D02*
X107600000Y-74760000D01*
D50*
X120831800Y-75575200D02*
X120831800Y-77753400D01*
D49*
X101842278Y-70712278D02*
X101560000Y-70430000D01*
X130912600Y-76987400D02*
X131750000Y-76150000D01*
X102220000Y-74830000D02*
X102404778Y-74645222D01*
X145775000Y-65255000D02*
X145775000Y-65475000D01*
X126885078Y-68360454D02*
X126631078Y-68360454D01*
X127647078Y-67979454D02*
X127647078Y-68360454D01*
X124726078Y-76107454D02*
X124726078Y-75853454D01*
X130663600Y-76987400D02*
X130912600Y-76987400D01*
X155726778Y-71408454D02*
X154192778Y-71408454D01*
X128409078Y-68360454D02*
X128155078Y-68360454D01*
X127647078Y-68360454D02*
X127393078Y-68360454D01*
X122694078Y-71281454D02*
X122694078Y-71027454D01*
X125107078Y-75599454D02*
X125107078Y-75853454D01*
D51*
X145730000Y-65470000D02*
X145740000Y-65480000D01*
D49*
X127901078Y-67979454D02*
X127901078Y-68360454D01*
X122694078Y-72297454D02*
X122694078Y-72043454D01*
X104261900Y-67971900D02*
X104527700Y-67971900D01*
X103570000Y-68470000D02*
X103600000Y-68440000D01*
X122694078Y-70773454D02*
X122694078Y-70519454D01*
X133530000Y-69300000D02*
X133530000Y-69600000D01*
X121060000Y-68710000D02*
X120820000Y-68950000D01*
X120710000Y-68110000D02*
X120820000Y-68000000D01*
X131750000Y-76150000D02*
X131750000Y-75925000D01*
X125234078Y-75980454D02*
X125107078Y-75853454D01*
X126377078Y-67979454D02*
X126377078Y-68360454D01*
X124091078Y-67979454D02*
X124091078Y-68360454D01*
X124853078Y-75853454D02*
X124726078Y-75853454D01*
X127393078Y-67979454D02*
X127393078Y-68360454D01*
X121060000Y-68480000D02*
X121060000Y-68240000D01*
X121060000Y-68240000D02*
X120820000Y-68000000D01*
X113360000Y-72070000D02*
X113400000Y-72070000D01*
X130010000Y-66600000D02*
X130000000Y-66590000D01*
X123215000Y-65650000D02*
X123155000Y-65590000D01*
X131180624Y-74915000D02*
X131541078Y-75275454D01*
X103570000Y-68800000D02*
X103570000Y-68470000D01*
X123210000Y-66200000D02*
X123210000Y-65685000D01*
X127139078Y-68360454D02*
X126885078Y-68360454D01*
X133500000Y-68900000D02*
X133350000Y-68750000D01*
X128663078Y-67979454D02*
X128663078Y-68360454D01*
X134124078Y-71450454D02*
X134124078Y-71916454D01*
X125615078Y-68360454D02*
X125361078Y-68360454D01*
X102300000Y-68820000D02*
X102386778Y-68906778D01*
X127393078Y-68360454D02*
X127139078Y-68360454D01*
X126123078Y-67979454D02*
X126123078Y-68360454D01*
X113350000Y-70470000D02*
X113390000Y-70470000D01*
X125361078Y-68360454D02*
X125107078Y-68360454D01*
X124726078Y-68360454D02*
X124345078Y-68360454D01*
X107253045Y-75106955D02*
X107203978Y-75106955D01*
X128155078Y-68360454D02*
X127901078Y-68360454D01*
X127139078Y-67979454D02*
X127139078Y-68360454D01*
X98080000Y-67860000D02*
X98440000Y-67860000D01*
X107480000Y-74880000D02*
X107253045Y-75106955D01*
X107600000Y-74423000D02*
X107577000Y-74400000D01*
X108143178Y-69742954D02*
X107720778Y-69742954D01*
X109389778Y-68742954D02*
X109143178Y-68742954D01*
X109881778Y-68250954D02*
X109389778Y-68742954D01*
X110006778Y-68250954D02*
X109881778Y-68250954D01*
X105243778Y-72383954D02*
X105054778Y-72572954D01*
X107276278Y-72383954D02*
X105243778Y-72383954D01*
X105054778Y-72572954D02*
X105054778Y-72072954D01*
X105054778Y-72072954D02*
X105054778Y-71572954D01*
X105054778Y-71572954D02*
X105054778Y-71072954D01*
X105054778Y-73072954D02*
X105549778Y-73072954D01*
X105549778Y-73072954D02*
X105688778Y-72933954D01*
X105415778Y-72933954D02*
X105054778Y-72572954D01*
X105688778Y-72933954D02*
X105415778Y-72933954D01*
X108393066Y-69493066D02*
X108143178Y-69742954D01*
X120330000Y-67670000D02*
X120240000Y-67670000D01*
X120330000Y-67670000D02*
X120204010Y-67795990D01*
X116110000Y-65860000D02*
X116110000Y-66640000D01*
X122150510Y-67499490D02*
X120500510Y-67499490D01*
X122620000Y-67030000D02*
X122150510Y-67499490D01*
X120500510Y-67499490D02*
X120330000Y-67670000D01*
X109143178Y-68742954D02*
X108393066Y-69493066D01*
X108810000Y-69850000D02*
X108453066Y-69493066D01*
X120204010Y-67795990D02*
X120204010Y-69761910D01*
X116110000Y-66640000D02*
X116070000Y-66680000D01*
X120204010Y-69761910D02*
X120307100Y-69865000D01*
X108453066Y-69493066D02*
X108393066Y-69493066D01*
X106670329Y-74009500D02*
X109884500Y-74009500D01*
X122186078Y-71154454D02*
X121586488Y-71154454D01*
X104910000Y-74778176D02*
X104855912Y-74724088D01*
X115560000Y-75290000D02*
X115920000Y-75290000D01*
X105870500Y-73709500D02*
X106370329Y-73709500D01*
X106370329Y-73709500D02*
X106670329Y-74009500D01*
X104855912Y-74724088D02*
X105870500Y-73709500D01*
X120875441Y-71865501D02*
X120048031Y-71865501D01*
X121586488Y-71154454D02*
X120875441Y-71865501D01*
X115920000Y-75290000D02*
X115930000Y-75300000D01*
X115504300Y-75725700D02*
X115930000Y-75300000D01*
X115504300Y-76500000D02*
X115504300Y-75725700D01*
X120048031Y-71865501D02*
X119986705Y-71926827D01*
X104910000Y-75730000D02*
X104910000Y-74778176D01*
X104855912Y-74724088D02*
X104404778Y-74272954D01*
X119148778Y-74122954D02*
X119023778Y-74122954D01*
X120330000Y-67100000D02*
X119700000Y-67100000D01*
X117134300Y-73884300D02*
X117134300Y-75742800D01*
X123177902Y-74360000D02*
X123537902Y-74000000D01*
X122186078Y-71408454D02*
X121731056Y-71408454D01*
X119023778Y-72326222D02*
X119023778Y-74122954D01*
X121731056Y-71408454D02*
X121064510Y-72075000D01*
X121019998Y-72119512D02*
X120334964Y-72119512D01*
X120334964Y-72119512D02*
X120162147Y-72292329D01*
X119023778Y-74122954D02*
X119023778Y-76170954D01*
X118499778Y-74646954D02*
X119023778Y-74122954D01*
X120162147Y-72292329D02*
X119057671Y-72292329D01*
X123537902Y-74000000D02*
X123650000Y-74000000D01*
X121275000Y-72285490D02*
X121064510Y-72075000D01*
X119057671Y-72292329D02*
X119023778Y-72326222D01*
X123000000Y-74360000D02*
X123177902Y-74360000D01*
X121064510Y-72075000D02*
X121019998Y-72119512D01*
X117171778Y-74646954D02*
X118499778Y-74646954D01*
X106103978Y-74885154D02*
X106069778Y-74850954D01*
X106103978Y-75702554D02*
X106103978Y-74885154D01*
X106682000Y-74850000D02*
X106465000Y-74850000D01*
X105871424Y-75470000D02*
X106103978Y-75702554D01*
X106790000Y-74400000D02*
X106790000Y-74742000D01*
X106790000Y-74742000D02*
X106682000Y-74850000D01*
X125488078Y-67230000D02*
X125488078Y-67078078D01*
X106465000Y-74850000D02*
X106100000Y-74850000D01*
X125488078Y-67078078D02*
X125370000Y-66960000D01*
X105574766Y-75804766D02*
X105676978Y-75702554D01*
X105676978Y-75702554D02*
X106103978Y-75702554D01*
X125488078Y-67471454D02*
X125488078Y-67230000D01*
X125488078Y-67230000D02*
X125488078Y-67121556D01*
X105680000Y-75470000D02*
X105871424Y-75470000D01*
X134200000Y-69300000D02*
X134200000Y-69777000D01*
X134088078Y-70386454D02*
X134124078Y-70350454D01*
X133880000Y-68347000D02*
X134200000Y-68667000D01*
X133880000Y-66970000D02*
X133880000Y-68347000D01*
X134150000Y-69827000D02*
X134150000Y-70350000D01*
X134200000Y-69777000D02*
X134150000Y-69827000D01*
X132981078Y-70386454D02*
X134088078Y-70386454D01*
X134200000Y-68667000D02*
X134200000Y-69350000D01*
D50*
X141484895Y-64614979D02*
X138965021Y-64614979D01*
X138956000Y-66760000D02*
X138390000Y-66760000D01*
X139750000Y-67100000D02*
X139296000Y-67100000D01*
X142530000Y-65660084D02*
X141484895Y-64614979D01*
X142530000Y-67140000D02*
X142530000Y-65660084D01*
X138390000Y-65190000D02*
X138390000Y-66760000D01*
X139296000Y-67100000D02*
X138956000Y-66760000D01*
X138965021Y-64614979D02*
X138390000Y-65190000D01*
X138350000Y-66800000D02*
X137050000Y-66800000D01*
X138390000Y-66760000D02*
X138350000Y-66800000D01*
X137050000Y-66800000D02*
X136880000Y-66970000D01*
X138170000Y-75849000D02*
X138150000Y-75869000D01*
X141647178Y-72352822D02*
X141985000Y-72015000D01*
X139600000Y-70746000D02*
X139600000Y-71450000D01*
X141970000Y-74440000D02*
X141550000Y-74440000D01*
X138150000Y-76250000D02*
X138150000Y-75869000D01*
X139160000Y-69136000D02*
X139160000Y-69390000D01*
X138170000Y-75600000D02*
X138170000Y-75849000D01*
X139040000Y-69270000D02*
X139160000Y-69390000D01*
X139415000Y-70175000D02*
X139291000Y-70175000D01*
X138170000Y-75600000D02*
X136900000Y-75600000D01*
X136970000Y-70680000D02*
X138350000Y-69300000D01*
X138350000Y-69450000D02*
X138530000Y-69270000D01*
X138530000Y-69270000D02*
X139040000Y-69270000D01*
X141550000Y-74440000D02*
X141140000Y-74440000D01*
X139160000Y-70010000D02*
X139160000Y-70306000D01*
X139291000Y-70175000D02*
X139160000Y-70306000D01*
X139296000Y-69000000D02*
X139160000Y-69136000D01*
X139160000Y-70306000D02*
X139600000Y-70746000D01*
X136970000Y-75570000D02*
X136970000Y-70680000D01*
X139750000Y-69000000D02*
X139296000Y-69000000D01*
X141985000Y-72015000D02*
X141985000Y-71050000D01*
X139160000Y-69390000D02*
X139160000Y-70010000D01*
X141647178Y-74857254D02*
X141647178Y-72352822D01*
X149257100Y-74108900D02*
X148755100Y-74108900D01*
X147640000Y-72440000D02*
X146410000Y-71210000D01*
X147640000Y-74332500D02*
X147640000Y-72440000D01*
X148531500Y-74332500D02*
X147640000Y-74332500D01*
X148755100Y-74108900D02*
X148531500Y-74332500D01*
X146410000Y-71210000D02*
X146410000Y-70340000D01*
X151290000Y-75820000D02*
X151510000Y-75820000D01*
X150880000Y-74000000D02*
X150880000Y-75040000D01*
X151510000Y-75820000D02*
X152643726Y-76953726D01*
X150880000Y-75040000D02*
X150200000Y-75720000D01*
D49*
X129219077Y-76650500D02*
X129044078Y-76475501D01*
X128663078Y-76423078D02*
X128536078Y-76296078D01*
X121271678Y-73735322D02*
X120873287Y-73336931D01*
D50*
X156260178Y-65589854D02*
X153419646Y-65589854D01*
D49*
X128536078Y-75345454D02*
X128536078Y-76183654D01*
X119908115Y-73084690D02*
X119901664Y-73091141D01*
X128536078Y-76296078D02*
X128536078Y-76183654D01*
X130143600Y-76987400D02*
X129555977Y-76987400D01*
D50*
X153419646Y-65589854D02*
X153416000Y-65593500D01*
D49*
X120873287Y-73263923D02*
X120678335Y-73263923D01*
X128663078Y-76475501D02*
X128663078Y-76423078D01*
X120678335Y-73263923D02*
X120499102Y-73084690D01*
X129555977Y-76987400D02*
X129219077Y-76650500D01*
X129044078Y-76475501D02*
X128663078Y-76475501D01*
X120873287Y-73336931D02*
X120873287Y-73263923D01*
D50*
X156260178Y-65589854D02*
X156460354Y-65589854D01*
D49*
X153070000Y-65593500D02*
X153416000Y-65593500D01*
X120499102Y-73084690D02*
X119908115Y-73084690D01*
X126504078Y-75345454D02*
X126504078Y-78095630D01*
X126504078Y-78095630D02*
X126850000Y-78441552D01*
X126850000Y-78441552D02*
X126850000Y-79503190D01*
X126250078Y-78200854D02*
X126550000Y-78500776D01*
X126250078Y-75345454D02*
X126250078Y-78200854D01*
X126550000Y-78500776D02*
X126550000Y-79503190D01*
X125996078Y-78306078D02*
X126235790Y-78545790D01*
X126235790Y-78545790D02*
X126235790Y-79503190D01*
X125996078Y-75345454D02*
X125996078Y-78306078D01*
X127150000Y-78382328D02*
X127150000Y-79503190D01*
X126758078Y-77990406D02*
X127150000Y-78382328D01*
X126758078Y-75345454D02*
X126758078Y-77990406D01*
X127450000Y-78323104D02*
X127450000Y-79503190D01*
X127012078Y-77885182D02*
X127450000Y-78323104D01*
X127012078Y-75345454D02*
X127012078Y-77885182D01*
X127750000Y-78263880D02*
X127750000Y-79503190D01*
X127266078Y-77779958D02*
X127750000Y-78263880D01*
X127266078Y-75345454D02*
X127266078Y-77779958D01*
X127520078Y-75345454D02*
X127520078Y-77674734D01*
X127520078Y-77674734D02*
X128050000Y-78204656D01*
X128050000Y-78204656D02*
X128050000Y-79503190D01*
X127774078Y-77569510D02*
X128350000Y-78145432D01*
X128350000Y-78145432D02*
X128350000Y-79503190D01*
X127774078Y-75345454D02*
X127774078Y-77569510D01*
X128028078Y-75345454D02*
X128028078Y-77464286D01*
X128028078Y-77464286D02*
X128650000Y-78086208D01*
X128650000Y-78086208D02*
X128650000Y-79424578D01*
X128282078Y-75345454D02*
X128282078Y-77359062D01*
X128950000Y-78026984D02*
X128950000Y-79416522D01*
X128282078Y-77359062D02*
X128950000Y-78026984D01*
X131634878Y-77588122D02*
X131634878Y-77615122D01*
X132200000Y-73611876D02*
X132200000Y-76600000D01*
X131634878Y-77615122D02*
X131634878Y-79248000D01*
X132100000Y-77550000D02*
X131673000Y-77550000D01*
X132200000Y-76600000D02*
X131634878Y-77165122D01*
X131634878Y-77165122D02*
X131634878Y-77464878D01*
X130949078Y-72360954D02*
X132200000Y-73611876D01*
X131673000Y-77550000D02*
X131634878Y-77588122D01*
X131634878Y-77464878D02*
X131634878Y-77615122D01*
D50*
X156260178Y-66097854D02*
X155879178Y-66097854D01*
D49*
X129706290Y-76475501D02*
X130009499Y-76475501D01*
X128790078Y-75408954D02*
X129706290Y-76325166D01*
D50*
X156260178Y-66097854D02*
X156447654Y-66097854D01*
D49*
X130009499Y-76475501D02*
X130600000Y-75885000D01*
D50*
X155875532Y-66101500D02*
X153403300Y-66101500D01*
D49*
X128790078Y-75345454D02*
X128790078Y-75408954D01*
X153401800Y-66100000D02*
X153403300Y-66101500D01*
D50*
X155879178Y-66097854D02*
X155875532Y-66101500D01*
D49*
X129706290Y-76325166D02*
X129706290Y-76475501D01*
X152700000Y-66100000D02*
X153401800Y-66100000D01*
X125996078Y-65503922D02*
X126400000Y-65100000D01*
X125996078Y-66963454D02*
X125996078Y-65503922D01*
X126400000Y-65100000D02*
X126400000Y-64531800D01*
X126250078Y-66963454D02*
X126250078Y-65624922D01*
X126700000Y-65175000D02*
X126700000Y-64531800D01*
X126250078Y-65624922D02*
X126700000Y-65175000D01*
X127000000Y-65250000D02*
X127000000Y-64528154D01*
X126504078Y-65745922D02*
X127000000Y-65250000D01*
X126504078Y-66963454D02*
X126504078Y-65745922D01*
X126758078Y-65866922D02*
X127300000Y-65325000D01*
X126758078Y-66963454D02*
X126758078Y-65866922D01*
X127300000Y-65325000D02*
X127300000Y-64528154D01*
X127012078Y-65987922D02*
X127600000Y-65400000D01*
X127600000Y-64725000D02*
X127600000Y-64528154D01*
X127600000Y-65400000D02*
X127600000Y-64725000D01*
X127012078Y-66963454D02*
X127012078Y-65987922D01*
X127900000Y-65475000D02*
X127900000Y-64528154D01*
X127266078Y-66108922D02*
X127900000Y-65475000D01*
X127266078Y-66963454D02*
X127266078Y-66108922D01*
X128200000Y-65550000D02*
X128200000Y-64528154D01*
X127520078Y-66229922D02*
X128200000Y-65550000D01*
X127520078Y-66963454D02*
X127520078Y-66229922D01*
X128500000Y-65625000D02*
X128500000Y-64528154D01*
X127774078Y-66350922D02*
X128500000Y-65625000D01*
X127774078Y-66963454D02*
X127774078Y-66350922D01*
X128800000Y-65700000D02*
X128800000Y-64528154D01*
X128028078Y-66471922D02*
X128800000Y-65700000D01*
X128028078Y-66963454D02*
X128028078Y-66471922D01*
X129089499Y-64796301D02*
X129100000Y-64785800D01*
X129100000Y-64785800D02*
X129100000Y-64531800D01*
X128282078Y-66963454D02*
X128282078Y-66592922D01*
X129089499Y-65785501D02*
X129089499Y-64796301D01*
X128282078Y-66592922D02*
X129089499Y-65785501D01*
X133040000Y-67800000D02*
X132460000Y-68380000D01*
X132460000Y-68480000D02*
X132460000Y-68430000D01*
X131648200Y-64569900D02*
X131648200Y-64823900D01*
X132083000Y-68857000D02*
X132460000Y-68480000D01*
X132033000Y-68857000D02*
X132083000Y-68857000D01*
X133040000Y-66215700D02*
X133040000Y-67800000D01*
X131457078Y-69432922D02*
X132033000Y-68857000D01*
X131648200Y-64823900D02*
X133040000Y-66215700D01*
X132460000Y-68380000D02*
X132460000Y-68430000D01*
X131457078Y-69820954D02*
X131457078Y-69432922D01*
X128770955Y-66620955D02*
X129141910Y-66250000D01*
X128536078Y-66899954D02*
X128770955Y-66665077D01*
X128770955Y-66665077D02*
X128770955Y-66620955D01*
X129141910Y-66250000D02*
X129190000Y-66250000D01*
D50*
X156260178Y-65081854D02*
X156485754Y-65081854D01*
X156260178Y-65081854D02*
X153406946Y-65081854D01*
X153406946Y-65081854D02*
X153403300Y-65085500D01*
D49*
X153045500Y-65085500D02*
X153403300Y-65085500D01*
X128536078Y-66963454D02*
X128536078Y-66899954D01*
X99085000Y-74825000D02*
X99085000Y-74325000D01*
X99085000Y-74325000D02*
X99270000Y-74140000D01*
X121172331Y-70540000D02*
X121278785Y-70646454D01*
X121278785Y-70646454D02*
X122186078Y-70646454D01*
X121090000Y-70540000D02*
X121172331Y-70540000D01*
X98600010Y-74547487D02*
X98600010Y-74300000D01*
X121562226Y-70366721D02*
X121479408Y-70283903D01*
X121479408Y-70283903D02*
X121479408Y-70179444D01*
X98325000Y-74825000D02*
X98600010Y-74549990D01*
X121587959Y-70392454D02*
X121562226Y-70366721D01*
X122186078Y-70392454D02*
X121587959Y-70392454D01*
X98600010Y-74549990D02*
X98600010Y-74547487D01*
X121562226Y-70392454D02*
X121562226Y-70366721D01*
D50*
X142447178Y-78457254D02*
X143642746Y-78457254D01*
X143642746Y-78457254D02*
X145100000Y-77000000D01*
X145100000Y-77000000D02*
X145100000Y-76150000D01*
X145100000Y-76150000D02*
X147510000Y-76150000D01*
D49*
X103938796Y-75730000D02*
X103876778Y-75667982D01*
X104330000Y-75730000D02*
X103938796Y-75730000D01*
X103814760Y-75730000D02*
X103876778Y-75667982D01*
X103310000Y-75730000D02*
X103814760Y-75730000D01*
X103710000Y-76020000D02*
X103470000Y-75780000D01*
X103980000Y-76020000D02*
X104270000Y-75730000D01*
X103876778Y-76020000D02*
X103980000Y-76020000D01*
X102904778Y-68765222D02*
X103110000Y-68560000D01*
X102790000Y-68700000D02*
X102970000Y-68700000D01*
X102904778Y-69372954D02*
X102904778Y-68814778D01*
X102904778Y-68814778D02*
X102904778Y-68765222D01*
X102904778Y-68814778D02*
X102790000Y-68700000D01*
X103876778Y-76020000D02*
X103710000Y-76020000D01*
X102970000Y-68700000D02*
X103110000Y-68560000D01*
X104404778Y-68850954D02*
X104404778Y-69422954D01*
X105059778Y-68195954D02*
X104404778Y-68850954D01*
X105059778Y-67853954D02*
X105059778Y-68195954D01*
X98697265Y-75784490D02*
X98504490Y-75784490D01*
X124472078Y-66963454D02*
X124472078Y-66722078D01*
X124410000Y-66660000D02*
X124130000Y-66660000D01*
X98697265Y-75784490D02*
X98449778Y-75784490D01*
X98504490Y-75784490D02*
X98440000Y-75720000D01*
X124472078Y-66722078D02*
X124410000Y-66660000D01*
X99135314Y-75784490D02*
X98697265Y-75784490D01*
X123710078Y-67471454D02*
X124218078Y-67471454D01*
X122789490Y-66578644D02*
X123210000Y-66999154D01*
X122631200Y-66160300D02*
X122618500Y-66147600D01*
X122789490Y-66339490D02*
X122789490Y-66578644D01*
X123210000Y-66999154D02*
X123210000Y-67000000D01*
X122570000Y-66200000D02*
X122650000Y-66200000D01*
X123710078Y-67471454D02*
X123148924Y-66910300D01*
X122650000Y-66200000D02*
X122789490Y-66339490D01*
X104060000Y-68660000D02*
X103904778Y-68815222D01*
X103904778Y-68815222D02*
X103904778Y-69422954D01*
X103904778Y-69422954D02*
X103910778Y-69416954D01*
X121850000Y-66940000D02*
X121410000Y-66940000D01*
X121400000Y-67050000D02*
X121400000Y-66950000D01*
X121130000Y-66940000D02*
X120970000Y-67100000D01*
X121410000Y-66940000D02*
X121130000Y-66940000D01*
X121400000Y-66950000D02*
X121410000Y-66940000D01*
X124980078Y-66963454D02*
X124980078Y-66661391D01*
X121670000Y-66170000D02*
X121800000Y-66300000D01*
X121290000Y-66170000D02*
X121670000Y-66170000D01*
X104929699Y-73886644D02*
X104929699Y-73748033D01*
X106020000Y-74130000D02*
X105590000Y-74560000D01*
X104929699Y-73748033D02*
X105104778Y-73572954D01*
X106150000Y-74130000D02*
X106020000Y-74130000D01*
X131774578Y-71217954D02*
X132086078Y-70906454D01*
X130949078Y-71217954D02*
X131774578Y-71217954D01*
X132086078Y-70906454D02*
X132981078Y-70906454D01*
D50*
X145160000Y-69060000D02*
X145740000Y-68480000D01*
X145740000Y-68480000D02*
X145740000Y-67567500D01*
X145160000Y-74065000D02*
X145160000Y-69060000D01*
D49*
X120740000Y-71430000D02*
X121269546Y-70900454D01*
X120740000Y-71430000D02*
X119914401Y-71430000D01*
X105345000Y-69445000D02*
X105580000Y-69210000D01*
X105104778Y-70072954D02*
X105104778Y-69685222D01*
X121269546Y-70900454D02*
X122186078Y-70900454D01*
X105870000Y-69140000D02*
X105650000Y-69140000D01*
X105580000Y-69210000D02*
X105580000Y-68940000D01*
X105104778Y-69685222D02*
X105345000Y-69445000D01*
X105650000Y-69140000D02*
X105345000Y-69445000D01*
X119914401Y-71430000D02*
X119777949Y-71293548D01*
D50*
X122430000Y-76070000D02*
X122140210Y-76359790D01*
X122140210Y-76359790D02*
X122114588Y-76359790D01*
D49*
X122430000Y-76070000D02*
X122430000Y-75720000D01*
D50*
X121331800Y-76527900D02*
X121331800Y-76482100D01*
D49*
X131800600Y-70464680D02*
X132120640Y-70464680D01*
X131665374Y-70329454D02*
X131800600Y-70464680D01*
D50*
X121331800Y-75587700D02*
X121331800Y-76527900D01*
D49*
X131457078Y-70329454D02*
X131665374Y-70329454D01*
X130441078Y-65650000D02*
X130441078Y-64569900D01*
X132120640Y-70464680D02*
X132125720Y-70459600D01*
X130050000Y-65650000D02*
X130441078Y-65650000D01*
D50*
X121904378Y-76570000D02*
X121373900Y-76570000D01*
D49*
X122430000Y-75720000D02*
X122370000Y-75660000D01*
D50*
X121373900Y-76570000D02*
X121331800Y-76527900D01*
X121373900Y-76524200D02*
X121373900Y-76630000D01*
D49*
X129780000Y-68820000D02*
X130441078Y-68158922D01*
X130441078Y-68158922D02*
X130441078Y-65650000D01*
D50*
X122114588Y-76359790D02*
X121904378Y-76570000D01*
X121331800Y-76482100D02*
X121373900Y-76524200D01*
D49*
X102579671Y-75389500D02*
X102409500Y-75559671D01*
X103904778Y-74222954D02*
X103904778Y-74817695D01*
X102409500Y-75560500D02*
X102251100Y-75718900D01*
X102251100Y-75718900D02*
X101390100Y-75718900D01*
X103904778Y-74817695D02*
X103332973Y-75389500D01*
X102409500Y-75559671D02*
X102409500Y-75560500D01*
X103332973Y-75389500D02*
X102579671Y-75389500D01*
X100510000Y-76070000D02*
X100725046Y-75854954D01*
X125630000Y-66647487D02*
X125630000Y-66400000D01*
X125742078Y-67471454D02*
X125742077Y-66836465D01*
X125742077Y-66759564D02*
X125742077Y-66836465D01*
X100725046Y-75854954D02*
X100856778Y-75854954D01*
X125630000Y-66647487D02*
X125742077Y-66759564D01*
X102904778Y-74272954D02*
X102904778Y-74705183D01*
X102287095Y-75322866D02*
X100182866Y-75322866D01*
X100182866Y-75322866D02*
X99725778Y-75779954D01*
X102904778Y-74705183D02*
X102287095Y-75322866D01*
X130695078Y-73329454D02*
X131541078Y-74175454D01*
X130695078Y-72614954D02*
X130695078Y-73329454D01*
X153054606Y-68150000D02*
X154220000Y-68150000D01*
X151250000Y-67300000D02*
X152025000Y-67300000D01*
X151853900Y-67177000D02*
X151902000Y-67177000D01*
X151902000Y-67177000D02*
X152025000Y-67300000D01*
X152025000Y-67300000D02*
X152204606Y-67300000D01*
X151928900Y-67177000D02*
X151853900Y-67177000D01*
D50*
X156031578Y-68150000D02*
X154220000Y-68150000D01*
D49*
X151000000Y-67050000D02*
X151250000Y-67300000D01*
X152204606Y-67300000D02*
X153054606Y-68150000D01*
D50*
X154220000Y-68150000D02*
X153330436Y-68150000D01*
X156031578Y-68150000D02*
X156350452Y-68150000D01*
D49*
X151900000Y-67575000D02*
X152120381Y-67575000D01*
D50*
X156025000Y-68531000D02*
X156189407Y-68531000D01*
X156189397Y-68531010D02*
X153325000Y-68531010D01*
D49*
X151625000Y-67575000D02*
X151900000Y-67575000D01*
X153070381Y-68525000D02*
X156025000Y-68525000D01*
X150975000Y-67925000D02*
X151325000Y-67575000D01*
X152120381Y-67575000D02*
X153070381Y-68525000D01*
X151325000Y-67575000D02*
X151625000Y-67575000D01*
D50*
X156189407Y-68531000D02*
X156340301Y-68531000D01*
X156189407Y-68531000D02*
X156189397Y-68531010D01*
D49*
X148960000Y-66230000D02*
X148430000Y-66230000D01*
X134750000Y-72780000D02*
X135710000Y-71820000D01*
D50*
X156031578Y-67763554D02*
X156396854Y-67763554D01*
D49*
X131457078Y-71725954D02*
X132446348Y-71725954D01*
X153078528Y-67424264D02*
X151834264Y-66180000D01*
X153399654Y-67763554D02*
X153328015Y-67763554D01*
X147750000Y-66030000D02*
X147640000Y-66140000D01*
X153078528Y-67514067D02*
X153078528Y-67424264D01*
X148340000Y-66140000D02*
X148230000Y-66030000D01*
X148430000Y-66230000D02*
X148340000Y-66140000D01*
D50*
X156018878Y-67763554D02*
X153399654Y-67763554D01*
D49*
X132446348Y-71725954D02*
X133500394Y-72780000D01*
X149010000Y-66180000D02*
X148960000Y-66230000D01*
X151834264Y-66180000D02*
X149010000Y-66180000D01*
X153328015Y-67763554D02*
X153078528Y-67514067D01*
X133500394Y-72780000D02*
X134750000Y-72780000D01*
X148230000Y-66030000D02*
X147750000Y-66030000D01*
X150510000Y-65140000D02*
X148720000Y-65140000D01*
D50*
X156031578Y-67382554D02*
X156384154Y-67382554D01*
D49*
X132551560Y-71471954D02*
X131457078Y-71471954D01*
X151050000Y-65680000D02*
X150510000Y-65140000D01*
X133605606Y-72526000D02*
X132551560Y-71471954D01*
X134820300Y-72200096D02*
X134494396Y-72526000D01*
X134494396Y-72526000D02*
X133605606Y-72526000D01*
X148360000Y-65500000D02*
X148720000Y-65140000D01*
X147770000Y-65740000D02*
X147660000Y-65630000D01*
X134820300Y-72049700D02*
X134820300Y-72200096D01*
D50*
X156018878Y-67382554D02*
X153396028Y-67382554D01*
D49*
X135380000Y-71610000D02*
X135000000Y-71990000D01*
X135380000Y-71480000D02*
X135380000Y-71610000D01*
X134880000Y-71990000D02*
X134820300Y-72049700D01*
X135000000Y-71990000D02*
X134880000Y-71990000D01*
X148250000Y-65740000D02*
X147770000Y-65740000D01*
X151693474Y-65680000D02*
X151050000Y-65680000D01*
X153396028Y-67382554D02*
X151693474Y-65680000D01*
X148360000Y-65630000D02*
X148250000Y-65740000D01*
X148360000Y-65630000D02*
X148360000Y-65500000D01*
X131814348Y-72233954D02*
X132151355Y-72570961D01*
X132151355Y-72570961D02*
X132151355Y-72728645D01*
X148958300Y-67354300D02*
X148977000Y-67373000D01*
X132640000Y-73080000D02*
X132640000Y-73240000D01*
X149577000Y-67373000D02*
X148977000Y-67373000D01*
X148390000Y-67370000D02*
X147910000Y-67370000D01*
X131457078Y-72233954D02*
X131814348Y-72233954D01*
X148500000Y-67260000D02*
X148390000Y-67370000D01*
X132151355Y-72728645D02*
X132288645Y-72728645D01*
X132288645Y-72728645D02*
X132640000Y-73080000D01*
X147910000Y-67370000D02*
X147800000Y-67260000D01*
X148958300Y-67225000D02*
X148958300Y-67354300D01*
X148977000Y-67373000D02*
X148652606Y-67373000D01*
X149900000Y-67050000D02*
X149577000Y-67373000D01*
X149577000Y-67627000D02*
X149052000Y-67627000D01*
X131919560Y-71979954D02*
X132330961Y-72391355D01*
X149052000Y-67627000D02*
X148547394Y-67627000D01*
X132330961Y-72391355D02*
X132488645Y-72391355D01*
X148500000Y-67750000D02*
X148390000Y-67640000D01*
X148958300Y-67745000D02*
X148958300Y-67720700D01*
X147910000Y-67640000D02*
X147800000Y-67750000D01*
X149875000Y-67925000D02*
X149577000Y-67627000D01*
X132830000Y-72870000D02*
X132990000Y-72870000D01*
X132488645Y-72528645D02*
X132830000Y-72870000D01*
X132488645Y-72391355D02*
X132488645Y-72528645D01*
X131457078Y-71979954D02*
X131919560Y-71979954D01*
X148390000Y-67640000D02*
X147910000Y-67640000D01*
X148958300Y-67720700D02*
X149052000Y-67627000D01*
D50*
X123600000Y-74500000D02*
X123600000Y-74625506D01*
D49*
X130949078Y-66480922D02*
X130949078Y-64569900D01*
D50*
X123600000Y-74625506D02*
X123088106Y-75137400D01*
D49*
X131697559Y-70074954D02*
X131660000Y-70074954D01*
D50*
X121831800Y-75575200D02*
X121831800Y-75493276D01*
D49*
X130949078Y-70074954D02*
X131660000Y-70074954D01*
D50*
X121750000Y-72726472D02*
X122210801Y-73187273D01*
X121915730Y-71793100D02*
X121750000Y-71958830D01*
D49*
X130440000Y-68750000D02*
X130949078Y-68240922D01*
X131030000Y-66400000D02*
X130949078Y-66480922D01*
X131892513Y-69880000D02*
X131697559Y-70074954D01*
X132490000Y-69880000D02*
X132140000Y-69880000D01*
D50*
X122186078Y-71793100D02*
X121915730Y-71793100D01*
D49*
X130949078Y-68240922D02*
X130949078Y-66480922D01*
D50*
X121750000Y-71958830D02*
X121750000Y-72725000D01*
X122127676Y-75197400D02*
X123012200Y-75197400D01*
D49*
X122186078Y-71793100D02*
X122186078Y-71916454D01*
X122186078Y-71662454D02*
X122186078Y-71793100D01*
D50*
X122210801Y-75114275D02*
X122127676Y-75197400D01*
X121831800Y-75493276D02*
X122127676Y-75197400D01*
X121750000Y-72725000D02*
X121750000Y-72726472D01*
D49*
X132140000Y-69880000D02*
X131892513Y-69880000D01*
X130949078Y-64646100D02*
X130949078Y-64883754D01*
X130962400Y-64582600D02*
X130962400Y-64852946D01*
X131400000Y-66400000D02*
X131030000Y-66400000D01*
D50*
X122210801Y-73187273D02*
X122210801Y-75114275D01*
X140550000Y-68850000D02*
X140550000Y-68571000D01*
X139159000Y-67770000D02*
X138530000Y-67770000D01*
X141200000Y-67550000D02*
X140980000Y-67770000D01*
X140519000Y-67770000D02*
X139909000Y-67770000D01*
X140260000Y-68121000D02*
X139909000Y-67770000D01*
X140980000Y-67770000D02*
X140519000Y-67770000D01*
X140260000Y-68281000D02*
X140260000Y-68121000D01*
X140550000Y-68571000D02*
X140260000Y-68281000D01*
X140875000Y-65725000D02*
X141200000Y-66050000D01*
X141200000Y-66050000D02*
X141200000Y-67550000D01*
X139909000Y-67770000D02*
X139159000Y-67770000D01*
X140412903Y-65081011D02*
X139493989Y-65081011D01*
X139493989Y-65081011D02*
X139390000Y-65185000D01*
X143450000Y-68190000D02*
X143150000Y-67890000D01*
X141850000Y-65538830D02*
X141604010Y-65292840D01*
X141604010Y-65272924D02*
X141327076Y-64995990D01*
X141604010Y-65292840D02*
X141604010Y-65272924D01*
X140400000Y-66521000D02*
X140400000Y-67100000D01*
X140260000Y-66470000D02*
X140349000Y-66470000D01*
X141327076Y-64995990D02*
X140497924Y-64995990D01*
X143450000Y-69460000D02*
X143450000Y-68190000D01*
X142730000Y-70100000D02*
X142810000Y-70100000D01*
X139390000Y-65185000D02*
X139390000Y-65600000D01*
X143150000Y-67890000D02*
X141950000Y-67890000D01*
X142810000Y-70100000D02*
X143450000Y-69460000D01*
X141850000Y-67790000D02*
X141850000Y-65538830D01*
X139390000Y-65600000D02*
X140260000Y-66470000D01*
X141950000Y-67890000D02*
X141850000Y-67790000D01*
X140349000Y-66470000D02*
X140400000Y-66521000D01*
X140497924Y-64995990D02*
X140412903Y-65081011D01*
X141100000Y-69000000D02*
X142170000Y-69000000D01*
X142170000Y-69000000D02*
X142530000Y-68640000D01*
X140760000Y-71050000D02*
X140760000Y-72730000D01*
X140120000Y-70175000D02*
X140665000Y-70175000D01*
X140665000Y-70175000D02*
X140840000Y-70000000D01*
X140760000Y-71050000D02*
X140760000Y-70080000D01*
X139647178Y-73952822D02*
X139647178Y-75757254D01*
X140040000Y-73560000D02*
X139647178Y-73952822D01*
X141990000Y-70000000D02*
X140840000Y-70000000D01*
X140447178Y-73042822D02*
X140710000Y-72780000D01*
X140760000Y-72730000D02*
X140710000Y-72780000D01*
X140840000Y-70000000D02*
X140760000Y-70080000D01*
X138650000Y-73450000D02*
X140040000Y-73450000D01*
X140040000Y-73450000D02*
X140040000Y-73560000D01*
X142090000Y-70100000D02*
X141990000Y-70000000D01*
X140040000Y-73450000D02*
X140447178Y-73042822D01*
D49*
X131510000Y-68540000D02*
X131510000Y-68490000D01*
X130949078Y-69100922D02*
X131510000Y-68540000D01*
X130949078Y-69693954D02*
X130949078Y-69100922D01*
X122186078Y-72713524D02*
X122186078Y-72170454D01*
X123000000Y-73527446D02*
X122186078Y-72713524D01*
X123000000Y-73840000D02*
X123000000Y-73527446D01*
D50*
X121373900Y-77150000D02*
X122147200Y-77150000D01*
X122147200Y-77150000D02*
X122453400Y-76843800D01*
X123621800Y-76843800D02*
X123621800Y-76327000D01*
X123012200Y-75717400D02*
X123621800Y-76327000D01*
D49*
X100523778Y-67980954D02*
X101180278Y-67980954D01*
X101904778Y-68705454D02*
X101904778Y-69422954D01*
X101180278Y-67980954D02*
X101904778Y-68705454D01*
X98560000Y-68530000D02*
X98730000Y-68700000D01*
X100511700Y-68450500D02*
X100511700Y-68073500D01*
X100262200Y-68700000D02*
X100511700Y-68450500D01*
X98730000Y-68700000D02*
X100262200Y-68700000D01*
X99084778Y-69818454D02*
X99084778Y-69441454D01*
X99777778Y-70572954D02*
X99084778Y-69879954D01*
X99084778Y-69879954D02*
X99084778Y-69818454D01*
X100254778Y-70572954D02*
X99777778Y-70572954D01*
X98554778Y-71572954D02*
X98304778Y-71822954D01*
X98604778Y-71522954D02*
X98304778Y-71822954D01*
X97984778Y-71502954D02*
X98304778Y-71822954D01*
X97984778Y-69441454D02*
X97984778Y-71502954D01*
X99181778Y-71822954D02*
X99338778Y-71665954D01*
X98304778Y-71822954D02*
X99181778Y-71822954D01*
X100029778Y-71072954D02*
X100254778Y-71072954D01*
X99436778Y-71665954D02*
X100029778Y-71072954D01*
X99338778Y-71665954D02*
X99436778Y-71665954D01*
X100254778Y-71072954D02*
X100254778Y-71572954D01*
X100254778Y-71572954D02*
X100254778Y-72072954D01*
X100254778Y-72072954D02*
X100254778Y-72572954D01*
X100254778Y-72572954D02*
X100254778Y-73072954D01*
X122186078Y-69321336D02*
X122186078Y-69693954D01*
X122595000Y-68865000D02*
X121780000Y-68050000D01*
X122660000Y-68865000D02*
X122595000Y-68865000D01*
X122250510Y-69256904D02*
X122186078Y-69321336D01*
X122643900Y-69005400D02*
X122494600Y-69005400D01*
X122186078Y-69693954D02*
X122186078Y-69884454D01*
X122494600Y-69005400D02*
X122250510Y-69249490D01*
X122250510Y-69249490D02*
X122250510Y-69256904D01*
X121805502Y-70011878D02*
X121805502Y-69844554D01*
X121780000Y-69000000D02*
X121780000Y-69489936D01*
X121344562Y-69654494D02*
X120425156Y-70573900D01*
X121932078Y-70138454D02*
X121805502Y-70011878D01*
X121615442Y-69654494D02*
X121344562Y-69654494D01*
X120425156Y-70573900D02*
X120307100Y-70573900D01*
X121805502Y-69844554D02*
X121615442Y-69654494D01*
X121780000Y-69489936D02*
X121615442Y-69654494D01*
X122186078Y-70138454D02*
X121932078Y-70138454D01*
D50*
X153096274Y-77536274D02*
X153096274Y-77406274D01*
X155530000Y-78570000D02*
X154130000Y-78570000D01*
X154130000Y-78570000D02*
X153096274Y-77536274D01*
D49*
X149946000Y-65536000D02*
X149014000Y-65536000D01*
X149014000Y-65536000D02*
X148960000Y-65590000D01*
X150090000Y-65680000D02*
X149946000Y-65536000D01*
G04 #@! TA.AperFunction,Conductor*
G36*
X131800782Y-75276556D02*
G01*
X131847275Y-75330212D01*
X131858661Y-75382471D01*
X131859117Y-76073917D01*
X131839160Y-76142051D01*
X131785535Y-76188579D01*
X131733117Y-76200000D01*
X131350117Y-76200000D01*
X131281996Y-76179998D01*
X131235503Y-76126342D01*
X131224117Y-76074083D01*
X131223661Y-75382637D01*
X131243618Y-75314503D01*
X131297243Y-75267975D01*
X131349661Y-75256554D01*
X131732661Y-75256554D01*
X131800782Y-75276556D01*
G37*
G04 #@! TD.AperFunction*
G04 #@! TA.AperFunction,Conductor*
G36*
X146417121Y-64920002D02*
G01*
X146463614Y-64973658D01*
X146475000Y-65026000D01*
X146475000Y-65124000D01*
X146454998Y-65192121D01*
X146401342Y-65238614D01*
X146349000Y-65250000D01*
X145176000Y-65250000D01*
X145107879Y-65229998D01*
X145061386Y-65176342D01*
X145050000Y-65124000D01*
X145050000Y-65026000D01*
X145070002Y-64957879D01*
X145123658Y-64911386D01*
X145176000Y-64900000D01*
X146349000Y-64900000D01*
X146417121Y-64920002D01*
G37*
G04 #@! TD.AperFunction*
G04 #@! TA.AperFunction,Conductor*
G36*
X150328071Y-69048494D02*
G01*
X150395938Y-69069335D01*
X150441765Y-69123560D01*
X150452488Y-69171913D01*
X150497376Y-71371429D01*
X150478768Y-71439944D01*
X150426072Y-71487522D01*
X150371402Y-71500000D01*
X149775489Y-71500000D01*
X149707368Y-71479998D01*
X149660875Y-71426342D01*
X149649490Y-71374512D01*
X149640536Y-69171913D01*
X149640520Y-69168080D01*
X149660245Y-69099882D01*
X149713711Y-69053171D01*
X149768073Y-69041581D01*
X150328071Y-69048494D01*
G37*
G04 #@! TD.AperFunction*
G04 #@! TA.AperFunction,Conductor*
G36*
X156166524Y-78200002D02*
G01*
X156213017Y-78253658D01*
X156224284Y-78311473D01*
X156205240Y-78749473D01*
X156182298Y-78816661D01*
X156126673Y-78860779D01*
X156079359Y-78870000D01*
X153815581Y-78870000D01*
X153747460Y-78849998D01*
X153700967Y-78796342D01*
X153689582Y-78744419D01*
X153688125Y-78306419D01*
X153707900Y-78238232D01*
X153761401Y-78191561D01*
X153814124Y-78180000D01*
X156098403Y-78180000D01*
X156166524Y-78200002D01*
G37*
G04 #@! TD.AperFunction*
G04 #@! TA.AperFunction,Conductor*
G36*
X151723321Y-78214202D02*
G01*
X151769814Y-78267858D01*
X151781200Y-78320200D01*
X151781200Y-79071500D01*
X151761198Y-79139621D01*
X151707542Y-79186114D01*
X151655200Y-79197500D01*
X148516300Y-79197500D01*
X148448179Y-79177498D01*
X148401686Y-79123842D01*
X148390300Y-79071500D01*
X148390300Y-78320200D01*
X148410302Y-78252079D01*
X148463958Y-78205586D01*
X148516300Y-78194200D01*
X151655200Y-78194200D01*
X151723321Y-78214202D01*
G37*
G04 #@! TD.AperFunction*
G04 #@! TA.AperFunction,Conductor*
G36*
X156236726Y-74860002D02*
G01*
X156283219Y-74913658D01*
X156294577Y-74968666D01*
X156287211Y-75316666D01*
X156265772Y-75384349D01*
X156211144Y-75429696D01*
X156161239Y-75440000D01*
X153826000Y-75440000D01*
X153757879Y-75419998D01*
X153711386Y-75366342D01*
X153700000Y-75314000D01*
X153700000Y-74966000D01*
X153720002Y-74897879D01*
X153773658Y-74851386D01*
X153826000Y-74840000D01*
X156168605Y-74840000D01*
X156236726Y-74860002D01*
G37*
G04 #@! TD.AperFunction*
G04 #@! TA.AperFunction,Conductor*
G36*
X130566846Y-64321740D02*
G01*
X130614324Y-64374526D01*
X130626700Y-64428982D01*
X130626700Y-64884754D01*
X130606698Y-64952875D01*
X130553042Y-64999368D01*
X130500700Y-65010754D01*
X130377200Y-65010754D01*
X130309079Y-64990752D01*
X130262586Y-64937096D01*
X130251200Y-64884754D01*
X130251200Y-64431270D01*
X130271202Y-64363149D01*
X130324858Y-64316656D01*
X130374858Y-64305293D01*
X130498371Y-64303005D01*
X130566846Y-64321740D01*
G37*
G04 #@! TD.AperFunction*
G04 #@! TA.AperFunction,Conductor*
G36*
X131080346Y-64312227D02*
G01*
X131127824Y-64365013D01*
X131140200Y-64419469D01*
X131140200Y-64884754D01*
X131120198Y-64952875D01*
X131066542Y-64999368D01*
X131014200Y-65010754D01*
X130885200Y-65010754D01*
X130817079Y-64990752D01*
X130770586Y-64937096D01*
X130759200Y-64884754D01*
X130759200Y-64421859D01*
X130779202Y-64353738D01*
X130832858Y-64307245D01*
X130882859Y-64295882D01*
X131011870Y-64293492D01*
X131080346Y-64312227D01*
G37*
G04 #@! TD.AperFunction*
G04 #@! TA.AperFunction,Conductor*
G36*
X120935021Y-75839002D02*
G01*
X120981514Y-75892658D01*
X120992900Y-75945000D01*
X120992900Y-77520800D01*
X121043700Y-77584300D01*
X121102014Y-77584300D01*
X121170135Y-77604302D01*
X121172005Y-77605527D01*
X121185134Y-77614300D01*
X121251494Y-77627500D01*
X121251495Y-77627500D01*
X121496305Y-77627500D01*
X121496306Y-77627500D01*
X121562666Y-77614300D01*
X121575785Y-77605533D01*
X121643538Y-77584320D01*
X121645786Y-77584300D01*
X123826000Y-77584300D01*
X123894121Y-77604302D01*
X123940614Y-77657958D01*
X123952000Y-77710300D01*
X123952000Y-78765400D01*
X124091700Y-78905100D01*
X121932700Y-78879700D01*
X121932700Y-78587600D01*
X121750736Y-78587600D01*
X120179100Y-78587600D01*
X120110979Y-78567598D01*
X120064486Y-78513942D01*
X120053100Y-78461600D01*
X120053100Y-76556990D01*
X120073102Y-76488869D01*
X120089999Y-76467900D01*
X120453004Y-76104895D01*
X120472087Y-76089235D01*
X120531282Y-76049682D01*
X120560499Y-76005956D01*
X120570835Y-75990488D01*
X120586500Y-75971399D01*
X120701996Y-75855904D01*
X120764308Y-75821879D01*
X120791091Y-75819000D01*
X120866900Y-75819000D01*
X120935021Y-75839002D01*
G37*
G04 #@! TD.AperFunction*
G04 #@! TA.AperFunction,Conductor*
G36*
X112351749Y-69698738D02*
G01*
X112384768Y-69761589D01*
X112387074Y-69780072D01*
X112484850Y-71727439D01*
X112468290Y-71796477D01*
X112417033Y-71845602D01*
X112390588Y-71855736D01*
X111263377Y-72147554D01*
X111263374Y-72147556D01*
X111009378Y-72401552D01*
X111009378Y-72401554D01*
X111009378Y-74687554D01*
X114196231Y-74691390D01*
X114264326Y-74711474D01*
X114284061Y-74727196D01*
X114355775Y-74797152D01*
X114380989Y-74832007D01*
X114382432Y-74834959D01*
X114470040Y-74922567D01*
X114470041Y-74922567D01*
X114470043Y-74922569D01*
X114480539Y-74927700D01*
X114513185Y-74950704D01*
X114820000Y-75250000D01*
X115570300Y-75250000D01*
X115638421Y-75270002D01*
X115684914Y-75323658D01*
X115696300Y-75376000D01*
X115696300Y-76671609D01*
X115676298Y-76739730D01*
X115622642Y-76786223D01*
X115552368Y-76796327D01*
X115487788Y-76766833D01*
X115487145Y-76766273D01*
X115276025Y-76580821D01*
X114859999Y-76215374D01*
X114859772Y-76215373D01*
X110373927Y-76215204D01*
X110305807Y-76195199D01*
X110259316Y-76141542D01*
X110247932Y-76089274D01*
X110247378Y-75050000D01*
X109907531Y-74711474D01*
X109287078Y-74093433D01*
X109252932Y-74031187D01*
X109250000Y-74004164D01*
X109250000Y-71769139D01*
X109270002Y-71701018D01*
X109323658Y-71654525D01*
X109375637Y-71643140D01*
X110628378Y-71639554D01*
X111240000Y-70900000D01*
X111241256Y-70898405D01*
X112121099Y-69761589D01*
X112161594Y-69709267D01*
X112219103Y-69667642D01*
X112289991Y-69663716D01*
X112351749Y-69698738D01*
G37*
G04 #@! TD.AperFunction*
G04 #@! TA.AperFunction,Conductor*
G36*
X134447199Y-71682456D02*
G01*
X134493692Y-71736112D01*
X134505078Y-71788454D01*
X134505078Y-72171454D01*
X134485076Y-72239575D01*
X134431420Y-72286068D01*
X134379078Y-72297454D01*
X133869078Y-72297454D01*
X133800957Y-72277452D01*
X133754464Y-72223796D01*
X133743078Y-72171454D01*
X133743078Y-71788454D01*
X133763080Y-71720333D01*
X133816736Y-71673840D01*
X133869078Y-71662454D01*
X134379078Y-71662454D01*
X134447199Y-71682456D01*
G37*
G04 #@! TD.AperFunction*
G04 #@! TA.AperFunction,Conductor*
G36*
X133685199Y-74476456D02*
G01*
X133731692Y-74530112D01*
X133743078Y-74582454D01*
X133743078Y-75727454D01*
X133723076Y-75795575D01*
X133669420Y-75842068D01*
X133617078Y-75853454D01*
X132996078Y-75853454D01*
X132927957Y-75833452D01*
X132881464Y-75779796D01*
X132870078Y-75727454D01*
X132870078Y-74582454D01*
X132890080Y-74514333D01*
X132943736Y-74467840D01*
X132996078Y-74456454D01*
X133617078Y-74456454D01*
X133685199Y-74476456D01*
G37*
G04 #@! TD.AperFunction*
G04 #@! TA.AperFunction,Conductor*
G36*
X106710399Y-67619956D02*
G01*
X106756892Y-67673612D01*
X106768278Y-67725954D01*
X106768278Y-68489954D01*
X106748276Y-68558075D01*
X106694620Y-68604568D01*
X106642278Y-68615954D01*
X106068778Y-68615954D01*
X106000657Y-68595952D01*
X105954164Y-68542296D01*
X105942778Y-68489954D01*
X105942778Y-67725954D01*
X105962780Y-67657833D01*
X106016436Y-67611340D01*
X106068778Y-67599954D01*
X106642278Y-67599954D01*
X106710399Y-67619956D01*
G37*
G04 #@! TD.AperFunction*
G04 #@! TA.AperFunction,Conductor*
G36*
X112766167Y-72473780D02*
G01*
X112812660Y-72527436D01*
X112824046Y-72579778D01*
X112824046Y-73597778D01*
X112804044Y-73665899D01*
X112750388Y-73712392D01*
X112698046Y-73723778D01*
X112061046Y-73723778D01*
X111992925Y-73703776D01*
X111946432Y-73650120D01*
X111935046Y-73597778D01*
X111935046Y-72579778D01*
X111955048Y-72511657D01*
X112008704Y-72465164D01*
X112061046Y-72453778D01*
X112698046Y-72453778D01*
X112766167Y-72473780D01*
G37*
G04 #@! TD.AperFunction*
G04 #@! TA.AperFunction,Conductor*
G36*
X108932899Y-74985956D02*
G01*
X108979392Y-75039612D01*
X108990778Y-75091954D01*
X108990778Y-75855954D01*
X108970776Y-75924075D01*
X108917120Y-75970568D01*
X108864778Y-75981954D01*
X107973778Y-75981954D01*
X107905657Y-75961952D01*
X107859164Y-75908296D01*
X107847778Y-75855954D01*
X107847778Y-75091954D01*
X107867780Y-75023833D01*
X107921436Y-74977340D01*
X107973778Y-74965954D01*
X108864778Y-74965954D01*
X108932899Y-74985956D01*
G37*
G04 #@! TD.AperFunction*
G04 #@! TA.AperFunction,Conductor*
G36*
X108719173Y-71961008D02*
G01*
X108787177Y-71981398D01*
X108833364Y-72035317D01*
X108844454Y-72087006D01*
X108844454Y-73359002D01*
X108824452Y-73427123D01*
X108770796Y-73473616D01*
X108717737Y-73485000D01*
X108207737Y-73482096D01*
X108139731Y-73461706D01*
X108093544Y-73407787D01*
X108082454Y-73356098D01*
X108082454Y-72084102D01*
X108102456Y-72015981D01*
X108156112Y-71969488D01*
X108209168Y-71958104D01*
X108719173Y-71961008D01*
G37*
G04 #@! TD.AperFunction*
G04 #@! TA.AperFunction,Conductor*
G36*
X131807072Y-78907060D02*
G01*
X131825378Y-78951254D01*
X131825377Y-79468543D01*
X131807071Y-79512737D01*
X131764555Y-79531020D01*
X131508556Y-79537894D01*
X131463886Y-79520782D01*
X131444401Y-79477095D01*
X131444378Y-79475417D01*
X131444378Y-78951254D01*
X131462684Y-78907060D01*
X131506878Y-78888754D01*
X131762878Y-78888754D01*
X131807072Y-78907060D01*
G37*
G04 #@! TD.AperFunction*
G04 #@! TA.AperFunction,Conductor*
G36*
X131778224Y-64299297D02*
G01*
X131825702Y-64352083D01*
X131838078Y-64406539D01*
X131838078Y-64884754D01*
X131818076Y-64952875D01*
X131764420Y-64999368D01*
X131712078Y-65010754D01*
X131583078Y-65010754D01*
X131514957Y-64990752D01*
X131468464Y-64937096D01*
X131457078Y-64884754D01*
X131457078Y-64408929D01*
X131477080Y-64340808D01*
X131530736Y-64294315D01*
X131580736Y-64282952D01*
X131709749Y-64280562D01*
X131778224Y-64299297D01*
G37*
G04 #@! TD.AperFunction*
G04 #@! TA.AperFunction,Conductor*
G36*
X101439899Y-69270956D02*
G01*
X101486392Y-69324612D01*
X101497778Y-69376954D01*
X101497778Y-70521954D01*
X101477776Y-70590075D01*
X101424120Y-70636568D01*
X101371778Y-70647954D01*
X101115778Y-70647954D01*
X101047657Y-70627952D01*
X101001164Y-70574296D01*
X100989778Y-70521954D01*
X100989778Y-70266954D01*
X100226778Y-70266954D01*
X100158657Y-70246952D01*
X100112164Y-70193296D01*
X100100778Y-70140954D01*
X100100778Y-69865180D01*
X100120780Y-69797059D01*
X100141633Y-69772303D01*
X100674248Y-69284072D01*
X100737979Y-69252786D01*
X100759389Y-69250954D01*
X101371778Y-69250954D01*
X101439899Y-69270956D01*
G37*
G04 #@! TD.AperFunction*
G04 #@! TA.AperFunction,Conductor*
G36*
X101947899Y-73080956D02*
G01*
X101994392Y-73134612D01*
X102005778Y-73186954D01*
X102005778Y-74077954D01*
X101985776Y-74146075D01*
X101932120Y-74192568D01*
X101879778Y-74203954D01*
X100861778Y-74203954D01*
X100793657Y-74183952D01*
X100747164Y-74130296D01*
X100735778Y-74077954D01*
X100735778Y-73948954D01*
X100755780Y-73880833D01*
X100809436Y-73834340D01*
X100861778Y-73822954D01*
X100926278Y-73822954D01*
X100926278Y-73186954D01*
X100946280Y-73118833D01*
X100999936Y-73072340D01*
X101052278Y-73060954D01*
X101879778Y-73060954D01*
X101947899Y-73080956D01*
G37*
G04 #@! TD.AperFunction*
G04 #@! TA.AperFunction,Conductor*
G36*
X110558499Y-69778956D02*
G01*
X110604992Y-69832612D01*
X110616378Y-69884954D01*
X110616378Y-71106154D01*
X110596376Y-71174275D01*
X110542720Y-71220768D01*
X110490378Y-71232154D01*
X109523178Y-71232154D01*
X109455057Y-71212152D01*
X109408564Y-71158496D01*
X109397178Y-71106154D01*
X109397178Y-69884954D01*
X109417180Y-69816833D01*
X109470836Y-69770340D01*
X109523178Y-69758954D01*
X110490378Y-69758954D01*
X110558499Y-69778956D01*
G37*
G04 #@! TD.AperFunction*
G04 #@! TA.AperFunction,Conductor*
G36*
X129228121Y-68126456D02*
G01*
X129274614Y-68180112D01*
X129286000Y-68232454D01*
X129286000Y-69249454D01*
X130303000Y-69249454D01*
X130371121Y-69269456D01*
X130417614Y-69323112D01*
X130429000Y-69375454D01*
X130429000Y-72933454D01*
X130408998Y-73001575D01*
X130355342Y-73048068D01*
X130303000Y-73059454D01*
X129667000Y-73059454D01*
X129667000Y-74838454D01*
X129646998Y-74906575D01*
X129593342Y-74953068D01*
X129541000Y-74964454D01*
X128967500Y-74964454D01*
X128899379Y-74944452D01*
X128852886Y-74890796D01*
X128841500Y-74838454D01*
X128841500Y-74329454D01*
X125095000Y-74329454D01*
X125095000Y-74711454D01*
X125074998Y-74779575D01*
X125021342Y-74826068D01*
X124969000Y-74837454D01*
X123972707Y-74837454D01*
X123904586Y-74817452D01*
X123858093Y-74763796D01*
X123847989Y-74693522D01*
X123863588Y-74648454D01*
X123872346Y-74633282D01*
X123888643Y-74605057D01*
X123907167Y-74500000D01*
X123888643Y-74394943D01*
X123863602Y-74351571D01*
X123846864Y-74282578D01*
X123870084Y-74215486D01*
X123882894Y-74201617D01*
X123885335Y-74197389D01*
X123938643Y-74105057D01*
X123957167Y-74000000D01*
X123956949Y-73998766D01*
X123946983Y-73942243D01*
X123938643Y-73894943D01*
X123885304Y-73802557D01*
X123870009Y-73789723D01*
X123830682Y-73730614D01*
X123825000Y-73693207D01*
X123825000Y-73059454D01*
X122854313Y-73059454D01*
X122786192Y-73039452D01*
X122765217Y-73022548D01*
X122718904Y-72976234D01*
X122684879Y-72913922D01*
X122682000Y-72887140D01*
X122682000Y-69375454D01*
X122702002Y-69307333D01*
X122755658Y-69260840D01*
X122808000Y-69249454D01*
X123698000Y-69249454D01*
X123698000Y-68993014D01*
X123699914Y-68971134D01*
X123707167Y-68929999D01*
X123699914Y-68888864D01*
X123698000Y-68866985D01*
X123698000Y-68232454D01*
X123718002Y-68164333D01*
X123771658Y-68117840D01*
X123824000Y-68106454D01*
X129160000Y-68106454D01*
X129228121Y-68126456D01*
G37*
G04 #@! TD.AperFunction*
G04 #@! TA.AperFunction,Conductor*
G36*
X121596932Y-64487930D02*
G01*
X121644411Y-64540715D01*
X121656776Y-64593612D01*
X121669821Y-65647570D01*
X121650664Y-65715933D01*
X121597588Y-65763086D01*
X121543811Y-65775129D01*
X119828600Y-65774850D01*
X119831963Y-70864965D01*
X119812006Y-70933099D01*
X119758381Y-70979627D01*
X119745146Y-70982510D01*
X119745488Y-70983449D01*
X119624367Y-71027533D01*
X119542644Y-71096105D01*
X119489306Y-71188490D01*
X119470781Y-71293548D01*
X119477379Y-71330965D01*
X119489306Y-71398605D01*
X119542645Y-71490991D01*
X119624365Y-71559562D01*
X119659179Y-71572233D01*
X119716351Y-71614327D01*
X119741690Y-71680648D01*
X119727150Y-71750140D01*
X119725206Y-71753634D01*
X119701357Y-71794942D01*
X119682832Y-71900000D01*
X119701357Y-72005057D01*
X119754695Y-72097442D01*
X119787849Y-72125262D01*
X119827176Y-72184372D01*
X119832858Y-72221701D01*
X119833178Y-72705845D01*
X119813221Y-72773979D01*
X119759596Y-72820507D01*
X119750275Y-72824328D01*
X119748082Y-72825125D01*
X119666359Y-72893698D01*
X119613021Y-72986083D01*
X119594496Y-73091141D01*
X119613021Y-73196198D01*
X119666358Y-73288583D01*
X119748081Y-73357156D01*
X119750782Y-73358139D01*
X119807954Y-73400233D01*
X119833292Y-73466554D01*
X119833688Y-73476457D01*
X119837200Y-78790800D01*
X121424932Y-78780788D01*
X121493176Y-78800360D01*
X121540006Y-78853721D01*
X121551713Y-78905059D01*
X121560921Y-79577302D01*
X121541854Y-79645691D01*
X121488840Y-79692914D01*
X121434179Y-79705026D01*
X117275349Y-79680125D01*
X117207349Y-79659715D01*
X117183943Y-79640048D01*
X117133994Y-79586466D01*
X117102177Y-79523000D01*
X117100162Y-79500142D01*
X117102469Y-78790800D01*
X117119595Y-73524386D01*
X117139818Y-73456333D01*
X117193625Y-73410015D01*
X117244382Y-73398804D01*
X118160000Y-73390000D01*
X118160000Y-72350000D01*
X118046824Y-72236824D01*
X118012801Y-72174515D01*
X118009921Y-72147929D01*
X118000000Y-65525000D01*
X117700392Y-65525000D01*
X117632271Y-65504998D01*
X117585778Y-65451342D01*
X117574392Y-65398908D01*
X117574491Y-65262449D01*
X117574910Y-64685950D01*
X117594962Y-64617847D01*
X117648651Y-64571393D01*
X117697401Y-64560094D01*
X119841421Y-64500450D01*
X121528455Y-64469193D01*
X121596932Y-64487930D01*
G37*
G04 #@! TD.AperFunction*
G04 #@! TA.AperFunction,Conductor*
G36*
X125760106Y-64421137D02*
G01*
X125807605Y-64473905D01*
X125820000Y-64528403D01*
X125820000Y-65388849D01*
X125813742Y-65410571D01*
X125814380Y-65410643D01*
X125808272Y-65464846D01*
X125805907Y-65478767D01*
X125805078Y-65482400D01*
X125805078Y-65486117D01*
X125804286Y-65500225D01*
X125800702Y-65532029D01*
X125805078Y-65557783D01*
X125805078Y-65665742D01*
X125785076Y-65733863D01*
X125731420Y-65780356D01*
X125679343Y-65791742D01*
X121949156Y-65799575D01*
X121880993Y-65779716D01*
X121834388Y-65726158D01*
X121822923Y-65670726D01*
X121847263Y-64595839D01*
X121868802Y-64528191D01*
X121923497Y-64482925D01*
X121970846Y-64472717D01*
X125691621Y-64402425D01*
X125760106Y-64421137D01*
G37*
G04 #@! TD.AperFunction*
G04 #@! TA.AperFunction,Conductor*
G36*
X125662061Y-78520002D02*
G01*
X125708554Y-78573658D01*
X125719940Y-78626060D01*
X125719495Y-79559122D01*
X125699460Y-79627233D01*
X125645783Y-79673701D01*
X125593657Y-79685062D01*
X121885106Y-79689838D01*
X121816960Y-79669924D01*
X121770398Y-79616328D01*
X121758948Y-79564900D01*
X121750000Y-78500000D01*
X123952000Y-78500000D01*
X125593940Y-78500000D01*
X125662061Y-78520002D01*
G37*
G04 #@! TD.AperFunction*
G04 #@! TA.AperFunction,Conductor*
G36*
X114131470Y-66380553D02*
G01*
X114199576Y-66400598D01*
X114246036Y-66454283D01*
X114257389Y-66506784D01*
X114255984Y-67272913D01*
X114235857Y-67340997D01*
X114182116Y-67387391D01*
X114129900Y-67398682D01*
X97293012Y-67387499D01*
X97293012Y-67387500D01*
X97293012Y-76468000D01*
X114566012Y-76468000D01*
X114634133Y-76488002D01*
X114680626Y-76541658D01*
X114692012Y-76594000D01*
X114692012Y-77104000D01*
X114672010Y-77172121D01*
X114618354Y-77218614D01*
X114566012Y-77230000D01*
X114114760Y-77230000D01*
X114071992Y-77222519D01*
X114067571Y-77220923D01*
X114057298Y-77219986D01*
X114055733Y-77220400D01*
X114023931Y-77224572D01*
X112087347Y-77230000D01*
X96462088Y-77230000D01*
X96393967Y-77209998D01*
X96347474Y-77156342D01*
X96336168Y-77108502D01*
X96285580Y-75693598D01*
X96285500Y-75689096D01*
X96285500Y-73405529D01*
X96287414Y-73383648D01*
X96289122Y-73373955D01*
X96289124Y-73373952D01*
X96287414Y-73364253D01*
X96285871Y-73346620D01*
X96281290Y-73329522D01*
X96279581Y-73319829D01*
X96279581Y-73319828D01*
X96279579Y-73319827D01*
X96276062Y-73313735D01*
X96271549Y-73308355D01*
X96263016Y-73303429D01*
X96245025Y-73290831D01*
X96237479Y-73284499D01*
X96230881Y-73282097D01*
X96223952Y-73280875D01*
X96214254Y-73282586D01*
X96192375Y-73284500D01*
X94428055Y-73284500D01*
X94359934Y-73264498D01*
X94313441Y-73210842D01*
X94302068Y-73156683D01*
X94338959Y-70599183D01*
X94359942Y-70531358D01*
X94414262Y-70485643D01*
X94464946Y-70475000D01*
X96309249Y-70475000D01*
X96309250Y-70475000D01*
X96309521Y-70441369D01*
X96322067Y-70399881D01*
X96317899Y-70398365D01*
X96325496Y-70377483D01*
X96325500Y-70377480D01*
X96325499Y-70377474D01*
X96327901Y-70370876D01*
X96329121Y-70363955D01*
X96329124Y-70363952D01*
X96327414Y-70354252D01*
X96325500Y-70332375D01*
X96325500Y-68461159D01*
X96341321Y-66500483D01*
X96361872Y-66432526D01*
X96415901Y-66386468D01*
X96467317Y-66375500D01*
X106095102Y-66375500D01*
X114131470Y-66380553D01*
G37*
G04 #@! TD.AperFunction*
G04 #@! TA.AperFunction,Conductor*
G36*
X114100596Y-69350001D02*
G01*
X114147089Y-69403657D01*
X114158466Y-69457514D01*
X114145690Y-70520000D01*
X114145691Y-70520000D01*
X114100000Y-74320000D01*
X113305496Y-74320000D01*
X113237375Y-74299998D01*
X113190882Y-74246342D01*
X113179497Y-74194505D01*
X113160507Y-69456498D01*
X113180235Y-69388302D01*
X113233704Y-69341594D01*
X113286491Y-69330000D01*
X114032478Y-69330000D01*
X114100596Y-69350001D01*
G37*
G04 #@! TD.AperFunction*
G04 #@! TA.AperFunction,Conductor*
G36*
X99407899Y-70667956D02*
G01*
X99454392Y-70721612D01*
X99465778Y-70773953D01*
X99465778Y-70901954D01*
X100228778Y-70901954D01*
X100296899Y-70921956D01*
X100343392Y-70975612D01*
X100354778Y-71027954D01*
X100354778Y-73061954D01*
X100334776Y-73130075D01*
X100281120Y-73176568D01*
X100228778Y-73187954D01*
X97940778Y-73187954D01*
X97872657Y-73167952D01*
X97826164Y-73114296D01*
X97814778Y-73061954D01*
X97814778Y-70773954D01*
X97834780Y-70705833D01*
X97888436Y-70659340D01*
X97940778Y-70647954D01*
X99339778Y-70647954D01*
X99407899Y-70667956D01*
G37*
G04 #@! TD.AperFunction*
G04 #@! TA.AperFunction,Conductor*
G36*
X117060886Y-66280376D02*
G01*
X117107717Y-66333736D01*
X117119436Y-66387361D01*
X117110550Y-68395630D01*
X117090246Y-68463661D01*
X117036386Y-68509916D01*
X116985632Y-68521067D01*
X114780000Y-68539999D01*
X114347387Y-69138294D01*
X114291263Y-69181776D01*
X114246196Y-69190462D01*
X113055637Y-69199089D01*
X112987373Y-69179581D01*
X112940493Y-69126263D01*
X112928731Y-69074369D01*
X112920000Y-68210000D01*
X112919999Y-68210000D01*
X112919999Y-68209999D01*
X111000000Y-68219999D01*
X110999999Y-68219999D01*
X110999330Y-68864486D01*
X110979257Y-68932586D01*
X110925553Y-68979023D01*
X110873086Y-68990355D01*
X109117778Y-68986954D01*
X109117778Y-70892954D01*
X109097776Y-70961075D01*
X109044120Y-71007568D01*
X108991778Y-71018954D01*
X108038278Y-71018954D01*
X107350000Y-71700000D01*
X107349999Y-71700000D01*
X107350000Y-73025524D01*
X107329998Y-73093645D01*
X107276342Y-73140138D01*
X107225534Y-73151515D01*
X105181312Y-73176401D01*
X105112953Y-73157229D01*
X105065810Y-73104144D01*
X105053778Y-73050410D01*
X105053778Y-71017954D01*
X105073780Y-70949833D01*
X105127436Y-70903340D01*
X105179778Y-70891954D01*
X106323778Y-70891954D01*
X106323778Y-69493954D01*
X106343780Y-69425833D01*
X106397436Y-69379340D01*
X106449778Y-69367954D01*
X108228778Y-69367954D01*
X108228778Y-67687080D01*
X108248780Y-67618959D01*
X108302436Y-67572466D01*
X108355378Y-67561081D01*
X114312700Y-67589523D01*
X115502947Y-66309837D01*
X115563984Y-66273581D01*
X115594402Y-66269655D01*
X116992640Y-66260806D01*
X117060886Y-66280376D01*
G37*
G04 #@! TD.AperFunction*
G04 #@! TA.AperFunction,Conductor*
G36*
X156338094Y-68999008D02*
G01*
X156406197Y-69019059D01*
X156452651Y-69072749D01*
X156464000Y-69125008D01*
X156464000Y-70397008D01*
X156443998Y-70465129D01*
X156390342Y-70511622D01*
X156337909Y-70523008D01*
X152305909Y-70520091D01*
X152237803Y-70500040D01*
X152191349Y-70446350D01*
X152180000Y-70394091D01*
X152180000Y-69122091D01*
X152200002Y-69053970D01*
X152253658Y-69007477D01*
X152306089Y-68996091D01*
X156338094Y-68999008D01*
G37*
G04 #@! TD.AperFunction*
G04 #@! TA.AperFunction,Conductor*
G36*
X156262164Y-70713435D02*
G01*
X156330255Y-70733526D01*
X156376678Y-70787242D01*
X156387996Y-70839238D01*
X156389803Y-71993803D01*
X156369907Y-72061955D01*
X156316325Y-72108532D01*
X156263803Y-72120000D01*
X151426000Y-72120000D01*
X151357879Y-72099998D01*
X151311386Y-72046342D01*
X151300000Y-71994000D01*
X151300000Y-70833118D01*
X151320002Y-70764997D01*
X151373658Y-70718504D01*
X151426161Y-70707118D01*
X156262164Y-70713435D01*
G37*
G04 #@! TD.AperFunction*
G04 #@! TA.AperFunction,Conductor*
G36*
X132457305Y-66550002D02*
G01*
X132503798Y-66603658D01*
X132508718Y-66616155D01*
X132636295Y-66998886D01*
X132638861Y-67069837D01*
X132602661Y-67130911D01*
X132539189Y-67162719D01*
X132520235Y-67164683D01*
X131522689Y-67192201D01*
X131454043Y-67174085D01*
X131406088Y-67121732D01*
X131394050Y-67051763D01*
X131421751Y-66986394D01*
X131423173Y-66984690D01*
X131772265Y-66574354D01*
X131831641Y-66535431D01*
X131868234Y-66530000D01*
X132389184Y-66530000D01*
X132457305Y-66550002D01*
G37*
G04 #@! TD.AperFunction*
G04 #@! TA.AperFunction,Conductor*
G36*
X115003813Y-70540002D02*
G01*
X115050306Y-70593658D01*
X115061680Y-70644298D01*
X115079999Y-71999997D01*
X115079999Y-71999998D01*
X115080000Y-72000000D01*
X115260000Y-72160000D01*
X117435763Y-72179164D01*
X117503705Y-72199765D01*
X117549723Y-72253828D01*
X117559208Y-72324188D01*
X117534168Y-72382442D01*
X117153943Y-72872045D01*
X117120666Y-72901947D01*
X115360000Y-73989999D01*
X115360000Y-74564000D01*
X115339998Y-74632121D01*
X115286342Y-74678614D01*
X115234000Y-74690000D01*
X114554564Y-74690000D01*
X114486443Y-74669998D01*
X114475345Y-74661981D01*
X114052368Y-74320000D01*
X114040000Y-74310000D01*
X114010000Y-70520000D01*
X114145690Y-70520000D01*
X114935692Y-70520000D01*
X115003813Y-70540002D01*
G37*
G04 #@! TD.AperFunction*
G04 #@! TA.AperFunction,Conductor*
G36*
X117464575Y-69580002D02*
G01*
X117511068Y-69633658D01*
X117512518Y-69636959D01*
X117770064Y-70246484D01*
X117780000Y-70295525D01*
X117780000Y-70904000D01*
X117759998Y-70972121D01*
X117706342Y-71018614D01*
X117654000Y-71030000D01*
X116649999Y-71030000D01*
X115876633Y-71965677D01*
X115817817Y-72005441D01*
X115782512Y-72011368D01*
X115548998Y-72016928D01*
X115480421Y-71998553D01*
X115432664Y-71946020D01*
X115420000Y-71890968D01*
X115420000Y-70460000D01*
X115419999Y-70459999D01*
X115419999Y-70459998D01*
X115230001Y-70270000D01*
X115230000Y-70270000D01*
X114999392Y-70270000D01*
X114931271Y-70249998D01*
X114884778Y-70196342D01*
X114876856Y-70173340D01*
X114767194Y-69715340D01*
X114770784Y-69644434D01*
X114812138Y-69586725D01*
X114878128Y-69560535D01*
X114889730Y-69560000D01*
X117396454Y-69560000D01*
X117464575Y-69580002D01*
G37*
G04 #@! TD.AperFunction*
M02*
