EESchema Schematic File Version 2
LIBS:power
LIBS:device
LIBS:switches
LIBS:relays
LIBS:motors
LIBS:transistors
LIBS:conn
LIBS:linear
LIBS:regul
LIBS:74xx
LIBS:cmos4000
LIBS:adc-dac
LIBS:memory
LIBS:xilinx
LIBS:microcontrollers
LIBS:dsp
LIBS:microchip
LIBS:analog_switches
LIBS:motorola
LIBS:texas
LIBS:intel
LIBS:audio
LIBS:interface
LIBS:digital-audio
LIBS:philips
LIBS:display
LIBS:cypress
LIBS:siliconi
LIBS:opto
LIBS:atmel
LIBS:contrib
LIBS:valves
LIBS:pbv3
EELAYER 25 0
EELAYER END
$Descr A4 11693 8268
encoding utf-8
Sheet 1 1
Title ""
Date ""
Rev ""
Comp ""
Comment1 ""
Comment2 ""
Comment3 ""
Comment4 ""
$EndDescr
$Comp
L Conn_02x10_Odd_Even J101
U 1 1 5B3DCE44
P 3150 3800
F 0 "J101" H 3200 4300 50  0000 C CNN
F 1 "Conn_02x10_Odd_Even" H 3200 3200 50  0000 C CNN
F 2 "Pin_Headers:Pin_Header_Straight_2x10_Pitch2.54mm_SMD" H 3150 3800 50  0001 C CNN
F 3 "" H 3150 3800 50  0001 C CNN
	1    3150 3800
	1    0    0    -1  
$EndComp
$Comp
L Conn_02x10_Odd_Even J125
U 1 1 5B3DCF32
P 5600 1850
F 0 "J125" H 5650 2350 50  0000 C CNN
F 1 "Conn_02x10_Odd_Even" H 5650 1250 50  0000 C CNN
F 2 "Pin_Headers:Pin_Header_Straight_2x10_Pitch2.54mm_SMD" H 5600 1850 50  0001 C CNN
F 3 "" H 5600 1850 50  0001 C CNN
	1    5600 1850
	0    1    1    0   
$EndComp
$Comp
L Conn_02x10_Odd_Even J128
U 1 1 5B3DCFC1
P 5700 5750
F 0 "J128" H 5750 6250 50  0000 C CNN
F 1 "Conn_02x10_Odd_Even" H 5750 5150 50  0000 C CNN
F 2 "Pin_Headers:Pin_Header_Straight_2x10_Pitch2.54mm_SMD" H 5700 5750 50  0001 C CNN
F 3 "" H 5700 5750 50  0001 C CNN
	1    5700 5750
	0    1    1    0   
$EndComp
$Comp
L BondPad J102
U 1 1 5B3DD0EB
P 3900 3150
F 0 "J102" H 3900 3250 60  0000 C CNN
F 1 "BondPad" H 3900 3050 60  0000 C CNN
F 2 "pbv3:pad" H 3900 3150 60  0001 C CNN
F 3 "" H 3900 3150 60  0001 C CNN
	1    3900 3150
	-1   0    0    1   
$EndComp
$Comp
L BondPad J103
U 1 1 5B3DD1DA
P 3900 3400
F 0 "J103" H 3900 3500 60  0000 C CNN
F 1 "BondPad" H 3900 3300 60  0000 C CNN
F 2 "pbv3:pad" H 3900 3400 60  0001 C CNN
F 3 "" H 3900 3400 60  0001 C CNN
	1    3900 3400
	-1   0    0    1   
$EndComp
$Comp
L BondPad J105
U 1 1 5B3DD205
P 3900 3850
F 0 "J105" H 3900 3950 60  0000 C CNN
F 1 "BondPad" H 3900 3750 60  0000 C CNN
F 2 "pbv3:pad" H 3900 3850 60  0001 C CNN
F 3 "" H 3900 3850 60  0001 C CNN
	1    3900 3850
	-1   0    0    1   
$EndComp
$Comp
L BondPad J104
U 1 1 5B3DD237
P 3900 3650
F 0 "J104" H 3900 3750 60  0000 C CNN
F 1 "BondPad" H 3900 3550 60  0000 C CNN
F 2 "pbv3:pad" H 3900 3650 60  0001 C CNN
F 3 "" H 3900 3650 60  0001 C CNN
	1    3900 3650
	-1   0    0    1   
$EndComp
$Comp
L BondPad J106
U 1 1 5B3DD28D
P 3900 4050
F 0 "J106" H 3900 4150 60  0000 C CNN
F 1 "BondPad" H 3900 3950 60  0000 C CNN
F 2 "pbv3:pad" H 3900 4050 60  0001 C CNN
F 3 "" H 3900 4050 60  0001 C CNN
	1    3900 4050
	-1   0    0    1   
$EndComp
$Comp
L BondPad J111
U 1 1 5B3DD2C7
P 4000 4100
F 0 "J111" H 4000 4200 60  0000 C CNN
F 1 "BondPad" H 4000 4000 60  0000 C CNN
F 2 "pbv3:pad" H 4000 4100 60  0001 C CNN
F 3 "" H 4000 4100 60  0001 C CNN
	1    4000 4100
	-1   0    0    1   
$EndComp
$Comp
L BondPad J107
U 1 1 5B3DD2F4
P 3900 4150
F 0 "J107" H 3900 4250 60  0000 C CNN
F 1 "BondPad" H 3900 4050 60  0000 C CNN
F 2 "pbv3:pad" H 3900 4150 60  0001 C CNN
F 3 "" H 3900 4150 60  0001 C CNN
	1    3900 4150
	-1   0    0    1   
$EndComp
$Comp
L BondPad J112
U 1 1 5B3DD336
P 4000 4200
F 0 "J112" H 4000 4300 60  0000 C CNN
F 1 "BondPad" H 4000 4100 60  0000 C CNN
F 2 "pbv3:pad" H 4000 4200 60  0001 C CNN
F 3 "" H 4000 4200 60  0001 C CNN
	1    4000 4200
	-1   0    0    1   
$EndComp
$Comp
L BondPad J108
U 1 1 5B3DD382
P 3900 4350
F 0 "J108" H 3900 4450 60  0000 C CNN
F 1 "BondPad" H 3900 4250 60  0000 C CNN
F 2 "pbv3:pad" H 3900 4350 60  0001 C CNN
F 3 "" H 3900 4350 60  0001 C CNN
	1    3900 4350
	-1   0    0    1   
$EndComp
$Comp
L BondPad J109
U 1 1 5B3DD3BC
P 3900 4500
F 0 "J109" H 3900 4600 60  0000 C CNN
F 1 "BondPad" H 3900 4400 60  0000 C CNN
F 2 "pbv3:pad" H 3900 4500 60  0001 C CNN
F 3 "" H 3900 4500 60  0001 C CNN
	1    3900 4500
	-1   0    0    1   
$EndComp
$Comp
L BondPad J110
U 1 1 5B3DD40E
P 3900 4600
F 0 "J110" H 3900 4700 60  0000 C CNN
F 1 "BondPad" H 3900 4500 60  0000 C CNN
F 2 "pbv3:pad" H 3900 4600 60  0001 C CNN
F 3 "" H 3900 4600 60  0001 C CNN
	1    3900 4600
	-1   0    0    1   
$EndComp
$Comp
L BondPad J113
U 1 1 5B3DD45A
P 4500 4500
F 0 "J113" H 4500 4600 60  0000 C CNN
F 1 "BondPad" H 4500 4400 60  0000 C CNN
F 2 "pbv3:pad" H 4500 4500 60  0001 C CNN
F 3 "" H 4500 4500 60  0001 C CNN
	1    4500 4500
	0    1    1    0   
$EndComp
$Comp
L BondPad J114
U 1 1 5B3DD6A6
P 4700 4500
F 0 "J114" H 4700 4600 60  0000 C CNN
F 1 "BondPad" H 4700 4400 60  0000 C CNN
F 2 "pbv3:pad" H 4700 4500 60  0001 C CNN
F 3 "" H 4700 4500 60  0001 C CNN
	1    4700 4500
	0    1    1    0   
$EndComp
$Comp
L BondPad J116
U 1 1 5B3DD706
P 4850 4500
F 0 "J116" H 4850 4600 60  0000 C CNN
F 1 "BondPad" H 4850 4400 60  0000 C CNN
F 2 "pbv3:pad" H 4850 4500 60  0001 C CNN
F 3 "" H 4850 4500 60  0001 C CNN
	1    4850 4500
	0    1    1    0   
$EndComp
$Comp
L BondPad J118
U 1 1 5B3DD74B
P 5250 4500
F 0 "J118" H 5250 4600 60  0000 C CNN
F 1 "BondPad" H 5250 4400 60  0000 C CNN
F 2 "pbv3:pad" H 5250 4500 60  0001 C CNN
F 3 "" H 5250 4500 60  0001 C CNN
	1    5250 4500
	0    1    1    0   
$EndComp
$Comp
L BondPad J120
U 1 1 5B3DD799
P 5350 4500
F 0 "J120" H 5350 4600 60  0000 C CNN
F 1 "BondPad" H 5350 4400 60  0000 C CNN
F 2 "pbv3:pad" H 5350 4500 60  0001 C CNN
F 3 "" H 5350 4500 60  0001 C CNN
	1    5350 4500
	0    1    1    0   
$EndComp
$Comp
L BondPad J122
U 1 1 5B3DD7F5
P 5450 4500
F 0 "J122" H 5450 4600 60  0000 C CNN
F 1 "BondPad" H 5450 4400 60  0000 C CNN
F 2 "pbv3:pad" H 5450 4500 60  0001 C CNN
F 3 "" H 5450 4500 60  0001 C CNN
	1    5450 4500
	0    1    1    0   
$EndComp
$Comp
L BondPad J124
U 1 1 5B3DD875
P 5550 4500
F 0 "J124" H 5550 4600 60  0000 C CNN
F 1 "BondPad" H 5550 4400 60  0000 C CNN
F 2 "pbv3:pad" H 5550 4500 60  0001 C CNN
F 3 "" H 5550 4500 60  0001 C CNN
	1    5550 4500
	0    1    1    0   
$EndComp
$Comp
L BondPad J127
U 1 1 5B3DD8E7
P 5650 4500
F 0 "J127" H 5650 4600 60  0000 C CNN
F 1 "BondPad" H 5650 4400 60  0000 C CNN
F 2 "pbv3:pad" H 5650 4500 60  0001 C CNN
F 3 "" H 5650 4500 60  0001 C CNN
	1    5650 4500
	0    1    1    0   
$EndComp
$Comp
L BondPad J130
U 1 1 5B3DD95F
P 5750 4500
F 0 "J130" H 5750 4600 60  0000 C CNN
F 1 "BondPad" H 5750 4400 60  0000 C CNN
F 2 "pbv3:pad" H 5750 4500 60  0001 C CNN
F 3 "" H 5750 4500 60  0001 C CNN
	1    5750 4500
	0    1    1    0   
$EndComp
$Comp
L BondPad J132
U 1 1 5B3DD9D3
P 5850 4500
F 0 "J132" H 5850 4600 60  0000 C CNN
F 1 "BondPad" H 5850 4400 60  0000 C CNN
F 2 "pbv3:pad" H 5850 4500 60  0001 C CNN
F 3 "" H 5850 4500 60  0001 C CNN
	1    5850 4500
	0    1    1    0   
$EndComp
$Comp
L BondPad J134
U 1 1 5B3DDA4B
P 5950 4500
F 0 "J134" H 5950 4600 60  0000 C CNN
F 1 "BondPad" H 5950 4400 60  0000 C CNN
F 2 "pbv3:pad" H 5950 4500 60  0001 C CNN
F 3 "" H 5950 4500 60  0001 C CNN
	1    5950 4500
	0    1    1    0   
$EndComp
$Comp
L BondPad J136
U 1 1 5B3DDAC3
P 6050 4500
F 0 "J136" H 6050 4600 60  0000 C CNN
F 1 "BondPad" H 6050 4400 60  0000 C CNN
F 2 "pbv3:pad" H 6050 4500 60  0001 C CNN
F 3 "" H 6050 4500 60  0001 C CNN
	1    6050 4500
	0    1    1    0   
$EndComp
$Comp
L BondPad J138
U 1 1 5B3DDB43
P 6150 4500
F 0 "J138" H 6150 4600 60  0000 C CNN
F 1 "BondPad" H 6150 4400 60  0000 C CNN
F 2 "pbv3:pad" H 6150 4500 60  0001 C CNN
F 3 "" H 6150 4500 60  0001 C CNN
	1    6150 4500
	0    1    1    0   
$EndComp
$Comp
L BondPad J139
U 1 1 5B3DDBD3
P 6450 4500
F 0 "J139" H 6450 4600 60  0000 C CNN
F 1 "BondPad" H 6450 4400 60  0000 C CNN
F 2 "pbv3:pad" H 6450 4500 60  0001 C CNN
F 3 "" H 6450 4500 60  0001 C CNN
	1    6450 4500
	0    1    1    0   
$EndComp
$Comp
L BondPad J141
U 1 1 5B3DDC43
P 6650 4500
F 0 "J141" H 6650 4600 60  0000 C CNN
F 1 "BondPad" H 6650 4400 60  0000 C CNN
F 2 "pbv3:pad" H 6650 4500 60  0001 C CNN
F 3 "" H 6650 4500 60  0001 C CNN
	1    6650 4500
	0    1    1    0   
$EndComp
$Comp
L BondPad J142
U 1 1 5B3DF54D
P 6750 3250
F 0 "J142" H 6750 3350 60  0000 C CNN
F 1 "BondPad" H 6750 3150 60  0000 C CNN
F 2 "pbv3:pad" H 6750 3250 60  0001 C CNN
F 3 "" H 6750 3250 60  0001 C CNN
	1    6750 3250
	0    -1   -1   0   
$EndComp
$Comp
L BondPad J140
U 1 1 5B3DF5E1
P 6550 3250
F 0 "J140" H 6550 3350 60  0000 C CNN
F 1 "BondPad" H 6550 3150 60  0000 C CNN
F 2 "pbv3:pad" H 6550 3250 60  0001 C CNN
F 3 "" H 6550 3250 60  0001 C CNN
	1    6550 3250
	0    -1   -1   0   
$EndComp
$Comp
L BondPad J137
U 1 1 5B3DF652
P 6150 3250
F 0 "J137" H 6150 3350 60  0000 C CNN
F 1 "BondPad" H 6150 3150 60  0000 C CNN
F 2 "pbv3:pad" H 6150 3250 60  0001 C CNN
F 3 "" H 6150 3250 60  0001 C CNN
	1    6150 3250
	0    -1   -1   0   
$EndComp
$Comp
L BondPad J135
U 1 1 5B3DF6D2
P 6050 3250
F 0 "J135" H 6050 3350 60  0000 C CNN
F 1 "BondPad" H 6050 3150 60  0000 C CNN
F 2 "pbv3:pad" H 6050 3250 60  0001 C CNN
F 3 "" H 6050 3250 60  0001 C CNN
	1    6050 3250
	0    -1   -1   0   
$EndComp
$Comp
L BondPad J133
U 1 1 5B3DF76A
P 5950 3250
F 0 "J133" H 5950 3350 60  0000 C CNN
F 1 "BondPad" H 5950 3150 60  0000 C CNN
F 2 "pbv3:pad" H 5950 3250 60  0001 C CNN
F 3 "" H 5950 3250 60  0001 C CNN
	1    5950 3250
	0    -1   -1   0   
$EndComp
$Comp
L BondPad J131
U 1 1 5B3DF81A
P 5850 3250
F 0 "J131" H 5850 3350 60  0000 C CNN
F 1 "BondPad" H 5850 3150 60  0000 C CNN
F 2 "pbv3:pad" H 5850 3250 60  0001 C CNN
F 3 "" H 5850 3250 60  0001 C CNN
	1    5850 3250
	0    -1   -1   0   
$EndComp
$Comp
L BondPad J129
U 1 1 5B3DF8C6
P 5750 3250
F 0 "J129" H 5750 3350 60  0000 C CNN
F 1 "BondPad" H 5750 3150 60  0000 C CNN
F 2 "pbv3:pad" H 5750 3250 60  0001 C CNN
F 3 "" H 5750 3250 60  0001 C CNN
	1    5750 3250
	0    -1   -1   0   
$EndComp
$Comp
L BondPad J126
U 1 1 5B3DFA0E
P 5650 3250
F 0 "J126" H 5650 3350 60  0000 C CNN
F 1 "BondPad" H 5650 3150 60  0000 C CNN
F 2 "pbv3:pad" H 5650 3250 60  0001 C CNN
F 3 "" H 5650 3250 60  0001 C CNN
	1    5650 3250
	0    -1   -1   0   
$EndComp
$Comp
L BondPad J123
U 1 1 5B3DFAB8
P 5550 3250
F 0 "J123" H 5550 3350 60  0000 C CNN
F 1 "BondPad" H 5550 3150 60  0000 C CNN
F 2 "pbv3:pad" H 5550 3250 60  0001 C CNN
F 3 "" H 5550 3250 60  0001 C CNN
	1    5550 3250
	0    -1   -1   0   
$EndComp
$Comp
L BondPad J121
U 1 1 5B3DFB6A
P 5450 3250
F 0 "J121" H 5450 3350 60  0000 C CNN
F 1 "BondPad" H 5450 3150 60  0000 C CNN
F 2 "pbv3:pad" H 5450 3250 60  0001 C CNN
F 3 "" H 5450 3250 60  0001 C CNN
	1    5450 3250
	0    -1   -1   0   
$EndComp
$Comp
L BondPad J119
U 1 1 5B3DFC78
P 5350 3250
F 0 "J119" H 5350 3350 60  0000 C CNN
F 1 "BondPad" H 5350 3150 60  0000 C CNN
F 2 "pbv3:pad" H 5350 3250 60  0001 C CNN
F 3 "" H 5350 3250 60  0001 C CNN
	1    5350 3250
	0    -1   -1   0   
$EndComp
$Comp
L BondPad J117
U 1 1 5B3DFD2C
P 5250 3250
F 0 "J117" H 5250 3350 60  0000 C CNN
F 1 "BondPad" H 5250 3150 60  0000 C CNN
F 2 "pbv3:pad" H 5250 3250 60  0001 C CNN
F 3 "" H 5250 3250 60  0001 C CNN
	1    5250 3250
	0    -1   -1   0   
$EndComp
$Comp
L BondPad J115
U 1 1 5B3DFDE4
P 4850 3250
F 0 "J115" H 4850 3350 60  0000 C CNN
F 1 "BondPad" H 4850 3150 60  0000 C CNN
F 2 "pbv3:pad" H 4850 3250 60  0001 C CNN
F 3 "" H 4850 3250 60  0001 C CNN
	1    4850 3250
	0    -1   -1   0   
$EndComp
Wire Wire Line
	3650 3150 2950 3150
Wire Wire Line
	2950 3150 2950 3400
Wire Wire Line
	3450 3600 3550 3600
Wire Wire Line
	3550 3600 3550 3400
Wire Wire Line
	3550 3400 3650 3400
Wire Wire Line
	3650 3650 3550 3650
Wire Wire Line
	3550 3650 3550 3800
Wire Wire Line
	3550 3800 2950 3800
Connection ~ 3450 3800
Wire Wire Line
	2950 3900 3650 3900
Wire Wire Line
	3650 3900 3650 3850
Connection ~ 3450 3900
Wire Wire Line
	3650 4050 3650 4000
Wire Wire Line
	3650 4000 3450 4000
Wire Wire Line
	3750 4100 3600 4100
Wire Wire Line
	3600 4100 3600 4050
Wire Wire Line
	3600 4050 2950 4050
Wire Wire Line
	2950 4050 2950 4000
Wire Wire Line
	3650 4150 3550 4150
Wire Wire Line
	3550 4150 3550 4100
Wire Wire Line
	3550 4100 3450 4100
Wire Wire Line
	3750 4200 3500 4200
Wire Wire Line
	3500 4200 3500 4150
Wire Wire Line
	3500 4150 2950 4150
Wire Wire Line
	2950 4150 2950 4100
Wire Wire Line
	3650 4350 3650 4250
Wire Wire Line
	3650 4250 3450 4250
Wire Wire Line
	3450 4250 3450 4200
Wire Wire Line
	3650 4500 3650 4400
Wire Wire Line
	3650 4400 3200 4400
Wire Wire Line
	3200 4400 3200 4200
Wire Wire Line
	3200 4200 2950 4200
Wire Wire Line
	3650 4600 3450 4600
Wire Wire Line
	3450 4600 3450 4300
Wire Wire Line
	4500 4750 2950 4750
Wire Wire Line
	2950 4750 2950 4300
Wire Wire Line
	4700 4750 4700 6050
Wire Wire Line
	4700 6050 5200 6050
Wire Wire Line
	4850 4750 4850 5550
Wire Wire Line
	4850 5550 5200 5550
Wire Wire Line
	5250 4750 5250 6050
Wire Wire Line
	5250 6050 5300 6050
Wire Wire Line
	5350 4750 5350 4800
Wire Wire Line
	5350 4800 5300 4800
Wire Wire Line
	5300 4800 5300 5550
Wire Wire Line
	5400 6050 5350 6050
Wire Wire Line
	5350 6050 5350 4850
Wire Wire Line
	5350 4850 5450 4850
Wire Wire Line
	5450 4850 5450 4750
Wire Wire Line
	5400 5550 5400 4900
Wire Wire Line
	5400 4900 5550 4900
Wire Wire Line
	5550 4900 5550 4750
Wire Wire Line
	5500 6050 5450 6050
Wire Wire Line
	5450 6050 5450 4950
Wire Wire Line
	5450 4950 5650 4950
Wire Wire Line
	5650 4950 5650 4750
Wire Wire Line
	5500 5550 5500 5000
Wire Wire Line
	5500 5000 5750 5000
Wire Wire Line
	5750 5000 5750 4750
Wire Wire Line
	5600 6050 5550 6050
Wire Wire Line
	5550 6050 5550 5050
Wire Wire Line
	5550 5050 5850 5050
Wire Wire Line
	5850 5050 5850 4750
Wire Wire Line
	5600 5550 5600 5100
Wire Wire Line
	5600 5100 5950 5100
Wire Wire Line
	5950 5100 5950 4750
Wire Wire Line
	5700 6050 5650 6050
Wire Wire Line
	5650 6050 5650 5150
Wire Wire Line
	5650 5150 6050 5150
Wire Wire Line
	6050 5150 6050 4750
Wire Wire Line
	5700 5550 5700 5200
Wire Wire Line
	5700 5200 6150 5200
Wire Wire Line
	6150 5200 6150 4750
Wire Wire Line
	5800 5300 5800 6050
Wire Wire Line
	5800 5300 6450 5300
Wire Wire Line
	6450 5300 6450 4750
Connection ~ 5800 5550
Wire Wire Line
	5800 5550 5900 5550
Wire Wire Line
	5800 6050 5900 6050
Connection ~ 5800 6050
Wire Wire Line
	6000 5400 6000 6050
Wire Wire Line
	6000 5400 6650 5400
Wire Wire Line
	6650 5400 6650 4750
Connection ~ 6000 5550
Wire Wire Line
	6000 6050 6100 6050
Wire Wire Line
	6000 5550 6100 5550
Connection ~ 6000 6050
Wire Wire Line
	4850 2150 4850 3000
Wire Wire Line
	4850 2150 5100 2150
Wire Wire Line
	5250 3000 5150 3000
Wire Wire Line
	5150 3000 5150 1650
Wire Wire Line
	5150 1650 5200 1650
Wire Wire Line
	5200 2150 5200 2950
Wire Wire Line
	5200 2950 5350 2950
Wire Wire Line
	5350 2950 5350 3000
Wire Wire Line
	5450 3000 5450 2900
Wire Wire Line
	5450 2900 5250 2900
Wire Wire Line
	5250 2900 5250 1650
Wire Wire Line
	5250 1650 5300 1650
Wire Wire Line
	5300 2150 5300 2850
Wire Wire Line
	5300 2850 5550 2850
Wire Wire Line
	5550 2850 5550 3000
Wire Wire Line
	5650 3000 5650 2800
Wire Wire Line
	5650 2800 5350 2800
Wire Wire Line
	5350 2800 5350 1650
Wire Wire Line
	5350 1650 5400 1650
Wire Wire Line
	5400 2150 5400 2750
Wire Wire Line
	5400 2750 5750 2750
Wire Wire Line
	5750 2750 5750 3000
Wire Wire Line
	5850 3000 5850 2700
Wire Wire Line
	5850 2700 5450 2700
Wire Wire Line
	5450 2700 5450 1650
Wire Wire Line
	5450 1650 5500 1650
Wire Wire Line
	5500 2150 5500 2650
Wire Wire Line
	5500 2650 5950 2650
Wire Wire Line
	5950 2650 5950 3000
Wire Wire Line
	6050 3000 6050 2600
Wire Wire Line
	6050 2600 5550 2600
Wire Wire Line
	5550 2600 5550 1650
Wire Wire Line
	5550 1650 5600 1650
Wire Wire Line
	5600 2150 5600 2550
Wire Wire Line
	5600 2550 6150 2550
Wire Wire Line
	6150 2550 6150 3000
Wire Wire Line
	5700 1650 5800 1650
Wire Wire Line
	5800 1650 5800 2450
Wire Wire Line
	5800 2450 6550 2450
Wire Wire Line
	6550 2450 6550 3000
Connection ~ 5800 2150
Wire Wire Line
	6750 3000 6750 2350
Wire Wire Line
	6750 2350 5900 2350
Wire Wire Line
	5900 2350 5900 1650
Connection ~ 5900 2150
Wire Wire Line
	5900 1650 6000 1650
Wire Wire Line
	6000 2150 5900 2150
Wire Wire Line
	5800 2150 5700 2150
Connection ~ 5800 1650
Connection ~ 5900 1650
$EndSCHEMATC
